<mxfile host="Electron" modified="2023-06-20T11:19:09.838Z" agent="Mozilla/5.0 (Macintosh; Intel Mac OS X 10_15_7) AppleWebKit/537.36 (KHTML, like Gecko) draw.io/21.4.0 Chrome/112.0.5615.204 Electron/24.5.1 Safari/537.36" etag="GiroJV22yEcyRdyLy3bw" version="21.4.0" type="device">
  <diagram name="Page-1" id="I5VOnl_4w3VtNqtU7y7t">
    <mxGraphModel dx="636" dy="455" grid="1" gridSize="10" guides="1" tooltips="1" connect="1" arrows="1" fold="1" page="1" pageScale="1" pageWidth="827" pageHeight="1169" math="0" shadow="0">
      <root>
        <mxCell id="0" />
        <mxCell id="1" parent="0" />
        <mxCell id="BUDjBCq1fqL0kmSHY49m-12" value="&lt;b&gt;&lt;font style=&quot;font-size: 18px;&quot;&gt;DÉBUT&lt;/font&gt;&lt;/b&gt;" style="rounded=1;whiteSpace=wrap;html=1;labelBorderColor=none;labelBackgroundColor=none;fontColor=#FFFFFF;gradientColor=none;fillColor=#000000;" vertex="1" parent="1">
          <mxGeometry x="10" y="360" width="80" height="40" as="geometry" />
        </mxCell>
        <mxCell id="BUDjBCq1fqL0kmSHY49m-13" value="&lt;b&gt;&lt;font style=&quot;font-size: 18px;&quot;&gt;FIN&lt;/font&gt;&lt;/b&gt;" style="rounded=1;whiteSpace=wrap;html=1;labelBorderColor=none;labelBackgroundColor=none;fontColor=#FFFFFF;gradientColor=none;fillColor=#000000;" vertex="1" parent="1">
          <mxGeometry x="300" y="350" width="80" height="40" as="geometry" />
        </mxCell>
        <mxCell id="BUDjBCq1fqL0kmSHY49m-21" value="" style="endArrow=classic;html=1;rounded=0;strokeWidth=4;" edge="1" parent="1">
          <mxGeometry width="50" height="50" relative="1" as="geometry">
            <mxPoint x="524" y="275" as="sourcePoint" />
            <mxPoint x="564" y="275" as="targetPoint" />
            <Array as="points">
              <mxPoint x="484" y="275" />
            </Array>
          </mxGeometry>
        </mxCell>
        <mxCell id="BUDjBCq1fqL0kmSHY49m-22" value="" style="endArrow=classic;html=1;rounded=0;strokeWidth=3;" edge="1" parent="1">
          <mxGeometry width="50" height="50" relative="1" as="geometry">
            <mxPoint x="524" y="315" as="sourcePoint" />
            <mxPoint x="564" y="315" as="targetPoint" />
            <Array as="points">
              <mxPoint x="484" y="315" />
            </Array>
          </mxGeometry>
        </mxCell>
        <mxCell id="BUDjBCq1fqL0kmSHY49m-23" value="" style="endArrow=classic;html=1;rounded=0;strokeWidth=2;" edge="1" parent="1">
          <mxGeometry width="50" height="50" relative="1" as="geometry">
            <mxPoint x="524" y="355" as="sourcePoint" />
            <mxPoint x="564" y="355" as="targetPoint" />
            <Array as="points">
              <mxPoint x="484" y="355" />
            </Array>
          </mxGeometry>
        </mxCell>
        <mxCell id="BUDjBCq1fqL0kmSHY49m-24" value="" style="endArrow=classic;html=1;rounded=0;strokeWidth=1;" edge="1" parent="1">
          <mxGeometry width="50" height="50" relative="1" as="geometry">
            <mxPoint x="524" y="395" as="sourcePoint" />
            <mxPoint x="564" y="395" as="targetPoint" />
            <Array as="points">
              <mxPoint x="484" y="395" />
            </Array>
          </mxGeometry>
        </mxCell>
        <mxCell id="BUDjBCq1fqL0kmSHY49m-26" value="" style="endArrow=classic;html=1;rounded=0;strokeWidth=5;" edge="1" parent="1">
          <mxGeometry width="50" height="50" relative="1" as="geometry">
            <mxPoint x="524" y="235" as="sourcePoint" />
            <mxPoint x="564" y="235" as="targetPoint" />
            <Array as="points">
              <mxPoint x="484" y="235" />
            </Array>
          </mxGeometry>
        </mxCell>
        <mxCell id="BUDjBCq1fqL0kmSHY49m-27" value="" style="endArrow=classic;html=1;rounded=0;strokeWidth=6;" edge="1" parent="1">
          <mxGeometry width="50" height="50" relative="1" as="geometry">
            <mxPoint x="524" y="195" as="sourcePoint" />
            <mxPoint x="564" y="195" as="targetPoint" />
            <Array as="points">
              <mxPoint x="484" y="195" />
            </Array>
          </mxGeometry>
        </mxCell>
        <mxCell id="BUDjBCq1fqL0kmSHY49m-28" value="" style="endArrow=classic;html=1;rounded=0;strokeWidth=7;" edge="1" parent="1">
          <mxGeometry width="50" height="50" relative="1" as="geometry">
            <mxPoint x="524" y="155" as="sourcePoint" />
            <mxPoint x="564" y="155" as="targetPoint" />
            <Array as="points">
              <mxPoint x="484" y="155" />
            </Array>
          </mxGeometry>
        </mxCell>
        <mxCell id="BUDjBCq1fqL0kmSHY49m-29" value="" style="endArrow=classic;html=1;rounded=0;strokeWidth=8;" edge="1" parent="1">
          <mxGeometry width="50" height="50" relative="1" as="geometry">
            <mxPoint x="524" y="115" as="sourcePoint" />
            <mxPoint x="564" y="115" as="targetPoint" />
            <Array as="points">
              <mxPoint x="484" y="115" />
            </Array>
          </mxGeometry>
        </mxCell>
        <mxCell id="BUDjBCq1fqL0kmSHY49m-30" value="0% - 9%" style="text;html=1;strokeColor=none;fillColor=none;align=center;verticalAlign=middle;whiteSpace=wrap;rounded=0;" vertex="1" parent="1">
          <mxGeometry x="414" y="420" width="70" height="30" as="geometry" />
        </mxCell>
        <mxCell id="BUDjBCq1fqL0kmSHY49m-31" value="10% - 19%" style="text;html=1;strokeColor=none;fillColor=none;align=center;verticalAlign=middle;whiteSpace=wrap;rounded=0;" vertex="1" parent="1">
          <mxGeometry x="414" y="380" width="70" height="30" as="geometry" />
        </mxCell>
        <mxCell id="BUDjBCq1fqL0kmSHY49m-32" value="20% - 29%" style="text;html=1;strokeColor=none;fillColor=none;align=center;verticalAlign=middle;whiteSpace=wrap;rounded=0;" vertex="1" parent="1">
          <mxGeometry x="414" y="340" width="70" height="30" as="geometry" />
        </mxCell>
        <mxCell id="BUDjBCq1fqL0kmSHY49m-33" value="30% - 39%" style="text;html=1;strokeColor=none;fillColor=none;align=center;verticalAlign=middle;whiteSpace=wrap;rounded=0;" vertex="1" parent="1">
          <mxGeometry x="414" y="300" width="70" height="30" as="geometry" />
        </mxCell>
        <mxCell id="BUDjBCq1fqL0kmSHY49m-34" value="40% - 49%" style="text;html=1;strokeColor=none;fillColor=none;align=center;verticalAlign=middle;whiteSpace=wrap;rounded=0;" vertex="1" parent="1">
          <mxGeometry x="414" y="259" width="70" height="30" as="geometry" />
        </mxCell>
        <mxCell id="BUDjBCq1fqL0kmSHY49m-35" value="50% - 59%" style="text;html=1;strokeColor=none;fillColor=none;align=center;verticalAlign=middle;whiteSpace=wrap;rounded=0;" vertex="1" parent="1">
          <mxGeometry x="414" y="220" width="70" height="30" as="geometry" />
        </mxCell>
        <mxCell id="BUDjBCq1fqL0kmSHY49m-36" value="60% - 69%" style="text;html=1;strokeColor=none;fillColor=none;align=center;verticalAlign=middle;whiteSpace=wrap;rounded=0;" vertex="1" parent="1">
          <mxGeometry x="414" y="180" width="70" height="30" as="geometry" />
        </mxCell>
        <mxCell id="BUDjBCq1fqL0kmSHY49m-37" value="70% - 79%" style="text;html=1;strokeColor=none;fillColor=none;align=center;verticalAlign=middle;whiteSpace=wrap;rounded=0;" vertex="1" parent="1">
          <mxGeometry x="414" y="140" width="70" height="30" as="geometry" />
        </mxCell>
        <mxCell id="BUDjBCq1fqL0kmSHY49m-38" value="80% - 89%" style="text;html=1;strokeColor=none;fillColor=none;align=center;verticalAlign=middle;whiteSpace=wrap;rounded=0;" vertex="1" parent="1">
          <mxGeometry x="414" y="99" width="70" height="30" as="geometry" />
        </mxCell>
        <mxCell id="BUDjBCq1fqL0kmSHY49m-39" value="" style="endArrow=classic;html=1;rounded=0;strokeWidth=9;" edge="1" parent="1">
          <mxGeometry width="50" height="50" relative="1" as="geometry">
            <mxPoint x="524" y="75" as="sourcePoint" />
            <mxPoint x="564" y="75" as="targetPoint" />
            <Array as="points">
              <mxPoint x="484" y="75" />
            </Array>
          </mxGeometry>
        </mxCell>
        <mxCell id="BUDjBCq1fqL0kmSHY49m-40" value="90% - 99%" style="text;html=1;strokeColor=none;fillColor=none;align=center;verticalAlign=middle;whiteSpace=wrap;rounded=0;" vertex="1" parent="1">
          <mxGeometry x="414" y="60" width="70" height="30" as="geometry" />
        </mxCell>
        <mxCell id="BUDjBCq1fqL0kmSHY49m-41" value="" style="endArrow=classic;html=1;rounded=0;strokeWidth=9;exitX=0.5;exitY=0;exitDx=0;exitDy=0;" edge="1" parent="1" source="BUDjBCq1fqL0kmSHY49m-12">
          <mxGeometry width="50" height="50" relative="1" as="geometry">
            <mxPoint x="40" y="340" as="sourcePoint" />
            <mxPoint x="60" y="250" as="targetPoint" />
            <Array as="points" />
          </mxGeometry>
        </mxCell>
        <mxCell id="BUDjBCq1fqL0kmSHY49m-43" value="" style="endArrow=classic;html=1;rounded=0;strokeWidth=2;exitX=0;exitY=0;exitDx=0;exitDy=0;entryX=0;entryY=1;entryDx=0;entryDy=0;fillColor=#dae8fc;strokeColor=#6c8ebf;" edge="1" parent="1" source="BUDjBCq1fqL0kmSHY49m-3" target="BUDjBCq1fqL0kmSHY49m-3">
          <mxGeometry width="50" height="50" relative="1" as="geometry">
            <mxPoint x="534" y="365" as="sourcePoint" />
            <mxPoint x="574" y="365" as="targetPoint" />
            <Array as="points">
              <mxPoint x="20" y="207" />
              <mxPoint x="20" y="243" />
            </Array>
          </mxGeometry>
        </mxCell>
        <mxCell id="BUDjBCq1fqL0kmSHY49m-44" value="" style="endArrow=classic;html=1;rounded=0;strokeWidth=1;exitX=0.5;exitY=0;exitDx=0;exitDy=0;entryX=0;entryY=1;entryDx=0;entryDy=0;fillColor=#dae8fc;strokeColor=#6c8ebf;" edge="1" parent="1" source="BUDjBCq1fqL0kmSHY49m-3" target="BUDjBCq1fqL0kmSHY49m-4">
          <mxGeometry width="50" height="50" relative="1" as="geometry">
            <mxPoint x="534" y="405" as="sourcePoint" />
            <mxPoint x="574" y="405" as="targetPoint" />
            <Array as="points" />
          </mxGeometry>
        </mxCell>
        <mxCell id="BUDjBCq1fqL0kmSHY49m-45" value="" style="endArrow=classic;html=1;rounded=0;strokeWidth=1;exitX=1;exitY=0;exitDx=0;exitDy=0;entryX=0;entryY=1;entryDx=0;entryDy=0;fillColor=#dae8fc;strokeColor=#6c8ebf;" edge="1" parent="1" source="BUDjBCq1fqL0kmSHY49m-3" target="BUDjBCq1fqL0kmSHY49m-6">
          <mxGeometry width="50" height="50" relative="1" as="geometry">
            <mxPoint x="75" y="210" as="sourcePoint" />
            <mxPoint x="107" y="153" as="targetPoint" />
            <Array as="points" />
          </mxGeometry>
        </mxCell>
        <mxCell id="BUDjBCq1fqL0kmSHY49m-46" value="" style="endArrow=classic;html=1;rounded=0;strokeWidth=2;exitX=0.98;exitY=0.4;exitDx=0;exitDy=0;exitPerimeter=0;entryX=0.04;entryY=0.307;entryDx=0;entryDy=0;fillColor=#dae8fc;strokeColor=#6c8ebf;entryPerimeter=0;" edge="1" parent="1" source="BUDjBCq1fqL0kmSHY49m-3" target="BUDjBCq1fqL0kmSHY49m-7">
          <mxGeometry width="50" height="50" relative="1" as="geometry">
            <mxPoint x="534" y="365" as="sourcePoint" />
            <mxPoint x="574" y="365" as="targetPoint" />
            <Array as="points" />
          </mxGeometry>
        </mxCell>
        <mxCell id="BUDjBCq1fqL0kmSHY49m-53" value="" style="endArrow=classic;html=1;rounded=0;strokeWidth=1;exitX=0.5;exitY=0;exitDx=0;exitDy=0;entryX=0;entryY=0.5;entryDx=0;entryDy=0;fillColor=#d5e8d4;strokeColor=#82b366;" edge="1" parent="1" source="BUDjBCq1fqL0kmSHY49m-4" target="BUDjBCq1fqL0kmSHY49m-4">
          <mxGeometry width="50" height="50" relative="1" as="geometry">
            <mxPoint x="534" y="405" as="sourcePoint" />
            <mxPoint x="574" y="405" as="targetPoint" />
            <Array as="points">
              <mxPoint x="90" y="80" />
              <mxPoint x="70" y="110" />
            </Array>
          </mxGeometry>
        </mxCell>
        <mxCell id="BUDjBCq1fqL0kmSHY49m-56" value="" style="endArrow=classic;html=1;rounded=0;strokeWidth=6;entryX=0;entryY=0;entryDx=0;entryDy=0;fillColor=#d5e8d4;strokeColor=#82b366;" edge="1" parent="1" target="BUDjBCq1fqL0kmSHY49m-7">
          <mxGeometry width="50" height="50" relative="1" as="geometry">
            <mxPoint x="130" y="140" as="sourcePoint" />
            <mxPoint x="574" y="205" as="targetPoint" />
            <Array as="points" />
          </mxGeometry>
        </mxCell>
        <mxCell id="BUDjBCq1fqL0kmSHY49m-59" value="" style="endArrow=classic;html=1;rounded=0;strokeWidth=1;exitX=0.893;exitY=0.76;exitDx=0;exitDy=0;entryX=0;entryY=0;entryDx=0;entryDy=0;fillColor=#dae8fc;strokeColor=#6c8ebf;exitPerimeter=0;" edge="1" parent="1" source="BUDjBCq1fqL0kmSHY49m-3" target="BUDjBCq1fqL0kmSHY49m-13">
          <mxGeometry width="50" height="50" relative="1" as="geometry">
            <mxPoint x="93" y="217" as="sourcePoint" />
            <mxPoint x="300" y="185" as="targetPoint" />
            <Array as="points" />
          </mxGeometry>
        </mxCell>
        <mxCell id="BUDjBCq1fqL0kmSHY49m-60" value="" style="endArrow=classic;html=1;rounded=0;strokeWidth=1;entryX=0.25;entryY=0;entryDx=0;entryDy=0;fillColor=#f8cecc;strokeColor=#b85450;" edge="1" parent="1" target="BUDjBCq1fqL0kmSHY49m-13">
          <mxGeometry width="50" height="50" relative="1" as="geometry">
            <mxPoint x="310" y="310" as="sourcePoint" />
            <mxPoint x="310" y="360" as="targetPoint" />
            <Array as="points" />
          </mxGeometry>
        </mxCell>
        <mxCell id="BUDjBCq1fqL0kmSHY49m-61" value="" style="endArrow=classic;html=1;rounded=0;strokeWidth=1;exitX=0;exitY=1;exitDx=0;exitDy=0;entryX=0.733;entryY=0.08;entryDx=0;entryDy=0;entryPerimeter=0;fillColor=#ffe6cc;strokeColor=#d79b00;" edge="1" parent="1" source="BUDjBCq1fqL0kmSHY49m-5" target="BUDjBCq1fqL0kmSHY49m-3">
          <mxGeometry width="50" height="50" relative="1" as="geometry">
            <mxPoint x="534" y="405" as="sourcePoint" />
            <mxPoint x="80" y="200" as="targetPoint" />
            <Array as="points" />
          </mxGeometry>
        </mxCell>
        <mxCell id="BUDjBCq1fqL0kmSHY49m-62" value="" style="endArrow=classic;html=1;rounded=0;strokeWidth=1;exitX=0;exitY=0.5;exitDx=0;exitDy=0;entryX=1;entryY=0.5;entryDx=0;entryDy=0;fillColor=#ffe6cc;strokeColor=#d79b00;" edge="1" parent="1" source="BUDjBCq1fqL0kmSHY49m-5" target="BUDjBCq1fqL0kmSHY49m-4">
          <mxGeometry width="50" height="50" relative="1" as="geometry">
            <mxPoint x="217" y="133" as="sourcePoint" />
            <mxPoint x="87" y="214" as="targetPoint" />
            <Array as="points" />
          </mxGeometry>
        </mxCell>
        <mxCell id="BUDjBCq1fqL0kmSHY49m-63" value="" style="endArrow=classic;html=1;rounded=0;strokeWidth=2;exitX=1;exitY=0;exitDx=0;exitDy=0;entryX=0;entryY=0;entryDx=0;entryDy=0;fillColor=#ffe6cc;strokeColor=#d79b00;" edge="1" parent="1" source="BUDjBCq1fqL0kmSHY49m-5" target="BUDjBCq1fqL0kmSHY49m-5">
          <mxGeometry width="50" height="50" relative="1" as="geometry">
            <mxPoint x="534" y="365" as="sourcePoint" />
            <mxPoint x="574" y="365" as="targetPoint" />
            <Array as="points">
              <mxPoint x="243" y="60" />
              <mxPoint x="220" y="60" />
              <mxPoint x="207" y="60" />
            </Array>
          </mxGeometry>
        </mxCell>
        <mxCell id="BUDjBCq1fqL0kmSHY49m-64" value="" style="endArrow=classic;html=1;rounded=0;strokeWidth=3;entryX=0;entryY=0;entryDx=0;entryDy=0;fillColor=#ffe6cc;strokeColor=#d79b00;" edge="1" parent="1" target="BUDjBCq1fqL0kmSHY49m-6">
          <mxGeometry width="50" height="50" relative="1" as="geometry">
            <mxPoint x="240" y="120" as="sourcePoint" />
            <mxPoint x="574" y="325" as="targetPoint" />
            <Array as="points" />
          </mxGeometry>
        </mxCell>
        <mxCell id="BUDjBCq1fqL0kmSHY49m-66" value="" style="endArrow=classic;html=1;rounded=0;strokeWidth=1;entryX=0.987;entryY=0.64;entryDx=0;entryDy=0;entryPerimeter=0;exitX=0;exitY=0.5;exitDx=0;exitDy=0;fillColor=#fff2cc;strokeColor=#d6b656;" edge="1" parent="1" source="BUDjBCq1fqL0kmSHY49m-6" target="BUDjBCq1fqL0kmSHY49m-4">
          <mxGeometry width="50" height="50" relative="1" as="geometry">
            <mxPoint x="534" y="405" as="sourcePoint" />
            <mxPoint x="574" y="405" as="targetPoint" />
            <Array as="points" />
          </mxGeometry>
        </mxCell>
        <mxCell id="BUDjBCq1fqL0kmSHY49m-67" value="" style="endArrow=classic;html=1;rounded=0;strokeWidth=2;exitX=1;exitY=0;exitDx=0;exitDy=0;entryX=1;entryY=1;entryDx=0;entryDy=0;fillColor=#fff2cc;strokeColor=#d6b656;" edge="1" parent="1" source="BUDjBCq1fqL0kmSHY49m-6" target="BUDjBCq1fqL0kmSHY49m-6">
          <mxGeometry width="50" height="50" relative="1" as="geometry">
            <mxPoint x="534" y="365" as="sourcePoint" />
            <mxPoint x="574" y="365" as="targetPoint" />
            <Array as="points">
              <mxPoint x="360" y="157" />
              <mxPoint x="360" y="193" />
            </Array>
          </mxGeometry>
        </mxCell>
        <mxCell id="BUDjBCq1fqL0kmSHY49m-68" value="" style="endArrow=classic;html=1;rounded=0;strokeWidth=4;exitX=0.5;exitY=1;exitDx=0;exitDy=0;entryX=0.5;entryY=0;entryDx=0;entryDy=0;fillColor=#fff2cc;strokeColor=#d6b656;" edge="1" parent="1" source="BUDjBCq1fqL0kmSHY49m-6" target="BUDjBCq1fqL0kmSHY49m-7">
          <mxGeometry width="50" height="50" relative="1" as="geometry">
            <mxPoint x="534" y="285" as="sourcePoint" />
            <mxPoint x="574" y="285" as="targetPoint" />
            <Array as="points" />
          </mxGeometry>
        </mxCell>
        <mxCell id="BUDjBCq1fqL0kmSHY49m-69" value="" style="endArrow=classic;html=1;rounded=0;strokeWidth=3;exitX=0;exitY=0.5;exitDx=0;exitDy=0;entryX=0.973;entryY=0.693;entryDx=0;entryDy=0;entryPerimeter=0;fillColor=#f8cecc;strokeColor=#b85450;" edge="1" parent="1" source="BUDjBCq1fqL0kmSHY49m-7" target="BUDjBCq1fqL0kmSHY49m-3">
          <mxGeometry width="50" height="50" relative="1" as="geometry">
            <mxPoint x="534" y="325" as="sourcePoint" />
            <mxPoint x="574" y="325" as="targetPoint" />
            <Array as="points" />
          </mxGeometry>
        </mxCell>
        <mxCell id="BUDjBCq1fqL0kmSHY49m-70" value="" style="endArrow=classic;html=1;rounded=0;strokeWidth=1;exitX=0.747;exitY=0.067;exitDx=0;exitDy=0;entryX=0.733;entryY=0.947;entryDx=0;entryDy=0;fillColor=#f8cecc;strokeColor=#b85450;entryPerimeter=0;exitPerimeter=0;" edge="1" parent="1" source="BUDjBCq1fqL0kmSHY49m-7" target="BUDjBCq1fqL0kmSHY49m-6">
          <mxGeometry width="50" height="50" relative="1" as="geometry">
            <mxPoint x="534" y="405" as="sourcePoint" />
            <mxPoint x="574" y="405" as="targetPoint" />
            <Array as="points" />
          </mxGeometry>
        </mxCell>
        <mxCell id="BUDjBCq1fqL0kmSHY49m-71" value="" style="endArrow=classic;html=1;rounded=0;strokeWidth=3;exitX=1;exitY=0.5;exitDx=0;exitDy=0;entryX=0.5;entryY=1;entryDx=0;entryDy=0;fillColor=#f8cecc;strokeColor=#b85450;" edge="1" parent="1" source="BUDjBCq1fqL0kmSHY49m-7" target="BUDjBCq1fqL0kmSHY49m-7">
          <mxGeometry width="50" height="50" relative="1" as="geometry">
            <mxPoint x="534" y="325" as="sourcePoint" />
            <mxPoint x="574" y="325" as="targetPoint" />
            <Array as="points">
              <mxPoint x="360" y="300" />
              <mxPoint x="340" y="330" />
            </Array>
          </mxGeometry>
        </mxCell>
        <mxCell id="BUDjBCq1fqL0kmSHY49m-72" value="" style="endArrow=classic;html=1;rounded=0;strokeWidth=1;entryX=0.773;entryY=0.947;entryDx=0;entryDy=0;entryPerimeter=0;exitX=0;exitY=0;exitDx=0;exitDy=0;fillColor=#e1d5e7;strokeColor=#9673a6;" edge="1" parent="1" source="BUDjBCq1fqL0kmSHY49m-8" target="BUDjBCq1fqL0kmSHY49m-3">
          <mxGeometry width="50" height="50" relative="1" as="geometry">
            <mxPoint x="534" y="405" as="sourcePoint" />
            <mxPoint x="574" y="405" as="targetPoint" />
            <Array as="points" />
          </mxGeometry>
        </mxCell>
        <mxCell id="BUDjBCq1fqL0kmSHY49m-73" value="" style="endArrow=classic;html=1;rounded=0;strokeWidth=2;exitX=0.5;exitY=0;exitDx=0;exitDy=0;entryX=0.5;entryY=1;entryDx=0;entryDy=0;fillColor=#e1d5e7;strokeColor=#9673a6;" edge="1" parent="1" source="BUDjBCq1fqL0kmSHY49m-8" target="BUDjBCq1fqL0kmSHY49m-4">
          <mxGeometry width="50" height="50" relative="1" as="geometry">
            <mxPoint x="534" y="365" as="sourcePoint" />
            <mxPoint x="574" y="365" as="targetPoint" />
            <Array as="points" />
          </mxGeometry>
        </mxCell>
        <mxCell id="BUDjBCq1fqL0kmSHY49m-74" value="" style="endArrow=classic;html=1;rounded=0;strokeWidth=2;exitX=1;exitY=0;exitDx=0;exitDy=0;entryX=0;entryY=1;entryDx=0;entryDy=0;fillColor=#e1d5e7;strokeColor=#9673a6;" edge="1" parent="1" source="BUDjBCq1fqL0kmSHY49m-8" target="BUDjBCq1fqL0kmSHY49m-7">
          <mxGeometry width="50" height="50" relative="1" as="geometry">
            <mxPoint x="225" y="330" as="sourcePoint" />
            <mxPoint x="125" y="160" as="targetPoint" />
            <Array as="points" />
          </mxGeometry>
        </mxCell>
        <mxCell id="BUDjBCq1fqL0kmSHY49m-75" value="" style="endArrow=classic;html=1;rounded=0;strokeWidth=1;entryX=0.307;entryY=0.96;entryDx=0;entryDy=0;entryPerimeter=0;exitX=0.68;exitY=0.027;exitDx=0;exitDy=0;fillColor=#e1d5e7;strokeColor=#9673a6;exitPerimeter=0;" edge="1" parent="1" source="BUDjBCq1fqL0kmSHY49m-8" target="BUDjBCq1fqL0kmSHY49m-6">
          <mxGeometry width="50" height="50" relative="1" as="geometry">
            <mxPoint x="207" y="337" as="sourcePoint" />
            <mxPoint x="85" y="257" as="targetPoint" />
            <Array as="points" />
          </mxGeometry>
        </mxCell>
        <mxCell id="BUDjBCq1fqL0kmSHY49m-76" value="" style="endArrow=classic;html=1;rounded=0;strokeWidth=1;entryX=0;entryY=1;entryDx=0;entryDy=0;exitX=1;exitY=1;exitDx=0;exitDy=0;fillColor=#e1d5e7;strokeColor=#9673a6;" edge="1" parent="1" source="BUDjBCq1fqL0kmSHY49m-8" target="BUDjBCq1fqL0kmSHY49m-8">
          <mxGeometry width="50" height="50" relative="1" as="geometry">
            <mxPoint x="234" y="331" as="sourcePoint" />
            <mxPoint x="315" y="208" as="targetPoint" />
            <Array as="points">
              <mxPoint x="233" y="390" />
              <mxPoint x="197" y="390" />
            </Array>
          </mxGeometry>
        </mxCell>
        <mxCell id="BUDjBCq1fqL0kmSHY49m-77" value="" style="endArrow=classic;html=1;rounded=0;strokeWidth=5;exitX=0;exitY=0;exitDx=0;exitDy=0;entryX=0.627;entryY=0.973;entryDx=0;entryDy=0;entryPerimeter=0;fillColor=#f5f5f5;strokeColor=#666666;" edge="1" parent="1" source="BUDjBCq1fqL0kmSHY49m-9" target="BUDjBCq1fqL0kmSHY49m-3">
          <mxGeometry width="50" height="50" relative="1" as="geometry">
            <mxPoint x="534" y="245" as="sourcePoint" />
            <mxPoint x="574" y="245" as="targetPoint" />
            <Array as="points" />
          </mxGeometry>
        </mxCell>
        <mxCell id="BUDjBCq1fqL0kmSHY49m-78" value="" style="endArrow=classic;html=1;rounded=0;strokeWidth=2;entryX=0.027;entryY=0.667;entryDx=0;entryDy=0;entryPerimeter=0;fillColor=#f5f5f5;strokeColor=#666666;" edge="1" parent="1" source="BUDjBCq1fqL0kmSHY49m-9" target="BUDjBCq1fqL0kmSHY49m-7">
          <mxGeometry width="50" height="50" relative="1" as="geometry">
            <mxPoint x="140" y="320" as="sourcePoint" />
            <mxPoint x="574" y="365" as="targetPoint" />
            <Array as="points" />
          </mxGeometry>
        </mxCell>
        <mxCell id="BUDjBCq1fqL0kmSHY49m-80" value="" style="endArrow=classic;html=1;rounded=0;strokeWidth=1;exitX=0.32;exitY=0.973;exitDx=0;exitDy=0;entryX=0.5;entryY=0;entryDx=0;entryDy=0;fillColor=#d5e8d4;strokeColor=#82b366;exitPerimeter=0;" edge="1" parent="1" source="BUDjBCq1fqL0kmSHY49m-4" target="BUDjBCq1fqL0kmSHY49m-9">
          <mxGeometry width="50" height="50" relative="1" as="geometry">
            <mxPoint x="125" y="110" as="sourcePoint" />
            <mxPoint x="100" y="135" as="targetPoint" />
            <Array as="points" />
          </mxGeometry>
        </mxCell>
        <mxCell id="BUDjBCq1fqL0kmSHY49m-81" value="" style="endArrow=classic;html=1;rounded=0;strokeWidth=1;exitX=1;exitY=0;exitDx=0;exitDy=0;entryX=0.5;entryY=1;entryDx=0;entryDy=0;fillColor=#f5f5f5;strokeColor=#666666;" edge="1" parent="1" source="BUDjBCq1fqL0kmSHY49m-9" target="BUDjBCq1fqL0kmSHY49m-5">
          <mxGeometry width="50" height="50" relative="1" as="geometry">
            <mxPoint x="116" y="159" as="sourcePoint" />
            <mxPoint x="125" y="310" as="targetPoint" />
            <Array as="points" />
          </mxGeometry>
        </mxCell>
        <mxCell id="BUDjBCq1fqL0kmSHY49m-82" value="" style="endArrow=classic;html=1;rounded=0;strokeWidth=1;entryX=0.293;entryY=0.027;entryDx=0;entryDy=0;fillColor=#dae8fc;strokeColor=#6c8ebf;entryPerimeter=0;exitX=1;exitY=1;exitDx=0;exitDy=0;" edge="1" parent="1" source="BUDjBCq1fqL0kmSHY49m-3" target="BUDjBCq1fqL0kmSHY49m-8">
          <mxGeometry width="50" height="50" relative="1" as="geometry">
            <mxPoint x="80" y="240" as="sourcePoint" />
            <mxPoint x="310" y="360" as="targetPoint" />
            <Array as="points" />
          </mxGeometry>
        </mxCell>
        <mxCell id="BUDjBCq1fqL0kmSHY49m-83" value="" style="endArrow=classic;html=1;rounded=0;strokeWidth=1;exitX=0.333;exitY=0.92;exitDx=0;exitDy=0;entryX=1;entryY=0.5;entryDx=0;entryDy=0;fillColor=#f8cecc;strokeColor=#b85450;exitPerimeter=0;" edge="1" parent="1" source="BUDjBCq1fqL0kmSHY49m-7" target="BUDjBCq1fqL0kmSHY49m-8">
          <mxGeometry width="50" height="50" relative="1" as="geometry">
            <mxPoint x="315" y="317" as="sourcePoint" />
            <mxPoint x="330" y="360" as="targetPoint" />
            <Array as="points" />
          </mxGeometry>
        </mxCell>
        <mxCell id="BUDjBCq1fqL0kmSHY49m-3" value="&lt;b&gt;&lt;font style=&quot;font-size: 18px;&quot;&gt;1&lt;/font&gt;&lt;/b&gt;" style="ellipse;whiteSpace=wrap;html=1;aspect=fixed;fillColor=#dae8fc;strokeColor=#6c8ebf;" vertex="1" parent="1">
          <mxGeometry x="40" y="200" width="50" height="50" as="geometry" />
        </mxCell>
        <mxCell id="BUDjBCq1fqL0kmSHY49m-4" value="&lt;b&gt;&lt;font style=&quot;font-size: 18px;&quot;&gt;2&lt;/font&gt;&lt;/b&gt;" style="ellipse;whiteSpace=wrap;html=1;aspect=fixed;fillColor=#d5e8d4;strokeColor=#82b366;" vertex="1" parent="1">
          <mxGeometry x="90" y="100" width="50" height="50" as="geometry" />
        </mxCell>
        <mxCell id="BUDjBCq1fqL0kmSHY49m-5" value="&lt;b&gt;&lt;font style=&quot;font-size: 18px;&quot;&gt;3&lt;/font&gt;&lt;/b&gt;" style="ellipse;whiteSpace=wrap;html=1;aspect=fixed;fillColor=#ffe6cc;strokeColor=#d79b00;" vertex="1" parent="1">
          <mxGeometry x="200" y="80" width="50" height="50" as="geometry" />
        </mxCell>
        <mxCell id="BUDjBCq1fqL0kmSHY49m-6" value="&lt;b&gt;&lt;font style=&quot;font-size: 18px;&quot;&gt;4&lt;/font&gt;&lt;/b&gt;" style="ellipse;whiteSpace=wrap;html=1;aspect=fixed;fillColor=#fff2cc;strokeColor=#d6b656;" vertex="1" parent="1">
          <mxGeometry x="290" y="150" width="50" height="50" as="geometry" />
        </mxCell>
        <mxCell id="BUDjBCq1fqL0kmSHY49m-7" value="&lt;b&gt;&lt;font style=&quot;font-size: 18px;&quot;&gt;5&lt;/font&gt;&lt;/b&gt;" style="ellipse;whiteSpace=wrap;html=1;aspect=fixed;fillColor=#f8cecc;strokeColor=#b85450;" vertex="1" parent="1">
          <mxGeometry x="290" y="260" width="50" height="50" as="geometry" />
        </mxCell>
        <mxCell id="BUDjBCq1fqL0kmSHY49m-8" value="&lt;b&gt;&lt;font style=&quot;font-size: 18px;&quot;&gt;6&lt;/font&gt;&lt;/b&gt;" style="ellipse;whiteSpace=wrap;html=1;aspect=fixed;fillColor=#e1d5e7;strokeColor=#9673a6;" vertex="1" parent="1">
          <mxGeometry x="190" y="320" width="50" height="50" as="geometry" />
        </mxCell>
        <mxCell id="BUDjBCq1fqL0kmSHY49m-9" value="&lt;b&gt;&lt;font style=&quot;font-size: 18px;&quot;&gt;7&lt;/font&gt;&lt;/b&gt;" style="ellipse;whiteSpace=wrap;html=1;aspect=fixed;fillColor=#f5f5f5;strokeColor=#666666;fontColor=#333333;" vertex="1" parent="1">
          <mxGeometry x="90" y="300" width="50" height="50" as="geometry" />
        </mxCell>
      </root>
    </mxGraphModel>
  </diagram>
</mxfile>
