mc	mn	quarterbeats	duration_qb	mc_onset	mn_onset	timesig	staff	voice	duration	nominal_duration	scalar	tied	tpc	midi	name	octave	chord_id
1	1	0	1.0	0	0	4/4	3	1	1/4	1/4	1		-2	46	Bb2	2	6
1	1	0	1.0	0	0	4/4	4	1	1/4	1/4	1		-2	46	Bb2	2	9
1	1	0	1.5	0	0	4/4	1	1	3/8	1/4	3/2		-2	70	Bb4	4	0
1	1	1	2.0	1/4	1/4	4/4	3	1	1/2	1/2	1		-2	58	Bb3	3	7
1	1	1	2.0	1/4	1/4	4/4	4	1	1/2	1/2	1		-2	58	Bb3	3	10
1	1	3/2	0.5	3/8	3/8	4/4	1	1	1/8	1/8	1		2	74	D5	5	1
1	1	2	0.5	1/2	1/2	4/4	1	1	1/8	1/8	1		1	79	G5	5	2
1	1	5/2	0.5	5/8	5/8	4/4	1	1	1/8	1/8	1		-3	75	Eb5	5	3
1	1	3	1.0	3/4	3/4	4/4	3	1	1/4	1/4	1		3	57	A3	3	8
1	1	3	1.0	3/4	3/4	4/4	4	1	1/4	1/4	1		3	57	A3	3	11
1	1	3	0.5	3/4	3/4	4/4	1	1	1/8	1/8	1		0	72	C5	5	4
1	1	7/2	0.5	7/8	7/8	4/4	1	1	1/8	1/8	1		-1	77	F5	5	5
2	2	4	1.5	0	0	4/4	3	1	3/8	1/4	3/2		-2	58	Bb3	3	18
2	2	4	1.5	0	0	4/4	4	1	3/8	1/4	3/2		-2	58	Bb3	3	22
2	2	4	0.5	0	0	4/4	1	1	1/8	1/8	1		2	74	D5	5	12
2	2	9/2	0.5	1/8	1/8	4/4	1	1	1/8	1/8	1		-2	70	Bb4	4	13
2	2	5	1.0	1/4	1/4	4/4	1	1	1/4	1/4	1	1	1	79	G5	5	14
2	2	11/2	0.5	3/8	3/8	4/4	3	1	1/8	1/8	1		1	55	G3	3	19
2	2	11/2	0.5	3/8	3/8	4/4	4	1	1/8	1/8	1		1	55	G3	3	23
2	2	6	1.5	1/2	1/2	4/4	3	1	3/8	1/4	3/2		3	57	A3	3	20
2	2	6	1.5	1/2	1/2	4/4	4	1	3/8	1/4	3/2		3	57	A3	3	24
2	2	6	0.5	1/2	1/2	4/4	1	1	1/8	1/8	1	-1	1	79	G5	5	15
2	2	13/2	0.5	5/8	5/8	4/4	1	1	1/8	1/8	1		0	72	C5	5	16
2	2	7	1.0	3/4	3/4	4/4	1	1	1/4	1/4	1	1	-1	77	F5	5	17
2	2	15/2	0.5	7/8	7/8	4/4	3	1	1/8	1/8	1		-1	53	F3	3	21
2	2	15/2	0.5	7/8	7/8	4/4	4	1	1/8	1/8	1		-1	53	F3	3	25
3	3	8	1.5	0	0	4/4	3	1	3/8	1/4	3/2		1	55	G3	3	34
3	3	8	1.5	0	0	4/4	4	1	3/8	1/4	3/2		1	55	G3	3	38
3	3	8	0.5	0	0	4/4	1	1	1/8	1/8	1	-1	-1	77	F5	5	26
3	3	17/2	0.5	1/8	1/8	4/4	1	1	1/8	1/8	1		-2	70	Bb4	4	27
3	3	9	1.0	1/4	1/4	4/4	1	1	1/4	1/4	1	1	-3	75	Eb5	5	28
3	3	19/2	0.5	3/8	3/8	4/4	3	1	1/8	1/8	1		-3	51	Eb3	3	35
3	3	19/2	0.5	3/8	3/8	4/4	4	1	1/8	1/8	1		-3	51	Eb3	3	39
3	3	10	1.0	1/2	1/2	4/4	3	1	1/4	1/4	1		-1	53	F3	3	36
3	3	10	1.0	1/2	1/2	4/4	4	1	1/4	1/4	1		-1	53	F3	3	40
3	3	10	0.5	1/2	1/2	4/4	1	1	1/8	1/8	1	-1	-3	75	Eb5	5	29
3	3	21/2	0.5	5/8	5/8	4/4	1	1	1/8	1/8	1		2	74	D5	5	30
3	3	11	1.0	3/4	3/4	4/4	3	1	1/4	1/4	1		-2	46	Bb2	2	37
3	3	11	1.0	3/4	3/4	4/4	4	1	1/4	1/4	1		-2	46	Bb2	2	41
3	3	11	0.5	3/4	3/4	4/4	1	1	1/8	1/8	1		2	74	D5	5	31
3	3	23/2	0.25	7/8	7/8	4/4	1	1	1/16	1/16	1		-3	75	Eb5	5	32
3	3	47/4	0.25	15/16	15/16	4/4	1	1	1/16	1/16	1		2	74	D5	5	33
4	4	12	1.0	0	0	4/4	3	1	1/4	1/4	1		-3	51	Eb3	3	47
4	4	12	1.0	0	0	4/4	4	1	1/4	1/4	1		-3	51	Eb3	3	50
4	4	12	2.0	0	0	4/4	1	1	1/2	1/2	1		0	72	C5	5	42
4	4	13	1.0	1/4	1/4	4/4	3	1	1/4	1/4	1		-1	53	F3	3	48
4	4	13	1.0	1/4	1/4	4/4	4	1	1/4	1/4	1		-1	53	F3	3	51
4	4	14	2.0	1/2	1/2	4/4	3	1	1/2	1/2	1		-2	46	Bb2	2	49
4	4	14	2.0	1/2	1/2	4/4	4	1	1/2	1/2	1		-2	46	Bb2	2	52
4	4	14	0.5	1/2	1/2	4/4	1	1	1/8	1/8	1		-2	70	Bb4	4	43
4	4	29/2	0.5	5/8	5/8	4/4	1	1	1/8	1/8	1		-2	82	Bb5	5	44
4	4	15	0.5	3/4	3/4	4/4	1	1	1/8	1/8	1		3	81	A5	5	45
4	4	31/2	0.5	7/8	7/8	4/4	1	1	1/8	1/8	1		1	79	G5	5	46
5	5	16	1.0	0	0	4/4	3	1	1/4	1/4	1		-1	53	F3	3	63
5	5	16	1.0	0	0	4/4	4	1	1/4	1/4	1		-1	53	F3	3	67
5	5	16	1.5	0	0	4/4	2	1	3/8	1/4	3/2		-1	65	F4	4	57
5	5	16	0.5	0	0	4/4	1	1	1/8	1/8	1		3	81	A5	5	53
5	5	33/2	0.5	1/8	1/8	4/4	1	1	1/8	1/8	1		0	72	C5	5	54
5	5	17	1.0	1/4	1/4	4/4	3	1	1/4	1/4	1		2	50	D3	3	64
5	5	17	1.0	1/4	1/4	4/4	4	1	1/4	1/4	1		2	50	D3	3	68
5	5	17	2.0	1/4	1/4	4/4	1	1	1/2	1/2	1		-1	77	F5	5	55
5	5	35/2	0.5	3/8	3/8	4/4	2	1	1/8	1/8	1		3	69	A4	4	58
5	5	18	1.0	1/2	1/2	4/4	3	1	1/4	1/4	1		-2	46	Bb2	2	65
5	5	18	1.0	1/2	1/2	4/4	4	1	1/4	1/4	1		-2	46	Bb2	2	69
5	5	18	0.5	1/2	1/2	4/4	2	1	1/8	1/8	1		2	74	D5	5	59
5	5	37/2	0.5	5/8	5/8	4/4	2	1	1/8	1/8	1		-2	70	Bb4	4	60
5	5	19	1.0	3/4	3/4	4/4	3	1	1/4	1/4	1		0	48	C3	3	66
5	5	19	1.0	3/4	3/4	4/4	4	1	1/4	1/4	1		0	48	C3	3	70
5	5	19	0.5	3/4	3/4	4/4	2	1	1/8	1/8	1		1	67	G4	4	61
5	5	19	1.0	3/4	3/4	4/4	1	1	1/4	1/4	1		4	76	E5	5	56
5	5	39/2	0.5	7/8	7/8	4/4	2	1	1/8	1/8	1		0	72	C5	5	62
6	6	20	1.0	0	0	4/4	3	1	1/4	1/4	1		-1	41	F2	2	82
6	6	20	1.0	0	0	4/4	4	1	1/4	1/4	1		-1	41	F2	2	86
6	6	20	0.5	0	0	4/4	2	1	1/8	1/8	1		3	69	A4	4	76
6	6	20	1.5	0	0	4/4	1	1	3/8	1/4	3/2		-1	77	F5	5	71
6	6	41/2	0.5	1/8	1/8	4/4	2	1	1/8	1/8	1		-1	65	F4	4	77
6	6	21	1.0	1/4	1/4	4/4	3	1	1/4	1/4	1		-1	53	F3	3	83
6	6	21	1.0	1/4	1/4	4/4	4	1	1/4	1/4	1		-1	53	F3	3	87
6	6	21	1.0	1/4	1/4	4/4	2	1	1/4	1/4	1	1	2	74	D5	5	78
6	6	43/2	0.5	3/8	3/8	4/4	1	1	1/8	1/8	1		-1	77	F5	5	72
6	6	22	1.0	1/2	1/2	4/4	3	1	1/4	1/4	1		1	55	G3	3	84
6	6	22	1.0	1/2	1/2	4/4	4	1	1/4	1/4	1		1	55	G3	3	88
6	6	22	0.5	1/2	1/2	4/4	2	1	1/8	1/8	1	-1	2	74	D5	5	79
6	6	22	1.5	1/2	1/2	4/4	1	1	3/8	1/4	3/2		-3	75	Eb5	5	73
6	6	45/2	0.5	5/8	5/8	4/4	2	1	1/8	1/8	1		1	67	G4	4	80
6	6	23	1.0	3/4	3/4	4/4	3	1	1/4	1/4	1		3	57	A3	3	85
6	6	23	1.0	3/4	3/4	4/4	4	1	1/4	1/4	1		3	57	A3	3	89
6	6	23	1.0	3/4	3/4	4/4	2	1	1/4	1/4	1	1	0	72	C5	5	81
6	6	47/2	0.25	7/8	7/8	4/4	1	1	1/16	1/16	1		-1	77	F5	5	74
6	6	95/4	0.25	15/16	15/16	4/4	1	1	1/16	1/16	1		-3	75	Eb5	5	75
7	7	24	1.5	0	0	4/4	3	1	3/8	1/4	3/2		-2	58	Bb3	3	104
7	7	24	1.5	0	0	4/4	4	1	3/8	1/4	3/2		-2	58	Bb3	3	108
7	7	24	0.5	0	0	4/4	2	1	1/8	1/8	1	-1	0	72	C5	5	96
7	7	24	1.5	0	0	4/4	1	1	3/8	1/4	3/2		2	74	D5	5	90
7	7	49/2	0.5	1/8	1/8	4/4	2	1	1/8	1/8	1		-1	65	F4	4	97
7	7	25	1.0	1/4	1/4	4/4	2	1	1/4	1/4	1	1	-2	70	Bb4	4	98
7	7	51/2	0.5	3/8	3/8	4/4	3	1	1/8	1/8	1		-3	51	Eb3	3	105
7	7	51/2	0.5	3/8	3/8	4/4	4	1	1/8	1/8	1		-3	51	Eb3	3	109
7	7	51/2	0.25	3/8	3/8	4/4	1	1	1/16	1/16	1		-3	75	Eb5	5	91
7	7	103/4	0.25	7/16	7/16	4/4	1	1	1/16	1/16	1		2	74	D5	5	92
7	7	26	1.5	1/2	1/2	4/4	3	1	3/8	1/4	3/2		-1	53	F3	3	106
7	7	26	1.5	1/2	1/2	4/4	4	1	3/8	1/4	3/2		-1	53	F3	3	110
7	7	26	0.5	1/2	1/2	4/4	2	1	1/8	1/8	1	-1	-2	70	Bb4	4	99
7	7	26	0.5	1/2	1/2	4/4	1	1	1/8	1/8	1		0	72	C5	5	93
7	7	53/2	0.5	5/8	5/8	4/4	2	1	1/8	1/8	1		3	69	A4	4	100
7	7	53/2	0.5	5/8	5/8	4/4	1	1	1/8	1/8	1		0	72	C5	5	94
7	7	27	0.5	3/4	3/4	4/4	2	1	1/8	1/8	1		3	69	A4	4	101
7	7	27	1.0	3/4	3/4	4/4	1	1	1/4	1/4	1	1	-1	77	F5	5	95
7	7	55/2	0.5	7/8	7/8	4/4	3	1	1/8	1/8	1		-2	46	Bb2	2	107
7	7	55/2	0.5	7/8	7/8	4/4	4	1	1/8	1/8	1		-2	46	Bb2	2	111
7	7	55/2	0.25	7/8	7/8	4/4	2	1	1/16	1/16	1		-2	70	Bb4	4	102
7	7	111/4	0.25	15/16	15/16	4/4	2	1	1/16	1/16	1		3	69	A4	4	103
8	8	28	2.0	0	0	4/4	3	1	1/2	1/2	1		0	48	C3	3	123
8	8	28	2.0	0	0	4/4	4	1	1/2	1/2	1		0	48	C3	3	125
8	8	28	2.0	0	0	4/4	2	1	1/2	1/2	1		1	67	G4	4	118
8	8	28	1.0	0	0	4/4	1	1	1/4	1/4	1	-1	-1	77	F5	5	112
8	8	29	1.0	1/4	1/4	4/4	1	1	1/4	1/4	1		4	76	E5	5	113
8	8	30	1.0	1/2	1/2	4/4	3	1	1/4	1/4	1		-1	41	F2	2	124
8	8	30	1.0	1/2	1/2	4/4	4	1	1/4	1/4	1		-1	41	F2	2	126
8	8	30	0.5	1/2	1/2	4/4	2	1	1/8	1/8	1		-1	65	F4	4	119
8	8	30	0.5	1/2	1/2	4/4	1	1	1/8	1/8	1		-1	77	F5	5	114
8	8	61/2	0.5	5/8	5/8	4/4	1	1	1/8	1/8	1		2	74	D5	5	115
8	8	61/2	0.5	5/8	5/8	4/4	2	1	1/8	1/8	1		-1	77	F5	5	120
8	8	31	0.5	3/4	3/4	4/4	1	1	1/8	1/8	1		0	72	C5	5	116
8	8	31	0.5	3/4	3/4	4/4	2	1	1/8	1/8	1		-3	75	Eb5	5	121
8	8	63/2	0.5	7/8	7/8	4/4	1	1	1/8	1/8	1		-2	70	Bb4	4	117
8	8	63/2	0.5	7/8	7/8	4/4	2	1	1/8	1/8	1		2	74	D5	5	122
9	9	32	0.5	0	0	4/4	1	1	1/8	1/8	1		0	72	C5	5	127
9	9	32	0.5	0	0	4/4	2	1	1/8	1/8	1		-3	75	Eb5	5	133
9	9	65/2	0.5	1/8	1/8	4/4	1	1	1/8	1/8	1		0	72	C5	5	128
9	9	65/2	0.5	1/8	1/8	4/4	2	1	1/8	1/8	1		-3	75	Eb5	5	134
9	9	33	0.5	1/4	1/4	4/4	1	1	1/8	1/8	1		-2	70	Bb4	4	129
9	9	33	0.5	1/4	1/4	4/4	2	1	1/8	1/8	1		2	74	D5	5	135
9	9	67/2	0.5	3/8	3/8	4/4	1	1	1/8	1/8	1		3	69	A4	4	130
9	9	67/2	0.5	3/8	3/8	4/4	2	1	1/8	1/8	1		0	72	C5	5	136
9	9	34	1.5	1/2	1/2	4/4	3	1	3/8	1/4	3/2		-2	46	Bb2	2	140
9	9	34	1.5	1/2	1/2	4/4	4	1	3/8	1/4	3/2		-2	46	Bb2	2	142
9	9	34	1.5	1/2	1/2	4/4	1	1	3/8	1/4	3/2		-2	70	Bb4	4	131
9	9	34	0.5	1/2	1/2	4/4	2	1	1/8	1/8	1		2	74	D5	5	137
9	9	69/2	0.5	5/8	5/8	4/4	2	1	1/8	1/8	1		-1	65	F4	4	138
9	9	35	1.0	3/4	3/4	4/4	2	1	1/4	1/4	1	1	-2	70	Bb4	4	139
9	9	71/2	0.5	7/8	7/8	4/4	3	1	1/8	1/8	1		2	50	D3	3	141
9	9	71/2	0.5	7/8	7/8	4/4	4	1	1/8	1/8	1		2	50	D3	3	143
9	9	71/2	0.5	7/8	7/8	4/4	1	1	1/8	1/8	1		-1	77	F5	5	132
10	10	36	0.5	0	0	4/4	3	1	1/8	1/8	1		1	55	G3	3	155
10	10	36	0.5	0	0	4/4	4	1	1/8	1/8	1		1	55	G3	3	162
10	10	36	1.0	0	0	4/4	2	1	1/4	1/4	1	-1	-2	70	Bb4	4	151
10	10	36	1.5	0	0	4/4	1	1	3/8	1/4	3/2		-3	75	Eb5	5	144
10	10	73/2	0.5	1/8	1/8	4/4	3	1	1/8	1/8	1		-3	51	Eb3	3	156
10	10	73/2	0.5	1/8	1/8	4/4	4	1	1/8	1/8	1		-3	51	Eb3	3	163
10	10	37	0.5	1/4	1/4	4/4	3	1	1/8	1/8	1		0	48	C3	3	157
10	10	37	0.5	1/4	1/4	4/4	4	1	1/8	1/8	1		0	48	C3	3	164
10	10	37	1.0	1/4	1/4	4/4	2	1	1/4	1/4	1		3	69	A4	4	152
10	10	75/2	0.5	3/8	3/8	4/4	3	1	1/8	1/8	1		-1	53	F3	3	158
10	10	75/2	0.5	3/8	3/8	4/4	4	1	1/8	1/8	1		-1	53	F3	3	165
10	10	75/2	0.25	3/8	3/8	4/4	1	1	1/16	1/16	1		2	74	D5	5	145
10	10	151/4	0.25	7/16	7/16	4/4	1	1	1/16	1/16	1		0	72	C5	5	146
10	10	38	0.5	1/2	1/2	4/4	3	1	1/8	1/8	1		2	50	D3	3	159
10	10	38	0.5	1/2	1/2	4/4	4	1	1/8	1/8	1		2	50	D3	3	166
10	10	38	1.5	1/2	1/2	4/4	2	1	3/8	1/4	3/2		-2	70	Bb4	4	153
10	10	38	0.5	1/2	1/2	4/4	1	1	1/8	1/8	1		2	74	D5	5	147
10	10	77/2	0.5	5/8	5/8	4/4	3	1	1/8	1/8	1		-2	46	Bb2	2	160
10	10	77/2	0.5	5/8	5/8	4/4	4	1	1/8	1/8	1		-2	46	Bb2	2	167
10	10	77/2	0.5	5/8	5/8	4/4	1	1	1/8	1/8	1		2	74	D5	5	148
10	10	39	1.0	3/4	3/4	4/4	3	1	1/4	1/4	1	1	1	55	G3	3	161
10	10	39	1.0	3/4	3/4	4/4	4	1	1/4	1/4	1	1	1	55	G3	3	168
10	10	39	0.5	3/4	3/4	4/4	1	1	1/8	1/8	1		-3	75	Eb5	5	149
10	10	79/2	0.5	7/8	7/8	4/4	1	1	1/8	1/8	1		2	74	D5	5	150
10	10	79/2	0.5	7/8	7/8	4/4	2	1	1/8	1/8	1		-2	82	Bb5	5	154
11	11	40	0.5	0	0	4/4	3	1	1/8	1/8	1	-1	1	55	G3	3	182
11	11	40	1.0	0	0	4/4	4	1	1/4	1/4	1	-1	1	55	G3	3	186
11	11	40	0.5	0	0	4/4	1	1	1/8	1/8	1		0	72	C5	5	169
11	11	40	1.5	0	0	4/4	2	1	3/8	1/4	3/2		3	81	A5	5	177
11	11	81/2	0.5	1/8	1/8	4/4	3	1	1/8	1/8	1		0	48	C3	3	183
11	11	81/2	0.5	1/8	1/8	4/4	1	1	1/8	1/8	1		3	69	A4	4	170
11	11	41	2.0	1/4	1/4	4/4	3	1	1/2	1/2	1		-1	53	F3	3	184
11	11	41	2.0	1/4	1/4	4/4	4	1	1/2	1/2	1		-1	53	F3	3	187
11	11	41	0.5	1/4	1/4	4/4	1	1	1/8	1/8	1		2	74	D5	5	171
11	11	83/2	0.5	3/8	3/8	4/4	1	1	1/8	1/8	1		0	72	C5	5	172
11	11	83/2	0.25	3/8	3/8	4/4	2	1	1/16	1/16	1		-2	82	Bb5	5	178
11	11	167/4	0.25	7/16	7/16	4/4	2	1	1/16	1/16	1		3	81	A5	5	179
11	11	42	0.5	1/2	1/2	4/4	1	1	1/8	1/8	1		-2	70	Bb4	4	173
11	11	42	1.5	1/2	1/2	4/4	2	1	3/8	1/4	3/2		1	79	G5	5	180
11	11	85/2	0.5	5/8	5/8	4/4	1	1	1/8	1/8	1		1	67	G4	4	174
11	11	43	1.0	3/4	3/4	4/4	3	1	1/4	1/4	1		4	52	E3	3	185
11	11	43	1.0	3/4	3/4	4/4	4	1	1/4	1/4	1		4	52	E3	3	188
11	11	43	0.5	3/4	3/4	4/4	1	1	1/8	1/8	1		0	72	C5	5	175
11	11	87/2	0.5	7/8	7/8	4/4	1	1	1/8	1/8	1		-2	70	Bb4	4	176
11	11	87/2	0.5	7/8	7/8	4/4	2	1	1/8	1/8	1		1	79	G5	5	181
12	12	44	1.5	0	0	4/4	3	1	3/8	1/4	3/2		-1	53	F3	3	199
12	12	44	1.5	0	0	4/4	4	1	3/8	1/4	3/2		-1	53	F3	3	204
12	12	44	1.0	0	0	4/4	1	1	1/4	1/4	1		3	69	A4	4	189
12	12	44	0.5	0	0	4/4	2	1	1/8	1/8	1		-1	77	F5	5	193
12	12	89/2	0.5	1/8	1/8	4/4	2	1	1/8	1/8	1		0	72	C5	5	194
12	12	45	1.0	1/4	1/4	4/4	2	1	1/4	1/4	1	1	-1	77	F5	5	195
12	12	91/2	0.5	3/8	3/8	4/4	3	1	1/8	1/8	1		2	50	D3	3	200
12	12	91/2	0.5	3/8	3/8	4/4	4	1	1/8	1/8	1		2	50	D3	3	205
12	12	46	1.0	1/2	1/2	4/4	3	1	1/4	1/4	1		-3	51	Eb3	3	201
12	12	46	1.0	1/2	1/2	4/4	4	1	1/4	1/4	1		-3	51	Eb3	3	206
12	12	46	0.5	1/2	1/2	4/4	2	1	1/8	1/8	1	-1	-1	77	F5	5	196
12	12	46	1.5	1/2	1/2	4/4	1	1	3/8	1/4	3/2		1	79	G5	5	190
12	12	93/2	0.5	5/8	5/8	4/4	2	1	1/8	1/8	1		-2	70	Bb4	4	197
12	12	47	0.5	3/4	3/4	4/4	3	1	1/8	1/8	1		0	48	C3	3	202
12	12	47	0.5	3/4	3/4	4/4	4	1	1/8	1/8	1		0	48	C3	3	207
12	12	47	1.0	3/4	3/4	4/4	2	1	1/4	1/4	1	1	-3	75	Eb5	5	198
12	12	95/2	0.5	7/8	7/8	4/4	3	1	1/8	1/8	1		0	60	C4	4	203
12	12	95/2	0.5	7/8	7/8	4/4	4	1	1/8	1/8	1		0	60	C4	4	208
12	12	95/2	0.25	7/8	7/8	4/4	1	1	1/16	1/16	1		3	81	A5	5	191
12	12	191/4	0.25	15/16	15/16	4/4	1	1	1/16	1/16	1		1	79	G5	5	192
13	13	48	0.5	0	0	4/4	3	1	1/8	1/8	1		3	57	A3	3	221
13	13	48	0.5	0	0	4/4	4	1	1/8	1/8	1		3	57	A3	3	226
13	13	48	0.5	0	0	4/4	2	1	1/8	1/8	1	-1	-3	75	Eb5	5	215
13	13	48	1.5	0	0	4/4	1	1	3/8	1/4	3/2		-1	77	F5	5	209
13	13	97/2	0.5	1/8	1/8	4/4	3	1	1/8	1/8	1		-1	53	F3	3	222
13	13	97/2	0.5	1/8	1/8	4/4	4	1	1/8	1/8	1		-1	53	F3	3	227
13	13	97/2	0.5	1/8	1/8	4/4	2	1	1/8	1/8	1		3	69	A4	4	216
13	13	49	1.0	1/4	1/4	4/4	3	1	1/4	1/4	1		-2	58	Bb3	3	223
13	13	49	1.0	1/4	1/4	4/4	4	1	1/4	1/4	1		-2	58	Bb3	3	228
13	13	49	1.0	1/4	1/4	4/4	2	1	1/4	1/4	1	1	2	74	D5	5	217
13	13	99/2	0.25	3/8	3/8	4/4	1	1	1/16	1/16	1		1	79	G5	5	210
13	13	199/4	0.25	7/16	7/16	4/4	1	1	1/16	1/16	1		-1	77	F5	5	211
13	13	50	1.0	1/2	1/2	4/4	3	1	1/4	1/4	1		1	55	G3	3	224
13	13	50	1.0	1/2	1/2	4/4	4	1	1/4	1/4	1		1	55	G3	3	229
13	13	50	0.5	1/2	1/2	4/4	2	1	1/8	1/8	1	-1	2	74	D5	5	218
13	13	50	1.5	1/2	1/2	4/4	1	1	3/8	1/4	3/2		-3	75	Eb5	5	212
13	13	101/2	0.5	5/8	5/8	4/4	2	1	1/8	1/8	1		1	67	G4	4	219
13	13	51	1.0	3/4	3/4	4/4	3	1	1/4	1/4	1		3	57	A3	3	225
13	13	51	1.0	3/4	3/4	4/4	4	1	1/4	1/4	1		3	57	A3	3	230
13	13	51	1.0	3/4	3/4	4/4	2	1	1/4	1/4	1	1	0	72	C5	5	220
13	13	103/2	0.25	7/8	7/8	4/4	1	1	1/16	1/16	1		-1	77	F5	5	213
13	13	207/4	0.25	15/16	15/16	4/4	1	1	1/16	1/16	1		-3	75	Eb5	5	214
14	14	52	1.5	0	0	4/4	3	1	3/8	1/4	3/2		-2	58	Bb3	3	244
14	14	52	1.5	0	0	4/4	4	1	3/8	1/4	3/2		-2	58	Bb3	3	250
14	14	52	0.5	0	0	4/4	2	1	1/8	1/8	1	-1	0	72	C5	5	240
14	14	52	1.5	0	0	4/4	1	1	3/8	1/4	3/2		2	74	D5	5	231
14	14	105/2	0.5	1/8	1/8	4/4	2	1	1/8	1/8	1		-1	65	F4	4	241
14	14	53	2.0	1/4	1/4	4/4	2	1	1/2	1/2	1		-2	70	Bb4	4	242
14	14	107/2	0.5	3/8	3/8	4/4	3	1	1/8	1/8	1		1	55	G3	3	245
14	14	107/2	0.5	3/8	3/8	4/4	4	1	1/8	1/8	1		1	55	G3	3	251
14	14	107/2	0.25	3/8	3/8	4/4	1	1	1/16	1/16	1		-3	75	Eb5	5	232
14	14	215/4	0.25	7/16	7/16	4/4	1	1	1/16	1/16	1		2	74	D5	5	233
14	14	54	0.5	1/2	1/2	4/4	3	1	1/8	1/8	1		-3	51	Eb3	3	246
14	14	54	0.5	1/2	1/2	4/4	4	1	1/8	1/8	1		-3	51	Eb3	3	252
14	14	54	0.25	1/2	1/2	4/4	1	1	1/16	1/16	1		0	72	C5	5	234
14	14	217/4	0.25	9/16	9/16	4/4	1	1	1/16	1/16	1		-1	77	F5	5	235
14	14	109/2	0.5	5/8	5/8	4/4	3	1	1/8	1/8	1		0	48	C3	3	247
14	14	109/2	0.5	5/8	5/8	4/4	4	1	1/8	1/8	1		0	48	C3	3	253
14	14	109/2	0.25	5/8	5/8	4/4	1	1	1/16	1/16	1		-3	75	Eb5	5	236
14	14	219/4	0.25	11/16	11/16	4/4	1	1	1/16	1/16	1		2	74	D5	5	237
14	14	55	0.5	3/4	3/4	4/4	3	1	1/8	1/8	1		-1	53	F3	3	248
14	14	55	0.5	3/4	3/4	4/4	4	1	1/8	1/8	1		-1	53	F3	3	254
14	14	55	1.0	3/4	3/4	4/4	2	1	1/4	1/4	1		3	69	A4	4	243
14	14	55	0.75	3/4	3/4	4/4	1	1	3/16	1/8	3/2		0	72	C5	5	238
14	14	111/2	0.5	7/8	7/8	4/4	3	1	1/8	1/8	1		-1	41	F2	2	249
14	14	111/2	0.5	7/8	7/8	4/4	4	1	1/8	1/8	1		-1	41	F2	2	255
14	14	223/4	0.25	15/16	15/16	4/4	1	1	1/16	1/16	1		0	72	C5	5	239
15	15	56	0.5	0	0	4/4	3	1	1/8	1/8	1		-2	46	Bb2	2	265
15	15	56	0.5	0	0	4/4	4	1	1/8	1/8	1		-2	46	Bb2	2	271
15	15	56	0.5	0	0	4/4	1	1	1/8	1/8	1		-2	70	Bb4	4	256
15	15	56	1.5	0	0	4/4	2	1	3/8	1/4	3/2		-2	70	Bb4	4	259
15	15	113/2	0.5	1/8	1/8	4/4	3	1	1/8	1/8	1		-2	58	Bb3	3	266
15	15	113/2	0.5	1/8	1/8	4/4	4	1	1/8	1/8	1		-2	58	Bb3	3	272
15	15	113/2	0.5	1/8	1/8	4/4	1	1	1/8	1/8	1		-1	65	F4	4	257
15	15	57	0.5	1/4	1/4	4/4	3	1	1/8	1/8	1		1	55	G3	3	267
15	15	57	0.5	1/4	1/4	4/4	4	1	1/8	1/8	1		1	55	G3	3	273
15	15	57	1.0	1/4	1/4	4/4	1	1	1/4	1/4	1		-2	70	Bb4	4	258
15	15	115/2	0.5	3/8	3/8	4/4	3	1	1/8	1/8	1		-2	58	Bb3	3	268
15	15	115/2	0.5	3/8	3/8	4/4	4	1	1/8	1/8	1		-2	58	Bb3	3	274
15	15	115/2	0.5	3/8	3/8	4/4	2	1	1/8	1/8	1		2	74	D5	5	260
15	15	58	1.0	1/2	1/2	4/4	3	1	1/4	1/4	1		-3	51	Eb3	3	269
15	15	58	1.0	1/2	1/2	4/4	4	1	1/4	1/4	1		-3	51	Eb3	3	275
15	15	58	0.5	1/2	1/2	4/4	2	1	1/8	1/8	1		1	79	G5	5	261
15	15	117/2	0.5	5/8	5/8	4/4	2	1	1/8	1/8	1		-3	75	Eb5	5	262
15	15	59	1.0	3/4	3/4	4/4	3	1	1/4	1/4	1		-1	53	F3	3	270
15	15	59	1.0	3/4	3/4	4/4	4	1	1/4	1/4	1		-1	53	F3	3	276
15	15	59	0.5	3/4	3/4	4/4	2	1	1/8	1/8	1		0	72	C5	5	263
15	15	119/2	0.5	7/8	7/8	4/4	2	1	1/8	1/8	1		-1	77	F5	5	264
16	16	60	1.5	0	0	4/4	3	1	3/8	1/4	3/2		-2	58	Bb3	3	289
16	16	60	1.5	0	0	4/4	4	1	3/8	1/4	3/2		-2	58	Bb3	3	293
16	16	60	0.5	0	0	4/4	2	1	1/8	1/8	1		2	74	D5	5	283
16	16	121/2	0.5	1/8	1/8	4/4	2	1	1/8	1/8	1		-2	70	Bb4	4	284
16	16	121/2	0.5	1/8	1/8	4/4	1	1	1/8	1/8	1		-2	82	Bb5	5	277
16	16	61	1.0	1/4	1/4	4/4	2	1	1/4	1/4	1	1	1	79	G5	5	285
16	16	61	0.5	1/4	1/4	4/4	1	1	1/8	1/8	1		-2	82	Bb5	5	278
16	16	123/2	0.5	3/8	3/8	4/4	3	1	1/8	1/8	1		1	55	G3	3	290
16	16	123/2	0.5	3/8	3/8	4/4	4	1	1/8	1/8	1		1	55	G3	3	294
16	16	123/2	0.5	3/8	3/8	4/4	1	1	1/8	1/8	1		-2	82	Bb5	5	279
16	16	62	1.5	1/2	1/2	4/4	3	1	3/8	1/4	3/2		3	57	A3	3	291
16	16	62	1.5	1/2	1/2	4/4	4	1	3/8	1/4	3/2		3	57	A3	3	295
16	16	62	0.5	1/2	1/2	4/4	2	1	1/8	1/8	1	-1	1	79	G5	5	286
16	16	62	1.5	1/2	1/2	4/4	1	1	3/8	1/4	3/2		3	81	A5	5	280
16	16	125/2	0.5	5/8	5/8	4/4	2	1	1/8	1/8	1		0	72	C5	5	287
16	16	63	1.0	3/4	3/4	4/4	2	1	1/4	1/4	1	1	-1	77	F5	5	288
16	16	127/2	0.5	7/8	7/8	4/4	3	1	1/8	1/8	1		2	62	D4	4	292
16	16	127/2	0.5	7/8	7/8	4/4	4	1	1/8	1/8	1		2	62	D4	4	296
16	16	127/2	0.25	7/8	7/8	4/4	1	1	1/16	1/16	1		-2	82	Bb5	5	281
16	16	255/4	0.25	15/16	15/16	4/4	1	1	1/16	1/16	1		3	81	A5	5	282
17	17	64	0.5	0	0	4/4	3	1	1/8	1/8	1		-2	58	Bb3	3	306
17	17	64	0.5	0	0	4/4	4	1	1/8	1/8	1		-2	58	Bb3	3	312
17	17	64	1.0	0	0	4/4	2	1	1/4	1/4	1	-1	-1	77	F5	5	301
17	17	64	2.0	0	0	4/4	1	1	1/2	1/2	1		1	79	G5	5	297
17	17	129/2	0.5	1/8	1/8	4/4	3	1	1/8	1/8	1		1	55	G3	3	307
17	17	129/2	0.5	1/8	1/8	4/4	4	1	1/8	1/8	1		1	55	G3	3	313
17	17	65	0.5	1/4	1/4	4/4	3	1	1/8	1/8	1		0	60	C4	4	308
17	17	65	0.5	1/4	1/4	4/4	4	1	1/8	1/8	1		0	60	C4	4	314
17	17	65	1.0	1/4	1/4	4/4	2	1	1/4	1/4	1		4	76	E5	5	302
17	17	131/2	0.5	3/8	3/8	4/4	3	1	1/8	1/8	1		0	48	C3	3	309
17	17	131/2	0.5	3/8	3/8	4/4	4	1	1/8	1/8	1		0	48	C3	3	315
17	17	66	1.5	1/2	1/2	4/4	3	1	3/8	1/4	3/2		-1	53	F3	3	310
17	17	66	1.5	1/2	1/2	4/4	4	1	3/8	1/4	3/2		-1	53	F3	3	316
17	17	66	0.5	1/2	1/2	4/4	1	1	1/8	1/8	1		-1	77	F5	5	298
17	17	133/2	0.5	5/8	5/8	4/4	1	1	1/8	1/8	1		3	69	A4	4	299
17	17	133/2	0.5	5/8	5/8	4/4	2	1	1/8	1/8	1		-1	77	F5	5	303
17	17	67	1.0	3/4	3/4	4/4	1	1	1/4	1/4	1	1	2	74	D5	5	300
17	17	67	0.5	3/4	3/4	4/4	2	1	1/8	1/8	1		-1	77	F5	5	304
17	17	135/2	0.5	7/8	7/8	4/4	3	1	1/8	1/8	1		-1	53	F3	3	311
17	17	135/2	0.5	7/8	7/8	4/4	4	1	1/8	1/8	1		-1	53	F3	3	317
17	17	135/2	0.5	7/8	7/8	4/4	2	1	1/8	1/8	1		-1	77	F5	5	305
18	18	68	1.0	0	0	4/4	3	1	1/4	1/4	1		1	55	G3	3	329
18	18	68	1.0	0	0	4/4	4	1	1/4	1/4	1		1	55	G3	3	333
18	18	68	0.5	0	0	4/4	1	1	1/8	1/8	1	-1	2	74	D5	5	318
18	18	68	1.5	0	0	4/4	2	1	3/8	1/4	3/2		-3	75	Eb5	5	324
18	18	137/2	0.5	1/8	1/8	4/4	1	1	1/8	1/8	1		1	67	G4	4	319
18	18	69	1.0	1/4	1/4	4/4	3	1	1/4	1/4	1		3	57	A3	3	330
18	18	69	1.0	1/4	1/4	4/4	4	1	1/4	1/4	1		3	57	A3	3	334
18	18	69	1.0	1/4	1/4	4/4	1	1	1/4	1/4	1	1	0	72	C5	5	320
18	18	139/2	0.25	3/8	3/8	4/4	2	1	1/16	1/16	1		-1	77	F5	5	325
18	18	279/4	0.25	7/16	7/16	4/4	2	1	1/16	1/16	1		-3	75	Eb5	5	326
18	18	70	1.5	1/2	1/2	4/4	3	1	3/8	1/4	3/2		-2	58	Bb3	3	331
18	18	70	1.5	1/2	1/2	4/4	4	1	3/8	1/4	3/2		-2	58	Bb3	3	335
18	18	70	0.5	1/2	1/2	4/4	1	1	1/8	1/8	1	-1	0	72	C5	5	321
18	18	70	1.5	1/2	1/2	4/4	2	1	3/8	1/4	3/2		2	74	D5	5	327
18	18	141/2	0.5	5/8	5/8	4/4	1	1	1/8	1/8	1		-1	65	F4	4	322
18	18	71	1.0	3/4	3/4	4/4	1	1	1/4	1/4	1	1	-2	70	Bb4	4	323
18	18	143/2	0.5	7/8	7/8	4/4	3	1	1/8	1/8	1		2	50	D3	3	332
18	18	143/2	0.5	7/8	7/8	4/4	4	1	1/8	1/8	1		2	50	D3	3	336
18	18	143/2	0.5	7/8	7/8	4/4	2	1	1/8	1/8	1		-1	77	F5	5	328
19	19	72	0.5	0	0	4/4	3	1	1/8	1/8	1		1	55	G3	3	347
19	19	72	0.5	0	0	4/4	4	1	1/8	1/8	1		1	55	G3	3	354
19	19	72	1.0	0	0	4/4	1	1	1/4	1/4	1	-1	-2	70	Bb4	4	337
19	19	72	1.5	0	0	4/4	2	1	3/8	1/4	3/2		-3	75	Eb5	5	342
19	19	145/2	0.5	1/8	1/8	4/4	3	1	1/8	1/8	1		-3	51	Eb3	3	348
19	19	145/2	0.5	1/8	1/8	4/4	4	1	1/8	1/8	1		-3	51	Eb3	3	355
19	19	73	0.5	1/4	1/4	4/4	3	1	1/8	1/8	1		0	48	C3	3	349
19	19	73	0.5	1/4	1/4	4/4	4	1	1/8	1/8	1		0	48	C3	3	356
19	19	73	1.0	1/4	1/4	4/4	1	1	1/4	1/4	1		3	69	A4	4	338
19	19	147/2	0.5	3/8	3/8	4/4	3	1	1/8	1/8	1		-1	53	F3	3	350
19	19	147/2	0.5	3/8	3/8	4/4	4	1	1/8	1/8	1		-1	53	F3	3	357
19	19	147/2	0.25	3/8	3/8	4/4	2	1	1/16	1/16	1		2	74	D5	5	343
19	19	295/4	0.25	7/16	7/16	4/4	2	1	1/16	1/16	1		0	72	C5	5	344
19	19	74	0.5	1/2	1/2	4/4	3	1	1/8	1/8	1		2	50	D3	3	351
19	19	74	0.5	1/2	1/2	4/4	4	1	1/8	1/8	1		2	50	D3	3	358
19	19	74	0.5	1/2	1/2	4/4	1	1	1/8	1/8	1		-2	70	Bb4	4	339
19	19	74	1.5	1/2	1/2	4/4	2	1	3/8	1/4	3/2		2	74	D5	5	345
19	19	149/2	0.5	5/8	5/8	4/4	3	1	1/8	1/8	1		-2	46	Bb2	2	352
19	19	149/2	0.5	5/8	5/8	4/4	4	1	1/8	1/8	1		-2	46	Bb2	2	359
19	19	149/2	0.5	5/8	5/8	4/4	1	1	1/8	1/8	1		-1	77	F5	5	340
19	19	75	1.0	3/4	3/4	4/4	1	1	1/4	1/4	1	1	-2	82	Bb5	5	341
19	19	151/2	0.5	7/8	7/8	4/4	3	1	1/8	1/8	1		-2	46	Bb2	2	353
19	19	151/2	0.5	7/8	7/8	4/4	4	1	1/8	1/8	1		-2	46	Bb2	2	360
19	19	151/2	0.5	7/8	7/8	4/4	2	1	1/8	1/8	1		2	74	D5	5	346
20	20	76	1.5	0	0	4/4	3	1	3/8	1/4	3/2		0	48	C3	3	375
20	20	76	1.5	0	0	4/4	4	1	3/8	1/4	3/2		0	48	C3	3	381
20	20	76	1.5	0	0	4/4	2	1	3/8	1/4	3/2		-3	75	Eb5	5	369
20	20	76	0.5	0	0	4/4	1	1	1/8	1/8	1	-1	-2	82	Bb5	5	361
20	20	153/2	0.25	1/8	1/8	4/4	1	1	1/16	1/16	1		3	81	A5	5	362
20	20	307/4	0.25	3/16	3/16	4/4	1	1	1/16	1/16	1		1	79	G5	5	363
20	20	77	1.0	1/4	1/4	4/4	1	1	1/4	1/4	1	1	3	81	A5	5	364
20	20	155/2	0.25	3/8	3/8	4/4	3	1	1/16	1/16	1		2	50	D3	3	376
20	20	155/2	0.25	3/8	3/8	4/4	4	1	1/16	1/16	1		2	50	D3	3	382
20	20	155/2	0.25	3/8	3/8	4/4	2	1	1/16	1/16	1		-1	77	F5	5	370
20	20	311/4	0.25	7/16	7/16	4/4	3	1	1/16	1/16	1		0	48	C3	3	377
20	20	311/4	0.25	7/16	7/16	4/4	4	1	1/16	1/16	1		0	48	C3	3	383
20	20	311/4	0.25	7/16	7/16	4/4	2	1	1/16	1/16	1		-3	75	Eb5	5	371
20	20	78	1.5	1/2	1/2	4/4	3	1	3/8	1/4	3/2		-2	46	Bb2	2	378
20	20	78	1.5	1/2	1/2	4/4	4	1	3/8	1/4	3/2		-2	46	Bb2	2	384
20	20	78	1.5	1/2	1/2	4/4	2	1	3/8	1/4	3/2		2	74	D5	5	372
20	20	78	0.5	1/2	1/2	4/4	1	1	1/8	1/8	1	-1	3	81	A5	5	365
20	20	157/2	0.25	5/8	5/8	4/4	1	1	1/16	1/16	1		1	79	G5	5	366
20	20	315/4	0.25	11/16	11/16	4/4	1	1	1/16	1/16	1		-1	77	F5	5	367
20	20	79	1.0	3/4	3/4	4/4	1	1	1/4	1/4	1	1	1	79	G5	5	368
20	20	159/2	0.25	7/8	7/8	4/4	3	1	1/16	1/16	1		0	48	C3	3	379
20	20	159/2	0.25	7/8	7/8	4/4	4	1	1/16	1/16	1		0	48	C3	3	385
20	20	159/2	0.25	7/8	7/8	4/4	2	1	1/16	1/16	1		-3	75	Eb5	5	373
20	20	319/4	0.25	15/16	15/16	4/4	3	1	1/16	1/16	1		-2	46	Bb2	2	380
20	20	319/4	0.25	15/16	15/16	4/4	4	1	1/16	1/16	1		-2	46	Bb2	2	386
20	20	319/4	0.25	15/16	15/16	4/4	2	1	1/16	1/16	1		2	74	D5	5	374
21	21	80	1.5	0	0	4/4	3	1	3/8	1/4	3/2		3	45	A2	2	399
21	21	80	1.5	0	0	4/4	4	1	3/8	1/4	3/2		3	45	A2	2	405
21	21	80	1.5	0	0	4/4	2	1	3/8	1/4	3/2		0	72	C5	5	393
21	21	80	1.0	0	0	4/4	1	1	1/4	1/4	1	-1	1	79	G5	5	387
21	21	81	1.0	1/4	1/4	4/4	1	1	1/4	1/4	1		6	78	F#5	5	388
21	21	163/2	0.5	3/8	3/8	4/4	3	1	1/8	1/8	1		3	45	A2	2	400
21	21	163/2	0.5	3/8	3/8	4/4	4	1	1/8	1/8	1		3	45	A2	2	406
21	21	163/2	0.25	3/8	3/8	4/4	2	1	1/16	1/16	1		2	74	D5	5	394
21	21	327/4	0.25	7/16	7/16	4/4	2	1	1/16	1/16	1		0	72	C5	5	395
21	21	82	0.5	1/2	1/2	4/4	3	1	1/8	1/8	1		1	43	G2	2	401
21	21	82	0.5	1/2	1/2	4/4	4	1	1/8	1/8	1		1	43	G2	2	407
21	21	82	0.5	1/2	1/2	4/4	2	1	1/8	1/8	1		-2	70	Bb4	4	396
21	21	82	0.5	1/2	1/2	4/4	1	1	1/8	1/8	1		1	79	G5	5	389
21	21	165/2	0.5	5/8	5/8	4/4	3	1	1/8	1/8	1		1	55	G3	3	402
21	21	165/2	0.5	5/8	5/8	4/4	4	1	1/8	1/8	1		1	55	G3	3	408
21	21	165/2	0.5	5/8	5/8	4/4	1	1	1/8	1/8	1		-2	70	Bb4	4	390
21	21	165/2	0.5	5/8	5/8	4/4	2	1	1/8	1/8	1		2	74	D5	5	397
21	21	83	0.5	3/4	3/4	4/4	3	1	1/8	1/8	1		1	55	G3	3	403
21	21	83	0.5	3/4	3/4	4/4	4	1	1/8	1/8	1		1	55	G3	3	409
21	21	83	0.5	3/4	3/4	4/4	1	1	1/8	1/8	1		-2	70	Bb4	4	391
21	21	83	1.0	3/4	3/4	4/4	2	1	1/4	1/4	1	1	-3	75	Eb5	5	398
21	21	167/2	0.5	7/8	7/8	4/4	3	1	1/8	1/8	1		1	55	G3	3	404
21	21	167/2	0.5	7/8	7/8	4/4	4	1	1/8	1/8	1		1	55	G3	3	410
21	21	167/2	0.5	7/8	7/8	4/4	1	1	1/8	1/8	1		-2	70	Bb4	4	392
22	22	84	1.5	0	0	4/4	3	1	3/8	1/4	3/2		-1	53	F3	3	426
22	22	84	1.5	0	0	4/4	4	1	3/8	1/4	3/2		-1	53	F3	3	431
22	22	84	1.5	0	0	4/4	1	1	3/8	1/4	3/2		3	69	A4	4	411
22	22	84	0.5	0	0	4/4	2	1	1/8	1/8	1	-1	-3	75	Eb5	5	417
22	22	169/2	0.25	1/8	1/8	4/4	2	1	1/16	1/16	1		2	74	D5	5	418
22	22	339/4	0.25	3/16	3/16	4/4	2	1	1/16	1/16	1		0	72	C5	5	419
22	22	85	1.0	1/4	1/4	4/4	2	1	1/4	1/4	1	1	2	74	D5	5	420
22	22	171/2	0.25	3/8	3/8	4/4	3	1	1/16	1/16	1		1	55	G3	3	427
22	22	171/2	0.25	3/8	3/8	4/4	4	1	1/16	1/16	1		1	55	G3	3	432
22	22	171/2	0.25	3/8	3/8	4/4	1	1	1/16	1/16	1		-2	70	Bb4	4	412
22	22	343/4	0.25	7/16	7/16	4/4	3	1	1/16	1/16	1		-1	53	F3	3	428
22	22	343/4	0.25	7/16	7/16	4/4	4	1	1/16	1/16	1		-1	53	F3	3	433
22	22	343/4	0.25	7/16	7/16	4/4	1	1	1/16	1/16	1		3	69	A4	4	413
22	22	86	1.5	1/2	1/2	4/4	3	1	3/8	1/4	3/2		-3	51	Eb3	3	429
22	22	86	1.5	1/2	1/2	4/4	4	1	3/8	1/4	3/2		-3	51	Eb3	3	434
22	22	86	1.5	1/2	1/2	4/4	1	1	3/8	1/4	3/2		1	67	G4	4	414
22	22	86	0.5	1/2	1/2	4/4	2	1	1/8	1/8	1	-1	2	74	D5	5	421
22	22	173/2	0.25	5/8	5/8	4/4	2	1	1/16	1/16	1		0	72	C5	5	422
22	22	347/4	0.25	11/16	11/16	4/4	2	1	1/16	1/16	1		-2	70	Bb4	4	423
22	22	87	0.5	3/4	3/4	4/4	2	1	1/8	1/8	1		0	72	C5	5	424
22	22	175/2	0.5	7/8	7/8	4/4	3	1	1/8	1/8	1		-3	51	Eb3	3	430
22	22	175/2	0.5	7/8	7/8	4/4	4	1	1/8	1/8	1		-3	51	Eb3	3	435
22	22	175/2	0.25	7/8	7/8	4/4	1	1	1/16	1/16	1		3	69	A4	4	415
22	22	175/2	0.5	7/8	7/8	4/4	2	1	1/8	1/8	1		0	72	C5	5	425
22	22	351/4	0.25	15/16	15/16	4/4	1	1	1/16	1/16	1		1	67	G4	4	416
23	23	88	1.0	0	0	4/4	3	1	1/4	1/4	1		2	50	D3	3	446
23	23	88	1.0	0	0	4/4	4	1	1/4	1/4	1		2	50	D3	3	450
23	23	88	0.5	0	0	4/4	1	1	1/8	1/8	1		6	66	F#4	4	436
23	23	88	1.0	0	0	4/4	2	1	1/4	1/4	1		2	74	D5	5	440
23	23	177/2	0.5	1/8	1/8	4/4	1	1	1/8	1/8	1		3	69	A4	4	437
23	23	89	2.0	1/4	1/4	4/4	1	1	1/2	1/2	1		2	74	D5	5	438
23	23	179/2	0.5	3/8	3/8	4/4	3	1	1/8	1/8	1		-2	46	Bb2	2	447
23	23	179/2	0.5	3/8	3/8	4/4	4	1	1/8	1/8	1		-2	46	Bb2	2	451
23	23	179/2	0.5	3/8	3/8	4/4	2	1	1/8	1/8	1		2	62	D4	4	441
23	23	90	1.5	1/2	1/2	4/4	3	1	3/8	1/4	3/2		0	48	C3	3	448
23	23	90	1.5	1/2	1/2	4/4	4	1	3/8	1/4	3/2		0	48	C3	3	452
23	23	90	0.5	1/2	1/2	4/4	2	1	1/8	1/8	1		4	64	E4	4	442
23	23	181/2	0.5	5/8	5/8	4/4	2	1	1/8	1/8	1		6	66	F#4	4	443
23	23	91	0.5	3/4	3/4	4/4	2	1	1/8	1/8	1		1	67	G4	4	444
23	23	91	1.0	3/4	3/4	4/4	1	1	1/4	1/4	1	1	0	72	C5	5	439
23	23	183/2	0.5	7/8	7/8	4/4	3	1	1/8	1/8	1		0	48	C3	3	449
23	23	183/2	0.5	7/8	7/8	4/4	4	1	1/8	1/8	1		0	48	C3	3	453
23	23	183/2	0.5	7/8	7/8	4/4	2	1	1/8	1/8	1		3	69	A4	4	445
24	24	92	1.0	0	0	4/4	3	1	1/4	1/4	1		2	50	D3	3	461
24	24	92	1.0	0	0	4/4	4	1	1/4	1/4	1		2	50	D3	3	465
24	24	92	0.5	0	0	4/4	2	1	1/8	1/8	1		6	66	F#4	4	457
24	24	92	1.0	0	0	4/4	1	1	1/4	1/4	1	-1	0	72	C5	5	454
24	24	185/2	0.5	1/8	1/8	4/4	2	1	1/8	1/8	1		2	62	D4	4	458
24	24	93	1.0	1/4	1/4	4/4	3	1	1/4	1/4	1		-3	51	Eb3	3	462
24	24	93	1.0	1/4	1/4	4/4	4	1	1/4	1/4	1		-3	51	Eb3	3	466
24	24	93	2.0	1/4	1/4	4/4	2	1	1/2	1/2	1		1	67	G4	4	459
24	24	93	1.0	1/4	1/4	4/4	1	1	1/4	1/4	1		-2	70	Bb4	4	455
24	24	94	1.0	1/2	1/2	4/4	3	1	1/4	1/4	1		0	48	C3	3	463
24	24	94	1.0	1/2	1/2	4/4	4	1	1/4	1/4	1		0	48	C3	3	467
24	24	94	2.0	1/2	1/2	4/4	1	1	1/2	1/2	1		3	69	A4	4	456
24	24	95	1.0	3/4	3/4	4/4	3	1	1/4	1/4	1		2	50	D3	3	464
24	24	95	1.0	3/4	3/4	4/4	4	1	1/4	1/4	1		2	50	D3	3	468
24	24	95	1.0	3/4	3/4	4/4	2	1	1/4	1/4	1		6	66	F#4	4	460
25	25	96	1.5	0	0	4/4	3	1	3/8	1/4	3/2		1	43	G2	2	482
25	25	96	1.5	0	0	4/4	4	1	3/8	1/4	3/2		1	43	G2	2	486
25	25	96	0.5	0	0	4/4	1	1	1/8	1/8	1		1	67	G4	4	469
25	25	96	0.5	0	0	4/4	2	1	1/8	1/8	1		1	67	G4	4	476
25	25	193/2	0.5	1/8	1/8	4/4	2	1	1/8	1/8	1		-2	70	Bb4	4	477
25	25	193/2	0.5	1/8	1/8	4/4	1	1	1/8	1/8	1		1	79	G5	5	470
25	25	97	1.0	1/4	1/4	4/4	2	1	1/4	1/4	1	1	-3	75	Eb5	5	478
25	25	97	0.5	1/4	1/4	4/4	1	1	1/8	1/8	1		1	79	G5	5	471
25	25	195/2	0.5	3/8	3/8	4/4	3	1	1/8	1/8	1		1	43	G2	2	483
25	25	195/2	0.5	3/8	3/8	4/4	4	1	1/8	1/8	1		1	43	G2	2	487
25	25	195/2	0.5	3/8	3/8	4/4	1	1	1/8	1/8	1		1	79	G5	5	472
25	25	98	1.0	1/2	1/2	4/4	3	1	1/4	1/4	1		3	45	A2	2	484
25	25	98	1.0	1/2	1/2	4/4	4	1	1/4	1/4	1		3	45	A2	2	488
25	25	98	0.5	1/2	1/2	4/4	2	1	1/8	1/8	1	-1	-3	75	Eb5	5	479
25	25	98	1.5	1/2	1/2	4/4	1	1	3/8	1/4	3/2		-1	77	F5	5	473
25	25	197/2	0.5	5/8	5/8	4/4	2	1	1/8	1/8	1		3	69	A4	4	480
25	25	99	1.0	3/4	3/4	4/4	3	1	1/4	1/4	1		5	47	B2	2	485
25	25	99	1.0	3/4	3/4	4/4	4	1	1/4	1/4	1		5	47	B2	2	489
25	25	99	1.0	3/4	3/4	4/4	2	1	1/4	1/4	1	1	2	74	D5	5	481
25	25	199/2	0.25	7/8	7/8	4/4	1	1	1/16	1/16	1		1	79	G5	5	474
25	25	399/4	0.25	15/16	15/16	4/4	1	1	1/16	1/16	1		-1	77	F5	5	475
26	26	100	1.5	0	0	4/4	3	1	3/8	1/4	3/2		0	48	C3	3	498
26	26	100	1.5	0	0	4/4	4	1	3/8	1/4	3/2		0	48	C3	3	502
26	26	100	0.5	0	0	4/4	2	1	1/8	1/8	1	-1	2	74	D5	5	494
26	26	100	1.5	0	0	4/4	1	1	3/8	1/4	3/2		-3	75	Eb5	5	490
26	26	201/2	0.5	1/8	1/8	4/4	2	1	1/8	1/8	1		1	67	G4	4	495
26	26	101	2.0	1/4	1/4	4/4	2	1	1/2	1/2	1		0	72	C5	5	496
26	26	203/2	0.5	3/8	3/8	4/4	3	1	1/8	1/8	1		-4	56	Ab3	3	499
26	26	203/2	0.5	3/8	3/8	4/4	4	1	1/8	1/8	1		-4	56	Ab3	3	503
26	26	203/2	0.25	3/8	3/8	4/4	1	1	1/16	1/16	1		-1	77	F5	5	491
26	26	407/4	0.25	7/16	7/16	4/4	1	1	1/16	1/16	1		-3	75	Eb5	5	492
26	26	102	1.0	1/2	1/2	4/4	3	1	1/4	1/4	1		-1	53	F3	3	500
26	26	102	1.0	1/2	1/2	4/4	4	1	1/4	1/4	1		-1	53	F3	3	504
26	26	102	2.0	1/2	1/2	4/4	1	1	1/2	1/2	1		2	74	D5	5	493
26	26	103	1.0	3/4	3/4	4/4	3	1	1/4	1/4	1		1	55	G3	3	501
26	26	103	1.0	3/4	3/4	4/4	4	1	1/4	1/4	1		1	55	G3	3	505
26	26	103	1.0	3/4	3/4	4/4	2	1	1/4	1/4	1		5	71	B4	4	497
27	27	104	0.5	0	0	4/4	3	1	1/8	1/8	1		0	48	C3	3	513
27	27	104	1.0	0	0	4/4	4	1	1/4	1/4	1		0	48	C3	3	520
27	27	104	1.0	0	0	4/4	2	1	1/4	1/4	1		0	72	C5	5	512
27	27	104	0.5	0	0	4/4	1	1	1/8	1/8	1		-3	75	Eb5	5	506
27	27	209/2	0.5	1/8	1/8	4/4	3	1	1/8	1/8	1		0	60	C4	4	514
27	27	209/2	0.5	1/8	1/8	4/4	1	1	1/8	1/8	1		0	72	C5	5	507
27	27	105	0.5	1/4	1/4	4/4	3	1	1/8	1/8	1		0	60	C4	4	515
27	27	105	1.0	1/4	1/4	4/4	4	1	1/4	1/4	1		0	60	C4	4	521
27	27	105	0.5	1/4	1/4	4/4	1	1	1/8	1/8	1		0	72	C5	5	508
27	27	211/2	0.5	3/8	3/8	4/4	3	1	1/8	1/8	1		0	60	C4	4	516
27	27	211/2	0.5	3/8	3/8	4/4	1	1	1/8	1/8	1		0	72	C5	5	509
27	27	106	1.0	1/2	1/2	4/4	4	1	1/4	1/4	1		-2	58	Bb3	3	522
27	27	106	1.5	1/2	1/2	4/4	3	1	3/8	1/4	3/2		-2	58	Bb3	3	517
27	27	106	1.0	1/2	1/2	4/4	1	1	1/4	1/4	1		2	74	D5	5	510
27	27	107	1.0	3/4	3/4	4/4	4	1	1/4	1/4	1		1	55	G3	3	523
27	27	107	1.0	3/4	3/4	4/4	1	1	1/4	1/4	1		4	76	E5	5	511
27	27	215/2	0.25	7/8	7/8	4/4	3	1	1/16	1/16	1		0	60	C4	4	518
27	27	431/4	0.25	15/16	15/16	4/4	3	1	1/16	1/16	1		-2	58	Bb3	3	519
28	28	108	0.5	0	0	4/4	4	1	1/8	1/8	1		0	48	C3	3	537
28	28	108	1.0	0	0	4/4	3	1	1/4	1/4	1		3	57	A3	3	536
28	28	108	0.5	0	0	4/4	1	1	1/8	1/8	1		-1	77	F5	5	524
28	28	217/2	0.5	1/8	1/8	4/4	1	1	1/8	1/8	1		-1	65	F4	4	525
28	28	217/2	0.5	1/8	1/8	4/4	4	1	1/8	1/8	1		-1	65	F4	4	538
28	28	217/2	0.5	1/8	1/8	4/4	2	1	1/8	1/8	1		-1	77	F5	5	530
28	28	109	0.5	1/4	1/4	4/4	1	1	1/8	1/8	1		-1	65	F4	4	526
28	28	109	0.5	1/4	1/4	4/4	4	1	1/8	1/8	1		-1	65	F4	4	539
28	28	109	0.5	1/4	1/4	4/4	2	1	1/8	1/8	1		-1	77	F5	5	531
28	28	219/2	0.5	3/8	3/8	4/4	1	1	1/8	1/8	1		-1	65	F4	4	527
28	28	219/2	0.5	3/8	3/8	4/4	4	1	1/8	1/8	1		-1	65	F4	4	540
28	28	219/2	0.5	3/8	3/8	4/4	2	1	1/8	1/8	1		-1	77	F5	5	532
28	28	110	1.0	1/2	1/2	4/4	1	1	1/4	1/4	1		1	67	G4	4	528
28	28	110	1.0	1/2	1/2	4/4	4	1	1/4	1/4	1		1	67	G4	4	541
28	28	110	1.5	1/2	1/2	4/4	2	1	3/8	1/4	3/2		-3	75	Eb5	5	533
28	28	111	1.0	3/4	3/4	4/4	1	1	1/4	1/4	1		3	69	A4	4	529
28	28	111	1.0	3/4	3/4	4/4	4	1	1/4	1/4	1		3	69	A4	4	542
28	28	223/2	0.25	7/8	7/8	4/4	2	1	1/16	1/16	1		-1	77	F5	5	534
28	28	447/4	0.25	15/16	15/16	4/4	2	1	1/16	1/16	1		-3	75	Eb5	5	535
29	29	112	0.5	0	0	4/4	1	1	1/8	1/8	1		-2	70	Bb4	4	543
29	29	112	0.5	0	0	4/4	4	1	1/8	1/8	1		-2	70	Bb4	4	561
29	29	112	0.5	0	0	4/4	2	1	1/8	1/8	1		2	74	D5	5	550
29	29	225/2	0.5	1/8	1/8	4/4	3	1	1/8	1/8	1		-2	46	Bb2	2	556
29	29	225/2	0.5	1/8	1/8	4/4	4	1	1/8	1/8	1		-2	46	Bb2	2	562
29	29	225/2	0.5	1/8	1/8	4/4	2	1	1/8	1/8	1		-2	70	Bb4	4	551
29	29	225/2	0.5	1/8	1/8	4/4	1	1	1/8	1/8	1		-2	82	Bb5	5	544
29	29	113	0.5	1/4	1/4	4/4	3	1	1/8	1/8	1		-2	46	Bb2	2	557
29	29	113	0.5	1/4	1/4	4/4	4	1	1/8	1/8	1		-2	46	Bb2	2	563
29	29	113	1.0	1/4	1/4	4/4	2	1	1/4	1/4	1	1	1	79	G5	5	552
29	29	113	0.5	1/4	1/4	4/4	1	1	1/8	1/8	1		-2	82	Bb5	5	545
29	29	227/2	0.5	3/8	3/8	4/4	3	1	1/8	1/8	1		-2	46	Bb2	2	558
29	29	227/2	0.5	3/8	3/8	4/4	4	1	1/8	1/8	1		-2	46	Bb2	2	564
29	29	227/2	0.5	3/8	3/8	4/4	1	1	1/8	1/8	1		-2	82	Bb5	5	546
29	29	114	1.0	1/2	1/2	4/4	3	1	1/4	1/4	1		0	48	C3	3	559
29	29	114	1.0	1/2	1/2	4/4	4	1	1/4	1/4	1		0	48	C3	3	565
29	29	114	0.5	1/2	1/2	4/4	2	1	1/8	1/8	1	-1	1	79	G5	5	553
29	29	114	1.5	1/2	1/2	4/4	1	1	3/8	1/4	3/2		3	81	A5	5	547
29	29	229/2	0.5	5/8	5/8	4/4	2	1	1/8	1/8	1		0	72	C5	5	554
29	29	115	1.0	3/4	3/4	4/4	3	1	1/4	1/4	1		2	50	D3	3	560
29	29	115	1.0	3/4	3/4	4/4	4	1	1/4	1/4	1		2	50	D3	3	566
29	29	115	1.0	3/4	3/4	4/4	2	1	1/4	1/4	1	1	-1	77	F5	5	555
29	29	231/2	0.25	7/8	7/8	4/4	1	1	1/16	1/16	1		-2	82	Bb5	5	548
29	29	463/4	0.25	15/16	15/16	4/4	1	1	1/16	1/16	1		3	81	A5	5	549
30	30	116	1.0	0	0	4/4	3	1	1/4	1/4	1		-3	51	Eb3	3	577
30	30	116	1.0	0	0	4/4	4	1	1/4	1/4	1		-3	51	Eb3	3	584
30	30	116	0.5	0	0	4/4	2	1	1/8	1/8	1	-1	-1	77	F5	5	573
30	30	116	1.5	0	0	4/4	1	1	3/8	1/4	3/2		1	79	G5	5	567
30	30	233/2	0.5	1/8	1/8	4/4	2	1	1/8	1/8	1		-2	70	Bb4	4	574
30	30	117	0.5	1/4	1/4	4/4	3	1	1/8	1/8	1		0	48	C3	3	578
30	30	117	0.5	1/4	1/4	4/4	4	1	1/8	1/8	1		0	48	C3	3	585
30	30	117	1.0	1/4	1/4	4/4	2	1	1/4	1/4	1		-3	75	Eb5	5	575
30	30	235/2	0.5	3/8	3/8	4/4	3	1	1/8	1/8	1		0	60	C4	4	579
30	30	235/2	0.5	3/8	3/8	4/4	4	1	1/8	1/8	1		0	60	C4	4	586
30	30	235/2	0.25	3/8	3/8	4/4	1	1	1/16	1/16	1		3	81	A5	5	568
30	30	471/4	0.25	7/16	7/16	4/4	1	1	1/16	1/16	1		1	79	G5	5	569
30	30	118	0.5	1/2	1/2	4/4	3	1	1/8	1/8	1		3	57	A3	3	580
30	30	118	0.5	1/2	1/2	4/4	4	1	1/8	1/8	1		3	57	A3	3	587
30	30	118	0.5	1/2	1/2	4/4	1	1	1/8	1/8	1		-1	77	F5	5	570
30	30	237/2	0.5	5/8	5/8	4/4	3	1	1/8	1/8	1		-1	53	F3	3	581
30	30	237/2	0.5	5/8	5/8	4/4	4	1	1/8	1/8	1		-1	53	F3	3	588
30	30	237/2	0.5	5/8	5/8	4/4	1	1	1/8	1/8	1		-1	77	F5	5	571
30	30	119	0.5	3/4	3/4	4/4	3	1	1/8	1/8	1		2	50	D3	3	582
30	30	119	0.5	3/4	3/4	4/4	4	1	1/8	1/8	1		2	50	D3	3	589
30	30	119	1.0	3/4	3/4	4/4	1	1	1/4	1/4	1	1	-2	82	Bb5	5	572
30	30	239/2	0.5	7/8	7/8	4/4	3	1	1/8	1/8	1		-2	46	Bb2	2	583
30	30	239/2	0.5	7/8	7/8	4/4	4	1	1/8	1/8	1		-2	46	Bb2	2	590
30	30	239/2	0.5	7/8	7/8	4/4	2	1	1/8	1/8	1		2	74	D5	5	576
31	31	120	1.0	0	0	4/4	3	1	1/4	1/4	1		-3	51	Eb3	3	604
31	31	120	1.0	0	0	4/4	4	1	1/4	1/4	1		-3	51	Eb3	3	609
31	31	120	0.5	0	0	4/4	2	1	1/8	1/8	1		1	79	G5	5	597
31	31	120	1.0	0	0	4/4	1	1	1/4	1/4	1	-1	-2	82	Bb5	5	591
31	31	241/2	0.5	1/8	1/8	4/4	2	1	1/8	1/8	1		-3	75	Eb5	5	598
31	31	121	1.0	1/4	1/4	4/4	3	1	1/4	1/4	1		-1	53	F3	3	605
31	31	121	1.0	1/4	1/4	4/4	4	1	1/4	1/4	1		-1	53	F3	3	610
31	31	121	0.5	1/4	1/4	4/4	2	1	1/8	1/8	1		0	72	C5	5	599
31	31	121	1.0	1/4	1/4	4/4	1	1	1/4	1/4	1		3	81	A5	5	592
31	31	243/2	0.5	3/8	3/8	4/4	2	1	1/8	1/8	1		-1	77	F5	5	600
31	31	122	0.5	1/2	1/2	4/4	4	1	1/8	1/8	1		-2	46	Bb2	2	611
31	31	122	0.5	1/2	1/2	4/4	2	1	1/8	1/8	1		2	74	D5	5	601
31	31	122	0.5	1/2	1/2	4/4	1	1	1/8	1/8	1		-2	82	Bb5	5	593
31	31	245/2	0.5	5/8	5/8	4/4	3	1	1/8	1/8	1		-2	58	Bb3	3	606
31	31	245/2	0.5	5/8	5/8	4/4	4	1	1/8	1/8	1		-2	58	Bb3	3	612
31	31	245/2	0.5	5/8	5/8	4/4	2	1	1/8	1/8	1		-2	70	Bb4	4	602
31	31	245/2	0.5	5/8	5/8	4/4	1	1	1/8	1/8	1		2	74	D5	5	594
31	31	123	0.5	3/4	3/4	4/4	3	1	1/8	1/8	1		-2	58	Bb3	3	607
31	31	123	0.5	3/4	3/4	4/4	4	1	1/8	1/8	1		-2	58	Bb3	3	613
31	31	123	0.5	3/4	3/4	4/4	1	1	1/8	1/8	1		2	74	D5	5	595
31	31	123	1.0	3/4	3/4	4/4	2	1	1/4	1/4	1	1	1	79	G5	5	603
31	31	247/2	0.5	7/8	7/8	4/4	3	1	1/8	1/8	1		-2	58	Bb3	3	608
31	31	247/2	0.5	7/8	7/8	4/4	4	1	1/8	1/8	1		-2	58	Bb3	3	614
31	31	247/2	0.5	7/8	7/8	4/4	1	1	1/8	1/8	1		2	74	D5	5	596
32	32	124	1.5	0	0	4/4	3	1	3/8	1/4	3/2		3	57	A3	3	625
32	32	124	1.5	0	0	4/4	4	1	3/8	1/4	3/2		3	57	A3	3	629
32	32	124	1.0	0	0	4/4	1	1	1/4	1/4	1		0	72	C5	5	615
32	32	124	0.5	0	0	4/4	2	1	1/8	1/8	1	-1	1	79	G5	5	621
32	32	249/2	0.5	1/8	1/8	4/4	2	1	1/8	1/8	1		0	72	C5	5	622
32	32	125	2.0	1/4	1/4	4/4	2	1	1/2	1/2	1		-1	77	F5	5	623
32	32	251/2	0.5	3/8	3/8	4/4	3	1	1/8	1/8	1		-1	53	F3	3	626
32	32	251/2	0.5	3/8	3/8	4/4	4	1	1/8	1/8	1		-1	53	F3	3	630
32	32	251/2	0.5	3/8	3/8	4/4	1	1	1/8	1/8	1		3	69	A4	4	616
32	32	126	1.0	1/2	1/2	4/4	3	1	1/4	1/4	1		-2	46	Bb2	2	627
32	32	126	1.0	1/2	1/2	4/4	4	1	1/4	1/4	1		-2	46	Bb2	2	631
32	32	126	0.5	1/2	1/2	4/4	1	1	1/8	1/8	1		2	74	D5	5	617
32	32	253/2	0.5	5/8	5/8	4/4	1	1	1/8	1/8	1		-2	70	Bb4	4	618
32	32	127	1.0	3/4	3/4	4/4	3	1	1/4	1/4	1		0	48	C3	3	628
32	32	127	1.0	3/4	3/4	4/4	4	1	1/4	1/4	1		0	48	C3	3	632
32	32	127	0.5	3/4	3/4	4/4	1	1	1/8	1/8	1		1	67	G4	4	619
32	32	127	1.0	3/4	3/4	4/4	2	1	1/4	1/4	1		4	76	E5	5	624
32	32	255/2	0.5	7/8	7/8	4/4	1	1	1/8	1/8	1		0	72	C5	5	620
33	33	128	0.5	0	0	4/4	3	1	1/8	1/8	1		-1	41	F2	2	645
33	33	128	0.5	0	0	4/4	4	1	1/8	1/8	1		-1	41	F2	2	651
33	33	128	0.5	0	0	4/4	1	1	1/8	1/8	1		3	69	A4	4	633
33	33	257/2	0.5	1/8	1/8	4/4	3	1	1/8	1/8	1		-1	53	F3	3	646
33	33	257/2	0.5	1/8	1/8	4/4	4	1	1/8	1/8	1		-1	53	F3	3	652
33	33	257/2	0.5	1/8	1/8	4/4	1	1	1/8	1/8	1		-1	65	F4	4	634
33	33	257/2	0.5	1/8	1/8	4/4	2	1	1/8	1/8	1		-1	77	F5	5	639
33	33	129	0.5	1/4	1/4	4/4	3	1	1/8	1/8	1		-1	53	F3	3	647
33	33	129	0.5	1/4	1/4	4/4	4	1	1/8	1/8	1		-1	53	F3	3	653
33	33	129	1.0	1/4	1/4	4/4	1	1	1/4	1/4	1	1	2	74	D5	5	635
33	33	129	0.5	1/4	1/4	4/4	2	1	1/8	1/8	1		-1	77	F5	5	640
33	33	259/2	0.5	3/8	3/8	4/4	3	1	1/8	1/8	1		-1	53	F3	3	648
33	33	259/2	0.5	3/8	3/8	4/4	4	1	1/8	1/8	1		-1	53	F3	3	654
33	33	259/2	0.5	3/8	3/8	4/4	2	1	1/8	1/8	1		-1	77	F5	5	641
33	33	130	1.0	1/2	1/2	4/4	3	1	1/4	1/4	1		1	55	G3	3	649
33	33	130	1.0	1/2	1/2	4/4	4	1	1/4	1/4	1		1	55	G3	3	655
33	33	130	0.5	1/2	1/2	4/4	1	1	1/8	1/8	1	-1	2	74	D5	5	636
33	33	130	1.5	1/2	1/2	4/4	2	1	3/8	1/4	3/2		-3	75	Eb5	5	642
33	33	261/2	0.5	5/8	5/8	4/4	1	1	1/8	1/8	1		1	67	G4	4	637
33	33	131	1.0	3/4	3/4	4/4	3	1	1/4	1/4	1		3	57	A3	3	650
33	33	131	1.0	3/4	3/4	4/4	4	1	1/4	1/4	1		3	57	A3	3	656
33	33	131	1.0	3/4	3/4	4/4	1	1	1/4	1/4	1	1	0	72	C5	5	638
33	33	263/2	0.25	7/8	7/8	4/4	2	1	1/16	1/16	1		-1	77	F5	5	643
33	33	527/4	0.25	15/16	15/16	4/4	2	1	1/16	1/16	1		-3	75	Eb5	5	644
34	34	132	1.5	0	0	4/4	3	1	3/8	1/4	3/2		-2	58	Bb3	3	666
34	34	132	1.5	0	0	4/4	4	1	3/8	1/4	3/2		-2	58	Bb3	3	672
34	34	132	0.5	0	0	4/4	1	1	1/8	1/8	1	-1	0	72	C5	5	657
34	34	132	1.5	0	0	4/4	2	1	3/8	1/4	3/2		2	74	D5	5	661
34	34	265/2	0.5	1/8	1/8	4/4	1	1	1/8	1/8	1		-1	65	F4	4	658
34	34	133	2.0	1/4	1/4	4/4	1	1	1/2	1/2	1		-2	70	Bb4	4	659
34	34	267/2	0.5	3/8	3/8	4/4	3	1	1/8	1/8	1		2	50	D3	3	667
34	34	267/2	0.5	3/8	3/8	4/4	4	1	1/8	1/8	1		2	50	D3	3	673
34	34	267/2	0.5	3/8	3/8	4/4	2	1	1/8	1/8	1		-1	77	F5	5	662
34	34	134	0.5	1/2	1/2	4/4	3	1	1/8	1/8	1		1	55	G3	3	668
34	34	134	0.5	1/2	1/2	4/4	4	1	1/8	1/8	1		1	55	G3	3	674
34	34	134	1.5	1/2	1/2	4/4	2	1	3/8	1/4	3/2		-3	75	Eb5	5	663
34	34	269/2	0.5	5/8	5/8	4/4	3	1	1/8	1/8	1		-3	51	Eb3	3	669
34	34	269/2	0.5	5/8	5/8	4/4	4	1	1/8	1/8	1		-3	51	Eb3	3	675
34	34	135	0.5	3/4	3/4	4/4	3	1	1/8	1/8	1		0	48	C3	3	670
34	34	135	0.5	3/4	3/4	4/4	4	1	1/8	1/8	1		0	48	C3	3	676
34	34	135	1.0	3/4	3/4	4/4	1	1	1/4	1/4	1		3	69	A4	4	660
34	34	271/2	0.5	7/8	7/8	4/4	3	1	1/8	1/8	1		-1	53	F3	3	671
34	34	271/2	0.5	7/8	7/8	4/4	4	1	1/8	1/8	1		-1	53	F3	3	677
34	34	271/2	0.25	7/8	7/8	4/4	2	1	1/16	1/16	1		-1	77	F5	5	664
34	34	543/4	0.25	15/16	15/16	4/4	2	1	1/16	1/16	1		-3	75	Eb5	5	665
35	35	136	0.5	0	0	4/4	3	1	1/8	1/8	1		2	50	D3	3	691
35	35	136	0.5	0	0	4/4	4	1	1/8	1/8	1		2	50	D3	3	696
35	35	136	0.5	0	0	4/4	1	1	1/8	1/8	1		-2	70	Bb4	4	678
35	35	136	0.5	0	0	4/4	2	1	1/8	1/8	1		2	74	D5	5	685
35	35	273/2	0.5	1/8	1/8	4/4	3	1	1/8	1/8	1		-2	46	Bb2	2	692
35	35	273/2	0.5	1/8	1/8	4/4	4	1	1/8	1/8	1		-2	46	Bb2	2	697
35	35	273/2	0.5	1/8	1/8	4/4	2	1	1/8	1/8	1		2	74	D5	5	686
35	35	273/2	0.5	1/8	1/8	4/4	1	1	1/8	1/8	1		-2	82	Bb5	5	679
35	35	137	1.0	1/4	1/4	4/4	2	1	1/4	1/4	1	1	1	79	G5	5	687
35	35	137	0.5	1/4	1/4	4/4	1	1	1/8	1/8	1		-2	82	Bb5	5	680
35	35	275/2	0.5	3/8	3/8	4/4	3	1	1/8	1/8	1		-2	46	Bb2	2	693
35	35	275/2	0.5	3/8	3/8	4/4	4	1	1/8	1/8	1		-2	46	Bb2	2	698
35	35	275/2	0.5	3/8	3/8	4/4	1	1	1/8	1/8	1		-2	82	Bb5	5	681
35	35	138	1.0	1/2	1/2	4/4	3	1	1/4	1/4	1		0	48	C3	3	694
35	35	138	1.0	1/2	1/2	4/4	4	1	1/4	1/4	1		0	48	C3	3	699
35	35	138	0.5	1/2	1/2	4/4	2	1	1/8	1/8	1	-1	1	79	G5	5	688
35	35	138	1.5	1/2	1/2	4/4	1	1	3/8	1/4	3/2		3	81	A5	5	682
35	35	277/2	0.5	5/8	5/8	4/4	2	1	1/8	1/8	1		0	72	C5	5	689
35	35	139	1.0	3/4	3/4	4/4	3	1	1/4	1/4	1		2	50	D3	3	695
35	35	139	1.0	3/4	3/4	4/4	4	1	1/4	1/4	1		2	50	D3	3	700
35	35	139	1.0	3/4	3/4	4/4	2	1	1/4	1/4	1	1	-1	77	F5	5	690
35	35	279/2	0.25	7/8	7/8	4/4	1	1	1/16	1/16	1		-2	82	Bb5	5	683
35	35	559/4	0.25	15/16	15/16	4/4	1	1	1/16	1/16	1		3	81	A5	5	684
36	36	140	1.0	0	0	4/4	3	1	1/4	1/4	1		-3	51	Eb3	3	718
36	36	140	1.0	0	0	4/4	4	1	1/4	1/4	1		-3	51	Eb3	3	724
36	36	140	0.5	0	0	4/4	2	1	1/8	1/8	1	-1	-1	77	F5	5	712
36	36	140	0.25	0	0	4/4	1	1	1/16	1/16	1		1	79	G5	5	701
36	36	561/4	0.25	1/16	1/16	4/4	1	1	1/16	1/16	1		-1	77	F5	5	702
36	36	281/2	0.5	1/8	1/8	4/4	2	1	1/8	1/8	1		-2	70	Bb4	4	713
36	36	281/2	0.25	1/8	1/8	4/4	1	1	1/16	1/16	1		1	79	G5	5	703
36	36	563/4	0.25	3/16	3/16	4/4	1	1	1/16	1/16	1		3	81	A5	5	704
36	36	141	0.5	1/4	1/4	4/4	3	1	1/8	1/8	1		0	48	C3	3	719
36	36	141	0.5	1/4	1/4	4/4	4	1	1/8	1/8	1		0	48	C3	3	725
36	36	141	1.0	1/4	1/4	4/4	2	1	1/4	1/4	1	1	-3	75	Eb5	5	714
36	36	141	0.25	1/4	1/4	4/4	1	1	1/16	1/16	1		1	79	G5	5	705
36	36	565/4	0.25	5/16	5/16	4/4	1	1	1/16	1/16	1		-2	82	Bb5	5	706
36	36	283/2	0.5	3/8	3/8	4/4	3	1	1/8	1/8	1		0	60	C4	4	720
36	36	283/2	0.5	3/8	3/8	4/4	4	1	1/8	1/8	1		0	60	C4	4	726
36	36	283/2	0.25	3/8	3/8	4/4	1	1	1/16	1/16	1		3	81	A5	5	707
36	36	567/4	0.25	7/16	7/16	4/4	1	1	1/16	1/16	1		1	79	G5	5	708
36	36	142	0.5	1/2	1/2	4/4	3	1	1/8	1/8	1		3	57	A3	3	721
36	36	142	0.5	1/2	1/2	4/4	4	1	1/8	1/8	1		3	57	A3	3	727
36	36	142	0.5	1/2	1/2	4/4	2	1	1/8	1/8	1	-1	-3	75	Eb5	5	715
36	36	142	1.5	1/2	1/2	4/4	1	1	3/8	1/4	3/2		-1	77	F5	5	709
36	36	285/2	0.5	5/8	5/8	4/4	3	1	1/8	1/8	1		-1	53	F3	3	722
36	36	285/2	0.5	5/8	5/8	4/4	4	1	1/8	1/8	1		-1	53	F3	3	728
36	36	285/2	0.5	5/8	5/8	4/4	2	1	1/8	1/8	1		3	69	A4	4	716
36	36	143	1.0	3/4	3/4	4/4	3	1	1/4	1/4	1		-2	58	Bb3	3	723
36	36	143	1.0	3/4	3/4	4/4	4	1	1/4	1/4	1		-2	58	Bb3	3	729
36	36	143	1.0	3/4	3/4	4/4	2	1	1/4	1/4	1	1	2	74	D5	5	717
36	36	287/2	0.25	7/8	7/8	4/4	1	1	1/16	1/16	1		1	79	G5	5	710
36	36	575/4	0.25	15/16	15/16	4/4	1	1	1/16	1/16	1		-1	77	F5	5	711
37	37	144	1.0	0	0	4/4	3	1	1/4	1/4	1		1	55	G3	3	747
37	37	144	1.0	0	0	4/4	4	1	1/4	1/4	1		1	55	G3	3	751
37	37	144	0.5	0	0	4/4	2	1	1/8	1/8	1	-1	2	74	D5	5	741
37	37	144	0.25	0	0	4/4	1	1	1/16	1/16	1		-3	75	Eb5	5	730
37	37	577/4	0.25	1/16	1/16	4/4	1	1	1/16	1/16	1		2	74	D5	5	731
37	37	289/2	0.5	1/8	1/8	4/4	2	1	1/8	1/8	1		1	67	G4	4	742
37	37	289/2	0.25	1/8	1/8	4/4	1	1	1/16	1/16	1		-3	75	Eb5	5	732
37	37	579/4	0.25	3/16	3/16	4/4	1	1	1/16	1/16	1		-1	77	F5	5	733
37	37	145	1.0	1/4	1/4	4/4	3	1	1/4	1/4	1		3	57	A3	3	748
37	37	145	1.0	1/4	1/4	4/4	4	1	1/4	1/4	1		3	57	A3	3	752
37	37	145	1.0	1/4	1/4	4/4	2	1	1/4	1/4	1	1	0	72	C5	5	743
37	37	145	0.25	1/4	1/4	4/4	1	1	1/16	1/16	1		-3	75	Eb5	5	734
37	37	581/4	0.25	5/16	5/16	4/4	1	1	1/16	1/16	1		1	79	G5	5	735
37	37	291/2	0.25	3/8	3/8	4/4	1	1	1/16	1/16	1		-1	77	F5	5	736
37	37	583/4	0.25	7/16	7/16	4/4	1	1	1/16	1/16	1		-3	75	Eb5	5	737
37	37	146	1.5	1/2	1/2	4/4	3	1	3/8	1/4	3/2		-2	58	Bb3	3	749
37	37	146	1.5	1/2	1/2	4/4	4	1	3/8	1/4	3/2		-2	58	Bb3	3	753
37	37	146	0.5	1/2	1/2	4/4	2	1	1/8	1/8	1	-1	0	72	C5	5	744
37	37	146	1.5	1/2	1/2	4/4	1	1	3/8	1/4	3/2		2	74	D5	5	738
37	37	293/2	0.5	5/8	5/8	4/4	2	1	1/8	1/8	1		-1	65	F4	4	745
37	37	147	1.0	3/4	3/4	4/4	2	1	1/4	1/4	1	1	-2	70	Bb4	4	746
37	37	295/2	0.5	7/8	7/8	4/4	3	1	1/8	1/8	1		2	50	D3	3	750
37	37	295/2	0.5	7/8	7/8	4/4	4	1	1/8	1/8	1		2	50	D3	3	754
37	37	295/2	0.25	7/8	7/8	4/4	1	1	1/16	1/16	1		-2	82	Bb5	5	739
37	37	591/4	0.25	15/16	15/16	4/4	1	1	1/16	1/16	1		3	81	A5	5	740
38	38	148	1.0	0	0	4/4	3	1	1/4	1/4	1		-3	51	Eb3	3	769
38	38	148	1.0	0	0	4/4	4	1	1/4	1/4	1		-3	51	Eb3	3	773
38	38	148	1.0	0	0	4/4	2	1	1/4	1/4	1	-1	-2	70	Bb4	4	764
38	38	148	0.25	0	0	4/4	1	1	1/16	1/16	1		1	79	G5	5	755
38	38	593/4	0.25	1/16	1/16	4/4	1	1	1/16	1/16	1		-1	77	F5	5	756
38	38	297/2	0.25	1/8	1/8	4/4	1	1	1/16	1/16	1		-3	75	Eb5	5	757
38	38	595/4	0.25	3/16	3/16	4/4	1	1	1/16	1/16	1		2	74	D5	5	758
38	38	149	1.0	1/4	1/4	4/4	3	1	1/4	1/4	1		-1	53	F3	3	770
38	38	149	1.0	1/4	1/4	4/4	4	1	1/4	1/4	1		-1	53	F3	3	774
38	38	149	1.0	1/4	1/4	4/4	2	1	1/4	1/4	1		3	69	A4	4	765
38	38	149	0.75	1/4	1/4	4/4	1	1	3/16	1/8	3/2		0	72	C5	5	759
38	38	599/4	0.25	7/16	7/16	4/4	1	1	1/16	1/16	1		0	72	C5	5	760
38	38	150	1.5	1/2	1/2	4/4	3	1	3/8	1/4	3/2		-2	46	Bb2	2	771
38	38	150	1.5	1/2	1/2	4/4	4	1	3/8	1/4	3/2		-2	46	Bb2	2	775
38	38	150	0.5	1/2	1/2	4/4	2	1	1/8	1/8	1		-2	70	Bb4	4	766
38	38	150	1.5	1/2	1/2	4/4	1	1	3/8	1/4	3/2		-2	70	Bb4	4	761
38	38	301/2	0.5	5/8	5/8	4/4	2	1	1/8	1/8	1		-1	65	F4	4	767
38	38	151	1.0	3/4	3/4	4/4	2	1	1/4	1/4	1	1	-2	70	Bb4	4	768
38	38	303/2	0.5	7/8	7/8	4/4	3	1	1/8	1/8	1		2	50	D3	3	772
38	38	303/2	0.5	7/8	7/8	4/4	4	1	1/8	1/8	1		2	50	D3	3	776
38	38	303/2	0.25	7/8	7/8	4/4	1	1	1/16	1/16	1		-2	82	Bb5	5	762
38	38	607/4	0.25	15/16	15/16	4/4	1	1	1/16	1/16	1		3	81	A5	5	763
39	39	152	1.0	0	0	4/4	3	1	1/4	1/4	1		-3	51	Eb3	3	787
39	39	152	1.0	0	0	4/4	4	1	1/4	1/4	1		-3	51	Eb3	3	790
39	39	152	1.0	0	0	4/4	2	1	1/4	1/4	1	-1	-2	70	Bb4	4	784
39	39	152	0.25	0	0	4/4	1	1	1/16	1/16	1		1	79	G5	5	777
39	39	609/4	0.25	1/16	1/16	4/4	1	1	1/16	1/16	1		-1	77	F5	5	778
39	39	305/2	0.25	1/8	1/8	4/4	1	1	1/16	1/16	1		-3	75	Eb5	5	779
39	39	611/4	0.25	3/16	3/16	4/4	1	1	1/16	1/16	1		2	74	D5	5	780
39	39	153	1.0	1/4	1/4	4/4	3	1	1/4	1/4	1		-1	53	F3	3	788
39	39	153	1.0	1/4	1/4	4/4	4	1	1/4	1/4	1		-1	53	F3	3	791
39	39	153	1.0	1/4	1/4	4/4	2	1	1/4	1/4	1		3	69	A4	4	785
39	39	153	0.75	1/4	1/4	4/4	1	1	3/16	1/8	3/2		0	72	C5	5	781
39	39	615/4	0.25	7/16	7/16	4/4	1	1	1/16	1/16	1		0	72	C5	5	782
39	39	154	2.0	1/2	1/2	4/4	3	1	1/2	1/2	1		-2	46	Bb2	2	789
39	39	154	2.0	1/2	1/2	4/4	4	1	1/2	1/2	1		-2	46	Bb2	2	792
39	39	154	2.0	1/2	1/2	4/4	1	1	1/2	1/2	1		-2	70	Bb4	4	783
39	39	154	2.0	1/2	1/2	4/4	2	1	1/2	1/2	1		-2	70	Bb4	4	786
