mc	mn	quarterbeats	duration_qb	mc_onset	mn_onset	timesig	staff	voice	duration	nominal_duration	scalar	tied	tpc	midi	name	octave	chord_id
1	1	0	1.0	0	0	4/4	4	1	1/4	1/4	1		-1	41	F2	2	2
1	1	0	2.0	0	0	4/4	1	1	1/2	1/2	1		-1	65	F4	4	0
1	1	1	2.0	1/4	1/4	4/4	4	1	1/2	1/2	1		-1	53	F3	3	3
1	1	2	2.0	1/2	1/2	4/4	1	1	1/2	1/2	1		1	67	G4	4	1
1	1	3	1.0	3/4	3/4	4/4	4	1	1/4	1/4	1		4	52	E3	3	4
2	2	4	2.0	0	0	4/4	4	1	1/2	1/2	1		-1	53	F3	3	22
2	2	4	2.0	0	0	4/4	1	1	1/2	1/2	1		3	69	A4	4	5
2	2	17/4	0.25	1/16	1/16	4/4	2	1	1/16	1/16	1		0	72	C5	5	7
2	2	9/2	0.25	1/8	1/8	4/4	2	1	1/16	1/16	1		-2	70	Bb4	4	8
2	2	19/4	0.25	3/16	3/16	4/4	2	1	1/16	1/16	1		0	72	C5	5	9
2	2	5	0.25	1/4	1/4	4/4	2	1	1/16	1/16	1		3	69	A4	4	10
2	2	21/4	0.25	5/16	5/16	4/4	2	1	1/16	1/16	1		1	67	G4	4	11
2	2	11/2	0.25	3/8	3/8	4/4	2	1	1/16	1/16	1		-1	65	F4	4	12
2	2	23/4	0.25	7/16	7/16	4/4	2	1	1/16	1/16	1		4	64	E4	4	13
2	2	6	2.0	1/2	1/2	4/4	4	1	1/2	1/2	1		1	55	G3	3	23
2	2	6	0.25	1/2	1/2	4/4	2	1	1/16	1/16	1		2	62	D4	4	14
2	2	6	2.0	1/2	1/2	4/4	1	1	1/2	1/2	1		-2	70	Bb4	4	6
2	2	25/4	0.25	9/16	9/16	4/4	2	1	1/16	1/16	1		2	74	D5	5	15
2	2	13/2	0.25	5/8	5/8	4/4	2	1	1/16	1/16	1		0	72	C5	5	16
2	2	27/4	0.25	11/16	11/16	4/4	2	1	1/16	1/16	1		2	74	D5	5	17
2	2	7	0.25	3/4	3/4	4/4	2	1	1/16	1/16	1		-2	70	Bb4	4	18
2	2	29/4	0.25	13/16	13/16	4/4	2	1	1/16	1/16	1		3	69	A4	4	19
2	2	15/2	0.25	7/8	7/8	4/4	2	1	1/16	1/16	1		1	67	G4	4	20
2	2	31/4	0.25	15/16	15/16	4/4	2	1	1/16	1/16	1		-1	65	F4	4	21
3	3	8	2.0	0	0	4/4	4	1	1/2	1/2	1		3	57	A3	3	43
3	3	8	0.25	0	0	4/4	2	1	1/16	1/16	1		4	64	E4	4	27
3	3	8	2.0	0	0	4/4	1	1	1/2	1/2	1		0	72	C5	5	24
3	3	33/4	0.25	1/16	1/16	4/4	2	1	1/16	1/16	1		4	76	E5	5	28
3	3	17/2	0.25	1/8	1/8	4/4	2	1	1/16	1/16	1		2	74	D5	5	29
3	3	35/4	0.25	3/16	3/16	4/4	2	1	1/16	1/16	1		4	76	E5	5	30
3	3	9	0.25	1/4	1/4	4/4	2	1	1/16	1/16	1		0	72	C5	5	31
3	3	37/4	0.25	5/16	5/16	4/4	2	1	1/16	1/16	1		-2	70	Bb4	4	32
3	3	19/2	0.25	3/8	3/8	4/4	2	1	1/16	1/16	1		3	69	A4	4	33
3	3	39/4	0.25	7/16	7/16	4/4	2	1	1/16	1/16	1		1	67	G4	4	34
3	3	10	2.0	1/2	1/2	4/4	4	1	1/2	1/2	1		2	50	D3	3	44
3	3	10	0.25	1/2	1/2	4/4	2	1	1/16	1/16	1		-1	65	F4	4	35
3	3	10	1.0	1/2	1/2	4/4	1	1	1/4	1/4	1		2	74	D5	5	25
3	3	41/4	0.25	9/16	9/16	4/4	2	1	1/16	1/16	1		-1	77	F5	5	36
3	3	21/2	0.25	5/8	5/8	4/4	2	1	1/16	1/16	1		4	76	E5	5	37
3	3	43/4	0.25	11/16	11/16	4/4	2	1	1/16	1/16	1		-1	77	F5	5	38
3	3	11	0.25	3/4	3/4	4/4	2	1	1/16	1/16	1		2	74	D5	5	39
3	3	11	1.0	3/4	3/4	4/4	1	1	1/4	1/4	1	1	2	74	D5	5	26
3	3	45/4	0.25	13/16	13/16	4/4	2	1	1/16	1/16	1		0	72	C5	5	40
3	3	23/2	0.25	7/8	7/8	4/4	2	1	1/16	1/16	1		5	71	B4	4	41
3	3	47/4	0.25	15/16	15/16	4/4	2	1	1/16	1/16	1		3	69	A4	4	42
4	4	12	1.0	0	0	4/4	4	1	1/4	1/4	1		1	55	G3	3	62
4	4	12	0.25	0	0	4/4	2	1	1/16	1/16	1		5	71	B4	4	48
4	4	12	1.0	0	0	4/4	1	1	1/4	1/4	1	-1	2	74	D5	5	45
4	4	49/4	0.25	1/16	1/16	4/4	2	1	1/16	1/16	1		1	67	G4	4	49
4	4	25/2	0.25	1/8	1/8	4/4	2	1	1/16	1/16	1		3	69	A4	4	50
4	4	51/4	0.25	3/16	3/16	4/4	2	1	1/16	1/16	1		5	71	B4	4	51
4	4	13	1.0	1/4	1/4	4/4	4	1	1/4	1/4	1		3	57	A3	3	63
4	4	13	0.25	1/4	1/4	4/4	2	1	1/16	1/16	1		0	72	C5	5	52
4	4	13	2.0	1/4	1/4	4/4	1	1	1/2	1/2	1		0	72	C5	5	46
4	4	53/4	0.25	5/16	5/16	4/4	2	1	1/16	1/16	1		2	74	D5	5	53
4	4	27/2	0.25	3/8	3/8	4/4	2	1	1/16	1/16	1		4	76	E5	5	54
4	4	55/4	0.25	7/16	7/16	4/4	2	1	1/16	1/16	1		-1	77	F5	5	55
4	4	14	1.0	1/2	1/2	4/4	4	1	1/4	1/4	1		1	55	G3	3	64
4	4	14	0.25	1/2	1/2	4/4	2	1	1/16	1/16	1		1	79	G5	5	56
4	4	57/4	0.25	9/16	9/16	4/4	2	1	1/16	1/16	1		-1	77	F5	5	57
4	4	29/2	0.25	5/8	5/8	4/4	2	1	1/16	1/16	1		4	76	E5	5	58
4	4	59/4	0.25	11/16	11/16	4/4	2	1	1/16	1/16	1		-1	77	F5	5	59
4	4	15	1.0	3/4	3/4	4/4	4	1	1/4	1/4	1		1	43	G2	2	65
4	4	15	1.0	3/4	3/4	4/4	1	1	1/4	1/4	1		5	71	B4	4	47
4	4	15	0.75	3/4	3/4	4/4	2	1	3/16	1/8	3/2		2	74	D5	5	60
4	4	63/4	0.25	15/16	15/16	4/4	2	1	1/16	1/16	1		2	74	D5	5	61
5	5	16	2.0	0	0	4/4	3	1	1/2	1/2	1		0	48	C3	3	70
5	5	16	2.0	0	0	4/4	4	1	1/2	1/2	1		0	48	C3	3	72
5	5	16	1.0	0	0	4/4	1	1	1/4	1/4	1		0	72	C5	5	66
5	5	16	1.0	0	0	4/4	2	1	1/4	1/4	1		4	76	E5	5	67
5	5	17	2.0	1/4	1/4	4/4	2	1	1/2	1/2	1		0	72	C5	5	68
5	5	18	1.0	1/2	1/2	4/4	4	1	1/4	1/4	1		2	50	D3	3	73
5	5	18	2.0	1/2	1/2	4/4	3	1	1/2	1/2	1		2	50	D3	3	71
5	5	19	1.0	3/4	3/4	4/4	4	1	1/4	1/4	1		2	50	D3	3	74
5	5	19	1.0	3/4	3/4	4/4	2	1	1/4	1/4	1		5	71	B4	4	69
6	6	20	2.0	0	0	4/4	3	1	1/2	1/2	1		4	52	E3	3	97
6	6	20	2.0	0	0	4/4	4	1	1/2	1/2	1		4	52	E3	3	99
6	6	20	1.0	0	0	4/4	2	1	1/4	1/4	1	1	0	72	C5	5	90
6	6	81/4	0.25	1/16	1/16	4/4	1	1	1/16	1/16	1		1	79	G5	5	75
6	6	41/2	0.25	1/8	1/8	4/4	1	1	1/16	1/16	1		-1	77	F5	5	76
6	6	83/4	0.25	3/16	3/16	4/4	1	1	1/16	1/16	1		1	79	G5	5	77
6	6	21	0.25	1/4	1/4	4/4	2	1	1/16	1/16	1	-1	0	72	C5	5	91
6	6	21	0.25	1/4	1/4	4/4	1	1	1/16	1/16	1		4	76	E5	5	78
6	6	85/4	0.25	5/16	5/16	4/4	2	1	1/16	1/16	1		-2	70	Bb4	4	92
6	6	85/4	0.25	5/16	5/16	4/4	1	1	1/16	1/16	1		2	74	D5	5	79
6	6	43/2	0.25	3/8	3/8	4/4	2	1	1/16	1/16	1		3	69	A4	4	93
6	6	43/2	0.25	3/8	3/8	4/4	1	1	1/16	1/16	1		0	72	C5	5	80
6	6	87/4	0.25	7/16	7/16	4/4	2	1	1/16	1/16	1		1	67	G4	4	94
6	6	87/4	0.25	7/16	7/16	4/4	1	1	1/16	1/16	1		-2	70	Bb4	4	81
6	6	22	2.0	1/2	1/2	4/4	3	1	1/2	1/2	1		-1	53	F3	3	98
6	6	22	2.0	1/2	1/2	4/4	4	1	1/2	1/2	1		-1	53	F3	3	100
6	6	22	1.0	1/2	1/2	4/4	2	1	1/4	1/4	1		-1	65	F4	4	95
6	6	22	0.25	1/2	1/2	4/4	1	1	1/16	1/16	1		3	69	A4	4	82
6	6	89/4	0.25	9/16	9/16	4/4	1	1	1/16	1/16	1		3	81	A5	5	83
6	6	45/2	0.25	5/8	5/8	4/4	1	1	1/16	1/16	1		1	79	G5	5	84
6	6	91/4	0.25	11/16	11/16	4/4	1	1	1/16	1/16	1		3	81	A5	5	85
6	6	23	0.25	3/4	3/4	4/4	1	1	1/16	1/16	1		-1	77	F5	5	86
6	6	23	1.0	3/4	3/4	4/4	2	1	1/4	1/4	1		3	81	A5	5	96
6	6	93/4	0.25	13/16	13/16	4/4	1	1	1/16	1/16	1		4	76	E5	5	87
6	6	47/2	0.25	7/8	7/8	4/4	1	1	1/16	1/16	1		2	74	D5	5	88
6	6	95/4	0.25	15/16	15/16	4/4	1	1	1/16	1/16	1		0	72	C5	5	89
7	7	24	2.0	0	0	4/4	3	1	1/2	1/2	1		1	55	G3	3	130
7	7	24	2.0	0	0	4/4	4	1	1/2	1/2	1		1	55	G3	3	132
7	7	24	0.25	0	0	4/4	1	1	1/16	1/16	1		-2	70	Bb4	4	101
7	7	24	1.0	0	0	4/4	2	1	1/4	1/4	1	1	1	79	G5	5	117
7	7	97/4	0.25	1/16	1/16	4/4	1	1	1/16	1/16	1		-2	82	Bb5	5	102
7	7	49/2	0.25	1/8	1/8	4/4	1	1	1/16	1/16	1		3	81	A5	5	103
7	7	99/4	0.25	3/16	3/16	4/4	1	1	1/16	1/16	1		-2	82	Bb5	5	104
7	7	25	0.25	1/4	1/4	4/4	1	1	1/16	1/16	1		1	79	G5	5	105
7	7	25	0.25	1/4	1/4	4/4	2	1	1/16	1/16	1	-1	1	79	G5	5	118
7	7	101/4	0.25	5/16	5/16	4/4	1	1	1/16	1/16	1		-1	77	F5	5	106
7	7	101/4	0.25	5/16	5/16	4/4	2	1	1/16	1/16	1		3	81	A5	5	119
7	7	51/2	0.25	3/8	3/8	4/4	1	1	1/16	1/16	1		4	76	E5	5	107
7	7	51/2	0.25	3/8	3/8	4/4	2	1	1/16	1/16	1		1	79	G5	5	120
7	7	103/4	0.25	7/16	7/16	4/4	1	1	1/16	1/16	1		2	74	D5	5	108
7	7	103/4	0.25	7/16	7/16	4/4	2	1	1/16	1/16	1		-1	77	F5	5	121
7	7	26	2.0	1/2	1/2	4/4	3	1	1/2	1/2	1		3	57	A3	3	131
7	7	26	2.0	1/2	1/2	4/4	4	1	1/2	1/2	1		3	57	A3	3	133
7	7	26	0.25	1/2	1/2	4/4	1	1	1/16	1/16	1		0	72	C5	5	109
7	7	26	0.25	1/2	1/2	4/4	2	1	1/16	1/16	1		4	76	E5	5	122
7	7	105/4	0.25	9/16	9/16	4/4	2	1	1/16	1/16	1		0	72	C5	5	123
7	7	105/4	0.25	9/16	9/16	4/4	1	1	1/16	1/16	1		4	76	E5	5	110
7	7	53/2	0.25	5/8	5/8	4/4	2	1	1/16	1/16	1		2	74	D5	5	124
7	7	53/2	0.25	5/8	5/8	4/4	1	1	1/16	1/16	1		-1	77	F5	5	111
7	7	107/4	0.25	11/16	11/16	4/4	2	1	1/16	1/16	1		4	76	E5	5	125
7	7	107/4	0.25	11/16	11/16	4/4	1	1	1/16	1/16	1		1	79	G5	5	112
7	7	27	0.25	3/4	3/4	4/4	2	1	1/16	1/16	1		-1	77	F5	5	126
7	7	27	0.25	3/4	3/4	4/4	1	1	1/16	1/16	1		3	81	A5	5	113
7	7	109/4	0.25	13/16	13/16	4/4	2	1	1/16	1/16	1		1	79	G5	5	127
7	7	109/4	0.25	13/16	13/16	4/4	1	1	1/16	1/16	1		-2	82	Bb5	5	114
7	7	55/2	0.25	7/8	7/8	4/4	2	1	1/16	1/16	1		-1	77	F5	5	128
7	7	55/2	0.25	7/8	7/8	4/4	1	1	1/16	1/16	1		3	81	A5	5	115
7	7	111/4	0.25	15/16	15/16	4/4	2	1	1/16	1/16	1		4	76	E5	5	129
7	7	111/4	0.25	15/16	15/16	4/4	1	1	1/16	1/16	1		1	79	G5	5	116
8	8	28	1.0	0	0	4/4	3	1	1/4	1/4	1		-2	58	Bb3	3	154
8	8	28	1.0	0	0	4/4	4	1	1/4	1/4	1		-2	58	Bb3	3	158
8	8	28	0.25	0	0	4/4	2	1	1/16	1/16	1		2	74	D5	5	146
8	8	28	0.25	0	0	4/4	1	1	1/16	1/16	1		-1	77	F5	5	134
8	8	113/4	0.25	1/16	1/16	4/4	2	1	1/16	1/16	1		0	72	C5	5	147
8	8	113/4	0.25	1/16	1/16	4/4	1	1	1/16	1/16	1		4	76	E5	5	135
8	8	57/2	0.25	1/8	1/8	4/4	2	1	1/16	1/16	1		2	74	D5	5	148
8	8	57/2	0.25	1/8	1/8	4/4	1	1	1/16	1/16	1		-1	77	F5	5	136
8	8	115/4	0.25	3/16	3/16	4/4	2	1	1/16	1/16	1		4	76	E5	5	149
8	8	115/4	0.25	3/16	3/16	4/4	1	1	1/16	1/16	1		1	79	G5	5	137
8	8	29	1.0	1/4	1/4	4/4	3	1	1/4	1/4	1		-1	53	F3	3	155
8	8	29	1.0	1/4	1/4	4/4	4	1	1/4	1/4	1		-1	53	F3	3	159
8	8	29	0.5	1/4	1/4	4/4	2	1	1/8	1/8	1		-1	77	F5	5	150
8	8	29	0.25	1/4	1/4	4/4	1	1	1/16	1/16	1		3	81	A5	5	138
8	8	117/4	0.25	5/16	5/16	4/4	1	1	1/16	1/16	1		1	79	G5	5	139
8	8	59/2	0.5	3/8	3/8	4/4	2	1	1/8	1/8	1		-1	77	F5	5	151
8	8	59/2	0.25	3/8	3/8	4/4	1	1	1/16	1/16	1		3	81	A5	5	140
8	8	119/4	0.25	7/16	7/16	4/4	1	1	1/16	1/16	1		-2	82	Bb5	5	141
8	8	30	1.0	1/2	1/2	4/4	3	1	1/4	1/4	1		0	60	C4	4	156
8	8	30	1.0	1/2	1/2	4/4	4	1	1/4	1/4	1		0	60	C4	4	160
8	8	30	1.5	1/2	1/2	4/4	2	1	3/8	1/4	3/2		-1	77	F5	5	152
8	8	30	0.5	1/2	1/2	4/4	1	1	1/8	1/8	1		1	79	G5	5	142
8	8	61/2	0.5	5/8	5/8	4/4	1	1	1/8	1/8	1		3	81	A5	5	143
8	8	31	1.0	3/4	3/4	4/4	3	1	1/4	1/4	1		0	48	C3	3	157
8	8	31	1.0	3/4	3/4	4/4	4	1	1/4	1/4	1		0	48	C3	3	161
8	8	31	0.75	3/4	3/4	4/4	1	1	3/16	1/8	3/2		1	79	G5	5	144
8	8	63/2	0.5	7/8	7/8	4/4	2	1	1/8	1/8	1		4	76	E5	5	153
8	8	127/4	0.25	15/16	15/16	4/4	1	1	1/16	1/16	1		1	79	G5	5	145
9	9	32	1.0	0	0	4/4	4	1	1/4	1/4	1		-1	41	F2	2	169
9	9	32	1.0	0	0	4/4	3	1	1/4	1/4	1		-1	53	F3	3	168
9	9	32	1.0	0	0	4/4	1	1	1/4	1/4	1		-1	77	F5	5	162
9	9	32	2.0	0	0	4/4	2	1	1/2	1/2	1		-1	77	F5	5	166
9	9	33	2.0	1/4	1/4	4/4	4	1	1/2	1/2	1		-1	53	F3	3	170
9	9	34	2.0	1/2	1/2	4/4	2	1	1/2	1/2	1		1	79	G5	5	167
9	9	35	1.0	3/4	3/4	4/4	4	1	1/4	1/4	1		4	52	E3	3	171
9	9	141/4	0.25	13/16	13/16	4/4	1	1	1/16	1/16	1		0	72	C5	5	163
9	9	71/2	0.25	7/8	7/8	4/4	1	1	1/16	1/16	1		-2	70	Bb4	4	164
9	9	143/4	0.25	15/16	15/16	4/4	1	1	1/16	1/16	1		0	72	C5	5	165
10	10	36	2.0	0	0	4/4	4	1	1/2	1/2	1		-1	53	F3	3	195
10	10	36	1.0	0	0	4/4	1	1	1/4	1/4	1		3	69	A4	4	172
10	10	36	2.0	0	0	4/4	2	1	1/2	1/2	1		3	81	A5	5	178
10	10	145/4	0.25	1/16	1/16	4/4	3	1	1/16	1/16	1		0	60	C4	4	180
10	10	73/2	0.25	1/8	1/8	4/4	3	1	1/16	1/16	1		-2	58	Bb3	3	181
10	10	147/4	0.25	3/16	3/16	4/4	3	1	1/16	1/16	1		0	60	C4	4	182
10	10	37	0.25	1/4	1/4	4/4	3	1	1/16	1/16	1		3	57	A3	3	183
10	10	37	1.0	1/4	1/4	4/4	1	1	1/4	1/4	1		0	72	C5	5	173
10	10	149/4	0.25	5/16	5/16	4/4	3	1	1/16	1/16	1		1	55	G3	3	184
10	10	75/2	0.25	3/8	3/8	4/4	3	1	1/16	1/16	1		-1	53	F3	3	185
10	10	151/4	0.25	7/16	7/16	4/4	3	1	1/16	1/16	1		4	52	E3	3	186
10	10	38	0.25	1/2	1/2	4/4	3	1	1/16	1/16	1		2	50	D3	3	187
10	10	38	2.0	1/2	1/2	4/4	4	1	1/2	1/2	1		2	50	D3	3	196
10	10	38	2.0	1/2	1/2	4/4	2	1	1/2	1/2	1		-2	82	Bb5	5	179
10	10	153/4	0.25	9/16	9/16	4/4	3	1	1/16	1/16	1		2	62	D4	4	188
10	10	153/4	0.25	9/16	9/16	4/4	1	1	1/16	1/16	1		-1	77	F5	5	174
10	10	77/2	0.25	5/8	5/8	4/4	3	1	1/16	1/16	1		0	60	C4	4	189
10	10	77/2	0.25	5/8	5/8	4/4	1	1	1/16	1/16	1		4	76	E5	5	175
10	10	155/4	0.25	11/16	11/16	4/4	3	1	1/16	1/16	1		2	62	D4	4	190
10	10	155/4	0.25	11/16	11/16	4/4	1	1	1/16	1/16	1		-1	77	F5	5	176
10	10	39	0.25	3/4	3/4	4/4	3	1	1/16	1/16	1		-2	58	Bb3	3	191
10	10	39	1.0	3/4	3/4	4/4	1	1	1/4	1/4	1		2	74	D5	5	177
10	10	157/4	0.25	13/16	13/16	4/4	3	1	1/16	1/16	1		3	57	A3	3	192
10	10	79/2	0.25	7/8	7/8	4/4	3	1	1/16	1/16	1		1	55	G3	3	193
10	10	159/4	0.25	15/16	15/16	4/4	3	1	1/16	1/16	1		-1	53	F3	3	194
11	11	40	0.25	0	0	4/4	3	1	1/16	1/16	1		4	52	E3	3	207
11	11	40	1.0	0	0	4/4	4	1	1/4	1/4	1		4	52	E3	3	223
11	11	40	2.0	0	0	4/4	2	1	1/2	1/2	1		0	84	C6	6	205
11	11	161/4	0.25	1/16	1/16	4/4	3	1	1/16	1/16	1		4	64	E4	4	208
11	11	161/4	0.25	1/16	1/16	4/4	1	1	1/16	1/16	1		1	79	G5	5	197
11	11	81/2	0.25	1/8	1/8	4/4	3	1	1/16	1/16	1		2	62	D4	4	209
11	11	81/2	0.25	1/8	1/8	4/4	1	1	1/16	1/16	1		-1	77	F5	5	198
11	11	163/4	0.25	3/16	3/16	4/4	3	1	1/16	1/16	1		4	64	E4	4	210
11	11	163/4	0.25	3/16	3/16	4/4	1	1	1/16	1/16	1		1	79	G5	5	199
11	11	41	1.0	1/4	1/4	4/4	4	1	1/4	1/4	1		0	48	C3	3	224
11	11	41	0.25	1/4	1/4	4/4	3	1	1/16	1/16	1		0	60	C4	4	211
11	11	41	1.0	1/4	1/4	4/4	1	1	1/4	1/4	1		4	76	E5	5	200
11	11	165/4	0.25	5/16	5/16	4/4	3	1	1/16	1/16	1		-2	58	Bb3	3	212
11	11	83/2	0.25	3/8	3/8	4/4	3	1	1/16	1/16	1		3	57	A3	3	213
11	11	167/4	0.25	7/16	7/16	4/4	3	1	1/16	1/16	1		1	55	G3	3	214
11	11	42	0.25	1/2	1/2	4/4	3	1	1/16	1/16	1		-1	53	F3	3	215
11	11	42	1.0	1/2	1/2	4/4	4	1	1/4	1/4	1		-1	53	F3	3	225
11	11	42	2.0	1/2	1/2	4/4	2	1	1/2	1/2	1		2	86	D6	6	206
11	11	169/4	0.25	9/16	9/16	4/4	3	1	1/16	1/16	1		-1	65	F4	4	216
11	11	169/4	0.25	9/16	9/16	4/4	1	1	1/16	1/16	1		3	81	A5	5	201
11	11	85/2	0.25	5/8	5/8	4/4	3	1	1/16	1/16	1		4	64	E4	4	217
11	11	85/2	0.25	5/8	5/8	4/4	1	1	1/16	1/16	1		1	79	G5	5	202
11	11	171/4	0.25	11/16	11/16	4/4	3	1	1/16	1/16	1		-1	65	F4	4	218
11	11	171/4	0.25	11/16	11/16	4/4	1	1	1/16	1/16	1		3	81	A5	5	203
11	11	43	1.0	3/4	3/4	4/4	4	1	1/4	1/4	1		2	50	D3	3	226
11	11	43	0.25	3/4	3/4	4/4	3	1	1/16	1/16	1		2	62	D4	4	219
11	11	43	1.0	3/4	3/4	4/4	1	1	1/4	1/4	1		-1	77	F5	5	204
11	11	173/4	0.25	13/16	13/16	4/4	3	1	1/16	1/16	1		0	60	C4	4	220
11	11	87/2	0.25	7/8	7/8	4/4	3	1	1/16	1/16	1		5	59	B3	3	221
11	11	175/4	0.25	15/16	15/16	4/4	3	1	1/16	1/16	1		3	57	A3	3	222
12	12	44	1.0	0	0	4/4	3	1	1/4	1/4	1		1	55	G3	3	242
12	12	44	1.0	0	0	4/4	4	1	1/4	1/4	1		1	55	G3	3	251
12	12	44	1.0	0	0	4/4	2	1	1/4	1/4	1		5	83	B5	5	238
12	12	177/4	0.25	1/16	1/16	4/4	1	1	1/16	1/16	1		1	79	G5	5	227
12	12	89/2	0.25	1/8	1/8	4/4	1	1	1/16	1/16	1		-1	77	F5	5	228
12	12	179/4	0.25	3/16	3/16	4/4	1	1	1/16	1/16	1		1	79	G5	5	229
12	12	45	0.25	1/4	1/4	4/4	3	1	1/16	1/16	1		0	48	C3	3	243
12	12	45	1.0	1/4	1/4	4/4	4	1	1/4	1/4	1		0	48	C3	3	252
12	12	45	0.25	1/4	1/4	4/4	1	1	1/16	1/16	1		4	76	E5	5	230
12	12	45	1.0	1/4	1/4	4/4	2	1	1/4	1/4	1		0	84	C6	6	239
12	12	181/4	0.25	5/16	5/16	4/4	3	1	1/16	1/16	1		2	50	D3	3	244
12	12	181/4	0.25	5/16	5/16	4/4	1	1	1/16	1/16	1		-1	77	F5	5	231
12	12	91/2	0.25	3/8	3/8	4/4	3	1	1/16	1/16	1		4	52	E3	3	245
12	12	91/2	0.25	3/8	3/8	4/4	1	1	1/16	1/16	1		1	79	G5	5	232
12	12	183/4	0.25	7/16	7/16	4/4	3	1	1/16	1/16	1		-1	53	F3	3	246
12	12	183/4	0.25	7/16	7/16	4/4	1	1	1/16	1/16	1		3	81	A5	5	233
12	12	46	0.5	1/2	1/2	4/4	3	1	1/8	1/8	1		1	55	G3	3	247
12	12	46	0.5	1/2	1/2	4/4	4	1	1/8	1/8	1		1	55	G3	3	253
12	12	46	0.5	1/2	1/2	4/4	1	1	1/8	1/8	1		2	74	D5	5	234
12	12	46	1.5	1/2	1/2	4/4	2	1	3/8	1/4	3/2		0	84	C6	6	240
12	12	93/2	0.5	5/8	5/8	4/4	3	1	1/8	1/8	1		-1	53	F3	3	248
12	12	93/2	0.5	5/8	5/8	4/4	4	1	1/8	1/8	1		-1	53	F3	3	254
12	12	93/2	0.5	5/8	5/8	4/4	1	1	1/8	1/8	1		4	76	E5	5	235
12	12	47	0.5	3/4	3/4	4/4	3	1	1/8	1/8	1		1	55	G3	3	249
12	12	47	0.5	3/4	3/4	4/4	4	1	1/8	1/8	1		1	55	G3	3	255
12	12	47	0.75	3/4	3/4	4/4	1	1	3/16	1/8	3/2		2	74	D5	5	236
12	12	95/2	0.5	7/8	7/8	4/4	3	1	1/8	1/8	1		1	43	G2	2	250
12	12	95/2	0.5	7/8	7/8	4/4	4	1	1/8	1/8	1		1	43	G2	2	256
12	12	95/2	0.5	7/8	7/8	4/4	2	1	1/8	1/8	1		5	83	B5	5	241
12	12	191/4	0.25	15/16	15/16	4/4	1	1	1/16	1/16	1		2	74	D5	5	237
13	13	48	2.0	0	0	4/4	3	1	1/2	1/2	1		0	48	C3	3	269
13	13	48	2.0	0	0	4/4	4	1	1/2	1/2	1		0	48	C3	3	270
13	13	48	2.0	0	0	4/4	1	1	1/2	1/2	1		0	72	C5	5	257
13	13	48	0.25	0	0	4/4	2	1	1/16	1/16	1		0	84	C6	6	259
13	13	193/4	0.25	1/16	1/16	4/4	2	1	1/16	1/16	1		4	76	E5	5	260
13	13	97/2	0.25	1/8	1/8	4/4	2	1	1/16	1/16	1		-1	77	F5	5	261
13	13	195/4	0.25	3/16	3/16	4/4	2	1	1/16	1/16	1		1	79	G5	5	262
13	13	49	1.0	1/4	1/4	4/4	2	1	1/4	1/4	1	1	3	81	A5	5	263
13	13	50	1.0	1/2	1/2	4/4	4	1	1/4	1/4	1		2	50	D3	3	271
13	13	50	2.0	1/2	1/2	4/4	1	1	1/2	1/2	1		-2	70	Bb4	4	258
13	13	50	0.25	1/2	1/2	4/4	2	1	1/16	1/16	1	-1	3	81	A5	5	264
13	13	201/4	0.25	9/16	9/16	4/4	2	1	1/16	1/16	1		2	74	D5	5	265
13	13	101/2	0.25	5/8	5/8	4/4	2	1	1/16	1/16	1		4	76	E5	5	266
13	13	203/4	0.25	11/16	11/16	4/4	2	1	1/16	1/16	1		-1	77	F5	5	267
13	13	51	1.0	3/4	3/4	4/4	4	1	1/4	1/4	1		4	52	E3	3	272
13	13	51	1.0	3/4	3/4	4/4	2	1	1/4	1/4	1	1	1	79	G5	5	268
14	14	52	1.0	0	0	4/4	4	1	1/4	1/4	1		-1	53	F3	3	281
14	14	52	2.0	0	0	4/4	1	1	1/2	1/2	1		3	69	A4	4	273
14	14	52	0.25	0	0	4/4	2	1	1/16	1/16	1	-1	1	79	G5	5	275
14	14	209/4	0.25	1/16	1/16	4/4	2	1	1/16	1/16	1		0	72	C5	5	276
14	14	105/2	0.25	1/8	1/8	4/4	2	1	1/16	1/16	1		2	74	D5	5	277
14	14	211/4	0.25	3/16	3/16	4/4	2	1	1/16	1/16	1		4	76	E5	5	278
14	14	53	1.0	1/4	1/4	4/4	4	1	1/4	1/4	1		3	45	A2	2	282
14	14	53	2.0	1/4	1/4	4/4	2	1	1/2	1/2	1		-1	77	F5	5	279
14	14	54	1.0	1/2	1/2	4/4	4	1	1/4	1/4	1		-2	46	Bb2	2	283
14	14	54	2.0	1/2	1/2	4/4	1	1	1/2	1/2	1		1	67	G4	4	274
14	14	55	1.0	3/4	3/4	4/4	4	1	1/4	1/4	1		0	48	C3	3	284
14	14	55	1.0	3/4	3/4	4/4	2	1	1/4	1/4	1		4	76	E5	5	280
15	15	56	1.0	0	0	4/4	4	1	1/4	1/4	1		-1	41	F2	2	307
15	15	56	1.0	0	0	4/4	3	1	1/4	1/4	1	1	-1	53	F3	3	297
15	15	56	0.25	0	0	4/4	1	1	1/16	1/16	1		-1	65	F4	4	285
15	15	56	2.0	0	0	4/4	2	1	1/2	1/2	1		-1	77	F5	5	295
15	15	225/4	0.25	1/16	1/16	4/4	1	1	1/16	1/16	1		3	69	A4	4	286
15	15	113/2	0.25	1/8	1/8	4/4	1	1	1/16	1/16	1		-2	70	Bb4	4	287
15	15	227/4	0.25	3/16	3/16	4/4	1	1	1/16	1/16	1		0	72	C5	5	288
15	15	57	0.25	1/4	1/4	4/4	3	1	1/16	1/16	1	-1	-1	53	F3	3	298
15	15	57	1.0	1/4	1/4	4/4	4	1	1/4	1/4	1		-1	53	F3	3	308
15	15	57	1.0	1/4	1/4	4/4	1	1	1/4	1/4	1	1	2	74	D5	5	289
15	15	229/4	0.25	5/16	5/16	4/4	3	1	1/16	1/16	1		2	50	D3	3	299
15	15	115/2	0.25	3/8	3/8	4/4	3	1	1/16	1/16	1		4	52	E3	3	300
15	15	231/4	0.25	7/16	7/16	4/4	3	1	1/16	1/16	1		-1	53	F3	3	301
15	15	58	1.0	1/2	1/2	4/4	3	1	1/4	1/4	1	1	1	55	G3	3	302
15	15	58	1.0	1/2	1/2	4/4	4	1	1/4	1/4	1		1	55	G3	3	309
15	15	58	0.25	1/2	1/2	4/4	1	1	1/16	1/16	1	-1	2	74	D5	5	290
15	15	58	2.0	1/2	1/2	4/4	2	1	1/2	1/2	1		-3	75	Eb5	5	296
15	15	233/4	0.25	9/16	9/16	4/4	1	1	1/16	1/16	1		1	67	G4	4	291
15	15	117/2	0.25	5/8	5/8	4/4	1	1	1/16	1/16	1		3	69	A4	4	292
15	15	235/4	0.25	11/16	11/16	4/4	1	1	1/16	1/16	1		-2	70	Bb4	4	293
15	15	59	1.0	3/4	3/4	4/4	4	1	1/4	1/4	1		0	48	C3	3	310
15	15	59	0.25	3/4	3/4	4/4	3	1	1/16	1/16	1	-1	1	55	G3	3	303
15	15	59	1.0	3/4	3/4	4/4	1	1	1/4	1/4	1	1	0	72	C5	5	294
15	15	237/4	0.25	13/16	13/16	4/4	3	1	1/16	1/16	1		0	48	C3	3	304
15	15	119/2	0.25	7/8	7/8	4/4	3	1	1/16	1/16	1		2	50	D3	3	305
15	15	239/4	0.25	15/16	15/16	4/4	3	1	1/16	1/16	1		-3	51	Eb3	3	306
16	16	60	1.0	0	0	4/4	3	1	1/4	1/4	1		-1	53	F3	3	319
16	16	60	1.0	0	0	4/4	4	1	1/4	1/4	1		-1	53	F3	3	324
16	16	60	0.25	0	0	4/4	1	1	1/16	1/16	1	-1	0	72	C5	5	311
16	16	60	2.0	0	0	4/4	2	1	1/2	1/2	1		2	74	D5	5	317
16	16	241/4	0.25	1/16	1/16	4/4	1	1	1/16	1/16	1		-1	65	F4	4	312
16	16	121/2	0.25	1/8	1/8	4/4	1	1	1/16	1/16	1		1	67	G4	4	313
16	16	243/4	0.25	3/16	3/16	4/4	1	1	1/16	1/16	1		3	69	A4	4	314
16	16	61	0.5	1/4	1/4	4/4	3	1	1/8	1/8	1		2	50	D3	3	320
16	16	61	0.5	1/4	1/4	4/4	4	1	1/8	1/8	1		2	50	D3	3	325
16	16	61	2.0	1/4	1/4	4/4	1	1	1/2	1/2	1		-2	70	Bb4	4	315
16	16	123/2	0.5	3/8	3/8	4/4	3	1	1/8	1/8	1		-2	46	Bb2	2	321
16	16	123/2	0.5	3/8	3/8	4/4	4	1	1/8	1/8	1		-2	46	Bb2	2	326
16	16	62	1.0	1/2	1/2	4/4	3	1	1/4	1/4	1		-1	53	F3	3	322
16	16	62	1.0	1/2	1/2	4/4	4	1	1/4	1/4	1		-1	53	F3	3	327
16	16	62	2.0	1/2	1/2	4/4	2	1	1/2	1/2	1		0	72	C5	5	318
16	16	63	1.0	3/4	3/4	4/4	3	1	1/4	1/4	1		-1	41	F2	2	323
16	16	63	1.0	3/4	3/4	4/4	4	1	1/4	1/4	1		-1	41	F2	2	328
16	16	63	1.0	3/4	3/4	4/4	1	1	1/4	1/4	1		3	69	A4	4	316
17	17	64	1.0	0	0	4/4	3	1	1/4	1/4	1		-2	46	Bb2	2	340
17	17	64	1.0	0	0	4/4	4	1	1/4	1/4	1		-2	46	Bb2	2	345
17	17	64	0.5	0	0	4/4	1	1	1/8	1/8	1		-2	70	Bb4	4	329
17	17	64	1.5	0	0	4/4	2	1	3/8	1/4	3/2		-2	70	Bb4	4	336
17	17	129/2	0.5	1/8	1/8	4/4	1	1	1/8	1/8	1		0	72	C5	5	330
17	17	65	0.5	1/4	1/4	4/4	3	1	1/8	1/8	1		-2	58	Bb3	3	341
17	17	65	0.5	1/4	1/4	4/4	4	1	1/8	1/8	1		-2	58	Bb3	3	346
17	17	65	0.5	1/4	1/4	4/4	1	1	1/8	1/8	1		2	74	D5	5	331
17	17	131/2	0.5	3/8	3/8	4/4	3	1	1/8	1/8	1		1	55	G3	3	342
17	17	131/2	0.5	3/8	3/8	4/4	4	1	1/8	1/8	1		1	55	G3	3	347
17	17	131/2	0.5	3/8	3/8	4/4	2	1	1/8	1/8	1		-2	70	Bb4	4	337
17	17	131/2	0.5	3/8	3/8	4/4	1	1	1/8	1/8	1		4	76	E5	5	332
17	17	66	1.0	1/2	1/2	4/4	3	1	1/4	1/4	1		-1	53	F3	3	343
17	17	66	1.0	1/2	1/2	4/4	4	1	1/4	1/4	1		-1	53	F3	3	348
17	17	66	1.5	1/2	1/2	4/4	2	1	3/8	1/4	3/2		3	69	A4	4	338
17	17	66	0.5	1/2	1/2	4/4	1	1	1/8	1/8	1		-1	77	F5	5	333
17	17	133/2	0.5	5/8	5/8	4/4	1	1	1/8	1/8	1		0	72	C5	5	334
17	17	67	1.0	3/4	3/4	4/4	3	1	1/4	1/4	1		-1	41	F2	2	344
17	17	67	1.0	3/4	3/4	4/4	4	1	1/4	1/4	1		-1	41	F2	2	349
17	17	67	1.0	3/4	3/4	4/4	1	1	1/4	1/4	1	1	-1	77	F5	5	335
17	17	135/2	0.5	7/8	7/8	4/4	2	1	1/8	1/8	1		2	74	D5	5	339
18	18	68	1.0	0	0	4/4	3	1	1/4	1/4	1		1	43	G2	2	357
18	18	68	1.0	0	0	4/4	4	1	1/4	1/4	1		1	43	G2	2	362
18	18	68	0.5	0	0	4/4	2	1	1/8	1/8	1		5	71	B4	4	353
18	18	68	1.0	0	0	4/4	1	1	1/4	1/4	1	-1	-1	77	F5	5	350
18	18	137/2	0.5	1/8	1/8	4/4	2	1	1/8	1/8	1		1	67	G4	4	354
18	18	69	0.5	1/4	1/4	4/4	3	1	1/8	1/8	1		3	45	A2	2	358
18	18	69	0.5	1/4	1/4	4/4	4	1	1/8	1/8	1		3	45	A2	2	363
18	18	69	2.0	1/4	1/4	4/4	2	1	1/2	1/2	1		0	72	C5	5	355
18	18	69	1.0	1/4	1/4	4/4	1	1	1/4	1/4	1		4	76	E5	5	351
18	18	139/2	0.5	3/8	3/8	4/4	3	1	1/8	1/8	1		4	52	E3	3	359
18	18	139/2	0.5	3/8	3/8	4/4	4	1	1/8	1/8	1		4	52	E3	3	364
18	18	70	1.0	1/2	1/2	4/4	3	1	1/4	1/4	1		-1	53	F3	3	360
18	18	70	1.0	1/2	1/2	4/4	4	1	1/4	1/4	1		-1	53	F3	3	365
18	18	70	2.0	1/2	1/2	4/4	1	1	1/2	1/2	1		2	74	D5	5	352
18	18	71	1.0	3/4	3/4	4/4	3	1	1/4	1/4	1		1	55	G3	3	361
18	18	71	1.0	3/4	3/4	4/4	4	1	1/4	1/4	1		1	55	G3	3	366
18	18	71	1.0	3/4	3/4	4/4	2	1	1/4	1/4	1		5	71	B4	4	356
19	19	72	2.0	0	0	4/4	3	1	1/2	1/2	1		0	60	C4	4	387
19	19	72	2.0	0	0	4/4	4	1	1/2	1/2	1		0	60	C4	4	389
19	19	72	0.25	0	0	4/4	1	1	1/16	1/16	1		0	72	C5	5	367
19	19	72	1.0	0	0	4/4	2	1	1/4	1/4	1	1	0	72	C5	5	377
19	19	289/4	0.25	1/16	1/16	4/4	1	1	1/16	1/16	1		4	76	E5	5	368
19	19	145/2	0.25	1/8	1/8	4/4	1	1	1/16	1/16	1		-1	77	F5	5	369
19	19	291/4	0.25	3/16	3/16	4/4	1	1	1/16	1/16	1		1	79	G5	5	370
19	19	73	0.25	1/4	1/4	4/4	2	1	1/16	1/16	1	-1	0	72	C5	5	378
19	19	73	1.0	1/4	1/4	4/4	1	1	1/4	1/4	1	1	3	81	A5	5	371
19	19	293/4	0.25	5/16	5/16	4/4	2	1	1/16	1/16	1		3	69	A4	4	379
19	19	147/2	0.25	3/8	3/8	4/4	2	1	1/16	1/16	1		-2	70	Bb4	4	380
19	19	295/4	0.25	7/16	7/16	4/4	2	1	1/16	1/16	1		0	72	C5	5	381
19	19	74	2.0	1/2	1/2	4/4	3	1	1/2	1/2	1		-2	58	Bb3	3	388
19	19	74	2.0	1/2	1/2	4/4	4	1	1/2	1/2	1		-2	58	Bb3	3	390
19	19	74	1.0	1/2	1/2	4/4	2	1	1/4	1/4	1	1	2	74	D5	5	382
19	19	74	0.25	1/2	1/2	4/4	1	1	1/16	1/16	1	-1	3	81	A5	5	372
19	19	297/4	0.25	9/16	9/16	4/4	1	1	1/16	1/16	1		2	74	D5	5	373
19	19	149/2	0.25	5/8	5/8	4/4	1	1	1/16	1/16	1		4	76	E5	5	374
19	19	299/4	0.25	11/16	11/16	4/4	1	1	1/16	1/16	1		-1	77	F5	5	375
19	19	75	0.25	3/4	3/4	4/4	2	1	1/16	1/16	1	-1	2	74	D5	5	383
19	19	75	1.0	3/4	3/4	4/4	1	1	1/4	1/4	1	1	1	79	G5	5	376
19	19	301/4	0.25	13/16	13/16	4/4	2	1	1/16	1/16	1		1	67	G4	4	384
19	19	151/2	0.25	7/8	7/8	4/4	2	1	1/16	1/16	1		3	69	A4	4	385
19	19	303/4	0.25	15/16	15/16	4/4	2	1	1/16	1/16	1		-2	70	Bb4	4	386
20	20	76	2.0	0	0	4/4	3	1	1/2	1/2	1		3	57	A3	3	407
20	20	76	2.0	0	0	4/4	4	1	1/2	1/2	1		3	57	A3	3	409
20	20	76	1.0	0	0	4/4	2	1	1/4	1/4	1	1	0	72	C5	5	397
20	20	76	0.25	0	0	4/4	1	1	1/16	1/16	1	-1	1	79	G5	5	391
20	20	305/4	0.25	1/16	1/16	4/4	1	1	1/16	1/16	1		0	72	C5	5	392
20	20	153/2	0.25	1/8	1/8	4/4	1	1	1/16	1/16	1		2	74	D5	5	393
20	20	307/4	0.25	3/16	3/16	4/4	1	1	1/16	1/16	1		4	76	E5	5	394
20	20	77	0.25	1/4	1/4	4/4	2	1	1/16	1/16	1	-1	0	72	C5	5	398
20	20	77	2.0	1/4	1/4	4/4	1	1	1/2	1/2	1		-1	77	F5	5	395
20	20	309/4	0.25	5/16	5/16	4/4	2	1	1/16	1/16	1		-1	65	F4	4	399
20	20	155/2	0.25	3/8	3/8	4/4	2	1	1/16	1/16	1		1	67	G4	4	400
20	20	311/4	0.25	7/16	7/16	4/4	2	1	1/16	1/16	1		3	69	A4	4	401
20	20	78	2.0	1/2	1/2	4/4	3	1	1/2	1/2	1		1	55	G3	3	408
20	20	78	2.0	1/2	1/2	4/4	4	1	1/2	1/2	1		1	55	G3	3	410
20	20	78	0.5	1/2	1/2	4/4	2	1	1/8	1/8	1		-2	70	Bb4	4	402
20	20	157/2	0.5	5/8	5/8	4/4	2	1	1/8	1/8	1		3	69	A4	4	403
20	20	79	0.5	3/4	3/4	4/4	2	1	1/8	1/8	1		1	67	G4	4	404
20	20	79	1.0	3/4	3/4	4/4	1	1	1/4	1/4	1		4	76	E5	5	396
20	20	159/2	0.25	7/8	7/8	4/4	2	1	1/16	1/16	1		0	72	C5	5	405
20	20	319/4	0.25	15/16	15/16	4/4	2	1	1/16	1/16	1		-2	70	Bb4	4	406
21	21	80	1.0	0	0	4/4	3	1	1/4	1/4	1		-1	53	F3	3	432
21	21	80	1.0	0	0	4/4	4	1	1/4	1/4	1		-1	53	F3	3	436
21	21	80	0.25	0	0	4/4	2	1	1/16	1/16	1		3	69	A4	4	422
21	21	80	0.25	0	0	4/4	1	1	1/16	1/16	1		-1	77	F5	5	411
21	21	321/4	0.25	1/16	1/16	4/4	1	1	1/16	1/16	1		3	69	A4	4	412
21	21	321/4	0.25	1/16	1/16	4/4	2	1	1/16	1/16	1		0	72	C5	5	423
21	21	161/2	0.25	1/8	1/8	4/4	1	1	1/16	1/16	1		-2	70	Bb4	4	413
21	21	161/2	0.25	1/8	1/8	4/4	2	1	1/16	1/16	1		2	74	D5	5	424
21	21	323/4	0.25	3/16	3/16	4/4	1	1	1/16	1/16	1		0	72	C5	5	414
21	21	323/4	0.25	3/16	3/16	4/4	2	1	1/16	1/16	1		4	76	E5	5	425
21	21	81	1.0	1/4	1/4	4/4	3	1	1/4	1/4	1		2	50	D3	3	433
21	21	81	1.0	1/4	1/4	4/4	4	1	1/4	1/4	1		2	50	D3	3	437
21	21	81	0.25	1/4	1/4	4/4	1	1	1/16	1/16	1		2	74	D5	5	415
21	21	81	0.25	1/4	1/4	4/4	2	1	1/16	1/16	1		-1	77	F5	5	426
21	21	325/4	0.25	5/16	5/16	4/4	1	1	1/16	1/16	1		-1	77	F5	5	416
21	21	325/4	0.25	5/16	5/16	4/4	2	1	1/16	1/16	1		3	81	A5	5	427
21	21	163/2	0.25	3/8	3/8	4/4	1	1	1/16	1/16	1		4	76	E5	5	417
21	21	163/2	0.25	3/8	3/8	4/4	2	1	1/16	1/16	1		1	79	G5	5	428
21	21	327/4	0.25	7/16	7/16	4/4	1	1	1/16	1/16	1		2	74	D5	5	418
21	21	327/4	0.25	7/16	7/16	4/4	2	1	1/16	1/16	1		-1	77	F5	5	429
21	21	82	1.0	1/2	1/2	4/4	3	1	1/4	1/4	1		3	45	A2	2	434
21	21	82	1.0	1/2	1/2	4/4	4	1	1/4	1/4	1		3	45	A2	2	438
21	21	82	0.5	1/2	1/2	4/4	1	1	1/8	1/8	1		7	73	C#5	5	419
21	21	82	1.0	1/2	1/2	4/4	2	1	1/4	1/4	1		4	76	E5	5	430
21	21	165/2	1.0	5/8	5/8	4/4	1	1	1/4	1/4	1		3	81	A5	5	420
21	21	83	1.0	3/4	3/4	4/4	3	1	1/4	1/4	1		-2	46	Bb2	2	435
21	21	83	1.0	3/4	3/4	4/4	4	1	1/4	1/4	1		-2	46	Bb2	2	439
21	21	83	1.0	3/4	3/4	4/4	2	1	1/4	1/4	1		2	74	D5	5	431
21	21	167/2	0.5	7/8	7/8	4/4	1	1	1/8	1/8	1	1	1	79	G5	5	421
22	22	84	1.0	0	0	4/4	3	1	1/4	1/4	1		3	45	A2	2	456
22	22	84	1.0	0	0	4/4	4	1	1/4	1/4	1		3	45	A2	2	459
22	22	84	1.0	0	0	4/4	2	1	1/4	1/4	1		7	73	C#5	5	450
22	22	84	0.5	0	0	4/4	1	1	1/8	1/8	1	-1	1	79	G5	5	440
22	22	169/2	1.0	1/8	1/8	4/4	1	1	1/4	1/4	1		-1	77	F5	5	441
22	22	85	1.0	1/4	1/4	4/4	3	1	1/4	1/4	1		1	43	G2	2	457
22	22	85	1.0	1/4	1/4	4/4	4	1	1/4	1/4	1		1	43	G2	2	460
22	22	85	1.0	1/4	1/4	4/4	2	1	1/4	1/4	1		5	71	B4	4	451
22	22	171/2	0.25	3/8	3/8	4/4	1	1	1/16	1/16	1		1	79	G5	5	442
22	22	343/4	0.25	7/16	7/16	4/4	1	1	1/16	1/16	1		-1	77	F5	5	443
22	22	86	2.0	1/2	1/2	4/4	3	1	1/2	1/2	1		3	45	A2	2	458
22	22	86	2.0	1/2	1/2	4/4	4	1	1/2	1/2	1		3	45	A2	2	461
22	22	86	0.5	1/2	1/2	4/4	2	1	1/8	1/8	1		7	73	C#5	5	452
22	22	86	0.25	1/2	1/2	4/4	1	1	1/16	1/16	1		4	76	E5	5	444
22	22	345/4	0.25	9/16	9/16	4/4	1	1	1/16	1/16	1		3	81	A5	5	445
22	22	173/2	0.5	5/8	5/8	4/4	2	1	1/8	1/8	1		2	74	D5	5	453
22	22	173/2	0.25	5/8	5/8	4/4	1	1	1/16	1/16	1		1	79	G5	5	446
22	22	347/4	0.25	11/16	11/16	4/4	1	1	1/16	1/16	1		-1	77	F5	5	447
22	22	87	0.75	3/4	3/4	4/4	2	1	3/16	1/8	3/2		2	74	D5	5	454
22	22	87	0.75	3/4	3/4	4/4	1	1	3/16	1/8	3/2		4	76	E5	5	448
22	22	351/4	0.25	15/16	15/16	4/4	2	1	1/16	1/16	1		7	73	C#5	5	455
22	22	351/4	0.25	15/16	15/16	4/4	1	1	1/16	1/16	1		4	76	E5	5	449
23	23	88	1.0	0	0	4/4	4	1	1/4	1/4	1		2	38	D2	2	468
23	23	88	1.0	0	0	4/4	3	1	1/4	1/4	1		2	50	D3	3	465
23	23	88	1.0	0	0	4/4	2	1	1/4	1/4	1		2	74	D5	5	464
23	23	88	2.0	0	0	4/4	1	1	1/2	1/2	1		2	74	D5	5	462
23	23	89	2.0	1/4	1/4	4/4	3	1	1/2	1/2	1		2	50	D3	3	466
23	23	89	2.0	1/4	1/4	4/4	4	1	1/2	1/2	1		2	50	D3	3	469
23	23	90	2.0	1/2	1/2	4/4	1	1	1/2	1/2	1		4	76	E5	5	463
23	23	91	1.0	3/4	3/4	4/4	3	1	1/4	1/4	1		7	49	C#3	3	467
23	23	91	1.0	3/4	3/4	4/4	4	1	1/4	1/4	1		7	49	C#3	3	470
24	24	92	1.0	0	0	4/4	3	1	1/4	1/4	1		2	50	D3	3	481
24	24	92	1.0	0	0	4/4	4	1	1/4	1/4	1		2	50	D3	3	489
24	24	92	2.0	0	0	4/4	1	1	1/2	1/2	1		-1	77	F5	5	471
24	24	369/4	0.25	1/16	1/16	4/4	2	1	1/16	1/16	1		3	81	A5	5	473
24	24	185/2	0.25	1/8	1/8	4/4	2	1	1/16	1/16	1		1	79	G5	5	474
24	24	371/4	0.25	3/16	3/16	4/4	2	1	1/16	1/16	1		3	81	A5	5	475
24	24	93	1.0	1/4	1/4	4/4	4	1	1/4	1/4	1		2	62	D4	4	490
24	24	93	1.0	1/4	1/4	4/4	2	1	1/4	1/4	1		-1	77	F5	5	476
24	24	373/4	0.25	5/16	5/16	4/4	3	1	1/16	1/16	1		2	62	D4	4	482
24	24	187/2	0.25	3/8	3/8	4/4	3	1	1/16	1/16	1		0	60	C4	4	483
24	24	375/4	0.25	7/16	7/16	4/4	3	1	1/16	1/16	1		2	62	D4	4	484
24	24	94	1.0	1/2	1/2	4/4	3	1	1/4	1/4	1		-2	58	Bb3	3	485
24	24	94	1.0	1/2	1/2	4/4	4	1	1/4	1/4	1		-2	58	Bb3	3	491
24	24	94	2.0	1/2	1/2	4/4	1	1	1/2	1/2	1		1	79	G5	5	472
24	24	377/4	0.25	9/16	9/16	4/4	2	1	1/16	1/16	1		-2	82	Bb5	5	477
24	24	189/2	0.25	5/8	5/8	4/4	2	1	1/16	1/16	1		3	81	A5	5	478
24	24	379/4	0.25	11/16	11/16	4/4	2	1	1/16	1/16	1		-2	82	Bb5	5	479
24	24	95	1.0	3/4	3/4	4/4	4	1	1/4	1/4	1		0	60	C4	4	492
24	24	95	1.0	3/4	3/4	4/4	2	1	1/4	1/4	1	1	1	79	G5	5	480
24	24	381/4	0.25	13/16	13/16	4/4	3	1	1/16	1/16	1		0	60	C4	4	486
24	24	191/2	0.25	7/8	7/8	4/4	3	1	1/16	1/16	1		-2	58	Bb3	3	487
24	24	383/4	0.25	15/16	15/16	4/4	3	1	1/16	1/16	1		0	60	C4	4	488
25	25	96	2.0	0	0	4/4	3	1	1/2	1/2	1		-1	53	F3	3	513
25	25	96	2.0	0	0	4/4	4	1	1/2	1/2	1		-1	53	F3	3	515
25	25	96	0.25	0	0	4/4	2	1	1/16	1/16	1	-1	1	79	G5	5	497
25	25	96	1.5	0	0	4/4	1	1	3/8	1/4	3/2		3	81	A5	5	493
25	25	385/4	0.25	1/16	1/16	4/4	2	1	1/16	1/16	1		0	72	C5	5	498
25	25	193/2	0.25	1/8	1/8	4/4	2	1	1/16	1/16	1		2	74	D5	5	499
25	25	387/4	0.25	3/16	3/16	4/4	2	1	1/16	1/16	1		4	76	E5	5	500
25	25	97	0.25	1/4	1/4	4/4	2	1	1/16	1/16	1		-1	77	F5	5	501
25	25	389/4	0.25	5/16	5/16	4/4	2	1	1/16	1/16	1		4	76	E5	5	502
25	25	195/2	0.25	3/8	3/8	4/4	2	1	1/16	1/16	1		2	74	D5	5	503
25	25	195/2	0.5	3/8	3/8	4/4	1	1	1/8	1/8	1		-1	77	F5	5	494
25	25	391/4	0.25	7/16	7/16	4/4	2	1	1/16	1/16	1		0	72	C5	5	504
25	25	98	2.0	1/2	1/2	4/4	3	1	1/2	1/2	1		1	55	G3	3	514
25	25	98	2.0	1/2	1/2	4/4	4	1	1/2	1/2	1		1	55	G3	3	516
25	25	98	0.25	1/2	1/2	4/4	2	1	1/16	1/16	1		-2	70	Bb4	4	505
25	25	98	1.0	1/2	1/2	4/4	1	1	1/4	1/4	1		-1	77	F5	5	495
25	25	393/4	0.25	9/16	9/16	4/4	2	1	1/16	1/16	1		0	72	C5	5	506
25	25	197/2	0.25	5/8	5/8	4/4	2	1	1/16	1/16	1		-2	70	Bb4	4	507
25	25	395/4	0.25	11/16	11/16	4/4	2	1	1/16	1/16	1		3	69	A4	4	508
25	25	99	0.25	3/4	3/4	4/4	2	1	1/16	1/16	1		1	67	G4	4	509
25	25	99	1.0	3/4	3/4	4/4	1	1	1/4	1/4	1		4	76	E5	5	496
25	25	397/4	0.25	13/16	13/16	4/4	2	1	1/16	1/16	1		0	72	C5	5	510
25	25	199/2	0.25	7/8	7/8	4/4	2	1	1/16	1/16	1		-2	70	Bb4	4	511
25	25	399/4	0.25	15/16	15/16	4/4	2	1	1/16	1/16	1		0	72	C5	5	512
26	26	100	2.0	0	0	4/4	3	1	1/2	1/2	1		3	57	A3	3	534
26	26	100	2.0	0	0	4/4	4	1	1/2	1/2	1		3	57	A3	3	536
26	26	100	1.0	0	0	4/4	2	1	1/4	1/4	1		3	69	A4	4	533
26	26	100	0.25	0	0	4/4	1	1	1/16	1/16	1		-1	77	F5	5	517
26	26	401/4	0.25	1/16	1/16	4/4	1	1	1/16	1/16	1		0	72	C5	5	518
26	26	201/2	0.25	1/8	1/8	4/4	1	1	1/16	1/16	1		-2	70	Bb4	4	519
26	26	403/4	0.25	3/16	3/16	4/4	1	1	1/16	1/16	1		0	72	C5	5	520
26	26	101	0.25	1/4	1/4	4/4	1	1	1/16	1/16	1		3	69	A4	4	521
26	26	405/4	0.25	5/16	5/16	4/4	1	1	1/16	1/16	1		1	67	G4	4	522
26	26	203/2	0.25	3/8	3/8	4/4	1	1	1/16	1/16	1		-1	65	F4	4	523
26	26	407/4	0.25	7/16	7/16	4/4	1	1	1/16	1/16	1		4	64	E4	4	524
26	26	102	2.0	1/2	1/2	4/4	3	1	1/2	1/2	1		-2	58	Bb3	3	535
26	26	102	2.0	1/2	1/2	4/4	4	1	1/2	1/2	1		-2	58	Bb3	3	537
26	26	102	0.25	1/2	1/2	4/4	1	1	1/16	1/16	1		2	62	D4	4	525
26	26	409/4	0.25	9/16	9/16	4/4	1	1	1/16	1/16	1		2	74	D5	5	526
26	26	205/2	0.25	5/8	5/8	4/4	1	1	1/16	1/16	1		0	72	C5	5	527
26	26	411/4	0.25	11/16	11/16	4/4	1	1	1/16	1/16	1		2	74	D5	5	528
26	26	103	0.25	3/4	3/4	4/4	1	1	1/16	1/16	1		-2	70	Bb4	4	529
26	26	413/4	0.25	13/16	13/16	4/4	1	1	1/16	1/16	1		3	69	A4	4	530
26	26	207/2	0.25	7/8	7/8	4/4	1	1	1/16	1/16	1		1	67	G4	4	531
26	26	415/4	0.25	15/16	15/16	4/4	1	1	1/16	1/16	1		-1	65	F4	4	532
27	27	104	1.0	0	0	4/4	3	1	1/4	1/4	1		0	60	C4	4	544
27	27	104	1.0	0	0	4/4	4	1	1/4	1/4	1		0	60	C4	4	548
27	27	104	0.5	0	0	4/4	1	1	1/8	1/8	1		4	64	E4	4	538
27	27	104	2.0	0	0	4/4	2	1	1/2	1/2	1		0	72	C5	5	542
27	27	209/2	0.5	1/8	1/8	4/4	1	1	1/8	1/8	1		0	60	C4	4	539
27	27	105	1.0	1/4	1/4	4/4	3	1	1/4	1/4	1		4	52	E3	3	545
27	27	105	1.0	1/4	1/4	4/4	4	1	1/4	1/4	1		4	52	E3	3	549
27	27	105	2.0	1/4	1/4	4/4	1	1	1/2	1/2	1		0	72	C5	5	540
27	27	106	1.0	1/2	1/2	4/4	3	1	1/4	1/4	1		2	50	D3	3	546
27	27	106	1.0	1/2	1/2	4/4	4	1	1/4	1/4	1		2	50	D3	3	550
27	27	106	2.0	1/2	1/2	4/4	2	1	1/2	1/2	1		2	74	D5	5	543
27	27	107	1.0	3/4	3/4	4/4	3	1	1/4	1/4	1		1	43	G2	2	547
27	27	107	1.0	3/4	3/4	4/4	4	1	1/4	1/4	1		1	43	G2	2	551
27	27	107	1.0	3/4	3/4	4/4	1	1	1/4	1/4	1		5	71	B4	4	541
28	28	108	2.0	0	0	4/4	3	1	1/2	1/2	1		0	48	C3	3	569
28	28	108	2.0	0	0	4/4	4	1	1/2	1/2	1		0	48	C3	3	571
28	28	108	1.0	0	0	4/4	1	1	1/4	1/4	1		0	72	C5	5	552
28	28	108	0.25	0	0	4/4	2	1	1/16	1/16	1		4	76	E5	5	560
28	28	433/4	0.25	1/16	1/16	4/4	2	1	1/16	1/16	1		1	79	G5	5	561
28	28	217/2	0.25	1/8	1/8	4/4	2	1	1/16	1/16	1		-1	77	F5	5	562
28	28	435/4	0.25	3/16	3/16	4/4	2	1	1/16	1/16	1		1	79	G5	5	563
28	28	109	0.25	1/4	1/4	4/4	2	1	1/16	1/16	1		4	76	E5	5	564
28	28	437/4	0.25	5/16	5/16	4/4	2	1	1/16	1/16	1		2	74	D5	5	565
28	28	219/2	0.25	3/8	3/8	4/4	2	1	1/16	1/16	1		0	72	C5	5	566
28	28	439/4	0.25	7/16	7/16	4/4	2	1	1/16	1/16	1		-2	70	Bb4	4	567
28	28	110	2.0	1/2	1/2	4/4	3	1	1/2	1/2	1		-1	53	F3	3	570
28	28	110	2.0	1/2	1/2	4/4	4	1	1/2	1/2	1		-1	53	F3	3	572
28	28	110	1.0	1/2	1/2	4/4	2	1	1/4	1/4	1		3	69	A4	4	568
28	28	441/4	0.25	9/16	9/16	4/4	1	1	1/16	1/16	1		0	72	C5	5	553
28	28	221/2	0.25	5/8	5/8	4/4	1	1	1/16	1/16	1		-2	70	Bb4	4	554
28	28	443/4	0.25	11/16	11/16	4/4	1	1	1/16	1/16	1		0	72	C5	5	555
28	28	111	0.25	3/4	3/4	4/4	1	1	1/16	1/16	1		3	69	A4	4	556
28	28	445/4	0.25	13/16	13/16	4/4	1	1	1/16	1/16	1		1	67	G4	4	557
28	28	223/2	0.25	7/8	7/8	4/4	1	1	1/16	1/16	1		-1	65	F4	4	558
28	28	447/4	0.25	15/16	15/16	4/4	1	1	1/16	1/16	1		4	64	E4	4	559
29	29	112	2.0	0	0	4/4	3	1	1/2	1/2	1		-2	58	Bb3	3	589
29	29	112	2.0	0	0	4/4	4	1	1/2	1/2	1		-2	58	Bb3	3	591
29	29	112	1.0	0	0	4/4	1	1	1/4	1/4	1		2	62	D4	4	573
29	29	449/4	0.25	1/16	1/16	4/4	2	1	1/16	1/16	1		-1	77	F5	5	581
29	29	225/2	0.25	1/8	1/8	4/4	2	1	1/16	1/16	1		4	76	E5	5	582
29	29	451/4	0.25	3/16	3/16	4/4	2	1	1/16	1/16	1		-1	77	F5	5	583
29	29	113	0.25	1/4	1/4	4/4	2	1	1/16	1/16	1		2	74	D5	5	584
29	29	453/4	0.25	5/16	5/16	4/4	2	1	1/16	1/16	1		0	72	C5	5	585
29	29	227/2	0.25	3/8	3/8	4/4	2	1	1/16	1/16	1		-2	70	Bb4	4	586
29	29	455/4	0.25	7/16	7/16	4/4	2	1	1/16	1/16	1		3	69	A4	4	587
29	29	114	2.0	1/2	1/2	4/4	3	1	1/2	1/2	1		-2	46	Bb2	2	590
29	29	114	2.0	1/2	1/2	4/4	4	1	1/2	1/2	1		-2	46	Bb2	2	592
29	29	114	1.0	1/2	1/2	4/4	2	1	1/4	1/4	1		1	67	G4	4	588
29	29	457/4	0.25	9/16	9/16	4/4	1	1	1/16	1/16	1		-2	70	Bb4	4	574
29	29	229/2	0.25	5/8	5/8	4/4	1	1	1/16	1/16	1		3	69	A4	4	575
29	29	459/4	0.25	11/16	11/16	4/4	1	1	1/16	1/16	1		-2	70	Bb4	4	576
29	29	115	0.25	3/4	3/4	4/4	1	1	1/16	1/16	1		1	67	G4	4	577
29	29	461/4	0.25	13/16	13/16	4/4	1	1	1/16	1/16	1		-1	65	F4	4	578
29	29	231/2	0.25	7/8	7/8	4/4	1	1	1/16	1/16	1		4	64	E4	4	579
29	29	463/4	0.25	15/16	15/16	4/4	1	1	1/16	1/16	1		2	62	D4	4	580
30	30	116	2.0	0	0	4/4	3	1	1/2	1/2	1		0	48	C3	3	601
30	30	116	2.0	0	0	4/4	4	1	1/2	1/2	1		0	48	C3	3	603
30	30	116	0.25	0	0	4/4	1	1	1/16	1/16	1		4	64	E4	4	593
30	30	116	2.0	0	0	4/4	2	1	1/2	1/2	1		0	72	C5	5	599
30	30	465/4	0.25	1/16	1/16	4/4	1	1	1/16	1/16	1		1	67	G4	4	594
30	30	233/2	0.25	1/8	1/8	4/4	1	1	1/16	1/16	1		3	69	A4	4	595
30	30	467/4	0.25	3/16	3/16	4/4	1	1	1/16	1/16	1		-2	70	Bb4	4	596
30	30	117	2.0	1/4	1/4	4/4	1	1	1/2	1/2	1		0	72	C5	5	597
30	30	118	2.0	1/2	1/2	4/4	3	1	1/2	1/2	1		1	55	G3	3	602
30	30	118	2.0	1/2	1/2	4/4	4	1	1/2	1/2	1		1	55	G3	3	604
30	30	118	2.0	1/2	1/2	4/4	2	1	1/2	1/2	1		2	74	D5	5	600
30	30	119	1.0	3/4	3/4	4/4	1	1	1/4	1/4	1	1	-2	70	Bb4	4	598
31	31	120	1.0	0	0	4/4	3	1	1/4	1/4	1		0	48	C3	3	612
31	31	120	1.0	0	0	4/4	4	1	1/4	1/4	1		0	48	C3	3	616
31	31	120	1.0	0	0	4/4	1	1	1/4	1/4	1	-1	-2	70	Bb4	4	605
31	31	120	1.0	0	0	4/4	2	1	1/4	1/4	1		4	76	E5	5	609
31	31	121	1.0	1/4	1/4	4/4	3	1	1/4	1/4	1		-1	41	F2	2	613
31	31	121	1.0	1/4	1/4	4/4	4	1	1/4	1/4	1		-1	41	F2	2	617
31	31	121	1.0	1/4	1/4	4/4	1	1	1/4	1/4	1		3	69	A4	4	606
31	31	121	2.0	1/4	1/4	4/4	2	1	1/2	1/2	1		-1	77	F5	5	610
31	31	122	1.0	1/2	1/2	4/4	3	1	1/4	1/4	1		1	43	G2	2	614
31	31	122	1.0	1/2	1/2	4/4	4	1	1/4	1/4	1		1	43	G2	2	618
31	31	122	1.0	1/2	1/2	4/4	1	1	1/4	1/4	1		5	71	B4	4	607
31	31	123	1.0	3/4	3/4	4/4	3	1	1/4	1/4	1		3	45	A2	2	615
31	31	123	1.0	3/4	3/4	4/4	4	1	1/4	1/4	1		3	45	A2	2	619
31	31	123	1.0	3/4	3/4	4/4	1	1	1/4	1/4	1	1	0	72	C5	5	608
31	31	123	1.0	3/4	3/4	4/4	2	1	1/4	1/4	1		4	76	E5	5	611
32	32	124	1.0	0	0	4/4	3	1	1/4	1/4	1		-1	41	F2	2	629
32	32	124	1.0	0	0	4/4	4	1	1/4	1/4	1		-1	41	F2	2	635
32	32	124	1.0	0	0	4/4	1	1	1/4	1/4	1	-1	0	72	C5	5	620
32	32	124	2.0	0	0	4/4	2	1	1/2	1/2	1		2	74	D5	5	627
32	32	125	1.0	1/4	1/4	4/4	3	1	1/4	1/4	1		1	43	G2	2	630
32	32	125	1.0	1/4	1/4	4/4	4	1	1/4	1/4	1		1	43	G2	2	636
32	32	125	1.0	1/4	1/4	4/4	1	1	1/4	1/4	1		5	71	B4	4	621
32	32	126	1.0	1/2	1/2	4/4	3	1	1/4	1/4	1		0	48	C3	3	631
32	32	126	2.0	1/2	1/2	4/4	4	1	1/2	1/2	1		0	48	C3	3	637
32	32	126	0.25	1/2	1/2	4/4	1	1	1/16	1/16	1		0	72	C5	5	622
32	32	126	2.0	1/2	1/2	4/4	2	1	1/2	1/2	1		0	72	C5	5	628
32	32	505/4	0.25	9/16	9/16	4/4	1	1	1/16	1/16	1		4	76	E5	5	623
32	32	253/2	0.25	5/8	5/8	4/4	1	1	1/16	1/16	1		-1	77	F5	5	624
32	32	507/4	0.25	11/16	11/16	4/4	1	1	1/16	1/16	1		1	79	G5	5	625
32	32	127	1.0	3/4	3/4	4/4	1	1	1/4	1/4	1	1	3	81	A5	5	626
32	32	509/4	0.25	13/16	13/16	4/4	3	1	1/16	1/16	1		3	57	A3	3	632
32	32	255/2	0.25	7/8	7/8	4/4	3	1	1/16	1/16	1		-2	58	Bb3	3	633
32	32	511/4	0.25	15/16	15/16	4/4	3	1	1/16	1/16	1		0	60	C4	4	634
33	33	128	1.0	0	0	4/4	4	1	1/4	1/4	1		2	50	D3	3	660
33	33	128	1.0	0	0	4/4	3	1	1/4	1/4	1	1	2	62	D4	4	650
33	33	128	2.0	0	0	4/4	2	1	1/2	1/2	1		-2	70	Bb4	4	648
33	33	128	0.25	0	0	4/4	1	1	1/16	1/16	1	-1	3	81	A5	5	638
33	33	513/4	0.25	1/16	1/16	4/4	1	1	1/16	1/16	1		2	74	D5	5	639
33	33	257/2	0.25	1/8	1/8	4/4	1	1	1/16	1/16	1		4	76	E5	5	640
33	33	515/4	0.25	3/16	3/16	4/4	1	1	1/16	1/16	1		-1	77	F5	5	641
33	33	129	1.0	1/4	1/4	4/4	4	1	1/4	1/4	1		-2	46	Bb2	2	661
33	33	129	0.25	1/4	1/4	4/4	3	1	1/16	1/16	1	-1	2	62	D4	4	651
33	33	129	1.0	1/4	1/4	4/4	1	1	1/4	1/4	1	1	1	79	G5	5	642
33	33	517/4	0.25	5/16	5/16	4/4	3	1	1/16	1/16	1		1	55	G3	3	652
33	33	259/2	0.25	3/8	3/8	4/4	3	1	1/16	1/16	1		3	57	A3	3	653
33	33	519/4	0.25	7/16	7/16	4/4	3	1	1/16	1/16	1		-2	58	Bb3	3	654
33	33	130	1.0	1/2	1/2	4/4	4	1	1/4	1/4	1		0	48	C3	3	662
33	33	130	1.0	1/2	1/2	4/4	3	1	1/4	1/4	1	1	0	60	C4	4	655
33	33	130	2.0	1/2	1/2	4/4	2	1	1/2	1/2	1		3	69	A4	4	649
33	33	130	0.25	1/2	1/2	4/4	1	1	1/16	1/16	1	-1	1	79	G5	5	643
33	33	521/4	0.25	9/16	9/16	4/4	1	1	1/16	1/16	1		0	72	C5	5	644
33	33	261/2	0.25	5/8	5/8	4/4	1	1	1/16	1/16	1		2	74	D5	5	645
33	33	523/4	0.25	11/16	11/16	4/4	1	1	1/16	1/16	1		4	76	E5	5	646
33	33	131	1.0	3/4	3/4	4/4	4	1	1/4	1/4	1		3	45	A2	2	663
33	33	131	0.25	3/4	3/4	4/4	3	1	1/16	1/16	1	-1	0	60	C4	4	656
33	33	131	1.0	3/4	3/4	4/4	1	1	1/4	1/4	1	1	-1	77	F5	5	647
33	33	525/4	0.25	13/16	13/16	4/4	3	1	1/16	1/16	1		-1	53	F3	3	657
33	33	263/2	0.25	7/8	7/8	4/4	3	1	1/16	1/16	1		1	55	G3	3	658
33	33	527/4	0.25	15/16	15/16	4/4	3	1	1/16	1/16	1		3	57	A3	3	659
34	34	132	1.0	0	0	4/4	4	1	1/4	1/4	1		-2	46	Bb2	2	679
34	34	132	1.0	0	0	4/4	3	1	1/4	1/4	1		-2	58	Bb3	3	676
34	34	132	2.0	0	0	4/4	2	1	1/2	1/2	1		1	67	G4	4	670
34	34	132	1.0	0	0	4/4	1	1	1/4	1/4	1	-1	-1	77	F5	5	664
34	34	133	1.0	1/4	1/4	4/4	4	1	1/4	1/4	1		0	48	C3	3	680
34	34	133	1.0	1/4	1/4	4/4	3	1	1/4	1/4	1		0	60	C4	4	677
34	34	133	1.0	1/4	1/4	4/4	1	1	1/4	1/4	1		4	76	E5	5	665
34	34	134	2.0	1/2	1/2	4/4	3	1	1/2	1/2	1		-1	53	F3	3	678
34	34	134	2.0	1/2	1/2	4/4	4	1	1/2	1/2	1		-1	53	F3	3	681
34	34	134	0.25	1/2	1/2	4/4	2	1	1/16	1/16	1		-1	65	F4	4	671
34	34	134	1.0	1/2	1/2	4/4	1	1	1/4	1/4	1		-1	77	F5	5	666
34	34	537/4	0.25	9/16	9/16	4/4	2	1	1/16	1/16	1		3	69	A4	4	672
34	34	269/2	0.25	5/8	5/8	4/4	2	1	1/16	1/16	1		-2	70	Bb4	4	673
34	34	539/4	0.25	11/16	11/16	4/4	2	1	1/16	1/16	1		0	72	C5	5	674
34	34	135	1.0	3/4	3/4	4/4	2	1	1/4	1/4	1	1	2	74	D5	5	675
34	34	541/4	0.25	13/16	13/16	4/4	1	1	1/16	1/16	1		2	62	D4	4	667
34	34	271/2	0.25	7/8	7/8	4/4	1	1	1/16	1/16	1		4	64	E4	4	668
34	34	543/4	0.25	15/16	15/16	4/4	1	1	1/16	1/16	1		-1	65	F4	4	669
35	35	136	2.0	0	0	4/4	3	1	1/2	1/2	1		4	52	E3	3	702
35	35	136	2.0	0	0	4/4	4	1	1/2	1/2	1		4	52	E3	3	704
35	35	136	1.0	0	0	4/4	1	1	1/4	1/4	1	1	1	67	G4	4	682
35	35	136	0.25	0	0	4/4	2	1	1/16	1/16	1	-1	2	74	D5	5	692
35	35	545/4	0.25	1/16	1/16	4/4	2	1	1/16	1/16	1		1	67	G4	4	693
35	35	273/2	0.25	1/8	1/8	4/4	2	1	1/16	1/16	1		3	69	A4	4	694
35	35	547/4	0.25	3/16	3/16	4/4	2	1	1/16	1/16	1		-2	70	Bb4	4	695
35	35	137	0.25	1/4	1/4	4/4	1	1	1/16	1/16	1	-1	1	67	G4	4	683
35	35	137	1.0	1/4	1/4	4/4	2	1	1/4	1/4	1	1	0	72	C5	5	696
35	35	549/4	0.25	5/16	5/16	4/4	1	1	1/16	1/16	1		0	60	C4	4	684
35	35	275/2	0.25	3/8	3/8	4/4	1	1	1/16	1/16	1		2	62	D4	4	685
35	35	551/4	0.25	7/16	7/16	4/4	1	1	1/16	1/16	1		4	64	E4	4	686
35	35	138	2.0	1/2	1/2	4/4	3	1	1/2	1/2	1		2	50	D3	3	703
35	35	138	2.0	1/2	1/2	4/4	4	1	1/2	1/2	1		2	50	D3	3	705
35	35	138	1.0	1/2	1/2	4/4	1	1	1/4	1/4	1	1	-1	65	F4	4	687
35	35	138	0.25	1/2	1/2	4/4	2	1	1/16	1/16	1	-1	0	72	C5	5	697
35	35	553/4	0.25	9/16	9/16	4/4	2	1	1/16	1/16	1		-1	77	F5	5	698
35	35	277/2	0.25	5/8	5/8	4/4	2	1	1/16	1/16	1		1	79	G5	5	699
35	35	555/4	0.25	11/16	11/16	4/4	2	1	1/16	1/16	1		3	81	A5	5	700
35	35	139	0.25	3/4	3/4	4/4	1	1	1/16	1/16	1	-1	-1	65	F4	4	688
35	35	139	1.0	3/4	3/4	4/4	2	1	1/4	1/4	1	1	-2	82	Bb5	5	701
35	35	557/4	0.25	13/16	13/16	4/4	1	1	1/16	1/16	1		-2	70	Bb4	4	689
35	35	279/2	0.25	7/8	7/8	4/4	1	1	1/16	1/16	1		0	72	C5	5	690
35	35	559/4	0.25	15/16	15/16	4/4	1	1	1/16	1/16	1		2	74	D5	5	691
36	36	140	2.0	0	0	4/4	3	1	1/2	1/2	1		0	48	C3	3	726
36	36	140	2.0	0	0	4/4	4	1	1/2	1/2	1		0	48	C3	3	728
36	36	140	1.0	0	0	4/4	1	1	1/4	1/4	1	1	4	76	E5	5	706
36	36	140	0.25	0	0	4/4	2	1	1/16	1/16	1	-1	-2	82	Bb5	5	716
36	36	561/4	0.25	1/16	1/16	4/4	2	1	1/16	1/16	1		4	76	E5	5	717
36	36	281/2	0.25	1/8	1/8	4/4	2	1	1/16	1/16	1		-1	77	F5	5	718
36	36	563/4	0.25	3/16	3/16	4/4	2	1	1/16	1/16	1		1	79	G5	5	719
36	36	141	0.25	1/4	1/4	4/4	1	1	1/16	1/16	1	-1	4	76	E5	5	707
36	36	141	1.0	1/4	1/4	4/4	2	1	1/4	1/4	1	1	3	81	A5	5	720
36	36	565/4	0.25	5/16	5/16	4/4	1	1	1/16	1/16	1		3	69	A4	4	708
36	36	283/2	0.25	3/8	3/8	4/4	1	1	1/16	1/16	1		-2	70	Bb4	4	709
36	36	567/4	0.25	7/16	7/16	4/4	1	1	1/16	1/16	1		0	72	C5	5	710
36	36	142	2.0	1/2	1/2	4/4	3	1	1/2	1/2	1		-2	46	Bb2	2	727
36	36	142	2.0	1/2	1/2	4/4	4	1	1/2	1/2	1		-2	46	Bb2	2	729
36	36	142	1.0	1/2	1/2	4/4	1	1	1/4	1/4	1	1	2	74	D5	5	711
36	36	142	0.25	1/2	1/2	4/4	2	1	1/16	1/16	1	-1	3	81	A5	5	721
36	36	569/4	0.25	9/16	9/16	4/4	2	1	1/16	1/16	1		2	74	D5	5	722
36	36	285/2	0.25	5/8	5/8	4/4	2	1	1/16	1/16	1		4	76	E5	5	723
36	36	571/4	0.25	11/16	11/16	4/4	2	1	1/16	1/16	1		-1	77	F5	5	724
36	36	143	0.25	3/4	3/4	4/4	1	1	1/16	1/16	1	-1	2	74	D5	5	712
36	36	143	1.0	3/4	3/4	4/4	2	1	1/4	1/4	1	1	1	79	G5	5	725
36	36	573/4	0.25	13/16	13/16	4/4	1	1	1/16	1/16	1		1	67	G4	4	713
36	36	287/2	0.25	7/8	7/8	4/4	1	1	1/16	1/16	1		3	69	A4	4	714
36	36	575/4	0.25	15/16	15/16	4/4	1	1	1/16	1/16	1		-2	70	Bb4	4	715
37	37	144	2.0	0	0	4/4	3	1	1/2	1/2	1		3	45	A2	2	747
37	37	144	2.0	0	0	4/4	4	1	1/2	1/2	1		3	45	A2	2	749
37	37	144	1.0	0	0	4/4	1	1	1/4	1/4	1	1	0	72	C5	5	730
37	37	144	0.25	0	0	4/4	2	1	1/16	1/16	1	-1	1	79	G5	5	741
37	37	577/4	0.25	1/16	1/16	4/4	2	1	1/16	1/16	1		0	72	C5	5	742
37	37	289/2	0.25	1/8	1/8	4/4	2	1	1/16	1/16	1		2	74	D5	5	743
37	37	579/4	0.25	3/16	3/16	4/4	2	1	1/16	1/16	1		4	76	E5	5	744
37	37	145	0.25	1/4	1/4	4/4	1	1	1/16	1/16	1	-1	0	72	C5	5	731
37	37	145	2.0	1/4	1/4	4/4	2	1	1/2	1/2	1		-1	77	F5	5	745
37	37	581/4	0.25	5/16	5/16	4/4	1	1	1/16	1/16	1		-1	65	F4	4	732
37	37	291/2	0.25	3/8	3/8	4/4	1	1	1/16	1/16	1		1	67	G4	4	733
37	37	583/4	0.25	7/16	7/16	4/4	1	1	1/16	1/16	1		3	69	A4	4	734
37	37	146	2.0	1/2	1/2	4/4	3	1	1/2	1/2	1		1	43	G2	2	748
37	37	146	2.0	1/2	1/2	4/4	4	1	1/2	1/2	1		1	43	G2	2	750
37	37	146	0.25	1/2	1/2	4/4	1	1	1/16	1/16	1		-2	70	Bb4	4	735
37	37	585/4	0.25	9/16	9/16	4/4	1	1	1/16	1/16	1		0	72	C5	5	736
37	37	293/2	0.25	5/8	5/8	4/4	1	1	1/16	1/16	1		-2	70	Bb4	4	737
37	37	587/4	0.25	11/16	11/16	4/4	1	1	1/16	1/16	1		3	69	A4	4	738
37	37	147	0.75	3/4	3/4	4/4	1	1	3/16	1/8	3/2		1	67	G4	4	739
37	37	147	1.0	3/4	3/4	4/4	2	1	1/4	1/4	1		4	76	E5	5	746
37	37	591/4	0.25	15/16	15/16	4/4	1	1	1/16	1/16	1		1	67	G4	4	740
38	38	148	4.0	0	0	4/4	3	1	1	1	1		-1	41	F2	2	753
38	38	148	4.0	0	0	4/4	4	1	1	1	1		-1	41	F2	2	754
38	38	148	4.0	0	0	4/4	1	1	1	1	1		3	69	A4	4	751
38	38	148	4.0	0	0	4/4	2	1	1	1	1		-1	77	F5	5	752
