mc	mn	quarterbeats	duration_qb	mc_onset	mn_onset	timesig	staff	voice	duration	nominal_duration	scalar	tied	tpc	midi	name	octave	chord_id
1	1	1	1.0	1/4	1/4	3/4	3	1	1/4	1/4	1		5	59	B3	3	4
1	1	1	1.0	1/4	1/4	3/4	4	1	1/4	1/4	1		5	59	B3	3	6
1	1	1	1.0	1/4	1/4	3/4	2	1	1/4	1/4	1		2	74	D5	5	2
1	1	1	1.0	1/4	1/4	3/4	1	1	1/4	1/4	1		6	78	F#5	5	0
1	1	2	1.0	1/2	1/2	3/4	3	1	1/4	1/4	1		10	58	A#3	3	5
1	1	2	1.0	1/2	1/2	3/4	4	1	1/4	1/4	1		10	58	A#3	3	7
1	1	2	1.0	1/2	1/2	3/4	2	1	1/4	1/4	1		7	73	C#5	5	3
1	1	2	1.0	1/2	1/2	3/4	1	1	1/4	1/4	1		6	78	F#5	5	1
2	2	3	2.0	0	0	3/4	3	1	1/2	1/2	1		5	59	B3	3	12
2	2	3	2.0	0	0	3/4	4	1	1/2	1/2	1		5	59	B3	3	14
2	2	3	2.0	0	0	3/4	2	1	1/2	1/2	1		2	74	D5	5	10
2	2	3	2.0	0	0	3/4	1	1	1/2	1/2	1		6	78	F#5	5	8
2	2	5	1.0	1/2	1/2	3/4	3	1	1/4	1/4	1		5	59	B3	3	13
2	2	5	1.0	1/2	1/2	3/4	4	1	1/4	1/4	1		5	59	B3	3	15
2	2	5	1.0	1/2	1/2	3/4	2	1	1/4	1/4	1		2	74	D5	5	11
2	2	5	1.0	1/2	1/2	3/4	1	1	1/4	1/4	1		1	79	G5	5	9
3	3	6	2.0	0	0	3/4	3	1	1/2	1/2	1		3	57	A3	3	20
3	3	6	2.0	0	0	3/4	4	1	1/2	1/2	1		3	57	A3	3	22
3	3	6	2.0	0	0	3/4	2	1	1/2	1/2	1		7	73	C#5	5	18
3	3	6	2.0	0	0	3/4	1	1	1/2	1/2	1		6	78	F#5	5	16
3	3	8	1.0	1/2	1/2	3/4	3	1	1/4	1/4	1		1	55	G3	3	21
3	3	8	1.0	1/2	1/2	3/4	4	1	1/4	1/4	1		1	55	G3	3	23
3	3	8	1.0	1/2	1/2	3/4	2	1	1/4	1/4	1		5	71	B4	4	19
3	3	8	1.0	1/2	1/2	3/4	1	1	1/4	1/4	1		4	76	E5	5	17
4	4	9	2.0	0	0	3/4	3	1	1/2	1/2	1		6	54	F#3	3	29
4	4	9	2.0	0	0	3/4	4	1	1/2	1/2	1		6	54	F#3	3	31
4	4	9	2.0	0	0	3/4	2	1	1/2	1/2	1		10	70	A#4	4	27
4	4	9	1.0	0	0	3/4	1	1	1/4	1/4	1		6	78	F#5	5	24
4	4	10	1.0	1/4	1/4	3/4	1	1	1/4	1/4	1		7	73	C#5	5	25
4	4	11	1.0	1/2	1/2	3/4	3	1	1/4	1/4	1		6	54	F#3	3	30
4	4	11	1.0	1/2	1/2	3/4	4	1	1/4	1/4	1		6	54	F#3	3	32
4	4	11	1.0	1/2	1/2	3/4	2	1	1/4	1/4	1		10	70	A#4	4	28
4	4	11	1.0	1/2	1/2	3/4	1	1	1/4	1/4	1	1	6	78	F#5	5	26
5	5	12	2.0	0	0	3/4	3	1	1/2	1/2	1		8	56	G#3	3	38
5	5	12	2.0	0	0	3/4	4	1	1/2	1/2	1		8	56	G#3	3	40
5	5	12	2.0	0	0	3/4	2	1	1/2	1/2	1		5	71	B4	4	36
5	5	12	1.0	0	0	3/4	1	1	1/4	1/4	1	-1	6	78	F#5	5	33
5	5	13	1.5	1/4	1/4	3/4	1	1	3/8	1/4	3/2		4	76	E5	5	34
5	5	14	1.0	1/2	1/2	3/4	3	1	1/4	1/4	1		10	58	A#3	3	39
5	5	14	1.0	1/2	1/2	3/4	4	1	1/4	1/4	1		10	58	A#3	3	41
5	5	14	1.0	1/2	1/2	3/4	2	1	1/4	1/4	1		7	73	C#5	5	37
5	5	29/2	0.5	5/8	5/8	3/4	1	1	1/8	1/8	1		7	73	C#5	5	35
6	6	15	2.0	0	0	3/4	3	1	1/2	1/2	1		5	59	B3	3	50
6	6	15	2.0	0	0	3/4	4	1	1/2	1/2	1		5	59	B3	3	51
6	6	15	1.0	0	0	3/4	2	1	1/4	1/4	1		6	66	F#4	4	47
6	6	15	1.0	0	0	3/4	1	1	1/4	1/4	1		2	74	D5	5	42
6	6	16	0.5	1/4	1/4	3/4	1	1	1/8	1/8	1		2	74	D5	5	43
6	6	16	1.0	1/4	1/4	3/4	2	1	1/4	1/4	1		6	78	F#5	5	48
6	6	33/2	0.5	3/8	3/8	3/4	1	1	1/8	1/8	1		7	73	C#5	5	44
6	6	17	1.0	1/2	1/2	3/4	4	1	1/4	1/4	1		5	47	B2	2	52
6	6	17	0.5	1/2	1/2	3/4	1	1	1/8	1/8	1		2	74	D5	5	45
6	6	17	1.0	1/2	1/2	3/4	2	1	1/4	1/4	1	1	5	83	B5	5	49
6	6	35/2	0.5	5/8	5/8	3/4	1	1	1/8	1/8	1		5	71	B4	4	46
7	7	18	2.0	0	0	3/4	4	1	1/2	1/2	1		6	54	F#3	3	60
7	7	18	1.0	0	0	3/4	1	1	1/4	1/4	1		7	73	C#5	5	53
7	7	18	1.0	0	0	3/4	2	1	1/4	1/4	1	-1	5	83	B5	5	57
7	7	19	0.5	1/4	1/4	3/4	1	1	1/8	1/8	1		6	78	F#5	5	54
7	7	19	1.5	1/4	1/4	3/4	2	1	3/8	1/4	3/2		3	81	A5	5	58
7	7	39/2	0.5	3/8	3/8	3/4	1	1	1/8	1/8	1		4	76	E5	5	55
7	7	20	1.0	1/2	1/2	3/4	4	1	1/4	1/4	1		2	50	D3	3	61
7	7	20	1.0	1/2	1/2	3/4	1	1	1/4	1/4	1	1	6	78	F#5	5	56
7	7	41/2	0.5	5/8	5/8	3/4	2	1	1/8	1/8	1		6	78	F#5	5	59
8	8	21	1.0	0	0	3/4	4	1	1/4	1/4	1		5	47	B2	2	69
8	8	21	1.0	0	0	3/4	1	1	1/4	1/4	1	-1	6	78	F#5	5	62
8	8	21	2.0	0	0	3/4	2	1	1/2	1/2	1		1	79	G5	5	66
8	8	22	2.0	1/4	1/4	3/4	4	1	1/2	1/2	1		7	49	C#3	3	70
8	8	22	0.5	1/4	1/4	3/4	1	1	1/8	1/8	1		4	76	E5	5	63
8	8	45/2	0.5	3/8	3/8	3/4	1	1	1/8	1/8	1		2	74	D5	5	64
8	8	23	1.0	1/2	1/2	3/4	1	1	1/4	1/4	1	1	4	76	E5	5	65
8	8	23	0.5	1/2	1/2	3/4	2	1	1/8	1/8	1		3	81	A5	5	67
8	8	47/2	0.5	5/8	5/8	3/4	2	1	1/8	1/8	1		1	79	G5	5	68
9	9	24	1.0	0	0	3/4	4	1	1/4	1/4	1		2	50	D3	3	78
9	9	24	1.0	0	0	3/4	1	1	1/4	1/4	1	-1	4	76	E5	5	71
9	9	24	2.0	0	0	3/4	2	1	1/2	1/2	1		6	78	F#5	5	74
9	9	25	1.0	1/4	1/4	3/4	3	1	1/4	1/4	1		6	54	F#3	3	76
9	9	25	1.0	1/4	1/4	3/4	4	1	1/4	1/4	1		6	54	F#3	3	79
9	9	25	1.0	1/4	1/4	3/4	1	1	1/4	1/4	1		3	69	A4	4	72
9	9	26	1.0	1/2	1/2	3/4	3	1	1/4	1/4	1	1	5	59	B3	3	77
9	9	26	1.0	1/2	1/2	3/4	4	1	1/4	1/4	1	1	5	59	B3	3	80
9	9	26	1.0	1/2	1/2	3/4	1	1	1/4	1/4	1		2	74	D5	5	73
9	9	26	1.0	1/2	1/2	3/4	2	1	1/4	1/4	1		6	78	F#5	5	75
10	10	27	1.0	0	0	3/4	3	1	1/4	1/4	1	-1	5	59	B3	3	88
10	10	27	1.0	0	0	3/4	4	1	1/4	1/4	1	-1	5	59	B3	3	91
10	10	27	2.0	0	0	3/4	1	1	1/2	1/2	1		7	73	C#5	5	81
10	10	27	1.0	0	0	3/4	2	1	1/4	1/4	1		4	76	E5	5	84
10	10	28	1.0	1/4	1/4	3/4	3	1	1/4	1/4	1		3	57	A3	3	89
10	10	28	1.0	1/4	1/4	3/4	4	1	1/4	1/4	1		3	57	A3	3	92
10	10	28	0.5	1/4	1/4	3/4	2	1	1/8	1/8	1		6	78	F#5	5	85
10	10	57/2	0.5	3/8	3/8	3/4	2	1	1/8	1/8	1		4	76	E5	5	86
10	10	29	1.0	1/2	1/2	3/4	3	1	1/4	1/4	1		6	54	F#3	3	90
10	10	29	1.0	1/2	1/2	3/4	4	1	1/4	1/4	1		6	54	F#3	3	93
10	10	29	0.5	1/2	1/2	3/4	1	1	1/8	1/8	1		2	74	D5	5	82
10	10	29	1.0	1/2	1/2	3/4	2	1	1/4	1/4	1	1	6	78	F#5	5	87
10	10	59/2	0.5	5/8	5/8	3/4	1	1	1/8	1/8	1		7	73	C#5	5	83
11	11	30	2.0	0	0	3/4	3	1	1/2	1/2	1		1	55	G3	3	101
11	11	30	2.0	0	0	3/4	4	1	1/2	1/2	1		1	55	G3	3	103
11	11	30	2.0	0	0	3/4	1	1	1/2	1/2	1		5	71	B4	4	94
11	11	30	1.0	0	0	3/4	2	1	1/4	1/4	1	-1	6	78	F#5	5	97
11	11	31	0.5	1/4	1/4	3/4	2	1	1/8	1/8	1		4	76	E5	5	98
11	11	63/2	0.5	3/8	3/8	3/4	2	1	1/8	1/8	1		2	74	D5	5	99
11	11	32	1.0	1/2	1/2	3/4	3	1	1/4	1/4	1		4	52	E3	3	102
11	11	32	1.0	1/2	1/2	3/4	4	1	1/4	1/4	1		4	52	E3	3	104
11	11	32	0.5	1/2	1/2	3/4	1	1	1/8	1/8	1		7	73	C#5	5	95
11	11	32	1.0	1/2	1/2	3/4	2	1	1/4	1/4	1	1	4	76	E5	5	100
11	11	65/2	0.5	5/8	5/8	3/4	1	1	1/8	1/8	1		5	71	B4	4	96
12	12	33	2.0	0	0	3/4	3	1	1/2	1/2	1		6	54	F#3	3	112
12	12	33	2.0	0	0	3/4	4	1	1/2	1/2	1		6	54	F#3	3	114
12	12	33	2.0	0	0	3/4	1	1	1/2	1/2	1		3	69	A4	4	105
12	12	33	1.0	0	0	3/4	2	1	1/4	1/4	1	-1	4	76	E5	5	108
12	12	34	0.5	1/4	1/4	3/4	2	1	1/8	1/8	1		2	74	D5	5	109
12	12	69/2	0.5	3/8	3/8	3/4	2	1	1/8	1/8	1		7	73	C#5	5	110
12	12	35	1.0	1/2	1/2	3/4	3	1	1/4	1/4	1		2	50	D3	3	113
12	12	35	1.0	1/2	1/2	3/4	4	1	1/4	1/4	1		2	50	D3	3	115
12	12	35	0.5	1/2	1/2	3/4	1	1	1/8	1/8	1		5	71	B4	4	106
12	12	35	1.0	1/2	1/2	3/4	2	1	1/4	1/4	1	1	2	74	D5	5	111
12	12	71/2	0.5	5/8	5/8	3/4	1	1	1/8	1/8	1		3	69	A4	4	107
13	13	36	2.0	0	0	3/4	3	1	1/2	1/2	1		4	52	E3	3	123
13	13	36	2.0	0	0	3/4	4	1	1/2	1/2	1		4	52	E3	3	125
13	13	36	2.0	0	0	3/4	1	1	1/2	1/2	1		1	67	G4	4	116
13	13	36	1.0	0	0	3/4	2	1	1/4	1/4	1	-1	2	74	D5	5	119
13	13	37	0.5	1/4	1/4	3/4	2	1	1/8	1/8	1		7	73	C#5	5	120
13	13	75/2	0.5	3/8	3/8	3/4	2	1	1/8	1/8	1		5	71	B4	4	121
13	13	38	1.0	1/2	1/2	3/4	3	1	1/4	1/4	1		3	45	A2	2	124
13	13	38	1.0	1/2	1/2	3/4	4	1	1/4	1/4	1		3	45	A2	2	126
13	13	38	0.5	1/2	1/2	3/4	1	1	1/8	1/8	1		3	69	A4	4	117
13	13	38	1.0	1/2	1/2	3/4	2	1	1/4	1/4	1		7	73	C#5	5	122
13	13	77/2	0.5	5/8	5/8	3/4	1	1	1/8	1/8	1		1	67	G4	4	118
14	14	39	2.0	0	0	3/4	3	1	1/2	1/2	1		2	50	D3	3	131
14	14	39	2.0	0	0	3/4	4	1	1/2	1/2	1		2	50	D3	3	133
14	14	39	2.0	0	0	3/4	1	1	1/2	1/2	1		6	66	F#4	4	127
14	14	39	2.0	0	0	3/4	2	1	1/2	1/2	1		2	74	D5	5	129
14	14	41	1.0	1/2	1/2	3/4	3	1	1/4	1/4	1		6	42	F#2	2	132
14	14	41	1.0	1/2	1/2	3/4	4	1	1/4	1/4	1		6	42	F#2	2	134
14	14	41	1.0	1/2	1/2	3/4	2	1	1/4	1/4	1	1	2	62	D4	4	130
14	14	41	1.0	1/2	1/2	3/4	1	1	1/4	1/4	1		3	69	A4	4	128
15	15	42	1.0	0	0	3/4	3	1	1/4	1/4	1		1	43	G2	2	141
15	15	42	1.0	0	0	3/4	4	1	1/4	1/4	1		1	43	G2	2	143
15	15	42	1.0	0	0	3/4	2	1	1/4	1/4	1	-1	2	62	D4	4	138
15	15	42	0.5	0	0	3/4	1	1	1/8	1/8	1		1	67	G4	4	135
15	15	85/2	0.5	1/8	1/8	3/4	1	1	1/8	1/8	1		6	66	F#4	4	136
15	15	43	2.0	1/4	1/4	3/4	3	1	1/2	1/2	1		3	45	A2	2	142
15	15	43	2.0	1/4	1/4	3/4	4	1	1/2	1/2	1		3	45	A2	2	144
15	15	43	1.5	1/4	1/4	3/4	2	1	3/8	1/4	3/2		2	62	D4	4	139
15	15	43	2.0	1/4	1/4	3/4	1	1	1/2	1/2	1		4	64	E4	4	137
15	15	89/2	0.5	5/8	5/8	3/4	2	1	1/8	1/8	1		7	61	C#4	4	140
16	16	45	1.0	0	0	3/4	3	1	1/4	1/4	1		2	38	D2	2	149
16	16	45	1.0	0	0	3/4	4	1	1/4	1/4	1		2	50	D3	3	151
16	16	45	1.0	0	0	3/4	2	1	1/4	1/4	1		2	62	D4	4	146
16	16	45	2.0	0	0	3/4	1	1	1/2	1/2	1		2	62	D4	4	145
16	16	46	2.0	1/4	1/4	3/4	3	1	1/2	1/2	1		2	50	D3	3	150
16	16	46	2.0	1/4	1/4	3/4	4	1	1/2	1/2	1		2	50	D3	3	152
16	16	46	1.0	1/4	1/4	3/4	2	1	1/4	1/4	1		6	66	F#4	4	147
16	16	47	1.0	1/2	1/2	3/4	2	1	1/4	1/4	1		5	71	B4	4	148
17	17	48	1.0	0	0	3/4	3	1	1/4	1/4	1		7	49	C#3	3	156
17	17	48	1.0	0	0	3/4	4	1	1/4	1/4	1		7	49	C#3	3	158
17	17	48	2.0	0	0	3/4	2	1	1/2	1/2	1		10	70	A#4	4	155
17	17	49	2.0	1/4	1/4	3/4	3	1	1/2	1/2	1		10	46	A#2	2	157
17	17	49	2.0	1/4	1/4	3/4	4	1	1/2	1/2	1		10	46	A#2	2	159
17	17	49	1.0	1/4	1/4	3/4	1	1	1/4	1/4	1		7	73	C#5	5	153
17	17	50	1.0	1/2	1/2	3/4	1	1	1/4	1/4	1		6	78	F#5	5	154
18	18	51	1.0	0	0	3/4	3	1	1/4	1/4	1		5	47	B2	2	165
18	18	51	1.0	0	0	3/4	4	1	1/4	1/4	1		5	47	B2	2	167
18	18	51	1.0	0	0	3/4	1	1	1/4	1/4	1		2	74	D5	5	160
18	18	52	2.0	1/4	1/4	3/4	3	1	1/2	1/2	1		5	47	B2	2	166
18	18	52	2.0	1/4	1/4	3/4	4	1	1/2	1/2	1		5	47	B2	2	168
18	18	52	1.0	1/4	1/4	3/4	1	1	1/4	1/4	1		2	74	D5	5	161
18	18	52	1.0	1/4	1/4	3/4	2	1	1/4	1/4	1		6	78	F#5	5	163
18	18	53	1.0	1/2	1/2	3/4	1	1	1/4	1/4	1		8	80	G#5	5	162
18	18	53	1.0	1/2	1/2	3/4	2	1	1/4	1/4	1	1	5	83	B5	5	164
19	19	54	2.0	0	0	3/4	3	1	1/2	1/2	1		7	49	C#3	3	177
19	19	54	2.0	0	0	3/4	4	1	1/2	1/2	1		7	49	C#3	3	179
19	19	54	1.0	0	0	3/4	1	1	1/4	1/4	1		11	77	E#5	5	169
19	19	54	1.0	0	0	3/4	2	1	1/4	1/4	1	-1	5	83	B5	5	172
19	19	55	1.0	1/4	1/4	3/4	1	1	1/4	1/4	1		7	73	C#5	5	170
19	19	55	0.5	1/4	1/4	3/4	2	1	1/8	1/8	1		3	81	A5	5	173
19	19	111/2	0.5	3/8	3/8	3/4	2	1	1/8	1/8	1		8	80	G#5	5	174
19	19	56	1.0	1/2	1/2	3/4	3	1	1/4	1/4	1		3	45	A2	2	178
19	19	56	1.0	1/2	1/2	3/4	4	1	1/4	1/4	1		3	45	A2	2	180
19	19	56	0.5	1/2	1/2	3/4	2	1	1/8	1/8	1		6	78	F#5	5	175
19	19	56	1.0	1/2	1/2	3/4	1	1	1/4	1/4	1	1	6	78	F#5	5	171
19	19	113/2	0.5	5/8	5/8	3/4	2	1	1/8	1/8	1		8	80	G#5	5	176
20	20	57	1.0	0	0	3/4	3	1	1/4	1/4	1		5	47	B2	2	188
20	20	57	1.0	0	0	3/4	4	1	1/4	1/4	1		5	47	B2	2	190
20	20	57	1.0	0	0	3/4	1	1	1/4	1/4	1	-1	6	78	F#5	5	181
20	20	57	0.5	0	0	3/4	2	1	1/8	1/8	1		3	81	A5	5	184
20	20	115/2	0.5	1/8	1/8	3/4	2	1	1/8	1/8	1		5	83	B5	5	185
20	20	58	2.0	1/4	1/4	3/4	3	1	1/2	1/2	1		7	49	C#3	3	189
20	20	58	2.0	1/4	1/4	3/4	4	1	1/2	1/2	1		7	49	C#3	3	191
20	20	58	1.5	1/4	1/4	3/4	1	1	3/8	1/4	3/2		6	78	F#5	5	182
20	20	58	1.5	1/4	1/4	3/4	2	1	3/8	1/4	3/2		8	80	G#5	5	186
20	20	119/2	0.5	5/8	5/8	3/4	1	1	1/8	1/8	1		11	77	E#5	5	183
20	20	119/2	0.5	5/8	5/8	3/4	2	1	1/8	1/8	1		8	80	G#5	5	187
21	21	60	1.0	0	0	3/4	3	1	1/4	1/4	1		6	42	F#2	2	196
21	21	60	1.0	0	0	3/4	4	1	1/4	1/4	1		6	42	F#2	2	199
21	21	60	1.0	0	0	3/4	2	1	1/4	1/4	1		6	78	F#5	5	193
21	21	60	2.0	0	0	3/4	1	1	1/2	1/2	1		6	78	F#5	5	192
21	21	61	1.0	1/4	1/4	3/4	3	1	1/4	1/4	1		6	54	F#3	3	197
21	21	61	1.0	1/4	1/4	3/4	4	1	1/4	1/4	1		6	54	F#3	3	200
21	21	61	1.0	1/4	1/4	3/4	2	1	1/4	1/4	1		3	69	A4	4	194
21	21	62	1.0	1/2	1/2	3/4	3	1	1/4	1/4	1		3	57	A3	3	198
21	21	62	1.0	1/2	1/2	3/4	4	1	1/4	1/4	1		3	57	A3	3	201
21	21	62	1.0	1/2	1/2	3/4	2	1	1/4	1/4	1		7	73	C#5	5	195
22	22	63	1.0	0	0	3/4	3	1	1/4	1/4	1		2	50	D3	3	205
22	22	63	1.0	0	0	3/4	4	1	1/4	1/4	1		2	50	D3	3	208
22	22	63	2.0	0	0	3/4	2	1	1/2	1/2	1		6	66	F#4	4	204
22	22	64	1.0	1/4	1/4	3/4	3	1	1/4	1/4	1		2	62	D4	4	206
22	22	64	1.0	1/4	1/4	3/4	4	1	1/4	1/4	1		2	62	D4	4	209
22	22	64	1.0	1/4	1/4	3/4	1	1	1/4	1/4	1		6	78	F#5	5	202
22	22	65	1.0	1/2	1/2	3/4	3	1	1/4	1/4	1		7	61	C#4	4	207
22	22	65	1.0	1/2	1/2	3/4	4	1	1/4	1/4	1		7	61	C#4	4	210
22	22	65	1.0	1/2	1/2	3/4	1	1	1/4	1/4	1		3	81	A5	5	203
23	23	66	2.0	0	0	3/4	3	1	1/2	1/2	1		5	59	B3	3	215
23	23	66	2.0	0	0	3/4	4	1	1/2	1/2	1		5	59	B3	3	217
23	23	66	1.0	0	0	3/4	1	1	1/4	1/4	1		2	74	D5	5	211
23	23	67	2.0	1/4	1/4	3/4	1	1	1/2	1/2	1	1	2	74	D5	5	212
23	23	67	1.0	1/4	1/4	3/4	2	1	1/4	1/4	1		6	78	F#5	5	213
23	23	68	1.0	1/2	1/2	3/4	3	1	1/4	1/4	1		1	55	G3	3	216
23	23	68	1.0	1/2	1/2	3/4	4	1	1/4	1/4	1		1	55	G3	3	218
23	23	68	1.0	1/2	1/2	3/4	2	1	1/4	1/4	1		5	83	B5	5	214
24	24	69	3.0	0	0	3/4	3	1	3/4	1/2	3/2		3	57	A3	3	223
24	24	69	3.0	0	0	3/4	4	1	3/4	1/2	3/2		3	57	A3	3	224
24	24	69	1.0	0	0	3/4	1	1	1/4	1/4	1	-1	2	74	D5	5	219
24	24	69	3.0	0	0	3/4	2	1	3/4	1/2	3/2	1	4	76	E5	5	222
24	24	70	1.0	1/4	1/4	3/4	1	1	1/4	1/4	1		7	73	C#5	5	220
24	24	71	1.0	1/2	1/2	3/4	1	1	1/4	1/4	1		5	71	B4	4	221
25	25	72	3.0	0	0	3/4	3	1	3/4	1/2	3/2		10	58	A#3	3	229
25	25	72	3.0	0	0	3/4	4	1	3/4	1/2	3/2		10	58	A#3	3	230
25	25	72	3.0	0	0	3/4	1	1	3/4	1/2	3/2	1	7	73	C#5	5	225
25	25	72	1.0	0	0	3/4	2	1	1/4	1/4	1	-1	4	76	E5	5	226
25	25	73	1.0	1/4	1/4	3/4	2	1	1/4	1/4	1		6	78	F#5	5	227
25	25	74	1.0	1/2	1/2	3/4	2	1	1/4	1/4	1		4	76	E5	5	228
26	26	75	2.0	0	0	3/4	3	1	1/2	1/2	1		5	59	B3	3	235
26	26	75	2.0	0	0	3/4	4	1	1/2	1/2	1		5	59	B3	3	237
26	26	75	1.0	0	0	3/4	1	1	1/4	1/4	1	-1	7	73	C#5	5	231
26	26	75	3.0	0	0	3/4	2	1	3/4	1/2	3/2		2	74	D5	5	234
26	26	76	1.0	1/4	1/4	3/4	1	1	1/4	1/4	1		6	66	F#4	4	232
26	26	77	1.0	1/2	1/2	3/4	3	1	1/4	1/4	1		5	47	B2	2	236
26	26	77	1.0	1/2	1/2	3/4	4	1	1/4	1/4	1		5	47	B2	2	238
26	26	77	1.0	1/2	1/2	3/4	1	1	1/4	1/4	1	1	5	71	B4	4	233
27	27	78	2.0	0	0	3/4	3	1	1/2	1/2	1		6	54	F#3	3	245
27	27	78	2.0	0	0	3/4	4	1	1/2	1/2	1		6	54	F#3	3	247
27	27	78	1.0	0	0	3/4	1	1	1/4	1/4	1	-1	5	71	B4	4	239
27	27	78	1.0	0	0	3/4	2	1	1/4	1/4	1		7	73	C#5	5	242
27	27	79	1.5	1/4	1/4	3/4	1	1	3/8	1/4	3/2		3	69	A4	4	240
27	27	79	1.0	1/4	1/4	3/4	2	1	1/4	1/4	1		7	73	C#5	5	243
27	27	80	1.0	1/2	1/2	3/4	3	1	1/4	1/4	1		2	50	D3	3	246
27	27	80	1.0	1/2	1/2	3/4	4	1	1/4	1/4	1		2	50	D3	3	248
27	27	80	1.0	1/2	1/2	3/4	2	1	1/4	1/4	1	1	6	78	F#5	5	244
27	27	161/2	0.5	5/8	5/8	3/4	1	1	1/8	1/8	1		6	66	F#4	4	241
28	28	81	2.0	0	0	3/4	3	1	1/2	1/2	1		4	52	E3	3	254
28	28	81	2.0	0	0	3/4	4	1	1/2	1/2	1		4	52	E3	3	256
28	28	81	2.0	0	0	3/4	1	1	1/2	1/2	1		8	68	G#4	4	249
28	28	81	1.0	0	0	3/4	2	1	1/4	1/4	1	-1	6	78	F#5	5	251
28	28	82	1.5	1/4	1/4	3/4	2	1	3/8	1/4	3/2		4	76	E5	5	252
28	28	83	1.0	1/2	1/2	3/4	3	1	1/4	1/4	1		4	52	E3	3	255
28	28	83	1.0	1/2	1/2	3/4	4	1	1/4	1/4	1		4	52	E3	3	257
28	28	83	1.0	1/2	1/2	3/4	1	1	1/4	1/4	1		7	73	C#5	5	250
28	28	167/2	0.5	5/8	5/8	3/4	2	1	1/8	1/8	1		4	76	E5	5	253
29	29	84	2.0	0	0	3/4	3	1	1/2	1/2	1		6	54	F#3	3	265
29	29	84	2.0	0	0	3/4	4	1	1/2	1/2	1		6	54	F#3	3	267
29	29	84	1.0	0	0	3/4	1	1	1/4	1/4	1		10	70	A#4	4	258
29	29	84	1.5	0	0	3/4	2	1	3/8	1/4	3/2		4	76	E5	5	261
29	29	85	1.0	1/4	1/4	3/4	1	1	1/4	1/4	1		6	66	F#4	4	259
29	29	171/2	0.5	3/8	3/8	3/4	2	1	1/8	1/8	1		6	78	F#5	5	262
29	29	86	1.0	1/2	1/2	3/4	3	1	1/4	1/4	1		2	50	D3	3	266
29	29	86	1.0	1/2	1/2	3/4	4	1	1/4	1/4	1		2	50	D3	3	268
29	29	86	1.0	1/2	1/2	3/4	1	1	1/4	1/4	1	1	5	71	B4	4	260
29	29	86	0.5	1/2	1/2	3/4	2	1	1/8	1/8	1		1	79	G5	5	263
29	29	173/2	0.5	5/8	5/8	3/4	2	1	1/8	1/8	1		6	78	F#5	5	264
30	30	87	1.0	0	0	3/4	3	1	1/4	1/4	1		4	52	E3	3	276
30	30	87	1.0	0	0	3/4	4	1	1/4	1/4	1		4	52	E3	3	278
30	30	87	1.0	0	0	3/4	1	1	1/4	1/4	1	-1	5	71	B4	4	269
30	30	87	0.5	0	0	3/4	2	1	1/8	1/8	1		4	76	E5	5	272
30	30	175/2	0.5	1/8	1/8	3/4	2	1	1/8	1/8	1		2	74	D5	5	273
30	30	88	2.0	1/4	1/4	3/4	3	1	1/2	1/2	1		6	54	F#3	3	277
30	30	88	2.0	1/4	1/4	3/4	4	1	1/2	1/2	1		6	54	F#3	3	279
30	30	88	1.5	1/4	1/4	3/4	1	1	3/8	1/4	3/2		5	71	B4	4	270
30	30	88	1.5	1/4	1/4	3/4	2	1	3/8	1/4	3/2		7	73	C#5	5	274
30	30	179/2	0.5	5/8	5/8	3/4	1	1	1/8	1/8	1		10	70	A#4	4	271
30	30	179/2	0.5	5/8	5/8	3/4	2	1	1/8	1/8	1		7	73	C#5	5	275
31	31	90	2.0	0	0	3/4	3	1	1/2	1/2	1		5	47	B2	2	287
31	31	90	2.0	0	0	3/4	4	1	1/2	1/2	1		5	47	B2	2	289
31	31	90	1.0	0	0	3/4	1	1	1/4	1/4	1		5	71	B4	4	280
31	31	90	2.0	0	0	3/4	2	1	1/2	1/2	1		5	71	B4	4	284
31	31	91	0.5	1/4	1/4	3/4	1	1	1/8	1/8	1		1	79	G5	5	281
31	31	183/2	0.5	3/8	3/8	3/4	1	1	1/8	1/8	1		6	78	F#5	5	282
31	31	92	1.0	1/2	1/2	3/4	3	1	1/4	1/4	1		1	55	G3	3	288
31	31	92	1.0	1/2	1/2	3/4	4	1	1/4	1/4	1		1	55	G3	3	290
31	31	92	0.5	1/2	1/2	3/4	2	1	1/8	1/8	1		4	76	E5	5	285
31	31	92	1.0	1/2	1/2	3/4	1	1	1/4	1/4	1	1	1	79	G5	5	283
31	31	185/2	0.5	5/8	5/8	3/4	2	1	1/8	1/8	1		2	74	D5	5	286
32	32	93	2.0	0	0	3/4	3	1	1/2	1/2	1		3	57	A3	3	298
32	32	93	2.0	0	0	3/4	4	1	1/2	1/2	1		3	57	A3	3	300
32	32	93	2.0	0	0	3/4	2	1	1/2	1/2	1		7	73	C#5	5	295
32	32	93	1.0	0	0	3/4	1	1	1/4	1/4	1	-1	1	79	G5	5	291
32	32	94	0.5	1/4	1/4	3/4	1	1	1/8	1/8	1		6	78	F#5	5	292
32	32	189/2	0.5	3/8	3/8	3/4	1	1	1/8	1/8	1		4	76	E5	5	293
32	32	95	1.0	1/2	1/2	3/4	3	1	1/4	1/4	1		6	54	F#3	3	299
32	32	95	1.0	1/2	1/2	3/4	4	1	1/4	1/4	1		6	54	F#3	3	301
32	32	95	0.5	1/2	1/2	3/4	2	1	1/8	1/8	1		2	74	D5	5	296
32	32	95	1.0	1/2	1/2	3/4	1	1	1/4	1/4	1	1	6	78	F#5	5	294
32	32	191/2	0.5	5/8	5/8	3/4	2	1	1/8	1/8	1		7	73	C#5	5	297
33	33	96	2.0	0	0	3/4	3	1	1/2	1/2	1		1	55	G3	3	309
33	33	96	2.0	0	0	3/4	4	1	1/2	1/2	1		1	55	G3	3	311
33	33	96	2.0	0	0	3/4	2	1	1/2	1/2	1		5	71	B4	4	306
33	33	96	1.0	0	0	3/4	1	1	1/4	1/4	1	-1	6	78	F#5	5	302
33	33	97	0.5	1/4	1/4	3/4	1	1	1/8	1/8	1		4	76	E5	5	303
33	33	195/2	0.5	3/8	3/8	3/4	1	1	1/8	1/8	1		2	74	D5	5	304
33	33	98	1.0	1/2	1/2	3/4	3	1	1/4	1/4	1		4	52	E3	3	310
33	33	98	1.0	1/2	1/2	3/4	4	1	1/4	1/4	1		4	52	E3	3	312
33	33	98	0.5	1/2	1/2	3/4	2	1	1/8	1/8	1		7	73	C#5	5	307
33	33	98	1.0	1/2	1/2	3/4	1	1	1/4	1/4	1	1	4	76	E5	5	305
33	33	197/2	0.5	5/8	5/8	3/4	2	1	1/8	1/8	1		5	71	B4	4	308
34	34	99	2.0	0	0	3/4	3	1	1/2	1/2	1		6	54	F#3	3	320
34	34	99	2.0	0	0	3/4	4	1	1/2	1/2	1		6	54	F#3	3	322
34	34	99	1.0	0	0	3/4	2	1	1/4	1/4	1		10	70	A#4	4	317
34	34	99	1.5	0	0	3/4	1	1	3/8	1/4	3/2	-1	4	76	E5	5	313
34	34	100	1.0	1/4	1/4	3/4	2	1	1/4	1/4	1		6	66	F#4	4	318
34	34	201/2	0.5	3/8	3/8	3/4	1	1	1/8	1/8	1		6	78	F#5	5	314
34	34	101	1.0	1/2	1/2	3/4	3	1	1/4	1/4	1		2	50	D3	3	321
34	34	101	1.0	1/2	1/2	3/4	4	1	1/4	1/4	1		2	50	D3	3	323
34	34	101	1.0	1/2	1/2	3/4	2	1	1/4	1/4	1	1	5	71	B4	4	319
34	34	101	0.5	1/2	1/2	3/4	1	1	1/8	1/8	1		1	79	G5	5	315
34	34	203/2	0.5	5/8	5/8	3/4	1	1	1/8	1/8	1		6	78	F#5	5	316
35	35	102	1.0	0	0	3/4	3	1	1/4	1/4	1		4	52	E3	3	331
35	35	102	1.0	0	0	3/4	4	1	1/4	1/4	1		4	52	E3	3	333
35	35	102	1.0	0	0	3/4	2	1	1/4	1/4	1	-1	5	71	B4	4	328
35	35	102	0.5	0	0	3/4	1	1	1/8	1/8	1		4	76	E5	5	324
35	35	205/2	0.5	1/8	1/8	3/4	1	1	1/8	1/8	1		2	74	D5	5	325
35	35	103	2.0	1/4	1/4	3/4	3	1	1/2	1/2	1		6	54	F#3	3	332
35	35	103	2.0	1/4	1/4	3/4	4	1	1/2	1/2	1		6	54	F#3	3	334
35	35	103	1.5	1/4	1/4	3/4	2	1	3/8	1/4	3/2		5	71	B4	4	329
35	35	103	1.5	1/4	1/4	3/4	1	1	3/8	1/4	3/2		7	73	C#5	5	326
35	35	209/2	0.5	5/8	5/8	3/4	2	1	1/8	1/8	1		10	70	A#4	4	330
35	35	209/2	0.5	5/8	5/8	3/4	1	1	1/8	1/8	1		5	71	B4	4	327
36	36	105	2.0	0	0	3/4	3	1	1/2	1/2	1		5	47	B2	2	339
36	36	105	2.0	0	0	3/4	4	1	1/2	1/2	1		5	47	B2	2	341
36	36	105	2.0	0	0	3/4	1	1	1/2	1/2	1		5	71	B4	4	335
36	36	105	2.0	0	0	3/4	2	1	1/2	1/2	1		5	71	B4	4	337
36	36	107	1.0	1/2	1/2	3/4	3	1	1/4	1/4	1	1	5	59	B3	3	340
36	36	107	1.0	1/2	1/2	3/4	4	1	1/4	1/4	1	1	5	59	B3	3	342
36	36	107	1.0	1/2	1/2	3/4	2	1	1/4	1/4	1	1	2	74	D5	5	338
36	36	107	1.0	1/2	1/2	3/4	1	1	1/4	1/4	1	1	6	78	F#5	5	336
37	37	108	1.0	0	0	3/4	3	1	1/4	1/4	1	-1	5	59	B3	3	348
37	37	108	1.0	0	0	3/4	4	1	1/4	1/4	1	-1	5	59	B3	3	350
37	37	108	1.0	0	0	3/4	2	1	1/4	1/4	1	-1	2	74	D5	5	346
37	37	108	1.0	0	0	3/4	1	1	1/4	1/4	1	-1	6	78	F#5	5	343
37	37	109	2.0	1/4	1/4	3/4	3	1	1/2	1/2	1		1	55	G3	3	349
37	37	109	2.0	1/4	1/4	3/4	4	1	1/2	1/2	1		1	55	G3	3	351
37	37	109	2.0	1/4	1/4	3/4	2	1	1/2	1/2	1		5	71	B4	4	347
37	37	109	1.5	1/4	1/4	3/4	1	1	3/8	1/4	3/2		4	76	E5	5	344
37	37	221/2	0.5	5/8	5/8	3/4	1	1	1/8	1/8	1		6	78	F#5	5	345
38	38	111	3.0	0	0	3/4	3	1	3/4	1/2	3/2		6	54	F#3	3	354
38	38	111	3.0	0	0	3/4	4	1	3/4	1/2	3/2		6	54	F#3	3	355
38	38	111	3.0	0	0	3/4	2	1	3/4	1/2	3/2		10	70	A#4	4	353
38	38	111	3.0	0	0	3/4	1	1	3/4	1/2	3/2		6	78	F#5	5	352
