mc	mn	quarterbeats	duration_qb	mc_onset	mn_onset	timesig	staff	voice	duration	nominal_duration	scalar	tied	tpc	midi	name	octave	chord_id
1	1	0	1.0	0	0	2/2	3	1	1/4	1/4	1		5	59	B3	3	7
1	1	0	1.0	0	0	2/2	4	1	1/4	1/4	1		5	59	B3	3	11
1	1	1/2	0.5	1/8	1/8	2/2	1	1	1/8	1/8	1		6	78	F#5	5	0
1	1	1	1.0	1/4	1/4	2/2	3	1	1/4	1/4	1		10	58	A#3	3	8
1	1	1	1.0	1/4	1/4	2/2	4	1	1/4	1/4	1		10	58	A#3	3	12
1	1	1	0.5	1/4	1/4	2/2	1	1	1/8	1/8	1		7	73	C#5	5	1
1	1	3/2	0.5	3/8	3/8	2/2	1	1	1/8	1/8	1		6	78	F#5	5	2
1	1	2	1.0	1/2	1/2	2/2	3	1	1/4	1/4	1		5	59	B3	3	9
1	1	2	1.0	1/2	1/2	2/2	4	1	1/4	1/4	1		5	59	B3	3	13
1	1	2	0.5	1/2	1/2	2/2	1	1	1/8	1/8	1		2	74	D5	5	3
1	1	5/2	0.5	5/8	5/8	2/2	1	1	1/8	1/8	1		6	78	F#5	5	4
1	1	3	1.0	3/4	3/4	2/2	3	1	1/4	1/4	1		10	58	A#3	3	10
1	1	3	1.0	3/4	3/4	2/2	4	1	1/4	1/4	1		10	58	A#3	3	14
1	1	3	0.5	3/4	3/4	2/2	1	1	1/8	1/8	1		7	73	C#5	5	5
1	1	7/2	0.5	7/8	7/8	2/2	1	1	1/8	1/8	1		6	78	F#5	5	6
2	2	4	1.0	0	0	2/2	3	1	1/4	1/4	1		5	59	B3	3	23
2	2	4	1.0	0	0	2/2	4	1	1/4	1/4	1		5	59	B3	3	27
2	2	4	0.5	0	0	2/2	1	1	1/8	1/8	1		2	74	D5	5	15
2	2	9/2	0.5	1/8	1/8	2/2	1	1	1/8	1/8	1		6	78	F#5	5	16
2	2	5	1.0	1/4	1/4	2/2	3	1	1/4	1/4	1		3	57	A3	3	24
2	2	5	1.0	1/4	1/4	2/2	4	1	1/4	1/4	1		3	57	A3	3	28
2	2	5	0.5	1/4	1/4	2/2	1	1	1/8	1/8	1		7	73	C#5	5	17
2	2	11/2	0.5	3/8	3/8	2/2	1	1	1/8	1/8	1		6	78	F#5	5	18
2	2	6	1.0	1/2	1/2	2/2	3	1	1/4	1/4	1		1	55	G3	3	25
2	2	6	1.0	1/2	1/2	2/2	4	1	1/4	1/4	1		1	55	G3	3	29
2	2	6	0.5	1/2	1/2	2/2	1	1	1/8	1/8	1		5	71	B4	4	19
2	2	13/2	0.5	5/8	5/8	2/2	1	1	1/8	1/8	1		6	78	F#5	5	20
2	2	7	1.0	3/4	3/4	2/2	3	1	1/4	1/4	1		4	52	E3	3	26
2	2	7	1.0	3/4	3/4	2/2	4	1	1/4	1/4	1		4	52	E3	3	30
2	2	7	0.5	3/4	3/4	2/2	1	1	1/8	1/8	1		1	79	G5	5	21
2	2	15/2	0.5	7/8	7/8	2/2	1	1	1/8	1/8	1		5	71	B4	4	22
3	3	8	1.0	0	0	2/2	3	1	1/4	1/4	1		6	54	F#3	3	35
3	3	8	1.0	0	0	2/2	4	1	1/4	1/4	1		6	54	F#3	3	39
3	3	8	0.5	0	0	2/2	1	1	1/8	1/8	1		10	70	A#4	4	31
3	3	17/2	0.5	1/8	1/8	2/2	1	1	1/8	1/8	1		6	66	F#4	4	32
3	3	9	1.0	1/4	1/4	2/2	3	1	1/4	1/4	1		2	50	D3	3	36
3	3	9	1.0	1/4	1/4	2/2	4	1	1/4	1/4	1		2	50	D3	3	40
3	3	9	2.0	1/4	1/4	2/2	1	1	1/2	1/2	1		5	71	B4	4	33
3	3	10	1.0	1/2	1/2	2/2	3	1	1/4	1/4	1		4	52	E3	3	37
3	3	10	1.0	1/2	1/2	2/2	4	1	1/4	1/4	1		4	52	E3	3	41
3	3	11	1.0	3/4	3/4	2/2	3	1	1/4	1/4	1		6	54	F#3	3	38
3	3	11	1.0	3/4	3/4	2/2	4	1	1/4	1/4	1		6	54	F#3	3	42
3	3	11	1.0	3/4	3/4	2/2	1	1	1/4	1/4	1		10	70	A#4	4	34
4	4	12	1.0	0	0	2/2	3	1	1/4	1/4	1		5	47	B2	2	51
4	4	12	1.0	0	0	2/2	4	1	1/4	1/4	1		5	47	B2	2	52
4	4	12	0.5	0	0	2/2	1	1	1/8	1/8	1		5	71	B4	4	43
4	4	25/2	0.5	1/8	1/8	2/2	1	1	1/8	1/8	1		2	74	D5	5	44
4	4	13	0.5	1/4	1/4	2/2	1	1	1/8	1/8	1		7	73	C#5	5	45
4	4	27/2	0.5	3/8	3/8	2/2	1	1	1/8	1/8	1		4	76	E5	5	46
4	4	14	0.5	1/2	1/2	2/2	1	1	1/8	1/8	1		2	74	D5	5	47
4	4	29/2	0.5	5/8	5/8	2/2	1	1	1/8	1/8	1		6	78	F#5	5	48
4	4	15	0.5	3/4	3/4	2/2	1	1	1/8	1/8	1		4	76	E5	5	49
4	4	31/2	0.5	7/8	7/8	2/2	1	1	1/8	1/8	1		1	79	G5	5	50
5	5	16	1.0	0	0	2/2	3	1	1/4	1/4	1		6	54	F#3	3	63
5	5	16	1.0	0	0	2/2	4	1	1/4	1/4	1		6	54	F#3	3	67
5	5	16	1.0	0	0	2/2	1	1	1/4	1/4	1		6	78	F#5	5	53
5	5	33/2	0.5	1/8	1/8	2/2	2	1	1/8	1/8	1		7	73	C#5	5	56
5	5	17	1.0	1/4	1/4	2/2	3	1	1/4	1/4	1		11	53	E#3	3	64
5	5	17	1.0	1/4	1/4	2/2	4	1	1/4	1/4	1		11	53	E#3	3	68
5	5	17	0.5	1/4	1/4	2/2	2	1	1/8	1/8	1		8	68	G#4	4	57
5	5	17	1.0	1/4	1/4	2/2	1	1	1/4	1/4	1		8	80	G#5	5	54
5	5	35/2	0.5	3/8	3/8	2/2	2	1	1/8	1/8	1		7	73	C#5	5	58
5	5	18	1.0	1/2	1/2	2/2	3	1	1/4	1/4	1		6	54	F#3	3	65
5	5	18	1.0	1/2	1/2	2/2	4	1	1/4	1/4	1		6	54	F#3	3	69
5	5	18	0.5	1/2	1/2	2/2	2	1	1/8	1/8	1		3	69	A4	4	59
5	5	18	1.0	1/2	1/2	2/2	1	1	1/4	1/4	1		7	73	C#5	5	55
5	5	37/2	0.5	5/8	5/8	2/2	2	1	1/8	1/8	1		7	73	C#5	5	60
5	5	19	1.0	3/4	3/4	2/2	3	1	1/4	1/4	1		11	53	E#3	3	66
5	5	19	1.0	3/4	3/4	2/2	4	1	1/4	1/4	1		11	53	E#3	3	70
5	5	19	0.5	3/4	3/4	2/2	2	1	1/8	1/8	1		8	68	G#4	4	61
5	5	39/2	0.5	7/8	7/8	2/2	2	1	1/8	1/8	1		7	73	C#5	5	62
6	6	20	1.0	0	0	2/2	3	1	1/4	1/4	1		6	54	F#3	3	81
6	6	20	1.0	0	0	2/2	4	1	1/4	1/4	1		6	54	F#3	3	84
6	6	20	0.5	0	0	2/2	2	1	1/8	1/8	1		3	69	A4	4	73
6	6	41/2	0.5	1/8	1/8	2/2	2	1	1/8	1/8	1		7	73	C#5	5	74
6	6	21	1.0	1/4	1/4	2/2	3	1	1/4	1/4	1		4	52	E3	3	82
6	6	21	1.0	1/4	1/4	2/2	4	1	1/4	1/4	1		4	52	E3	3	85
6	6	21	0.5	1/4	1/4	2/2	2	1	1/8	1/8	1		8	68	G#4	4	75
6	6	21	2.0	1/4	1/4	2/2	1	1	1/2	1/2	1		7	73	C#5	5	71
6	6	43/2	0.5	3/8	3/8	2/2	2	1	1/8	1/8	1		7	73	C#5	5	76
6	6	22	2.0	1/2	1/2	2/2	3	1	1/2	1/2	1		2	50	D3	3	83
6	6	22	2.0	1/2	1/2	2/2	4	1	1/2	1/2	1		2	50	D3	3	86
6	6	22	0.5	1/2	1/2	2/2	2	1	1/8	1/8	1		6	66	F#4	4	77
6	6	45/2	0.5	5/8	5/8	2/2	2	1	1/8	1/8	1		7	73	C#5	5	78
6	6	23	1.0	3/4	3/4	2/2	1	1	1/4	1/4	1	1	5	71	B4	4	72
6	6	23	0.5	3/4	3/4	2/2	2	1	1/8	1/8	1		2	74	D5	5	79
6	6	47/2	0.5	7/8	7/8	2/2	2	1	1/8	1/8	1		6	66	F#4	4	80
7	7	24	1.0	0	0	2/2	3	1	1/4	1/4	1		7	49	C#3	3	94
7	7	24	1.0	0	0	2/2	4	1	1/4	1/4	1		7	49	C#3	3	98
7	7	24	0.5	0	0	2/2	2	1	1/8	1/8	1		11	65	E#4	4	90
7	7	24	1.0	0	0	2/2	1	1	1/4	1/4	1	-1	5	71	B4	4	87
7	7	49/2	0.5	1/8	1/8	2/2	2	1	1/8	1/8	1		7	61	C#4	4	91
7	7	25	1.0	1/4	1/4	2/2	3	1	1/4	1/4	1		2	50	D3	3	95
7	7	25	1.0	1/4	1/4	2/2	4	1	1/4	1/4	1		2	50	D3	3	99
7	7	25	2.0	1/4	1/4	2/2	2	1	1/2	1/2	1		6	66	F#4	4	92
7	7	25	1.0	1/4	1/4	2/2	1	1	1/4	1/4	1		3	69	A4	4	88
7	7	26	1.0	1/2	1/2	2/2	3	1	1/4	1/4	1		5	47	B2	2	96
7	7	26	1.0	1/2	1/2	2/2	4	1	1/4	1/4	1		5	47	B2	2	100
7	7	26	2.0	1/2	1/2	2/2	1	1	1/2	1/2	1		8	68	G#4	4	89
7	7	27	1.0	3/4	3/4	2/2	3	1	1/4	1/4	1		7	49	C#3	3	97
7	7	27	1.0	3/4	3/4	2/2	4	1	1/4	1/4	1		7	49	C#3	3	101
7	7	27	1.0	3/4	3/4	2/2	2	1	1/4	1/4	1		11	65	E#4	4	93
8	8	28	2.0	0	0	2/2	3	1	1/2	1/2	1		6	42	F#2	2	112
8	8	28	2.0	0	0	2/2	4	1	1/2	1/2	1		6	42	F#2	2	114
8	8	28	0.5	0	0	2/2	2	1	1/8	1/8	1		6	66	F#4	4	106
8	8	28	1.0	0	0	2/2	1	1	1/4	1/4	1		6	66	F#4	4	102
8	8	57/2	0.5	1/8	1/8	2/2	2	1	1/8	1/8	1		6	78	F#5	5	107
8	8	29	0.5	1/4	1/4	2/2	2	1	1/8	1/8	1		7	73	C#5	5	108
8	8	59/2	0.5	3/8	3/8	2/2	2	1	1/8	1/8	1		6	78	F#5	5	109
8	8	30	2.0	1/2	1/2	2/2	3	1	1/2	1/2	1		5	47	B2	2	113
8	8	30	2.0	1/2	1/2	2/2	4	1	1/2	1/2	1		5	47	B2	2	115
8	8	30	1.0	1/2	1/2	2/2	2	1	1/4	1/4	1		2	74	D5	5	110
8	8	61/2	0.5	5/8	5/8	2/2	1	1	1/8	1/8	1		5	83	B5	5	103
8	8	31	1.0	3/4	3/4	2/2	2	1	1/4	1/4	1		5	59	B3	3	111
8	8	31	0.5	3/4	3/4	2/2	1	1	1/8	1/8	1		6	78	F#5	5	104
8	8	63/2	0.5	7/8	7/8	2/2	1	1	1/8	1/8	1		5	83	B5	5	105
9	9	32	2.0	0	0	2/2	3	1	1/2	1/2	1		4	52	E3	3	126
9	9	32	2.0	0	0	2/2	4	1	1/2	1/2	1		4	52	E3	3	128
9	9	32	1.0	0	0	2/2	1	1	1/4	1/4	1		1	79	G5	5	116
9	9	65/2	0.5	1/8	1/8	2/2	2	1	1/8	1/8	1		4	76	E5	5	121
9	9	33	1.0	1/4	1/4	2/2	1	1	1/4	1/4	1		4	64	E4	4	117
9	9	33	0.5	1/4	1/4	2/2	2	1	1/8	1/8	1		5	71	B4	4	122
9	9	67/2	0.5	3/8	3/8	2/2	2	1	1/8	1/8	1		4	76	E5	5	123
9	9	34	2.0	1/2	1/2	2/2	3	1	1/2	1/2	1		3	45	A2	2	127
9	9	34	2.0	1/2	1/2	2/2	4	1	1/2	1/2	1		3	45	A2	2	129
9	9	34	1.0	1/2	1/2	2/2	2	1	1/4	1/4	1		7	73	C#5	5	124
9	9	69/2	0.5	5/8	5/8	2/2	1	1	1/8	1/8	1		3	81	A5	5	118
9	9	35	1.0	3/4	3/4	2/2	2	1	1/4	1/4	1		3	57	A3	3	125
9	9	35	0.5	3/4	3/4	2/2	1	1	1/8	1/8	1		4	76	E5	5	119
9	9	71/2	0.5	7/8	7/8	2/2	1	1	1/8	1/8	1		3	81	A5	5	120
10	10	36	2.0	0	0	2/2	3	1	1/2	1/2	1		2	50	D3	3	142
10	10	36	2.0	0	0	2/2	4	1	1/2	1/2	1		2	50	D3	3	144
10	10	36	1.0	0	0	2/2	1	1	1/4	1/4	1		6	78	F#5	5	130
10	10	73/2	0.5	1/8	1/8	2/2	2	1	1/8	1/8	1		2	74	D5	5	135
10	10	37	1.0	1/4	1/4	2/2	1	1	1/4	1/4	1		2	62	D4	4	131
10	10	37	0.5	1/4	1/4	2/2	2	1	1/8	1/8	1		3	69	A4	4	136
10	10	75/2	0.5	3/8	3/8	2/2	2	1	1/8	1/8	1		2	74	D5	5	137
10	10	38	2.0	1/2	1/2	2/2	3	1	1/2	1/2	1		1	43	G2	2	143
10	10	38	2.0	1/2	1/2	2/2	4	1	1/2	1/2	1		1	43	G2	2	145
10	10	38	0.5	1/2	1/2	2/2	2	1	1/8	1/8	1		5	71	B4	4	138
10	10	77/2	0.5	5/8	5/8	2/2	2	1	1/8	1/8	1		2	74	D5	5	139
10	10	77/2	0.5	5/8	5/8	2/2	1	1	1/8	1/8	1		5	83	B5	5	132
10	10	39	0.5	3/4	3/4	2/2	1	1	1/8	1/8	1		5	71	B4	4	133
10	10	39	0.5	3/4	3/4	2/2	2	1	1/8	1/8	1		1	79	G5	5	140
10	10	79/2	0.5	7/8	7/8	2/2	1	1	1/8	1/8	1		2	74	D5	5	134
10	10	79/2	0.5	7/8	7/8	2/2	2	1	1/8	1/8	1		6	78	F#5	5	141
11	11	40	1.5	0	0	2/2	3	1	3/8	1/4	3/2		3	45	A2	2	152
11	11	40	1.5	0	0	2/2	4	1	3/8	1/4	3/2		3	45	A2	2	158
11	11	40	0.5	0	0	2/2	1	1	1/8	1/8	1		7	73	C#5	5	146
11	11	40	1.0	0	0	2/2	2	1	1/4	1/4	1		4	76	E5	5	150
11	11	81/2	0.5	1/8	1/8	2/2	1	1	1/8	1/8	1		3	69	A4	4	147
11	11	41	2.0	1/4	1/4	2/2	1	1	1/2	1/2	1		3	81	A5	5	148
11	11	83/2	0.5	3/8	3/8	2/2	3	1	1/8	1/8	1		6	54	F#3	3	153
11	11	83/2	0.5	3/8	3/8	2/2	4	1	1/8	1/8	1		6	54	F#3	3	159
11	11	42	0.5	1/2	1/2	2/2	3	1	1/8	1/8	1		1	55	G3	3	154
11	11	42	0.5	1/2	1/2	2/2	4	1	1/8	1/8	1		1	55	G3	3	160
11	11	42	2.0	1/2	1/2	2/2	2	1	1/2	1/2	1		5	83	B5	5	151
11	11	85/2	0.5	5/8	5/8	2/2	3	1	1/8	1/8	1		3	57	A3	3	155
11	11	85/2	0.5	5/8	5/8	2/2	4	1	1/8	1/8	1		3	57	A3	3	161
11	11	43	0.5	3/4	3/4	2/2	3	1	1/8	1/8	1		5	59	B3	3	156
11	11	43	0.5	3/4	3/4	2/2	4	1	1/8	1/8	1		5	59	B3	3	162
11	11	43	1.0	3/4	3/4	2/2	1	1	1/4	1/4	1	1	1	79	G5	5	149
11	11	87/2	0.5	7/8	7/8	2/2	3	1	1/8	1/8	1		7	61	C#4	4	157
11	11	87/2	0.5	7/8	7/8	2/2	4	1	1/8	1/8	1		7	61	C#4	4	163
12	12	44	0.5	0	0	2/2	3	1	1/8	1/8	1		2	62	D4	4	170
12	12	44	0.5	0	0	2/2	4	1	1/8	1/8	1		2	62	D4	4	178
12	12	44	1.0	0	0	2/2	1	1	1/4	1/4	1	-1	1	79	G5	5	164
12	12	44	1.0	0	0	2/2	2	1	1/4	1/4	1		3	81	A5	5	167
12	12	89/2	0.5	1/8	1/8	2/2	3	1	1/8	1/8	1		3	57	A3	3	171
12	12	89/2	0.5	1/8	1/8	2/2	4	1	1/8	1/8	1		3	57	A3	3	179
12	12	45	0.5	1/4	1/4	2/2	3	1	1/8	1/8	1		5	59	B3	3	172
12	12	45	0.5	1/4	1/4	2/2	4	1	1/8	1/8	1		5	59	B3	3	180
12	12	45	1.0	1/4	1/4	2/2	1	1	1/4	1/4	1		6	78	F#5	5	165
12	12	45	2.0	1/4	1/4	2/2	2	1	1/2	1/2	1		2	86	D6	6	168
12	12	91/2	0.5	3/8	3/8	2/2	3	1	1/8	1/8	1		6	54	F#3	3	173
12	12	91/2	0.5	3/8	3/8	2/2	4	1	1/8	1/8	1		6	54	F#3	3	181
12	12	46	0.5	1/2	1/2	2/2	3	1	1/8	1/8	1		1	55	G3	3	174
12	12	46	0.5	1/2	1/2	2/2	4	1	1/8	1/8	1		1	55	G3	3	182
12	12	46	2.0	1/2	1/2	2/2	1	1	1/2	1/2	1		4	76	E5	5	166
12	12	93/2	0.5	5/8	5/8	2/2	3	1	1/8	1/8	1		4	52	E3	3	175
12	12	93/2	0.5	5/8	5/8	2/2	4	1	1/8	1/8	1		4	52	E3	3	183
12	12	47	0.5	3/4	3/4	2/2	3	1	1/8	1/8	1		3	57	A3	3	176
12	12	47	0.5	3/4	3/4	2/2	4	1	1/8	1/8	1		3	57	A3	3	184
12	12	47	1.0	3/4	3/4	2/2	2	1	1/4	1/4	1		7	85	C#6	6	169
12	12	95/2	0.5	7/8	7/8	2/2	3	1	1/8	1/8	1		3	45	A2	2	177
12	12	95/2	0.5	7/8	7/8	2/2	4	1	1/8	1/8	1		3	45	A2	2	185
13	13	48	1.0	0	0	2/2	3	1	1/4	1/4	1		2	50	D3	3	195
13	13	48	1.0	0	0	2/2	4	1	1/4	1/4	1		2	50	D3	3	198
13	13	48	0.5	0	0	2/2	1	1	1/8	1/8	1		2	74	D5	5	186
13	13	48	1.0	0	0	2/2	2	1	1/4	1/4	1		2	86	D6	6	194
13	13	97/2	0.5	1/8	1/8	2/2	1	1	1/8	1/8	1		6	78	F#5	5	187
13	13	49	0.5	1/4	1/4	2/2	1	1	1/8	1/8	1		7	73	C#5	5	188
13	13	99/2	0.5	3/8	3/8	2/2	1	1	1/8	1/8	1		6	78	F#5	5	189
13	13	50	1.0	1/2	1/2	2/2	3	1	1/4	1/4	1		5	59	B3	3	196
13	13	50	1.0	1/2	1/2	2/2	4	1	1/4	1/4	1		5	59	B3	3	199
13	13	50	0.5	1/2	1/2	2/2	1	1	1/8	1/8	1		2	74	D5	5	190
13	13	101/2	0.5	5/8	5/8	2/2	1	1	1/8	1/8	1		6	78	F#5	5	191
13	13	51	1.0	3/4	3/4	2/2	3	1	1/4	1/4	1		10	58	A#3	3	197
13	13	51	1.0	3/4	3/4	2/2	4	1	1/4	1/4	1		10	58	A#3	3	200
13	13	51	0.5	3/4	3/4	2/2	1	1	1/8	1/8	1		7	73	C#5	5	192
13	13	103/2	0.5	7/8	7/8	2/2	1	1	1/8	1/8	1		6	78	F#5	5	193
14	14	52	1.0	0	0	2/2	3	1	1/4	1/4	1		5	59	B3	3	210
14	14	52	1.0	0	0	2/2	4	1	1/4	1/4	1		5	59	B3	3	214
14	14	52	1.0	0	0	2/2	1	1	1/4	1/4	1		2	74	D5	5	201
14	14	105/2	0.5	1/8	1/8	2/2	2	1	1/8	1/8	1		6	78	F#5	5	203
14	14	53	1.0	1/4	1/4	2/2	3	1	1/4	1/4	1		10	58	A#3	3	211
14	14	53	1.0	1/4	1/4	2/2	4	1	1/4	1/4	1		10	58	A#3	3	215
14	14	53	1.0	1/4	1/4	2/2	1	1	1/4	1/4	1		6	66	F#4	4	202
14	14	53	0.5	1/4	1/4	2/2	2	1	1/8	1/8	1		7	73	C#5	5	204
14	14	107/2	0.5	3/8	3/8	2/2	2	1	1/8	1/8	1		6	78	F#5	5	205
14	14	54	1.0	1/2	1/2	2/2	3	1	1/4	1/4	1		5	59	B3	3	212
14	14	54	1.0	1/2	1/2	2/2	4	1	1/4	1/4	1		5	59	B3	3	216
14	14	54	0.5	1/2	1/2	2/2	2	1	1/8	1/8	1		2	74	D5	5	206
14	14	109/2	0.5	5/8	5/8	2/2	2	1	1/8	1/8	1		6	78	F#5	5	207
14	14	55	1.0	3/4	3/4	2/2	3	1	1/4	1/4	1		10	58	A#3	3	213
14	14	55	1.0	3/4	3/4	2/2	4	1	1/4	1/4	1		10	58	A#3	3	217
14	14	55	0.5	3/4	3/4	2/2	2	1	1/8	1/8	1		7	73	C#5	5	208
14	14	111/2	0.5	7/8	7/8	2/2	2	1	1/8	1/8	1		6	78	F#5	5	209
15	15	56	1.0	0	0	2/2	3	1	1/4	1/4	1		5	59	B3	3	227
15	15	56	1.0	0	0	2/2	4	1	1/4	1/4	1		5	59	B3	3	231
15	15	56	1.0	0	0	2/2	2	1	1/4	1/4	1		2	74	D5	5	225
15	15	113/2	0.5	1/8	1/8	2/2	1	1	1/8	1/8	1		4	76	E5	5	218
15	15	57	1.0	1/4	1/4	2/2	3	1	1/4	1/4	1		8	56	G#3	3	228
15	15	57	1.0	1/4	1/4	2/2	4	1	1/4	1/4	1		8	56	G#3	3	232
15	15	57	1.0	1/4	1/4	2/2	2	1	1/4	1/4	1		5	59	B3	3	226
15	15	57	0.5	1/4	1/4	2/2	1	1	1/8	1/8	1		5	71	B4	4	219
15	15	115/2	0.5	3/8	3/8	2/2	1	1	1/8	1/8	1		4	76	E5	5	220
15	15	58	1.0	1/2	1/2	2/2	3	1	1/4	1/4	1		3	57	A3	3	229
15	15	58	1.0	1/2	1/2	2/2	4	1	1/4	1/4	1		3	57	A3	3	233
15	15	58	0.5	1/2	1/2	2/2	1	1	1/8	1/8	1		7	73	C#5	5	221
15	15	117/2	0.5	5/8	5/8	2/2	1	1	1/8	1/8	1		4	76	E5	5	222
15	15	59	1.0	3/4	3/4	2/2	3	1	1/4	1/4	1		8	56	G#3	3	230
15	15	59	1.0	3/4	3/4	2/2	4	1	1/4	1/4	1		8	56	G#3	3	234
15	15	59	0.5	3/4	3/4	2/2	1	1	1/8	1/8	1		5	71	B4	4	223
15	15	119/2	0.5	7/8	7/8	2/2	1	1	1/8	1/8	1		4	76	E5	5	224
16	16	60	1.0	0	0	2/2	3	1	1/4	1/4	1		3	57	A3	3	244
16	16	60	1.0	0	0	2/2	4	1	1/4	1/4	1		3	57	A3	3	248
16	16	60	1.0	0	0	2/2	1	1	1/4	1/4	1		7	73	C#5	5	235
16	16	121/2	0.5	1/8	1/8	2/2	2	1	1/8	1/8	1		4	76	E5	5	237
16	16	61	1.0	1/4	1/4	2/2	3	1	1/4	1/4	1		8	56	G#3	3	245
16	16	61	1.0	1/4	1/4	2/2	4	1	1/4	1/4	1		8	56	G#3	3	249
16	16	61	1.0	1/4	1/4	2/2	1	1	1/4	1/4	1		4	64	E4	4	236
16	16	61	0.5	1/4	1/4	2/2	2	1	1/8	1/8	1		5	71	B4	4	238
16	16	123/2	0.5	3/8	3/8	2/2	2	1	1/8	1/8	1		4	76	E5	5	239
16	16	62	1.0	1/2	1/2	2/2	3	1	1/4	1/4	1		3	57	A3	3	246
16	16	62	1.0	1/2	1/2	2/2	4	1	1/4	1/4	1		3	57	A3	3	250
16	16	62	0.5	1/2	1/2	2/2	2	1	1/8	1/8	1		7	73	C#5	5	240
16	16	125/2	0.5	5/8	5/8	2/2	2	1	1/8	1/8	1		4	76	E5	5	241
16	16	63	1.0	3/4	3/4	2/2	3	1	1/4	1/4	1		8	56	G#3	3	247
16	16	63	1.0	3/4	3/4	2/2	4	1	1/4	1/4	1		8	56	G#3	3	251
16	16	63	0.5	3/4	3/4	2/2	2	1	1/8	1/8	1		5	71	B4	4	242
16	16	127/2	0.5	7/8	7/8	2/2	2	1	1/8	1/8	1		4	76	E5	5	243
17	17	64	1.0	0	0	2/2	3	1	1/4	1/4	1		3	57	A3	3	261
17	17	64	1.0	0	0	2/2	4	1	1/4	1/4	1		3	57	A3	3	265
17	17	64	1.0	0	0	2/2	2	1	1/4	1/4	1		7	73	C#5	5	259
17	17	129/2	0.5	1/8	1/8	2/2	1	1	1/8	1/8	1		7	73	C#5	5	252
17	17	65	1.0	1/4	1/4	2/2	3	1	1/4	1/4	1		11	53	E#3	3	262
17	17	65	1.0	1/4	1/4	2/2	4	1	1/4	1/4	1		11	53	E#3	3	266
17	17	65	1.0	1/4	1/4	2/2	2	1	1/4	1/4	1		7	61	C#4	4	260
17	17	65	0.5	1/4	1/4	2/2	1	1	1/8	1/8	1		8	68	G#4	4	253
17	17	131/2	0.5	3/8	3/8	2/2	1	1	1/8	1/8	1		7	73	C#5	5	254
17	17	66	1.0	1/2	1/2	2/2	3	1	1/4	1/4	1		6	54	F#3	3	263
17	17	66	1.0	1/2	1/2	2/2	4	1	1/4	1/4	1		6	54	F#3	3	267
17	17	66	0.5	1/2	1/2	2/2	1	1	1/8	1/8	1		3	69	A4	4	255
17	17	133/2	0.5	5/8	5/8	2/2	1	1	1/8	1/8	1		7	73	C#5	5	256
17	17	67	1.0	3/4	3/4	2/2	3	1	1/4	1/4	1		11	53	E#3	3	264
17	17	67	1.0	3/4	3/4	2/2	4	1	1/4	1/4	1		11	53	E#3	3	268
17	17	67	0.5	3/4	3/4	2/2	1	1	1/8	1/8	1		8	68	G#4	4	257
17	17	135/2	0.5	7/8	7/8	2/2	1	1	1/8	1/8	1		7	73	C#5	5	258
18	18	68	1.0	0	0	2/2	3	1	1/4	1/4	1		6	54	F#3	3	278
18	18	68	1.0	0	0	2/2	4	1	1/4	1/4	1		6	54	F#3	3	282
18	18	68	1.0	0	0	2/2	1	1	1/4	1/4	1		3	69	A4	4	269
18	18	137/2	0.5	1/8	1/8	2/2	2	1	1/8	1/8	1		7	73	C#5	5	271
18	18	69	1.0	1/4	1/4	2/2	3	1	1/4	1/4	1		11	53	E#3	3	279
18	18	69	1.0	1/4	1/4	2/2	4	1	1/4	1/4	1		11	53	E#3	3	283
18	18	69	1.0	1/4	1/4	2/2	1	1	1/4	1/4	1		7	61	C#4	4	270
18	18	69	0.5	1/4	1/4	2/2	2	1	1/8	1/8	1		8	68	G#4	4	272
18	18	139/2	0.5	3/8	3/8	2/2	2	1	1/8	1/8	1		7	73	C#5	5	273
18	18	70	1.0	1/2	1/2	2/2	3	1	1/4	1/4	1		6	54	F#3	3	280
18	18	70	1.0	1/2	1/2	2/2	4	1	1/4	1/4	1		6	54	F#3	3	284
18	18	70	0.5	1/2	1/2	2/2	2	1	1/8	1/8	1		3	69	A4	4	274
18	18	141/2	0.5	5/8	5/8	2/2	2	1	1/8	1/8	1		7	73	C#5	5	275
18	18	71	1.0	3/4	3/4	2/2	3	1	1/4	1/4	1		11	53	E#3	3	281
18	18	71	1.0	3/4	3/4	2/2	4	1	1/4	1/4	1		11	53	E#3	3	285
18	18	71	0.5	3/4	3/4	2/2	2	1	1/8	1/8	1		8	68	G#4	4	276
18	18	143/2	0.5	7/8	7/8	2/2	2	1	1/8	1/8	1		7	73	C#5	5	277
19	19	72	1.0	0	0	2/2	3	1	1/4	1/4	1		6	54	F#3	3	296
19	19	72	1.0	0	0	2/2	4	1	1/4	1/4	1		6	54	F#3	3	299
19	19	72	0.5	0	0	2/2	2	1	1/8	1/8	1		3	69	A4	4	288
19	19	145/2	0.5	1/8	1/8	2/2	2	1	1/8	1/8	1		7	73	C#5	5	289
19	19	73	1.0	1/4	1/4	2/2	3	1	1/4	1/4	1		4	52	E3	3	297
19	19	73	1.0	1/4	1/4	2/2	4	1	1/4	1/4	1		4	52	E3	3	300
19	19	73	0.5	1/4	1/4	2/2	2	1	1/8	1/8	1		8	68	G#4	4	290
19	19	73	2.0	1/4	1/4	2/2	1	1	1/2	1/2	1		7	73	C#5	5	286
19	19	147/2	0.5	3/8	3/8	2/2	2	1	1/8	1/8	1		7	73	C#5	5	291
19	19	74	2.0	1/2	1/2	2/2	3	1	1/2	1/2	1		2	50	D3	3	298
19	19	74	2.0	1/2	1/2	2/2	4	1	1/2	1/2	1		2	50	D3	3	301
19	19	74	0.5	1/2	1/2	2/2	2	1	1/8	1/8	1		6	66	F#4	4	292
19	19	149/2	0.5	5/8	5/8	2/2	2	1	1/8	1/8	1		7	73	C#5	5	293
19	19	75	1.0	3/4	3/4	2/2	1	1	1/4	1/4	1	1	5	71	B4	4	287
19	19	75	0.5	3/4	3/4	2/2	2	1	1/8	1/8	1		2	74	D5	5	294
19	19	151/2	0.5	7/8	7/8	2/2	2	1	1/8	1/8	1		6	66	F#4	4	295
20	20	76	1.0	0	0	2/2	3	1	1/4	1/4	1		7	49	C#3	3	309
20	20	76	1.0	0	0	2/2	4	1	1/4	1/4	1		7	49	C#3	3	313
20	20	76	0.5	0	0	2/2	2	1	1/8	1/8	1		11	65	E#4	4	305
20	20	76	1.0	0	0	2/2	1	1	1/4	1/4	1	-1	5	71	B4	4	302
20	20	153/2	0.5	1/8	1/8	2/2	2	1	1/8	1/8	1		7	61	C#4	4	306
20	20	77	1.0	1/4	1/4	2/2	3	1	1/4	1/4	1		2	50	D3	3	310
20	20	77	1.0	1/4	1/4	2/2	4	1	1/4	1/4	1		2	50	D3	3	314
20	20	77	2.0	1/4	1/4	2/2	2	1	1/2	1/2	1		6	66	F#4	4	307
20	20	77	1.0	1/4	1/4	2/2	1	1	1/4	1/4	1		3	69	A4	4	303
20	20	78	1.0	1/2	1/2	2/2	3	1	1/4	1/4	1		5	47	B2	2	311
20	20	78	1.0	1/2	1/2	2/2	4	1	1/4	1/4	1		5	47	B2	2	315
20	20	78	2.0	1/2	1/2	2/2	1	1	1/2	1/2	1		8	68	G#4	4	304
20	20	79	1.0	3/4	3/4	2/2	3	1	1/4	1/4	1		7	49	C#3	3	312
20	20	79	1.0	3/4	3/4	2/2	4	1	1/4	1/4	1		7	49	C#3	3	316
20	20	79	1.0	3/4	3/4	2/2	2	1	1/4	1/4	1		11	65	E#4	4	308
21	21	80	2.0	0	0	2/2	3	1	1/2	1/2	1		6	54	F#3	3	326
21	21	80	2.0	0	0	2/2	4	1	1/2	1/2	1		6	54	F#3	3	327
21	21	80	0.5	0	0	2/2	1	1	1/8	1/8	1		6	66	F#4	4	317
21	21	80	1.0	0	0	2/2	2	1	1/4	1/4	1		6	66	F#4	4	325
21	21	161/2	0.5	1/8	1/8	2/2	1	1	1/8	1/8	1		7	73	C#5	5	318
21	21	81	0.5	1/4	1/4	2/2	1	1	1/8	1/8	1		6	78	F#5	5	319
21	21	163/2	0.5	3/8	3/8	2/2	1	1	1/8	1/8	1		3	81	A5	5	320
21	21	82	0.5	1/2	1/2	2/2	1	1	1/8	1/8	1		6	78	F#5	5	321
21	21	165/2	0.5	5/8	5/8	2/2	1	1	1/8	1/8	1		7	73	C#5	5	322
21	21	83	0.5	3/4	3/4	2/2	1	1	1/8	1/8	1		6	78	F#5	5	323
21	21	167/2	0.5	7/8	7/8	2/2	1	1	1/8	1/8	1		3	81	A5	5	324
22	22	84	2.0	0	0	2/2	3	1	1/2	1/2	1		6	54	F#3	3	336
22	22	84	2.0	0	0	2/2	4	1	1/2	1/2	1		6	54	F#3	3	337
22	22	84	2.0	0	0	2/2	1	1	1/2	1/2	1		6	78	F#5	5	328
22	22	169/2	0.5	1/8	1/8	2/2	2	1	1/8	1/8	1		7	73	C#5	5	329
22	22	85	0.5	1/4	1/4	2/2	2	1	1/8	1/8	1		6	78	F#5	5	330
22	22	171/2	0.5	3/8	3/8	2/2	2	1	1/8	1/8	1		3	81	A5	5	331
22	22	86	0.5	1/2	1/2	2/2	2	1	1/8	1/8	1		6	78	F#5	5	332
22	22	173/2	0.5	5/8	5/8	2/2	2	1	1/8	1/8	1		7	73	C#5	5	333
22	22	87	0.5	3/4	3/4	2/2	2	1	1/8	1/8	1		6	78	F#5	5	334
22	22	175/2	0.5	7/8	7/8	2/2	2	1	1/8	1/8	1		3	81	A5	5	335
23	23	88	1.0	0	0	2/2	3	1	1/4	1/4	1		6	54	F#3	3	348
23	23	88	1.0	0	0	2/2	4	1	1/4	1/4	1		6	54	F#3	3	351
23	23	88	0.5	0	0	2/2	2	1	1/8	1/8	1		6	78	F#5	5	340
23	23	177/2	0.5	1/8	1/8	2/2	2	1	1/8	1/8	1		7	73	C#5	5	341
23	23	89	1.0	1/4	1/4	2/2	3	1	1/4	1/4	1		3	45	A2	2	349
23	23	89	1.0	1/4	1/4	2/2	4	1	1/4	1/4	1		3	45	A2	2	352
23	23	89	0.5	1/4	1/4	2/2	2	1	1/8	1/8	1		6	78	F#5	5	342
23	23	89	2.0	1/4	1/4	2/2	1	1	1/2	1/2	1		7	85	C#6	6	338
23	23	179/2	0.5	3/8	3/8	2/2	2	1	1/8	1/8	1		3	81	A5	5	343
23	23	90	2.0	1/2	1/2	2/2	3	1	1/2	1/2	1		5	47	B2	2	350
23	23	90	2.0	1/2	1/2	2/2	4	1	1/2	1/2	1		5	47	B2	2	353
23	23	90	0.5	1/2	1/2	2/2	2	1	1/8	1/8	1		6	78	F#5	5	344
23	23	181/2	0.5	5/8	5/8	2/2	2	1	1/8	1/8	1		3	81	A5	5	345
23	23	91	0.5	3/4	3/4	2/2	2	1	1/8	1/8	1		8	80	G#5	5	346
23	23	91	1.0	3/4	3/4	2/2	1	1	1/4	1/4	1	1	5	83	B5	5	339
23	23	183/2	0.5	7/8	7/8	2/2	2	1	1/8	1/8	1		6	78	F#5	5	347
24	24	92	1.0	0	0	2/2	3	1	1/4	1/4	1		7	49	C#3	3	360
24	24	92	1.0	0	0	2/2	4	1	1/4	1/4	1		7	49	C#3	3	363
24	24	92	1.0	0	0	2/2	2	1	1/4	1/4	1		11	77	E#5	5	357
24	24	92	1.0	0	0	2/2	1	1	1/4	1/4	1	-1	5	83	B5	5	354
24	24	93	1.0	1/4	1/4	2/2	3	1	1/4	1/4	1		6	42	F#2	2	361
24	24	93	1.0	1/4	1/4	2/2	4	1	1/4	1/4	1		6	42	F#2	2	364
24	24	93	2.0	1/4	1/4	2/2	2	1	1/2	1/2	1		6	78	F#5	5	358
24	24	93	1.0	1/4	1/4	2/2	1	1	1/4	1/4	1		3	81	A5	5	355
24	24	94	2.0	1/2	1/2	2/2	3	1	1/2	1/2	1		7	49	C#3	3	362
24	24	94	2.0	1/2	1/2	2/2	4	1	1/2	1/2	1		7	49	C#3	3	365
24	24	94	2.0	1/2	1/2	2/2	1	1	1/2	1/2	1		8	80	G#5	5	356
24	24	95	1.0	3/4	3/4	2/2	2	1	1/4	1/4	1		11	77	E#5	5	359
25	25	96	1.0	0	0	2/2	3	1	1/4	1/4	1		6	42	F#2	2	375
25	25	96	1.0	0	0	2/2	4	1	1/4	1/4	1		6	42	F#2	2	378
25	25	96	0.5	0	0	2/2	1	1	1/8	1/8	1		6	78	F#5	5	366
25	25	96	1.0	0	0	2/2	2	1	1/4	1/4	1		6	78	F#5	5	374
25	25	193/2	0.5	1/8	1/8	2/2	1	1	1/8	1/8	1		7	73	C#5	5	367
25	25	97	0.5	1/4	1/4	2/2	1	1	1/8	1/8	1		8	68	G#4	4	368
25	25	195/2	0.5	3/8	3/8	2/2	1	1	1/8	1/8	1		7	73	C#5	5	369
25	25	98	1.0	1/2	1/2	2/2	3	1	1/4	1/4	1		6	66	F#4	4	376
25	25	98	1.0	1/2	1/2	2/2	4	1	1/4	1/4	1		6	66	F#4	4	379
25	25	98	0.5	1/2	1/2	2/2	1	1	1/8	1/8	1		3	69	A4	4	370
25	25	197/2	0.5	5/8	5/8	2/2	1	1	1/8	1/8	1		7	73	C#5	5	371
25	25	99	1.0	3/4	3/4	2/2	3	1	1/4	1/4	1		11	65	E#4	4	377
25	25	99	1.0	3/4	3/4	2/2	4	1	1/4	1/4	1		11	65	E#4	4	380
25	25	99	0.5	3/4	3/4	2/2	1	1	1/8	1/8	1		8	68	G#4	4	372
25	25	199/2	0.5	7/8	7/8	2/2	1	1	1/8	1/8	1		7	73	C#5	5	373
26	26	100	1.0	0	0	2/2	3	1	1/4	1/4	1		6	66	F#4	4	390
26	26	100	1.0	0	0	2/2	4	1	1/4	1/4	1		6	66	F#4	4	394
26	26	100	1.0	0	0	2/2	1	1	1/4	1/4	1		3	69	A4	4	381
26	26	201/2	0.5	1/8	1/8	2/2	2	1	1/8	1/8	1		7	73	C#5	5	383
26	26	101	1.0	1/4	1/4	2/2	1	1	1/4	1/4	1		7	61	C#4	4	382
26	26	101	1.0	1/4	1/4	2/2	3	1	1/4	1/4	1		11	65	E#4	4	391
26	26	101	1.0	1/4	1/4	2/2	4	1	1/4	1/4	1		11	65	E#4	4	395
26	26	101	0.5	1/4	1/4	2/2	2	1	1/8	1/8	1		8	68	G#4	4	384
26	26	203/2	0.5	3/8	3/8	2/2	2	1	1/8	1/8	1		7	73	C#5	5	385
26	26	102	1.0	1/2	1/2	2/2	3	1	1/4	1/4	1		6	66	F#4	4	392
26	26	102	1.0	1/2	1/2	2/2	4	1	1/4	1/4	1		6	66	F#4	4	396
26	26	102	0.5	1/2	1/2	2/2	2	1	1/8	1/8	1		3	69	A4	4	386
26	26	205/2	0.5	5/8	5/8	2/2	2	1	1/8	1/8	1		7	73	C#5	5	387
26	26	103	1.0	3/4	3/4	2/2	3	1	1/4	1/4	1		11	65	E#4	4	393
26	26	103	1.0	3/4	3/4	2/2	4	1	1/4	1/4	1		11	65	E#4	4	397
26	26	103	0.5	3/4	3/4	2/2	2	1	1/8	1/8	1		8	68	G#4	4	388
26	26	207/2	0.5	7/8	7/8	2/2	2	1	1/8	1/8	1		7	73	C#5	5	389
27	27	104	1.0	0	0	2/2	3	1	1/4	1/4	1		6	66	F#4	4	406
27	27	104	1.0	0	0	2/2	4	1	1/4	1/4	1		6	66	F#4	4	409
27	27	104	1.0	0	0	2/2	2	1	1/4	1/4	1		3	69	A4	4	405
27	27	209/2	0.5	1/8	1/8	2/2	1	1	1/8	1/8	1		5	71	B4	4	398
27	27	105	0.5	1/4	1/4	2/2	1	1	1/8	1/8	1		6	66	F#4	4	399
27	27	211/2	0.5	3/8	3/8	2/2	1	1	1/8	1/8	1		5	71	B4	4	400
27	27	106	1.0	1/2	1/2	2/2	3	1	1/4	1/4	1		4	64	E4	4	407
27	27	106	1.0	1/2	1/2	2/2	4	1	1/4	1/4	1		4	64	E4	4	410
27	27	106	0.5	1/2	1/2	2/2	1	1	1/8	1/8	1		1	67	G4	4	401
27	27	213/2	0.5	5/8	5/8	2/2	1	1	1/8	1/8	1		5	71	B4	4	402
27	27	107	1.0	3/4	3/4	2/2	3	1	1/4	1/4	1		9	63	D#4	4	408
27	27	107	1.0	3/4	3/4	2/2	4	1	1/4	1/4	1		9	63	D#4	4	411
27	27	107	0.5	3/4	3/4	2/2	1	1	1/8	1/8	1		6	66	F#4	4	403
27	27	215/2	0.5	7/8	7/8	2/2	1	1	1/8	1/8	1		5	71	B4	4	404
28	28	108	1.0	0	0	2/2	3	1	1/4	1/4	1		4	64	E4	4	421
28	28	108	1.0	0	0	2/2	4	1	1/4	1/4	1		4	64	E4	4	425
28	28	108	1.0	0	0	2/2	1	1	1/4	1/4	1		1	67	G4	4	412
28	28	217/2	0.5	1/8	1/8	2/2	2	1	1/8	1/8	1		5	71	B4	4	414
28	28	109	1.0	1/4	1/4	2/2	1	1	1/4	1/4	1		5	59	B3	3	413
28	28	109	1.0	1/4	1/4	2/2	3	1	1/4	1/4	1		9	63	D#4	4	422
28	28	109	1.0	1/4	1/4	2/2	4	1	1/4	1/4	1		9	63	D#4	4	426
28	28	109	0.5	1/4	1/4	2/2	2	1	1/8	1/8	1		6	66	F#4	4	415
28	28	219/2	0.5	3/8	3/8	2/2	2	1	1/8	1/8	1		5	71	B4	4	416
28	28	110	1.0	1/2	1/2	2/2	3	1	1/4	1/4	1		4	64	E4	4	423
28	28	110	1.0	1/2	1/2	2/2	4	1	1/4	1/4	1		4	64	E4	4	427
28	28	110	0.5	1/2	1/2	2/2	2	1	1/8	1/8	1		1	67	G4	4	417
28	28	221/2	0.5	5/8	5/8	2/2	2	1	1/8	1/8	1		5	71	B4	4	418
28	28	111	1.0	3/4	3/4	2/2	3	1	1/4	1/4	1		9	63	D#4	4	424
28	28	111	1.0	3/4	3/4	2/2	4	1	1/4	1/4	1		9	63	D#4	4	428
28	28	111	0.5	3/4	3/4	2/2	2	1	1/8	1/8	1		6	66	F#4	4	419
28	28	223/2	0.5	7/8	7/8	2/2	2	1	1/8	1/8	1		5	71	B4	4	420
29	29	112	1.0	0	0	2/2	3	1	1/4	1/4	1		4	52	E3	3	439
29	29	112	1.0	0	0	2/2	4	1	1/4	1/4	1		4	52	E3	3	442
29	29	112	0.5	0	0	2/2	2	1	1/8	1/8	1		1	67	G4	4	431
29	29	225/2	0.5	1/8	1/8	2/2	2	1	1/8	1/8	1		5	71	B4	4	432
29	29	113	1.0	1/4	1/4	2/2	3	1	1/4	1/4	1		2	50	D3	3	440
29	29	113	1.0	1/4	1/4	2/2	4	1	1/4	1/4	1		2	50	D3	3	443
29	29	113	0.5	1/4	1/4	2/2	2	1	1/8	1/8	1		6	66	F#4	4	433
29	29	113	2.0	1/4	1/4	2/2	1	1	1/2	1/2	1		5	71	B4	4	429
29	29	227/2	0.5	3/8	3/8	2/2	2	1	1/8	1/8	1		5	71	B4	4	434
29	29	114	2.0	1/2	1/2	2/2	3	1	1/2	1/2	1		0	48	C3	3	441
29	29	114	2.0	1/2	1/2	2/2	4	1	1/2	1/2	1		0	48	C3	3	444
29	29	114	0.5	1/2	1/2	2/2	2	1	1/8	1/8	1		4	64	E4	4	435
29	29	229/2	0.5	5/8	5/8	2/2	2	1	1/8	1/8	1		5	71	B4	4	436
29	29	115	1.0	3/4	3/4	2/2	1	1	1/4	1/4	1	1	3	69	A4	4	430
29	29	115	0.5	3/4	3/4	2/2	2	1	1/8	1/8	1		0	72	C5	5	437
29	29	231/2	0.5	7/8	7/8	2/2	2	1	1/8	1/8	1		4	64	E4	4	438
30	30	116	1.0	0	0	2/2	3	1	1/4	1/4	1		5	47	B2	2	452
30	30	116	1.0	0	0	2/2	4	1	1/4	1/4	1		5	47	B2	2	456
30	30	116	0.5	0	0	2/2	2	1	1/8	1/8	1		9	63	D#4	4	448
30	30	116	1.0	0	0	2/2	1	1	1/4	1/4	1	-1	3	69	A4	4	445
30	30	233/2	0.5	1/8	1/8	2/2	2	1	1/8	1/8	1		5	59	B3	3	449
30	30	117	1.0	1/4	1/4	2/2	3	1	1/4	1/4	1		0	48	C3	3	453
30	30	117	1.0	1/4	1/4	2/2	4	1	1/4	1/4	1		0	48	C3	3	457
30	30	117	2.0	1/4	1/4	2/2	2	1	1/2	1/2	1		4	64	E4	4	450
30	30	117	1.0	1/4	1/4	2/2	1	1	1/4	1/4	1		1	67	G4	4	446
30	30	118	1.0	1/2	1/2	2/2	3	1	1/4	1/4	1		3	45	A2	2	454
30	30	118	1.0	1/2	1/2	2/2	4	1	1/4	1/4	1		3	45	A2	2	458
30	30	118	2.0	1/2	1/2	2/2	1	1	1/2	1/2	1		6	66	F#4	4	447
30	30	119	1.0	3/4	3/4	2/2	3	1	1/4	1/4	1		5	47	B2	2	455
30	30	119	1.0	3/4	3/4	2/2	4	1	1/4	1/4	1		5	47	B2	2	459
30	30	119	1.0	3/4	3/4	2/2	2	1	1/4	1/4	1		9	63	D#4	4	451
31	31	120	2.0	0	0	2/2	3	1	1/2	1/2	1		4	52	E3	3	469
31	31	120	2.0	0	0	2/2	4	1	1/2	1/2	1		4	52	E3	3	471
31	31	120	0.5	0	0	2/2	1	1	1/8	1/8	1		4	64	E4	4	460
31	31	120	2.0	0	0	2/2	2	1	1/2	1/2	1		4	64	E4	4	468
31	31	241/2	0.5	1/8	1/8	2/2	1	1	1/8	1/8	1		5	83	B5	5	461
31	31	121	0.5	1/4	1/4	2/2	1	1	1/8	1/8	1		3	81	A5	5	462
31	31	243/2	0.5	3/8	3/8	2/2	1	1	1/8	1/8	1		1	79	G5	5	463
31	31	122	2.0	1/2	1/2	2/2	3	1	1/2	1/2	1		5	47	B2	2	470
31	31	122	2.0	1/2	1/2	2/2	4	1	1/2	1/2	1		5	47	B2	2	472
31	31	122	0.5	1/2	1/2	2/2	1	1	1/8	1/8	1		3	81	A5	5	464
31	31	245/2	0.5	5/8	5/8	2/2	1	1	1/8	1/8	1		1	79	G5	5	465
31	31	123	0.5	3/4	3/4	2/2	1	1	1/8	1/8	1		3	81	A5	5	466
31	31	247/2	0.5	7/8	7/8	2/2	1	1	1/8	1/8	1		6	78	F#5	5	467
32	32	124	2.0	0	0	2/2	3	1	1/2	1/2	1		4	52	E3	3	488
32	32	124	2.0	0	0	2/2	4	1	1/2	1/2	1		4	52	E3	3	490
32	32	124	0.5	0	0	2/2	1	1	1/8	1/8	1		1	79	G5	5	473
32	32	249/2	0.5	1/8	1/8	2/2	1	1	1/8	1/8	1		1	79	G5	5	474
32	32	249/2	0.5	1/8	1/8	2/2	2	1	1/8	1/8	1		5	83	B5	5	481
32	32	125	0.5	1/4	1/4	2/2	1	1	1/8	1/8	1		6	78	F#5	5	475
32	32	125	0.5	1/4	1/4	2/2	2	1	1/8	1/8	1		3	81	A5	5	482
32	32	251/2	0.5	3/8	3/8	2/2	1	1	1/8	1/8	1		4	76	E5	5	476
32	32	251/2	0.5	3/8	3/8	2/2	2	1	1/8	1/8	1		1	79	G5	5	483
32	32	126	2.0	1/2	1/2	2/2	3	1	1/2	1/2	1		5	47	B2	2	489
32	32	126	2.0	1/2	1/2	2/2	4	1	1/2	1/2	1		5	47	B2	2	491
32	32	126	0.5	1/2	1/2	2/2	1	1	1/8	1/8	1		6	78	F#5	5	477
32	32	126	0.5	1/2	1/2	2/2	2	1	1/8	1/8	1		3	81	A5	5	484
32	32	253/2	0.5	5/8	5/8	2/2	1	1	1/8	1/8	1		4	76	E5	5	478
32	32	253/2	0.5	5/8	5/8	2/2	2	1	1/8	1/8	1		1	79	G5	5	485
32	32	127	0.5	3/4	3/4	2/2	1	1	1/8	1/8	1		6	78	F#5	5	479
32	32	127	0.5	3/4	3/4	2/2	2	1	1/8	1/8	1		3	81	A5	5	486
32	32	255/2	0.5	7/8	7/8	2/2	1	1	1/8	1/8	1		9	75	D#5	5	480
32	32	255/2	0.5	7/8	7/8	2/2	2	1	1/8	1/8	1		6	78	F#5	5	487
33	33	128	2.0	0	0	2/2	3	1	1/2	1/2	1		4	52	E3	3	508
33	33	128	2.0	0	0	2/2	4	1	1/2	1/2	1		4	52	E3	3	510
33	33	128	0.5	0	0	2/2	1	1	1/8	1/8	1		4	76	E5	5	492
33	33	128	0.5	0	0	2/2	2	1	1/8	1/8	1		1	79	G5	5	500
33	33	257/2	0.5	1/8	1/8	2/2	2	1	1/8	1/8	1		1	79	G5	5	501
33	33	257/2	0.5	1/8	1/8	2/2	1	1	1/8	1/8	1		5	83	B5	5	493
33	33	129	0.5	1/4	1/4	2/2	2	1	1/8	1/8	1		6	78	F#5	5	502
33	33	129	0.5	1/4	1/4	2/2	1	1	1/8	1/8	1		3	81	A5	5	494
33	33	259/2	0.5	3/8	3/8	2/2	2	1	1/8	1/8	1		4	76	E5	5	503
33	33	259/2	0.5	3/8	3/8	2/2	1	1	1/8	1/8	1		1	79	G5	5	495
33	33	130	2.0	1/2	1/2	2/2	3	1	1/2	1/2	1		5	47	B2	2	509
33	33	130	2.0	1/2	1/2	2/2	4	1	1/2	1/2	1		5	47	B2	2	511
33	33	130	0.5	1/2	1/2	2/2	2	1	1/8	1/8	1		6	78	F#5	5	504
33	33	130	0.5	1/2	1/2	2/2	1	1	1/8	1/8	1		3	81	A5	5	496
33	33	261/2	0.5	5/8	5/8	2/2	2	1	1/8	1/8	1		4	76	E5	5	505
33	33	261/2	0.5	5/8	5/8	2/2	1	1	1/8	1/8	1		1	79	G5	5	497
33	33	131	0.5	3/4	3/4	2/2	2	1	1/8	1/8	1		6	78	F#5	5	506
33	33	131	0.5	3/4	3/4	2/2	1	1	1/8	1/8	1		3	81	A5	5	498
33	33	263/2	0.5	7/8	7/8	2/2	2	1	1/8	1/8	1		9	75	D#5	5	507
33	33	263/2	0.5	7/8	7/8	2/2	1	1	1/8	1/8	1		6	78	F#5	5	499
34	34	132	2.0	0	0	2/2	3	1	1/2	1/2	1		4	52	E3	3	528
34	34	132	2.0	0	0	2/2	4	1	1/2	1/2	1		4	52	E3	3	530
34	34	132	0.5	0	0	2/2	2	1	1/8	1/8	1		4	76	E5	5	520
34	34	132	0.5	0	0	2/2	1	1	1/8	1/8	1		1	79	G5	5	512
34	34	265/2	0.5	1/8	1/8	2/2	1	1	1/8	1/8	1		1	79	G5	5	513
34	34	265/2	0.5	1/8	1/8	2/2	2	1	1/8	1/8	1		5	83	B5	5	521
34	34	133	0.5	1/4	1/4	2/2	1	1	1/8	1/8	1		6	78	F#5	5	514
34	34	133	0.5	1/4	1/4	2/2	2	1	1/8	1/8	1		3	81	A5	5	522
34	34	267/2	0.5	3/8	3/8	2/2	1	1	1/8	1/8	1		4	76	E5	5	515
34	34	267/2	0.5	3/8	3/8	2/2	2	1	1/8	1/8	1		1	79	G5	5	523
34	34	134	2.0	1/2	1/2	2/2	3	1	1/2	1/2	1		5	47	B2	2	529
34	34	134	2.0	1/2	1/2	2/2	4	1	1/2	1/2	1		5	47	B2	2	531
34	34	134	0.5	1/2	1/2	2/2	1	1	1/8	1/8	1		2	74	D5	5	516
34	34	134	0.5	1/2	1/2	2/2	2	1	1/8	1/8	1		6	78	F#5	5	524
34	34	269/2	0.5	5/8	5/8	2/2	1	1	1/8	1/8	1		2	74	D5	5	517
34	34	269/2	0.5	5/8	5/8	2/2	2	1	1/8	1/8	1		6	78	F#5	5	525
34	34	135	0.5	3/4	3/4	2/2	1	1	1/8	1/8	1		7	73	C#5	5	518
34	34	135	0.5	3/4	3/4	2/2	2	1	1/8	1/8	1		4	76	E5	5	526
34	34	271/2	0.5	7/8	7/8	2/2	1	1	1/8	1/8	1		5	71	B4	4	519
34	34	271/2	0.5	7/8	7/8	2/2	2	1	1/8	1/8	1		2	74	D5	5	527
35	35	136	1.0	0	0	2/2	3	1	1/4	1/4	1		6	54	F#3	3	538
35	35	136	1.0	0	0	2/2	4	1	1/4	1/4	1		6	54	F#3	3	542
35	35	136	0.5	0	0	2/2	1	1	1/8	1/8	1		10	70	A#4	4	532
35	35	136	1.0	0	0	2/2	2	1	1/4	1/4	1		7	73	C#5	5	536
35	35	273/2	0.5	1/8	1/8	2/2	1	1	1/8	1/8	1		6	66	F#4	4	533
35	35	137	1.0	1/4	1/4	2/2	3	1	1/4	1/4	1		2	50	D3	3	539
35	35	137	1.0	1/4	1/4	2/2	4	1	1/4	1/4	1		2	50	D3	3	543
35	35	137	2.0	1/4	1/4	2/2	1	1	1/2	1/2	1		6	78	F#5	5	534
35	35	138	1.0	1/2	1/2	2/2	3	1	1/4	1/4	1		5	47	B2	2	540
35	35	138	1.0	1/2	1/2	2/2	4	1	1/4	1/4	1		5	47	B2	2	544
35	35	138	2.0	1/2	1/2	2/2	2	1	1/2	1/2	1		1	79	G5	5	537
35	35	139	1.0	3/4	3/4	2/2	3	1	1/4	1/4	1		7	49	C#3	3	541
35	35	139	1.0	3/4	3/4	2/2	4	1	1/4	1/4	1		7	49	C#3	3	545
35	35	139	1.0	3/4	3/4	2/2	1	1	1/4	1/4	1	1	4	76	E5	5	535
36	36	140	1.0	0	0	2/2	3	1	1/4	1/4	1		2	50	D3	3	551
36	36	140	1.0	0	0	2/2	4	1	1/4	1/4	1		2	50	D3	3	555
36	36	140	1.0	0	0	2/2	1	1	1/4	1/4	1	-1	4	76	E5	5	546
36	36	140	2.0	0	0	2/2	2	1	1/2	1/2	1		6	78	F#5	5	549
36	36	141	1.0	1/4	1/4	2/2	3	1	1/4	1/4	1		6	54	F#3	3	552
36	36	141	1.0	1/4	1/4	2/2	4	1	1/4	1/4	1		6	54	F#3	3	556
36	36	141	2.0	1/4	1/4	2/2	1	1	1/2	1/2	1		2	74	D5	5	547
36	36	142	1.0	1/2	1/2	2/2	3	1	1/4	1/4	1		8	56	G#3	3	553
36	36	142	1.0	1/2	1/2	2/2	4	1	1/4	1/4	1		8	56	G#3	3	557
36	36	142	2.0	1/2	1/2	2/2	2	1	1/2	1/2	1		4	76	E5	5	550
36	36	143	1.0	3/4	3/4	2/2	3	1	1/4	1/4	1		10	58	A#3	3	554
36	36	143	1.0	3/4	3/4	2/2	4	1	1/4	1/4	1		10	58	A#3	3	558
36	36	143	1.0	3/4	3/4	2/2	1	1	1/4	1/4	1	1	7	73	C#5	5	548
37	37	144	1.0	0	0	2/2	3	1	1/4	1/4	1		5	59	B3	3	564
37	37	144	1.0	0	0	2/2	4	1	1/4	1/4	1		5	59	B3	3	568
37	37	144	1.0	0	0	2/2	1	1	1/4	1/4	1	-1	7	73	C#5	5	559
37	37	144	2.0	0	0	2/2	2	1	1/2	1/2	1		2	74	D5	5	562
37	37	145	1.0	1/4	1/4	2/2	3	1	1/4	1/4	1		2	50	D3	3	565
37	37	145	1.0	1/4	1/4	2/2	4	1	1/4	1/4	1		2	50	D3	3	569
37	37	145	2.0	1/4	1/4	2/2	1	1	1/2	1/2	1		5	71	B4	4	560
37	37	146	1.0	1/2	1/2	2/2	3	1	1/4	1/4	1		4	52	E3	3	566
37	37	146	1.0	1/2	1/2	2/2	4	1	1/4	1/4	1		4	52	E3	3	570
37	37	146	2.0	1/2	1/2	2/2	2	1	1/2	1/2	1	1	7	73	C#5	5	563
37	37	147	1.0	3/4	3/4	2/2	3	1	1/4	1/4	1		6	54	F#3	3	567
37	37	147	1.0	3/4	3/4	2/2	4	1	1/4	1/4	1		6	54	F#3	3	571
37	37	147	1.0	3/4	3/4	2/2	1	1	1/4	1/4	1		10	70	A#4	4	561
38	38	148	0.5	0	0	2/2	3	1	1/8	1/8	1		5	47	B2	2	577
38	38	148	0.5	0	0	2/2	4	1	1/8	1/8	1		5	47	B2	2	585
38	38	148	1.0	0	0	2/2	2	1	1/4	1/4	1	-1	7	73	C#5	5	574
38	38	148	2.0	0	0	2/2	1	1	1/2	1/2	1		2	74	D5	5	572
38	38	297/2	0.5	1/8	1/8	2/2	3	1	1/8	1/8	1		7	49	C#3	3	578
38	38	297/2	0.5	1/8	1/8	2/2	4	1	1/8	1/8	1		7	49	C#3	3	586
38	38	149	0.5	1/4	1/4	2/2	3	1	1/8	1/8	1		2	50	D3	3	579
38	38	149	0.5	1/4	1/4	2/2	4	1	1/8	1/8	1		2	50	D3	3	587
38	38	149	2.0	1/4	1/4	2/2	2	1	1/2	1/2	1		5	71	B4	4	575
38	38	299/2	0.5	3/8	3/8	2/2	3	1	1/8	1/8	1		4	52	E3	3	580
38	38	299/2	0.5	3/8	3/8	2/2	4	1	1/8	1/8	1		4	52	E3	3	588
38	38	150	0.5	1/2	1/2	2/2	3	1	1/8	1/8	1		6	54	F#3	3	581
38	38	150	0.5	1/2	1/2	2/2	4	1	1/8	1/8	1		6	54	F#3	3	589
38	38	150	2.0	1/2	1/2	2/2	1	1	1/2	1/2	1		7	73	C#5	5	573
38	38	301/2	0.5	5/8	5/8	2/2	3	1	1/8	1/8	1		1	55	G3	3	582
38	38	301/2	0.5	5/8	5/8	2/2	4	1	1/8	1/8	1		1	55	G3	3	590
38	38	151	0.5	3/4	3/4	2/2	3	1	1/8	1/8	1		3	57	A3	3	583
38	38	151	0.5	3/4	3/4	2/2	4	1	1/8	1/8	1		3	57	A3	3	591
38	38	151	1.0	3/4	3/4	2/2	2	1	1/4	1/4	1	1	3	69	A4	4	576
38	38	303/2	0.5	7/8	7/8	2/2	3	1	1/8	1/8	1		6	54	F#3	3	584
38	38	303/2	0.5	7/8	7/8	2/2	4	1	1/8	1/8	1		6	54	F#3	3	592
39	39	152	0.5	0	0	2/2	3	1	1/8	1/8	1		1	55	G3	3	598
39	39	152	0.5	0	0	2/2	4	1	1/8	1/8	1		1	55	G3	3	606
39	39	152	1.0	0	0	2/2	2	1	1/4	1/4	1	-1	3	69	A4	4	595
39	39	152	2.0	0	0	2/2	1	1	1/2	1/2	1		5	71	B4	4	593
39	39	305/2	0.5	1/8	1/8	2/2	3	1	1/8	1/8	1		3	57	A3	3	599
39	39	305/2	0.5	1/8	1/8	2/2	4	1	1/8	1/8	1		3	57	A3	3	607
39	39	153	0.5	1/4	1/4	2/2	3	1	1/8	1/8	1		5	59	B3	3	600
39	39	153	0.5	1/4	1/4	2/2	4	1	1/8	1/8	1		5	59	B3	3	608
39	39	153	2.0	1/4	1/4	2/2	2	1	1/2	1/2	1		1	67	G4	4	596
39	39	307/2	0.5	3/8	3/8	2/2	3	1	1/8	1/8	1		7	61	C#4	4	601
39	39	307/2	0.5	3/8	3/8	2/2	4	1	1/8	1/8	1		7	61	C#4	4	609
39	39	154	0.5	1/2	1/2	2/2	3	1	1/8	1/8	1		2	62	D4	4	602
39	39	154	0.5	1/2	1/2	2/2	4	1	1/8	1/8	1		2	62	D4	4	610
39	39	154	2.0	1/2	1/2	2/2	1	1	1/2	1/2	1		3	69	A4	4	594
39	39	309/2	0.5	5/8	5/8	2/2	3	1	1/8	1/8	1		2	50	D3	3	603
39	39	309/2	0.5	5/8	5/8	2/2	4	1	1/8	1/8	1		2	50	D3	3	611
39	39	155	0.5	3/4	3/4	2/2	3	1	1/8	1/8	1		6	54	F#3	3	604
39	39	155	0.5	3/4	3/4	2/2	4	1	1/8	1/8	1		6	54	F#3	3	612
39	39	155	1.0	3/4	3/4	2/2	2	1	1/4	1/4	1	1	6	66	F#4	4	597
39	39	311/2	0.5	7/8	7/8	2/2	3	1	1/8	1/8	1		2	50	D3	3	605
39	39	311/2	0.5	7/8	7/8	2/2	4	1	1/8	1/8	1		2	50	D3	3	613
40	40	156	0.5	0	0	2/2	3	1	1/8	1/8	1		4	52	E3	3	619
40	40	156	0.5	0	0	2/2	4	1	1/8	1/8	1		4	52	E3	3	627
40	40	156	1.0	0	0	2/2	2	1	1/4	1/4	1	-1	6	66	F#4	4	616
40	40	156	2.0	0	0	2/2	1	1	1/2	1/2	1		1	67	G4	4	614
40	40	313/2	0.5	1/8	1/8	2/2	3	1	1/8	1/8	1		2	50	D3	3	620
40	40	313/2	0.5	1/8	1/8	2/2	4	1	1/8	1/8	1		2	50	D3	3	628
40	40	157	0.5	1/4	1/4	2/2	3	1	1/8	1/8	1		7	49	C#3	3	621
40	40	157	0.5	1/4	1/4	2/2	4	1	1/8	1/8	1		7	49	C#3	3	629
40	40	157	2.0	1/4	1/4	2/2	2	1	1/2	1/2	1		4	64	E4	4	617
40	40	315/2	0.5	3/8	3/8	2/2	3	1	1/8	1/8	1		3	45	A2	2	622
40	40	315/2	0.5	3/8	3/8	2/2	4	1	1/8	1/8	1		3	45	A2	2	630
40	40	158	0.5	1/2	1/2	2/2	3	1	1/8	1/8	1		2	50	D3	3	623
40	40	158	0.5	1/2	1/2	2/2	4	1	1/8	1/8	1		2	50	D3	3	631
40	40	158	2.0	1/2	1/2	2/2	1	1	1/2	1/2	1		6	66	F#4	4	615
40	40	317/2	0.5	5/8	5/8	2/2	3	1	1/8	1/8	1		4	52	E3	3	624
40	40	317/2	0.5	5/8	5/8	2/2	4	1	1/8	1/8	1		4	52	E3	3	632
40	40	159	0.5	3/4	3/4	2/2	3	1	1/8	1/8	1		6	54	F#3	3	625
40	40	159	0.5	3/4	3/4	2/2	4	1	1/8	1/8	1		6	54	F#3	3	633
40	40	159	1.0	3/4	3/4	2/2	2	1	1/4	1/4	1	1	2	62	D4	4	618
40	40	319/2	0.5	7/8	7/8	2/2	3	1	1/8	1/8	1		2	50	D3	3	626
40	40	319/2	0.5	7/8	7/8	2/2	4	1	1/8	1/8	1		2	50	D3	3	634
41	41	160	0.5	0	0	2/2	3	1	1/8	1/8	1		1	55	G3	3	643
41	41	160	0.5	0	0	2/2	4	1	1/8	1/8	1		1	55	G3	3	648
41	41	160	1.0	0	0	2/2	2	1	1/4	1/4	1	-1	2	62	D4	4	640
41	41	160	2.0	0	0	2/2	1	1	1/2	1/2	1		4	64	E4	4	635
41	41	321/2	0.5	1/8	1/8	2/2	3	1	1/8	1/8	1		4	52	E3	3	644
41	41	321/2	0.5	1/8	1/8	2/2	4	1	1/8	1/8	1		4	52	E3	3	649
41	41	161	0.5	1/4	1/4	2/2	3	1	1/8	1/8	1		3	57	A3	3	645
41	41	161	0.5	1/4	1/4	2/2	4	1	1/8	1/8	1		3	57	A3	3	650
41	41	161	1.0	1/4	1/4	2/2	2	1	1/4	1/4	1		7	61	C#4	4	641
41	41	323/2	0.5	3/8	3/8	2/2	3	1	1/8	1/8	1		3	45	A2	2	646
41	41	323/2	0.5	3/8	3/8	2/2	4	1	1/8	1/8	1		3	45	A2	2	651
41	41	162	1.0	1/2	1/2	2/2	3	1	1/4	1/4	1		2	50	D3	3	647
41	41	162	1.0	1/2	1/2	2/2	4	1	1/4	1/4	1		2	50	D3	3	652
41	41	162	0.5	1/2	1/2	2/2	1	1	1/8	1/8	1		2	62	D4	4	636
41	41	162	1.0	1/2	1/2	2/2	2	1	1/4	1/4	1		2	62	D4	4	642
41	41	325/2	0.5	5/8	5/8	2/2	1	1	1/8	1/8	1		6	78	F#5	5	637
41	41	163	0.5	3/4	3/4	2/2	1	1	1/8	1/8	1		7	73	C#5	5	638
41	41	327/2	0.5	7/8	7/8	2/2	1	1	1/8	1/8	1		6	78	F#5	5	639
42	42	164	1.0	0	0	2/2	3	1	1/4	1/4	1		5	59	B3	3	662
42	42	164	1.0	0	0	2/2	4	1	1/4	1/4	1		5	59	B3	3	665
42	42	164	0.5	0	0	2/2	1	1	1/8	1/8	1		2	74	D5	5	653
42	42	329/2	0.5	1/8	1/8	2/2	1	1	1/8	1/8	1		6	78	F#5	5	654
42	42	165	1.0	1/4	1/4	2/2	3	1	1/4	1/4	1		10	58	A#3	3	663
42	42	165	1.0	1/4	1/4	2/2	4	1	1/4	1/4	1		10	58	A#3	3	666
42	42	165	0.5	1/4	1/4	2/2	1	1	1/8	1/8	1		7	73	C#5	5	655
42	42	331/2	0.5	3/8	3/8	2/2	1	1	1/8	1/8	1		6	78	F#5	5	656
42	42	166	1.0	1/2	1/2	2/2	3	1	1/4	1/4	1		5	59	B3	3	664
42	42	166	1.0	1/2	1/2	2/2	4	1	1/4	1/4	1		5	59	B3	3	667
42	42	166	1.0	1/2	1/2	2/2	1	1	1/4	1/4	1		2	74	D5	5	657
42	42	333/2	0.5	5/8	5/8	2/2	2	1	1/8	1/8	1		5	71	B4	4	659
42	42	167	1.0	3/4	3/4	2/2	1	1	1/4	1/4	1		5	59	B3	3	658
42	42	167	0.5	3/4	3/4	2/2	2	1	1/8	1/8	1		6	66	F#4	4	660
42	42	335/2	0.5	7/8	7/8	2/2	2	1	1/8	1/8	1		5	71	B4	4	661
43	43	168	1.0	0	0	2/2	3	1	1/4	1/4	1		4	64	E4	4	677
43	43	168	1.0	0	0	2/2	4	1	1/4	1/4	1		4	64	E4	4	680
43	43	168	0.5	0	0	2/2	2	1	1/8	1/8	1		1	67	G4	4	671
43	43	337/2	0.5	1/8	1/8	2/2	2	1	1/8	1/8	1		5	71	B4	4	672
43	43	169	1.0	1/4	1/4	2/2	3	1	1/4	1/4	1		9	63	D#4	4	678
43	43	169	1.0	1/4	1/4	2/2	4	1	1/4	1/4	1		9	63	D#4	4	681
43	43	169	0.5	1/4	1/4	2/2	2	1	1/8	1/8	1		6	66	F#4	4	673
43	43	339/2	0.5	3/8	3/8	2/2	2	1	1/8	1/8	1		5	71	B4	4	674
43	43	170	1.0	1/2	1/2	2/2	3	1	1/4	1/4	1		4	64	E4	4	679
43	43	170	1.0	1/2	1/2	2/2	4	1	1/4	1/4	1		4	64	E4	4	682
43	43	170	1.0	1/2	1/2	2/2	2	1	1/4	1/4	1		1	67	G4	4	675
43	43	341/2	0.5	5/8	5/8	2/2	1	1	1/8	1/8	1		4	76	E5	5	668
43	43	171	1.0	3/4	3/4	2/2	2	1	1/4	1/4	1		5	59	B3	3	676
43	43	171	0.5	3/4	3/4	2/2	1	1	1/8	1/8	1		5	71	B4	4	669
43	43	343/2	0.5	7/8	7/8	2/2	1	1	1/8	1/8	1		4	76	E5	5	670
44	44	172	1.0	0	0	2/2	3	1	1/4	1/4	1		3	57	A3	3	692
44	44	172	1.0	0	0	2/2	4	1	1/4	1/4	1		3	57	A3	3	695
44	44	172	0.5	0	0	2/2	1	1	1/8	1/8	1		7	73	C#5	5	683
44	44	345/2	0.5	1/8	1/8	2/2	1	1	1/8	1/8	1		4	76	E5	5	684
44	44	173	1.0	1/4	1/4	2/2	3	1	1/4	1/4	1		8	56	G#3	3	693
44	44	173	1.0	1/4	1/4	2/2	4	1	1/4	1/4	1		8	56	G#3	3	696
44	44	173	0.5	1/4	1/4	2/2	1	1	1/8	1/8	1		5	71	B4	4	685
44	44	347/2	0.5	3/8	3/8	2/2	1	1	1/8	1/8	1		4	76	E5	5	686
44	44	174	1.0	1/2	1/2	2/2	3	1	1/4	1/4	1		3	57	A3	3	694
44	44	174	1.0	1/2	1/2	2/2	4	1	1/4	1/4	1		3	57	A3	3	697
44	44	174	1.0	1/2	1/2	2/2	1	1	1/4	1/4	1		7	73	C#5	5	687
44	44	349/2	0.5	5/8	5/8	2/2	2	1	1/8	1/8	1		3	69	A4	4	689
44	44	175	1.0	3/4	3/4	2/2	1	1	1/4	1/4	1		3	57	A3	3	688
44	44	175	0.5	3/4	3/4	2/2	2	1	1/8	1/8	1		4	64	E4	4	690
44	44	351/2	0.5	7/8	7/8	2/2	2	1	1/8	1/8	1		3	69	A4	4	691
45	45	176	1.0	0	0	2/2	3	1	1/4	1/4	1		2	62	D4	4	709
45	45	176	1.0	0	0	2/2	4	1	1/4	1/4	1		2	62	D4	4	713
45	45	176	0.5	0	0	2/2	2	1	1/8	1/8	1		6	66	F#4	4	701
45	45	353/2	0.5	1/8	1/8	2/2	2	1	1/8	1/8	1		3	69	A4	4	702
45	45	177	1.0	1/4	1/4	2/2	3	1	1/4	1/4	1		7	61	C#4	4	710
45	45	177	1.0	1/4	1/4	2/2	4	1	1/4	1/4	1		7	61	C#4	4	714
45	45	177	0.5	1/4	1/4	2/2	2	1	1/8	1/8	1		4	64	E4	4	703
45	45	355/2	0.5	3/8	3/8	2/2	2	1	1/8	1/8	1		3	69	A4	4	704
45	45	178	1.0	1/2	1/2	2/2	3	1	1/4	1/4	1		2	62	D4	4	711
45	45	178	1.0	1/2	1/2	2/2	4	1	1/4	1/4	1		2	62	D4	4	715
45	45	178	0.5	1/2	1/2	2/2	2	1	1/8	1/8	1		6	66	F#4	4	705
45	45	357/2	0.5	5/8	5/8	2/2	2	1	1/8	1/8	1		6	78	F#5	5	706
45	45	357/2	0.5	5/8	5/8	2/2	1	1	1/8	1/8	1		3	81	A5	5	698
45	45	179	1.0	3/4	3/4	2/2	3	1	1/4	1/4	1		2	50	D3	3	712
45	45	179	1.0	3/4	3/4	2/2	4	1	1/4	1/4	1		2	50	D3	3	716
45	45	179	0.5	3/4	3/4	2/2	2	1	1/8	1/8	1		4	76	E5	5	707
45	45	179	0.5	3/4	3/4	2/2	1	1	1/8	1/8	1		1	79	G5	5	699
45	45	359/2	0.5	7/8	7/8	2/2	2	1	1/8	1/8	1		2	74	D5	5	708
45	45	359/2	0.5	7/8	7/8	2/2	1	1	1/8	1/8	1		6	78	F#5	5	700
46	46	180	2.0	0	0	2/2	3	1	1/2	1/2	1		4	52	E3	3	729
46	46	180	2.0	0	0	2/2	4	1	1/2	1/2	1		4	52	E3	3	732
46	46	180	0.5	0	0	2/2	2	1	1/8	1/8	1		7	73	C#5	5	722
46	46	180	0.5	0	0	2/2	1	1	1/8	1/8	1		4	76	E5	5	717
46	46	361/2	0.5	1/8	1/8	2/2	2	1	1/8	1/8	1		2	74	D5	5	723
46	46	361/2	0.5	1/8	1/8	2/2	1	1	1/8	1/8	1		6	78	F#5	5	718
46	46	181	0.5	1/4	1/4	2/2	2	1	1/8	1/8	1		7	73	C#5	5	724
46	46	181	0.5	1/4	1/4	2/2	1	1	1/8	1/8	1		4	76	E5	5	719
46	46	363/2	0.5	3/8	3/8	2/2	2	1	1/8	1/8	1		5	71	B4	4	725
46	46	363/2	0.5	3/8	3/8	2/2	1	1	1/8	1/8	1		2	74	D5	5	720
46	46	182	1.0	1/2	1/2	2/2	3	1	1/4	1/4	1		6	54	F#3	3	730
46	46	182	1.0	1/2	1/2	2/2	4	1	1/4	1/4	1		6	54	F#3	3	733
46	46	182	0.5	1/2	1/2	2/2	2	1	1/8	1/8	1		10	70	A#4	4	726
46	46	182	1.0	1/2	1/2	2/2	1	1	1/4	1/4	1		7	73	C#5	5	721
46	46	365/2	0.5	5/8	5/8	2/2	2	1	1/8	1/8	1		6	66	F#4	4	727
46	46	183	1.0	3/4	3/4	2/2	3	1	1/4	1/4	1		2	50	D3	3	731
46	46	183	1.0	3/4	3/4	2/2	4	1	1/4	1/4	1		2	50	D3	3	734
46	46	183	1.0	3/4	3/4	2/2	2	1	1/4	1/4	1	1	6	78	F#5	5	728
47	47	184	2.0	0	0	2/2	3	1	1/2	1/2	1		4	52	E3	3	741
47	47	184	2.0	0	0	2/2	4	1	1/2	1/2	1		4	52	E3	3	744
47	47	184	1.0	0	0	2/2	2	1	1/4	1/4	1	-1	6	78	F#5	5	738
47	47	184	2.0	0	0	2/2	1	1	1/2	1/2	1		1	79	G5	5	735
47	47	185	2.0	1/4	1/4	2/2	2	1	1/2	1/2	1		4	76	E5	5	739
47	47	186	1.0	1/2	1/2	2/2	3	1	1/4	1/4	1		6	54	F#3	3	742
47	47	186	1.0	1/2	1/2	2/2	4	1	1/4	1/4	1		6	54	F#3	3	745
47	47	186	1.0	1/2	1/2	2/2	1	1	1/4	1/4	1		10	70	A#4	4	736
47	47	187	1.0	3/4	3/4	2/2	3	1	1/4	1/4	1		5	47	B2	2	743
47	47	187	1.0	3/4	3/4	2/2	4	1	1/4	1/4	1		5	47	B2	2	746
47	47	187	1.0	3/4	3/4	2/2	1	1	1/4	1/4	1	1	5	71	B4	4	737
47	47	187	1.0	3/4	3/4	2/2	2	1	1/4	1/4	1		2	74	D5	5	740
48	48	188	2.0	0	0	2/2	3	1	1/2	1/2	1		6	54	F#3	3	753
48	48	188	2.0	0	0	2/2	4	1	1/2	1/2	1		6	54	F#3	3	756
48	48	188	1.0	0	0	2/2	1	1	1/4	1/4	1	-1	5	71	B4	4	747
48	48	188	2.0	0	0	2/2	2	1	1/2	1/2	1		7	73	C#5	5	751
48	48	189	1.0	1/4	1/4	2/2	1	1	1/4	1/4	1		10	70	A#4	4	748
48	48	190	1.0	1/2	1/2	2/2	3	1	1/4	1/4	1		5	47	B2	2	754
48	48	190	1.0	1/2	1/2	2/2	4	1	1/4	1/4	1		5	47	B2	2	757
48	48	190	1.0	1/2	1/2	2/2	1	1	1/4	1/4	1		5	71	B4	4	749
48	48	190	1.0	1/2	1/2	2/2	2	1	1/4	1/4	1		5	71	B4	4	752
48	48	191	1.0	3/4	3/4	2/2	3	1	1/4	1/4	1		2	50	D3	3	755
48	48	191	1.0	3/4	3/4	2/2	4	1	1/4	1/4	1		2	50	D3	3	758
48	48	191	1.0	3/4	3/4	2/2	1	1	1/4	1/4	1	1	6	78	F#5	5	750
49	49	192	2.0	0	0	2/2	3	1	1/2	1/2	1		4	52	E3	3	765
49	49	192	2.0	0	0	2/2	4	1	1/2	1/2	1		4	52	E3	3	767
49	49	192	1.0	0	0	2/2	1	1	1/4	1/4	1	-1	6	78	F#5	5	759
49	49	192	2.0	0	0	2/2	2	1	1/2	1/2	1		1	79	G5	5	762
49	49	193	2.0	1/4	1/4	2/2	1	1	1/2	1/2	1		4	76	E5	5	760
49	49	194	2.0	1/2	1/2	2/2	3	1	1/2	1/2	1		6	54	F#3	3	766
49	49	194	2.0	1/2	1/2	2/2	4	1	1/2	1/2	1		6	54	F#3	3	768
49	49	194	1.0	1/2	1/2	2/2	2	1	1/4	1/4	1		10	70	A#4	4	763
49	49	195	1.0	3/4	3/4	2/2	2	1	1/4	1/4	1	1	5	71	B4	4	764
49	49	195	1.0	3/4	3/4	2/2	1	1	1/4	1/4	1		2	74	D5	5	761
50	50	196	2.0	0	0	2/2	3	1	1/2	1/2	1		6	42	F#2	2	774
50	50	196	2.0	0	0	2/2	4	1	1/2	1/2	1		6	42	F#2	2	776
50	50	196	1.0	0	0	2/2	2	1	1/4	1/4	1	-1	5	71	B4	4	771
50	50	196	2.0	0	0	2/2	1	1	1/2	1/2	1		7	73	C#5	5	769
50	50	197	1.0	1/4	1/4	2/2	2	1	1/4	1/4	1		10	70	A#4	4	772
50	50	198	2.0	1/2	1/2	2/2	3	1	1/2	1/2	1		5	47	B2	2	775
50	50	198	2.0	1/2	1/2	2/2	4	1	1/2	1/2	1		5	47	B2	2	777
50	50	198	2.0	1/2	1/2	2/2	1	1	1/2	1/2	1		5	71	B4	4	770
50	50	198	2.0	1/2	1/2	2/2	2	1	1/2	1/2	1		5	71	B4	4	773
