mc	mn	quarterbeats	duration_qb	mc_onset	mn_onset	timesig	staff	voice	duration	nominal_duration	scalar	tied	tpc	midi	name	octave	chord_id
1	1	0	1.0	0	0	4/4	3	1	1/4	1/4	1		-2	58	Bb3	3	6
1	1	0	1.0	0	0	4/4	4	1	1/4	1/4	1		-2	58	Bb3	3	10
1	1	1/2	0.5	1/8	1/8	4/4	1	1	1/8	1/8	1		2	74	D5	5	0
1	1	1	1.0	1/4	1/4	4/4	3	1	1/4	1/4	1		3	57	A3	3	7
1	1	1	1.0	1/4	1/4	4/4	4	1	1/4	1/4	1		3	57	A3	3	11
1	1	1	0.5	1/4	1/4	4/4	1	1	1/8	1/8	1		0	72	C5	5	1
1	1	3/2	0.5	3/8	3/8	4/4	1	1	1/8	1/8	1		-1	77	F5	5	2
1	1	2	1.0	1/2	1/2	4/4	3	1	1/4	1/4	1		1	55	G3	3	8
1	1	2	1.0	1/2	1/2	4/4	4	1	1/4	1/4	1		1	55	G3	3	12
1	1	5/2	0.5	5/8	5/8	4/4	1	1	1/8	1/8	1		-2	82	Bb5	5	3
1	1	3	1.0	3/4	3/4	4/4	3	1	1/4	1/4	1		-1	53	F3	3	9
1	1	3	1.0	3/4	3/4	4/4	4	1	1/4	1/4	1		-1	53	F3	3	13
1	1	3	0.5	3/4	3/4	4/4	1	1	1/8	1/8	1		3	81	A5	5	4
1	1	7/2	0.5	7/8	7/8	4/4	1	1	1/8	1/8	1		2	86	D6	6	5
2	2	4	1.0	0	0	4/4	3	1	1/4	1/4	1		-3	51	Eb3	3	23
2	2	4	1.0	0	0	4/4	4	1	1/4	1/4	1		-3	51	Eb3	3	27
2	2	9/2	0.5	1/8	1/8	4/4	1	1	1/8	1/8	1		1	79	G5	5	14
2	2	5	1.0	1/4	1/4	4/4	3	1	1/4	1/4	1		2	50	D3	3	24
2	2	5	1.0	1/4	1/4	4/4	4	1	1/4	1/4	1		2	50	D3	3	28
2	2	5	0.5	1/4	1/4	4/4	1	1	1/8	1/8	1		-1	77	F5	5	15
2	2	11/2	0.5	3/8	3/8	4/4	1	1	1/8	1/8	1		-2	82	Bb5	5	16
2	2	6	1.0	1/2	1/2	4/4	3	1	1/4	1/4	1		-3	51	Eb3	3	25
2	2	6	1.0	1/2	1/2	4/4	4	1	1/4	1/4	1		-3	51	Eb3	3	29
2	2	6	0.25	1/2	1/2	4/4	1	1	1/16	1/16	1		1	79	G5	5	17
2	2	25/4	0.25	9/16	9/16	4/4	1	1	1/16	1/16	1		-1	77	F5	5	18
2	2	13/2	0.25	5/8	5/8	4/4	1	1	1/16	1/16	1		-3	75	Eb5	5	19
2	2	27/4	0.25	11/16	11/16	4/4	1	1	1/16	1/16	1		2	74	D5	5	20
2	2	7	1.0	3/4	3/4	4/4	3	1	1/4	1/4	1		-1	53	F3	3	26
2	2	7	1.0	3/4	3/4	4/4	4	1	1/4	1/4	1		-1	53	F3	3	30
2	2	7	0.75	3/4	3/4	4/4	1	1	3/16	1/8	3/2		0	72	C5	5	21
2	2	31/4	0.25	15/16	15/16	4/4	1	1	1/16	1/16	1		-2	70	Bb4	4	22
3	3	8	1.0	0	0	4/4	3	1	1/4	1/4	1		-2	58	Bb3	3	42
3	3	8	1.0	0	0	4/4	4	1	1/4	1/4	1		-2	58	Bb3	3	46
3	3	8	1.0	0	0	4/4	1	1	1/4	1/4	1		-2	70	Bb4	4	31
3	3	17/2	0.5	1/8	1/8	4/4	2	1	1/8	1/8	1		2	74	D5	5	36
3	3	9	1.0	1/4	1/4	4/4	3	1	1/4	1/4	1		3	57	A3	3	43
3	3	9	1.0	1/4	1/4	4/4	4	1	1/4	1/4	1		3	57	A3	3	47
3	3	9	0.5	1/4	1/4	4/4	2	1	1/8	1/8	1		0	72	C5	5	37
3	3	19/2	0.5	3/8	3/8	4/4	1	1	1/8	1/8	1		0	72	C5	5	32
3	3	19/2	0.5	3/8	3/8	4/4	2	1	1/8	1/8	1		-1	77	F5	5	38
3	3	10	1.0	1/2	1/2	4/4	3	1	1/4	1/4	1		1	55	G3	3	44
3	3	10	1.0	1/2	1/2	4/4	4	1	1/4	1/4	1		1	55	G3	3	48
3	3	10	0.5	1/2	1/2	4/4	1	1	1/8	1/8	1		-2	70	Bb4	4	33
3	3	21/2	0.5	5/8	5/8	4/4	1	1	1/8	1/8	1		-3	75	Eb5	5	34
3	3	21/2	0.5	5/8	5/8	4/4	2	1	1/8	1/8	1		-2	82	Bb5	5	39
3	3	11	1.0	3/4	3/4	4/4	3	1	1/4	1/4	1		-1	53	F3	3	45
3	3	11	1.0	3/4	3/4	4/4	4	1	1/4	1/4	1		-1	53	F3	3	49
3	3	11	0.5	3/4	3/4	4/4	2	1	1/8	1/8	1		3	81	A5	5	40
3	3	23/2	0.5	7/8	7/8	4/4	1	1	1/8	1/8	1		3	69	A4	4	35
3	3	23/2	0.5	7/8	7/8	4/4	2	1	1/8	1/8	1		2	86	D6	6	41
4	4	12	1.0	0	0	4/4	3	1	1/4	1/4	1		-3	51	Eb3	3	65
4	4	12	1.0	0	0	4/4	4	1	1/4	1/4	1		-3	51	Eb3	3	69
4	4	12	0.5	0	0	4/4	1	1	1/8	1/8	1		1	67	G4	4	50
4	4	25/2	0.5	1/8	1/8	4/4	1	1	1/8	1/8	1		0	72	C5	5	51
4	4	25/2	0.5	1/8	1/8	4/4	2	1	1/8	1/8	1		1	79	G5	5	56
4	4	13	1.0	1/4	1/4	4/4	3	1	1/4	1/4	1		2	50	D3	3	66
4	4	13	1.0	1/4	1/4	4/4	4	1	1/4	1/4	1		2	50	D3	3	70
4	4	13	0.5	1/4	1/4	4/4	2	1	1/8	1/8	1		-1	77	F5	5	57
4	4	27/2	0.5	3/8	3/8	4/4	1	1	1/8	1/8	1		-1	77	F5	5	52
4	4	27/2	0.5	3/8	3/8	4/4	2	1	1/8	1/8	1		-2	82	Bb5	5	58
4	4	14	1.0	1/2	1/2	4/4	3	1	1/4	1/4	1		-3	51	Eb3	3	67
4	4	14	1.0	1/2	1/2	4/4	4	1	1/4	1/4	1		-3	51	Eb3	3	71
4	4	14	0.25	1/2	1/2	4/4	2	1	1/16	1/16	1		1	79	G5	5	59
4	4	14	0.5	1/2	1/2	4/4	1	1	1/8	1/8	1		1	79	G5	5	53
4	4	57/4	0.25	9/16	9/16	4/4	2	1	1/16	1/16	1		-1	77	F5	5	60
4	4	29/2	0.25	5/8	5/8	4/4	2	1	1/16	1/16	1		-3	75	Eb5	5	61
4	4	29/2	0.5	5/8	5/8	4/4	1	1	1/8	1/8	1		-2	82	Bb5	5	54
4	4	59/4	0.25	11/16	11/16	4/4	2	1	1/16	1/16	1		2	74	D5	5	62
4	4	15	1.0	3/4	3/4	4/4	3	1	1/4	1/4	1		-1	53	F3	3	68
4	4	15	1.0	3/4	3/4	4/4	4	1	1/4	1/4	1		-1	53	F3	3	72
4	4	15	0.75	3/4	3/4	4/4	2	1	3/16	1/8	3/2		0	72	C5	5	63
4	4	31/2	0.5	7/8	7/8	4/4	1	1	1/8	1/8	1		3	81	A5	5	55
4	4	63/4	0.25	15/16	15/16	4/4	2	1	1/16	1/16	1		-1	77	F5	5	64
5	5	16	1.0	0	0	4/4	3	1	1/4	1/4	1		-2	58	Bb3	3	86
5	5	16	1.0	0	0	4/4	4	1	1/4	1/4	1		-2	58	Bb3	3	90
5	5	16	0.5	0	0	4/4	2	1	1/8	1/8	1		2	74	D5	5	81
5	5	16	0.5	0	0	4/4	1	1	1/8	1/8	1		-2	82	Bb5	5	73
5	5	33/2	0.5	1/8	1/8	4/4	1	1	1/8	1/8	1		1	79	G5	5	74
5	5	33/2	1.0	1/8	1/8	4/4	2	1	1/4	1/4	1		-2	82	Bb5	5	82
5	5	17	1.0	1/4	1/4	4/4	3	1	1/4	1/4	1		-1	53	F3	3	87
5	5	17	1.0	1/4	1/4	4/4	4	1	1/4	1/4	1		-1	53	F3	3	91
5	5	17	0.5	1/4	1/4	4/4	1	1	1/8	1/8	1		0	72	C5	5	75
5	5	35/2	0.5	3/8	3/8	4/4	1	1	1/8	1/8	1		-1	77	F5	5	76
5	5	35/2	1.0	3/8	3/8	4/4	2	1	1/4	1/4	1		3	81	A5	5	83
5	5	18	1.0	1/2	1/2	4/4	3	1	1/4	1/4	1		1	55	G3	3	88
5	5	18	1.0	1/2	1/2	4/4	4	1	1/4	1/4	1		1	55	G3	3	92
5	5	18	0.5	1/2	1/2	4/4	1	1	1/8	1/8	1		-2	70	Bb4	4	77
5	5	37/2	0.5	5/8	5/8	4/4	1	1	1/8	1/8	1		-3	75	Eb5	5	78
5	5	37/2	1.0	5/8	5/8	4/4	2	1	1/4	1/4	1		1	79	G5	5	84
5	5	19	1.0	3/4	3/4	4/4	3	1	1/4	1/4	1		2	50	D3	3	89
5	5	19	1.0	3/4	3/4	4/4	4	1	1/4	1/4	1		2	50	D3	3	93
5	5	19	0.5	3/4	3/4	4/4	1	1	1/8	1/8	1		3	69	A4	4	79
5	5	39/2	0.5	7/8	7/8	4/4	1	1	1/8	1/8	1		2	74	D5	5	80
5	5	39/2	0.5	7/8	7/8	4/4	2	1	1/8	1/8	1	1	-1	77	F5	5	85
6	6	20	1.0	0	0	4/4	3	1	1/4	1/4	1		-3	51	Eb3	3	112
6	6	20	1.0	0	0	4/4	4	1	1/4	1/4	1		-3	51	Eb3	3	116
6	6	20	0.5	0	0	4/4	1	1	1/8	1/8	1		1	67	G4	4	94
6	6	20	0.5	0	0	4/4	2	1	1/8	1/8	1	-1	-1	77	F5	5	104
6	6	41/2	0.5	1/8	1/8	4/4	1	1	1/8	1/8	1		0	72	C5	5	95
6	6	41/2	1.0	1/8	1/8	4/4	2	1	1/4	1/4	1		-3	75	Eb5	5	105
6	6	21	1.0	1/4	1/4	4/4	3	1	1/4	1/4	1		-2	46	Bb2	2	113
6	6	21	1.0	1/4	1/4	4/4	4	1	1/4	1/4	1		-2	46	Bb2	2	117
6	6	21	0.5	1/4	1/4	4/4	1	1	1/8	1/8	1		-1	65	F4	4	96
6	6	43/2	0.5	3/8	3/8	4/4	1	1	1/8	1/8	1		-2	70	Bb4	4	97
6	6	43/2	0.5	3/8	3/8	4/4	2	1	1/8	1/8	1		2	74	D5	5	106
6	6	22	1.0	1/2	1/2	4/4	3	1	1/4	1/4	1		-3	51	Eb3	3	114
6	6	22	1.0	1/2	1/2	4/4	4	1	1/4	1/4	1		-3	51	Eb3	3	118
6	6	22	0.25	1/2	1/2	4/4	2	1	1/16	1/16	1		1	67	G4	4	107
6	6	22	0.25	1/2	1/2	4/4	1	1	1/16	1/16	1		1	79	G5	5	98
6	6	89/4	0.25	9/16	9/16	4/4	2	1	1/16	1/16	1		3	69	A4	4	108
6	6	89/4	0.25	9/16	9/16	4/4	1	1	1/16	1/16	1		-1	77	F5	5	99
6	6	45/2	0.5	5/8	5/8	4/4	2	1	1/8	1/8	1		-2	70	Bb4	4	109
6	6	45/2	0.25	5/8	5/8	4/4	1	1	1/16	1/16	1		-3	75	Eb5	5	100
6	6	91/4	0.25	11/16	11/16	4/4	1	1	1/16	1/16	1		2	74	D5	5	101
6	6	23	1.0	3/4	3/4	4/4	3	1	1/4	1/4	1		-1	53	F3	3	115
6	6	23	1.0	3/4	3/4	4/4	4	1	1/4	1/4	1		-1	53	F3	3	119
6	6	23	0.75	3/4	3/4	4/4	2	1	3/16	1/8	3/2		-2	70	Bb4	4	110
6	6	23	0.75	3/4	3/4	4/4	1	1	3/16	1/8	3/2		0	72	C5	5	102
6	6	95/4	0.25	15/16	15/16	4/4	2	1	1/16	1/16	1		3	69	A4	4	111
6	6	95/4	0.25	15/16	15/16	4/4	1	1	1/16	1/16	1		0	72	C5	5	103
7	7	24	1.0	0	0	4/4	3	1	1/4	1/4	1		-2	58	Bb3	3	132
7	7	24	1.0	0	0	4/4	4	1	1/4	1/4	1		-2	58	Bb3	3	137
7	7	24	0.5	0	0	4/4	2	1	1/8	1/8	1		-2	70	Bb4	4	126
7	7	24	0.5	0	0	4/4	1	1	1/8	1/8	1		2	74	D5	5	120
7	7	49/2	0.5	1/8	1/8	4/4	2	1	1/8	1/8	1		2	74	D5	5	127
7	7	49/2	1.0	1/8	1/8	4/4	1	1	1/4	1/4	1		1	79	G5	5	121
7	7	25	1.0	1/4	1/4	4/4	3	1	1/4	1/4	1		3	57	A3	3	133
7	7	25	1.0	1/4	1/4	4/4	4	1	1/4	1/4	1		3	57	A3	3	138
7	7	25	1.0	1/4	1/4	4/4	2	1	1/4	1/4	1		0	72	C5	5	128
7	7	51/2	0.5	3/8	3/8	4/4	1	1	1/8	1/8	1		6	78	F#5	5	122
7	7	26	0.5	1/2	1/2	4/4	3	1	1/8	1/8	1		1	55	G3	3	134
7	7	26	0.5	1/2	1/2	4/4	4	1	1/8	1/8	1		1	55	G3	3	139
7	7	26	0.5	1/2	1/2	4/4	2	1	1/8	1/8	1		-2	70	Bb4	4	129
7	7	26	0.5	1/2	1/2	4/4	1	1	1/8	1/8	1		1	79	G5	5	123
7	7	53/2	0.5	5/8	5/8	4/4	3	1	1/8	1/8	1		-1	53	F3	3	135
7	7	53/2	0.5	5/8	5/8	4/4	4	1	1/8	1/8	1		-1	53	F3	3	140
7	7	53/2	0.5	5/8	5/8	4/4	2	1	1/8	1/8	1		3	69	A4	4	130
7	7	53/2	1.0	5/8	5/8	4/4	1	1	1/4	1/4	1		2	74	D5	5	124
7	7	27	1.0	3/4	3/4	4/4	3	1	1/4	1/4	1		-3	51	Eb3	3	136
7	7	27	1.0	3/4	3/4	4/4	4	1	1/4	1/4	1		-3	51	Eb3	3	141
7	7	27	1.0	3/4	3/4	4/4	2	1	1/4	1/4	1		1	67	G4	4	131
7	7	55/2	0.5	7/8	7/8	4/4	1	1	1/8	1/8	1		0	72	C5	5	125
8	8	28	0.5	0	0	4/4	3	1	1/8	1/8	1		2	50	D3	3	154
8	8	28	0.5	0	0	4/4	4	1	1/8	1/8	1		2	50	D3	3	162
8	8	28	0.5	0	0	4/4	2	1	1/8	1/8	1		6	66	F#4	4	147
8	8	28	0.5	0	0	4/4	1	1	1/8	1/8	1		2	74	D5	5	142
8	8	57/2	0.5	1/8	1/8	4/4	3	1	1/8	1/8	1		2	62	D4	4	155
8	8	57/2	0.5	1/8	1/8	4/4	4	1	1/8	1/8	1		2	62	D4	4	163
8	8	57/2	0.5	1/8	1/8	4/4	2	1	1/8	1/8	1		6	78	F#5	5	148
8	8	57/2	1.0	1/8	1/8	4/4	1	1	1/4	1/4	1		2	86	D6	6	143
8	8	29	0.5	1/4	1/4	4/4	3	1	1/8	1/8	1		-3	63	Eb4	4	156
8	8	29	0.5	1/4	1/4	4/4	4	1	1/8	1/8	1		-3	63	Eb4	4	164
8	8	29	0.5	1/4	1/4	4/4	2	1	1/8	1/8	1		1	79	G5	5	149
8	8	59/2	0.5	3/8	3/8	4/4	3	1	1/8	1/8	1		0	60	C4	4	157
8	8	59/2	0.5	3/8	3/8	4/4	4	1	1/8	1/8	1		0	60	C4	4	165
8	8	59/2	0.5	3/8	3/8	4/4	2	1	1/8	1/8	1		3	81	A5	5	150
8	8	59/2	1.0	3/8	3/8	4/4	1	1	1/4	1/4	1		0	84	C6	6	144
8	8	30	0.5	1/2	1/2	4/4	3	1	1/8	1/8	1		6	54	F#3	3	158
8	8	30	0.5	1/2	1/2	4/4	4	1	1/8	1/8	1		6	54	F#3	3	166
8	8	30	0.5	1/2	1/2	4/4	2	1	1/8	1/8	1		2	74	D5	5	151
8	8	61/2	0.5	5/8	5/8	4/4	3	1	1/8	1/8	1		1	55	G3	3	159
8	8	61/2	0.5	5/8	5/8	4/4	4	1	1/8	1/8	1		1	55	G3	3	167
8	8	61/2	1.0	5/8	5/8	4/4	2	1	1/4	1/4	1		1	79	G5	5	152
8	8	61/2	0.5	5/8	5/8	4/4	1	1	1/8	1/8	1		-2	82	Bb5	5	145
8	8	31	0.5	3/4	3/4	4/4	3	1	1/8	1/8	1		0	48	C3	3	160
8	8	31	0.5	3/4	3/4	4/4	4	1	1/8	1/8	1		0	48	C3	3	168
8	8	31	1.0	3/4	3/4	4/4	1	1	1/4	1/4	1		3	81	A5	5	146
8	8	63/2	0.5	7/8	7/8	4/4	3	1	1/8	1/8	1		2	50	D3	3	161
8	8	63/2	0.5	7/8	7/8	4/4	4	1	1/8	1/8	1		2	50	D3	3	169
8	8	63/2	0.5	7/8	7/8	4/4	2	1	1/8	1/8	1		6	78	F#5	5	153
9	9	32	1.0	0	0	4/4	3	1	1/4	1/4	1		1	43	G2	2	183
9	9	32	1.0	0	0	4/4	4	1	1/4	1/4	1		1	43	G2	2	187
9	9	32	0.5	0	0	4/4	1	1	1/8	1/8	1		1	79	G5	5	170
9	9	32	0.5	0	0	4/4	2	1	1/8	1/8	1		1	79	G5	5	175
9	9	65/2	0.5	1/8	1/8	4/4	2	1	1/8	1/8	1		-3	75	Eb5	5	176
9	9	65/2	1.0	1/8	1/8	4/4	1	1	1/4	1/4	1		1	79	G5	5	171
9	9	33	1.0	1/4	1/4	4/4	3	1	1/4	1/4	1		2	50	D3	3	184
9	9	33	1.0	1/4	1/4	4/4	4	1	1/4	1/4	1		2	50	D3	3	188
9	9	33	0.5	1/4	1/4	4/4	2	1	1/8	1/8	1		3	69	A4	4	177
9	9	67/2	0.5	3/8	3/8	4/4	2	1	1/8	1/8	1		2	74	D5	5	178
9	9	67/2	1.0	3/8	3/8	4/4	1	1	1/4	1/4	1		-1	77	F5	5	172
9	9	34	1.0	1/2	1/2	4/4	3	1	1/4	1/4	1		-3	51	Eb3	3	185
9	9	34	1.0	1/2	1/2	4/4	4	1	1/4	1/4	1		-3	51	Eb3	3	189
9	9	34	0.5	1/2	1/2	4/4	2	1	1/8	1/8	1		1	67	G4	4	179
9	9	69/2	0.5	5/8	5/8	4/4	2	1	1/8	1/8	1		0	72	C5	5	180
9	9	69/2	1.0	5/8	5/8	4/4	1	1	1/4	1/4	1		-3	75	Eb5	5	173
9	9	35	1.0	3/4	3/4	4/4	3	1	1/4	1/4	1		-2	46	Bb2	2	186
9	9	35	1.0	3/4	3/4	4/4	4	1	1/4	1/4	1		-2	46	Bb2	2	190
9	9	35	0.5	3/4	3/4	4/4	2	1	1/8	1/8	1		-1	65	F4	4	181
9	9	71/2	0.5	7/8	7/8	4/4	1	1	1/8	1/8	1		2	74	D5	5	174
9	9	71/2	0.5	7/8	7/8	4/4	2	1	1/8	1/8	1		-1	77	F5	5	182
10	10	36	1.0	0	0	4/4	3	1	1/4	1/4	1		-3	51	Eb3	3	205
10	10	36	1.0	0	0	4/4	4	1	1/4	1/4	1		-3	51	Eb3	3	211
10	10	36	0.25	0	0	4/4	1	1	1/16	1/16	1		1	67	G4	4	191
10	10	36	0.5	0	0	4/4	2	1	1/8	1/8	1		-3	75	Eb5	5	198
10	10	145/4	0.25	1/16	1/16	4/4	1	1	1/16	1/16	1		3	69	A4	4	192
10	10	73/2	0.5	1/8	1/8	4/4	1	1	1/8	1/8	1		-2	70	Bb4	4	193
10	10	73/2	0.5	1/8	1/8	4/4	2	1	1/8	1/8	1		2	74	D5	5	199
10	10	37	1.0	1/4	1/4	4/4	3	1	1/4	1/4	1		-1	53	F3	3	206
10	10	37	1.0	1/4	1/4	4/4	4	1	1/4	1/4	1		-1	53	F3	3	212
10	10	37	0.75	1/4	1/4	4/4	1	1	3/16	1/8	3/2		-2	70	Bb4	4	194
10	10	37	1.0	1/4	1/4	4/4	2	1	1/4	1/4	1		0	72	C5	5	200
10	10	151/4	0.25	7/16	7/16	4/4	1	1	1/16	1/16	1		3	69	A4	4	195
10	10	38	0.5	1/2	1/2	4/4	3	1	1/8	1/8	1		-2	46	Bb2	2	207
10	10	38	0.5	1/2	1/2	4/4	4	1	1/8	1/8	1		-2	46	Bb2	2	213
10	10	38	0.5	1/2	1/2	4/4	2	1	1/8	1/8	1		-2	70	Bb4	4	201
10	10	38	1.0	1/2	1/2	4/4	1	1	1/4	1/4	1		-2	70	Bb4	4	196
10	10	77/2	0.5	5/8	5/8	4/4	3	1	1/8	1/8	1		-2	58	Bb3	3	208
10	10	77/2	0.5	5/8	5/8	4/4	4	1	1/8	1/8	1		-2	58	Bb3	3	214
10	10	77/2	0.5	5/8	5/8	4/4	2	1	1/8	1/8	1		2	74	D5	5	202
10	10	39	0.5	3/4	3/4	4/4	3	1	1/8	1/8	1		3	57	A3	3	209
10	10	39	0.5	3/4	3/4	4/4	4	1	1/8	1/8	1		3	57	A3	3	215
10	10	39	0.5	3/4	3/4	4/4	2	1	1/8	1/8	1		0	72	C5	5	203
10	10	79/2	0.5	7/8	7/8	4/4	3	1	1/8	1/8	1		-1	53	F3	3	210
10	10	79/2	0.5	7/8	7/8	4/4	4	1	1/8	1/8	1		-1	53	F3	3	216
10	10	79/2	0.5	7/8	7/8	4/4	2	1	1/8	1/8	1		3	69	A4	4	204
10	10	79/2	0.5	7/8	7/8	4/4	1	1	1/8	1/8	1		-1	77	F5	5	197
11	11	40	0.5	0	0	4/4	3	1	1/8	1/8	1		-2	58	Bb3	3	228
11	11	40	0.5	0	0	4/4	4	1	1/8	1/8	1		-2	58	Bb3	3	235
11	11	40	0.5	0	0	4/4	1	1	1/8	1/8	1		2	74	D5	5	217
11	11	81/2	0.5	1/8	1/8	4/4	3	1	1/8	1/8	1		-2	46	Bb2	2	229
11	11	81/2	0.5	1/8	1/8	4/4	4	1	1/8	1/8	1		-2	46	Bb2	2	236
11	11	81/2	0.5	1/8	1/8	4/4	1	1	1/8	1/8	1		-2	70	Bb4	4	218
11	11	81/2	0.5	1/8	1/8	4/4	2	1	1/8	1/8	1		2	74	D5	5	223
11	11	41	0.5	1/4	1/4	4/4	3	1	1/8	1/8	1		3	45	A2	2	230
11	11	41	0.5	1/4	1/4	4/4	4	1	1/8	1/8	1		3	45	A2	2	237
11	11	41	0.5	1/4	1/4	4/4	2	1	1/8	1/8	1		0	72	C5	5	224
11	11	83/2	0.5	3/8	3/8	4/4	3	1	1/8	1/8	1		-1	41	F2	2	231
11	11	83/2	0.5	3/8	3/8	4/4	4	1	1/8	1/8	1		-1	41	F2	2	238
11	11	83/2	0.5	3/8	3/8	4/4	2	1	1/8	1/8	1		3	69	A4	4	225
11	11	83/2	0.5	3/8	3/8	4/4	1	1	1/8	1/8	1		-1	77	F5	5	219
11	11	42	0.5	1/2	1/2	4/4	3	1	1/8	1/8	1		-2	46	Bb2	2	232
11	11	42	0.5	1/2	1/2	4/4	4	1	1/8	1/8	1		-2	46	Bb2	2	239
11	11	42	0.5	1/2	1/2	4/4	1	1	1/8	1/8	1		2	74	D5	5	220
11	11	85/2	0.5	5/8	5/8	4/4	3	1	1/8	1/8	1		3	45	A2	2	233
11	11	85/2	0.5	5/8	5/8	4/4	4	1	1/8	1/8	1		3	45	A2	2	240
11	11	85/2	1.0	5/8	5/8	4/4	1	1	1/4	1/4	1		-1	77	F5	5	221
11	11	85/2	0.5	5/8	5/8	4/4	2	1	1/8	1/8	1		0	84	C6	6	226
11	11	43	1.0	3/4	3/4	4/4	3	1	1/4	1/4	1		1	43	G2	2	234
11	11	43	1.0	3/4	3/4	4/4	4	1	1/4	1/4	1		1	43	G2	2	241
11	11	43	1.0	3/4	3/4	4/4	2	1	1/4	1/4	1		-2	82	Bb5	5	227
11	11	87/2	0.5	7/8	7/8	4/4	1	1	1/8	1/8	1		4	76	E5	5	222
12	12	44	0.5	0	0	4/4	3	1	1/8	1/8	1		-1	41	F2	2	252
12	12	44	0.5	0	0	4/4	4	1	1/8	1/8	1		-1	41	F2	2	260
12	12	44	0.5	0	0	4/4	1	1	1/8	1/8	1		-1	77	F5	5	242
12	12	44	0.5	0	0	4/4	2	1	1/8	1/8	1		3	81	A5	5	247
12	12	89/2	0.5	1/8	1/8	4/4	3	1	1/8	1/8	1		-1	53	F3	3	253
12	12	89/2	0.5	1/8	1/8	4/4	4	1	1/8	1/8	1		-1	53	F3	3	261
12	12	89/2	0.5	1/8	1/8	4/4	2	1	1/8	1/8	1		0	72	C5	5	248
12	12	89/2	1.0	1/8	1/8	4/4	1	1	1/4	1/4	1		3	81	A5	5	243
12	12	45	0.5	1/4	1/4	4/4	3	1	1/8	1/8	1		-2	46	Bb2	2	254
12	12	45	0.5	1/4	1/4	4/4	4	1	1/8	1/8	1		-2	46	Bb2	2	262
12	12	45	1.0	1/4	1/4	4/4	2	1	1/4	1/4	1		2	74	D5	5	249
12	12	91/2	0.5	3/8	3/8	4/4	3	1	1/8	1/8	1		-2	58	Bb3	3	255
12	12	91/2	0.5	3/8	3/8	4/4	4	1	1/8	1/8	1		-2	58	Bb3	3	263
12	12	91/2	1.0	3/8	3/8	4/4	1	1	1/4	1/4	1		1	79	G5	5	244
12	12	46	0.5	1/2	1/2	4/4	3	1	1/8	1/8	1		3	57	A3	3	256
12	12	46	0.5	1/2	1/2	4/4	4	1	1/8	1/8	1		3	57	A3	3	264
12	12	46	1.0	1/2	1/2	4/4	2	1	1/4	1/4	1		0	72	C5	5	250
12	12	93/2	0.5	5/8	5/8	4/4	3	1	1/8	1/8	1		2	62	D4	4	257
12	12	93/2	0.5	5/8	5/8	4/4	4	1	1/8	1/8	1		2	62	D4	4	265
12	12	93/2	1.0	5/8	5/8	4/4	1	1	1/4	1/4	1		-1	77	F5	5	245
12	12	47	0.5	3/4	3/4	4/4	3	1	1/8	1/8	1		1	55	G3	3	258
12	12	47	0.5	3/4	3/4	4/4	4	1	1/8	1/8	1		1	55	G3	3	266
12	12	47	1.0	3/4	3/4	4/4	2	1	1/4	1/4	1		-2	70	Bb4	4	251
12	12	95/2	0.5	7/8	7/8	4/4	3	1	1/8	1/8	1		0	60	C4	4	259
12	12	95/2	0.5	7/8	7/8	4/4	4	1	1/8	1/8	1		0	60	C4	4	267
12	12	95/2	0.5	7/8	7/8	4/4	1	1	1/8	1/8	1		4	76	E5	5	246
13	13	48	1.0	0	0	4/4	3	1	1/4	1/4	1		-1	53	F3	3	280
13	13	48	1.0	0	0	4/4	4	1	1/4	1/4	1		-1	53	F3	3	284
13	13	48	0.5	0	0	4/4	2	1	1/8	1/8	1		3	69	A4	4	273
13	13	48	1.0	0	0	4/4	1	1	1/4	1/4	1		-1	77	F5	5	268
13	13	97/2	0.5	1/8	1/8	4/4	2	1	1/8	1/8	1		3	81	A5	5	274
13	13	49	1.0	1/4	1/4	4/4	3	1	1/4	1/4	1		0	48	C3	3	281
13	13	49	1.0	1/4	1/4	4/4	4	1	1/4	1/4	1		0	48	C3	3	285
13	13	49	0.5	1/4	1/4	4/4	2	1	1/8	1/8	1		1	79	G5	5	275
13	13	99/2	0.5	3/8	3/8	4/4	1	1	1/8	1/8	1		1	79	G5	5	269
13	13	99/2	0.5	3/8	3/8	4/4	2	1	1/8	1/8	1		0	84	C6	6	276
13	13	50	1.0	1/2	1/2	4/4	3	1	1/4	1/4	1		2	50	D3	3	282
13	13	50	1.0	1/2	1/2	4/4	4	1	1/4	1/4	1		2	50	D3	3	286
13	13	50	0.5	1/2	1/2	4/4	1	1	1/8	1/8	1		-1	77	F5	5	270
13	13	101/2	0.5	5/8	5/8	4/4	2	1	1/8	1/8	1		-1	77	F5	5	277
13	13	101/2	0.5	5/8	5/8	4/4	1	1	1/8	1/8	1		-2	82	Bb5	5	271
13	13	51	1.0	3/4	3/4	4/4	3	1	1/4	1/4	1		3	45	A2	2	283
13	13	51	1.0	3/4	3/4	4/4	4	1	1/4	1/4	1		3	45	A2	2	287
13	13	51	0.5	3/4	3/4	4/4	2	1	1/8	1/8	1		4	76	E5	5	278
13	13	103/2	0.5	7/8	7/8	4/4	1	1	1/8	1/8	1		4	76	E5	5	272
13	13	103/2	0.5	7/8	7/8	4/4	2	1	1/8	1/8	1		3	81	A5	5	279
14	14	52	1.0	0	0	4/4	3	1	1/4	1/4	1		-2	46	Bb2	2	305
14	14	52	1.0	0	0	4/4	4	1	1/4	1/4	1		-2	46	Bb2	2	309
14	14	52	0.5	0	0	4/4	1	1	1/8	1/8	1		2	74	D5	5	288
14	14	105/2	0.5	1/8	1/8	4/4	2	1	1/8	1/8	1		2	74	D5	5	296
14	14	105/2	0.5	1/8	1/8	4/4	1	1	1/8	1/8	1		1	79	G5	5	289
14	14	53	1.0	1/4	1/4	4/4	3	1	1/4	1/4	1		-1	41	F2	2	306
14	14	53	1.0	1/4	1/4	4/4	4	1	1/4	1/4	1		-1	41	F2	2	310
14	14	53	0.5	1/4	1/4	4/4	2	1	1/8	1/8	1		0	72	C5	5	297
14	14	107/2	0.5	3/8	3/8	4/4	2	1	1/8	1/8	1		-1	77	F5	5	298
14	14	107/2	0.5	3/8	3/8	4/4	1	1	1/8	1/8	1		0	84	C6	6	290
14	14	54	1.0	1/2	1/2	4/4	3	1	1/4	1/4	1		-2	46	Bb2	2	307
14	14	54	1.0	1/2	1/2	4/4	4	1	1/4	1/4	1		-2	46	Bb2	2	311
14	14	54	0.25	1/2	1/2	4/4	1	1	1/16	1/16	1		2	74	D5	5	291
14	14	54	0.25	1/2	1/2	4/4	2	1	1/16	1/16	1		2	74	D5	5	299
14	14	217/4	0.25	9/16	9/16	4/4	2	1	1/16	1/16	1		0	72	C5	5	300
14	14	217/4	0.25	9/16	9/16	4/4	1	1	1/16	1/16	1		4	76	E5	5	292
14	14	109/2	0.25	5/8	5/8	4/4	2	1	1/16	1/16	1		-2	70	Bb4	4	301
14	14	109/2	0.5	5/8	5/8	4/4	1	1	1/8	1/8	1		-1	77	F5	5	293
14	14	219/4	0.25	11/16	11/16	4/4	2	1	1/16	1/16	1		3	69	A4	4	302
14	14	55	1.0	3/4	3/4	4/4	3	1	1/4	1/4	1		0	48	C3	3	308
14	14	55	1.0	3/4	3/4	4/4	4	1	1/4	1/4	1		0	48	C3	3	312
14	14	55	0.75	3/4	3/4	4/4	2	1	3/16	1/8	3/2		1	67	G4	4	303
14	14	55	0.75	3/4	3/4	4/4	1	1	3/16	1/8	3/2		-1	77	F5	5	294
14	14	223/4	0.25	15/16	15/16	4/4	2	1	1/16	1/16	1		0	72	C5	5	304
14	14	223/4	0.25	15/16	15/16	4/4	1	1	1/16	1/16	1		4	76	E5	5	295
15	15	56	1.0	0	0	4/4	3	1	1/4	1/4	1		-1	53	F3	3	326
15	15	56	1.0	0	0	4/4	4	1	1/4	1/4	1		-1	53	F3	3	330
15	15	56	0.5	0	0	4/4	2	1	1/8	1/8	1		3	69	A4	4	321
15	15	56	0.5	0	0	4/4	1	1	1/8	1/8	1		-1	77	F5	5	313
15	15	113/2	0.5	1/8	1/8	4/4	1	1	1/8	1/8	1		2	74	D5	5	314
15	15	113/2	1.0	1/8	1/8	4/4	2	1	1/4	1/4	1		-1	77	F5	5	322
15	15	57	1.0	1/4	1/4	4/4	3	1	1/4	1/4	1		0	48	C3	3	327
15	15	57	1.0	1/4	1/4	4/4	4	1	1/4	1/4	1		0	48	C3	3	331
15	15	57	0.5	1/4	1/4	4/4	1	1	1/8	1/8	1		1	67	G4	4	315
15	15	115/2	0.5	3/8	3/8	4/4	1	1	1/8	1/8	1		0	72	C5	5	316
15	15	115/2	1.0	3/8	3/8	4/4	2	1	1/4	1/4	1		4	76	E5	5	323
15	15	58	1.0	1/2	1/2	4/4	3	1	1/4	1/4	1		2	50	D3	3	328
15	15	58	1.0	1/2	1/2	4/4	4	1	1/4	1/4	1		2	50	D3	3	332
15	15	58	0.5	1/2	1/2	4/4	1	1	1/8	1/8	1		-1	65	F4	4	317
15	15	117/2	0.5	5/8	5/8	4/4	1	1	1/8	1/8	1		-2	70	Bb4	4	318
15	15	117/2	1.0	5/8	5/8	4/4	2	1	1/4	1/4	1		2	74	D5	5	324
15	15	59	1.0	3/4	3/4	4/4	3	1	1/4	1/4	1		3	45	A2	2	329
15	15	59	1.0	3/4	3/4	4/4	4	1	1/4	1/4	1		3	45	A2	2	333
15	15	59	0.5	3/4	3/4	4/4	1	1	1/8	1/8	1		4	64	E4	4	319
15	15	119/2	0.5	7/8	7/8	4/4	1	1	1/8	1/8	1		3	69	A4	4	320
15	15	119/2	0.5	7/8	7/8	4/4	2	1	1/8	1/8	1	1	0	72	C5	5	325
16	16	60	1.0	0	0	4/4	3	1	1/4	1/4	1		-2	46	Bb2	2	351
16	16	60	1.0	0	0	4/4	4	1	1/4	1/4	1		-2	46	Bb2	2	355
16	16	60	0.5	0	0	4/4	1	1	1/8	1/8	1		2	62	D4	4	334
16	16	60	0.5	0	0	4/4	2	1	1/8	1/8	1	-1	0	72	C5	5	343
16	16	121/2	0.5	1/8	1/8	4/4	1	1	1/8	1/8	1		1	67	G4	4	335
16	16	121/2	1.0	1/8	1/8	4/4	2	1	1/4	1/4	1		-2	70	Bb4	4	344
16	16	61	1.0	1/4	1/4	4/4	3	1	1/4	1/4	1		-1	41	F2	2	352
16	16	61	1.0	1/4	1/4	4/4	4	1	1/4	1/4	1		-1	41	F2	2	356
16	16	61	0.5	1/4	1/4	4/4	1	1	1/8	1/8	1		0	60	C4	4	336
16	16	123/2	0.5	3/8	3/8	4/4	2	1	1/8	1/8	1		3	69	A4	4	345
16	16	123/2	0.5	3/8	3/8	4/4	1	1	1/8	1/8	1		0	72	C5	5	337
16	16	62	1.0	1/2	1/2	4/4	3	1	1/4	1/4	1		-2	46	Bb2	2	353
16	16	62	1.0	1/2	1/2	4/4	4	1	1/4	1/4	1		-2	46	Bb2	2	357
16	16	62	0.25	1/2	1/2	4/4	2	1	1/16	1/16	1		2	62	D4	4	346
16	16	62	0.25	1/2	1/2	4/4	1	1	1/16	1/16	1		2	74	D5	5	338
16	16	249/4	0.25	9/16	9/16	4/4	2	1	1/16	1/16	1		4	64	E4	4	347
16	16	249/4	0.25	9/16	9/16	4/4	1	1	1/16	1/16	1		0	72	C5	5	339
16	16	125/2	0.5	5/8	5/8	4/4	2	1	1/8	1/8	1		-1	65	F4	4	348
16	16	125/2	0.25	5/8	5/8	4/4	1	1	1/16	1/16	1		-2	70	Bb4	4	340
16	16	251/4	0.25	11/16	11/16	4/4	1	1	1/16	1/16	1		3	69	A4	4	341
16	16	63	1.0	3/4	3/4	4/4	3	1	1/4	1/4	1		0	48	C3	3	354
16	16	63	1.0	3/4	3/4	4/4	4	1	1/4	1/4	1		0	48	C3	3	358
16	16	63	0.75	3/4	3/4	4/4	2	1	3/16	1/8	3/2		-1	65	F4	4	349
16	16	63	1.0	3/4	3/4	4/4	1	1	1/4	1/4	1		1	67	G4	4	342
16	16	255/4	0.25	15/16	15/16	4/4	2	1	1/16	1/16	1		4	64	E4	4	350
17	17	64	0.5	0	0	4/4	3	1	1/8	1/8	1		-1	41	F2	2	371
17	17	64	0.5	0	0	4/4	4	1	1/8	1/8	1		-1	41	F2	2	376
17	17	64	0.5	0	0	4/4	1	1	1/8	1/8	1		-1	65	F4	4	359
17	17	64	1.0	0	0	4/4	2	1	1/4	1/4	1		-1	65	F4	4	366
17	17	129/2	0.5	1/8	1/8	4/4	3	1	1/8	1/8	1		-2	58	Bb3	3	372
17	17	129/2	0.5	1/8	1/8	4/4	4	1	1/8	1/8	1		-2	58	Bb3	3	377
17	17	129/2	0.5	1/8	1/8	4/4	1	1	1/8	1/8	1		2	74	D5	5	360
17	17	65	1.0	1/4	1/4	4/4	3	1	1/4	1/4	1		3	57	A3	3	373
17	17	65	1.0	1/4	1/4	4/4	4	1	1/4	1/4	1		3	57	A3	3	378
17	17	65	0.5	1/4	1/4	4/4	1	1	1/8	1/8	1		0	72	C5	5	361
17	17	131/2	0.5	3/8	3/8	4/4	2	1	1/8	1/8	1		0	72	C5	5	367
17	17	131/2	0.5	3/8	3/8	4/4	1	1	1/8	1/8	1		-1	77	F5	5	362
17	17	66	1.0	1/2	1/2	4/4	3	1	1/4	1/4	1		1	55	G3	3	374
17	17	66	1.0	1/2	1/2	4/4	4	1	1/4	1/4	1		1	55	G3	3	379
17	17	66	0.5	1/2	1/2	4/4	2	1	1/8	1/8	1		-2	70	Bb4	4	368
17	17	133/2	0.5	5/8	5/8	4/4	2	1	1/8	1/8	1		-3	75	Eb5	5	369
17	17	133/2	0.5	5/8	5/8	4/4	1	1	1/8	1/8	1		-2	82	Bb5	5	363
17	17	67	1.0	3/4	3/4	4/4	3	1	1/4	1/4	1		-1	53	F3	3	375
17	17	67	1.0	3/4	3/4	4/4	4	1	1/4	1/4	1		-1	53	F3	3	380
17	17	67	0.5	3/4	3/4	4/4	1	1	1/8	1/8	1		3	81	A5	5	364
17	17	135/2	0.5	7/8	7/8	4/4	2	1	1/8	1/8	1		3	81	A5	5	370
17	17	135/2	0.5	7/8	7/8	4/4	1	1	1/8	1/8	1		2	86	D6	6	365
18	18	68	1.0	0	0	4/4	3	1	1/4	1/4	1		-3	51	Eb3	3	396
18	18	68	1.0	0	0	4/4	4	1	1/4	1/4	1		-3	51	Eb3	3	400
18	18	68	0.5	0	0	4/4	2	1	1/8	1/8	1		1	79	G5	5	390
18	18	137/2	0.5	1/8	1/8	4/4	1	1	1/8	1/8	1		1	79	G5	5	381
18	18	137/2	0.5	1/8	1/8	4/4	2	1	1/8	1/8	1		0	84	C6	6	391
18	18	69	1.0	1/4	1/4	4/4	3	1	1/4	1/4	1		2	50	D3	3	397
18	18	69	1.0	1/4	1/4	4/4	4	1	1/4	1/4	1		2	50	D3	3	401
18	18	69	0.5	1/4	1/4	4/4	1	1	1/8	1/8	1		-1	77	F5	5	382
18	18	139/2	0.5	3/8	3/8	4/4	2	1	1/8	1/8	1		-1	77	F5	5	392
18	18	139/2	0.5	3/8	3/8	4/4	1	1	1/8	1/8	1		-2	82	Bb5	5	383
18	18	70	1.0	1/2	1/2	4/4	3	1	1/4	1/4	1		-3	51	Eb3	3	398
18	18	70	1.0	1/2	1/2	4/4	4	1	1/4	1/4	1		-3	51	Eb3	3	402
18	18	70	0.25	1/2	1/2	4/4	1	1	1/16	1/16	1		1	79	G5	5	384
18	18	70	0.5	1/2	1/2	4/4	2	1	1/8	1/8	1		1	79	G5	5	393
18	18	281/4	0.25	9/16	9/16	4/4	1	1	1/16	1/16	1		-1	77	F5	5	385
18	18	141/2	0.25	5/8	5/8	4/4	1	1	1/16	1/16	1		-3	75	Eb5	5	386
18	18	141/2	0.5	5/8	5/8	4/4	2	1	1/8	1/8	1		-2	82	Bb5	5	394
18	18	283/4	0.25	11/16	11/16	4/4	1	1	1/16	1/16	1		2	74	D5	5	387
18	18	71	1.0	3/4	3/4	4/4	3	1	1/4	1/4	1		-1	53	F3	3	399
18	18	71	1.0	3/4	3/4	4/4	4	1	1/4	1/4	1		-1	53	F3	3	403
18	18	71	0.75	3/4	3/4	4/4	1	1	3/16	1/8	3/2		0	72	C5	5	388
18	18	143/2	0.5	7/8	7/8	4/4	2	1	1/8	1/8	1		3	81	A5	5	395
18	18	287/4	0.25	15/16	15/16	4/4	1	1	1/16	1/16	1		0	72	C5	5	389
19	19	72	1.0	0	0	4/4	3	1	1/4	1/4	1		-2	58	Bb3	3	416
19	19	72	1.0	0	0	4/4	4	1	1/4	1/4	1		-2	58	Bb3	3	420
19	19	72	0.5	0	0	4/4	1	1	1/8	1/8	1		2	74	D5	5	404
19	19	72	1.0	0	0	4/4	2	1	1/4	1/4	1		-2	82	Bb5	5	411
19	19	145/2	0.5	1/8	1/8	4/4	1	1	1/8	1/8	1		1	79	G5	5	405
19	19	73	1.0	1/4	1/4	4/4	3	1	1/4	1/4	1		3	57	A3	3	417
19	19	73	1.0	1/4	1/4	4/4	4	1	1/4	1/4	1		3	57	A3	3	421
19	19	73	0.5	1/4	1/4	4/4	1	1	1/8	1/8	1		1	79	G5	5	406
19	19	147/2	0.5	3/8	3/8	4/4	2	1	1/8	1/8	1		0	72	C5	5	412
19	19	147/2	0.5	3/8	3/8	4/4	1	1	1/8	1/8	1		-1	77	F5	5	407
19	19	74	1.0	1/2	1/2	4/4	3	1	1/4	1/4	1		1	55	G3	3	418
19	19	74	1.0	1/2	1/2	4/4	4	1	1/4	1/4	1		1	55	G3	3	422
19	19	74	0.5	1/2	1/2	4/4	2	1	1/8	1/8	1		0	72	C5	5	413
19	19	149/2	0.5	5/8	5/8	4/4	2	1	1/8	1/8	1		-2	70	Bb4	4	414
19	19	149/2	0.5	5/8	5/8	4/4	1	1	1/8	1/8	1		-3	75	Eb5	5	408
19	19	75	1.0	3/4	3/4	4/4	3	1	1/4	1/4	1		-1	53	F3	3	419
19	19	75	1.0	3/4	3/4	4/4	4	1	1/4	1/4	1		-1	53	F3	3	423
19	19	75	0.5	3/4	3/4	4/4	1	1	1/8	1/8	1		-3	75	Eb5	5	409
19	19	151/2	0.5	7/8	7/8	4/4	2	1	1/8	1/8	1		3	69	A4	4	415
19	19	151/2	0.5	7/8	7/8	4/4	1	1	1/8	1/8	1		2	74	D5	5	410
20	20	76	1.0	0	0	4/4	3	1	1/4	1/4	1		-3	51	Eb3	3	441
20	20	76	1.0	0	0	4/4	4	1	1/4	1/4	1		-3	51	Eb3	3	445
20	20	76	0.5	0	0	4/4	2	1	1/8	1/8	1		3	69	A4	4	433
20	20	153/2	0.5	1/8	1/8	4/4	2	1	1/8	1/8	1		1	67	G4	4	434
20	20	153/2	0.5	1/8	1/8	4/4	1	1	1/8	1/8	1		0	72	C5	5	424
20	20	77	1.0	1/4	1/4	4/4	3	1	1/4	1/4	1		2	50	D3	3	442
20	20	77	1.0	1/4	1/4	4/4	4	1	1/4	1/4	1		2	50	D3	3	446
20	20	77	0.5	1/4	1/4	4/4	1	1	1/8	1/8	1		0	72	C5	5	425
20	20	155/2	0.5	3/8	3/8	4/4	1	1	1/8	1/8	1		-2	70	Bb4	4	426
20	20	155/2	0.5	3/8	3/8	4/4	2	1	1/8	1/8	1		2	74	D5	5	435
20	20	78	1.0	1/2	1/2	4/4	3	1	1/4	1/4	1		-3	51	Eb3	3	443
20	20	78	1.0	1/2	1/2	4/4	4	1	1/4	1/4	1		-3	51	Eb3	3	447
20	20	78	0.25	1/2	1/2	4/4	2	1	1/16	1/16	1		1	67	G4	4	436
20	20	78	0.25	1/2	1/2	4/4	1	1	1/16	1/16	1		1	79	G5	5	427
20	20	313/4	0.25	9/16	9/16	4/4	2	1	1/16	1/16	1		3	69	A4	4	437
20	20	313/4	0.25	9/16	9/16	4/4	1	1	1/16	1/16	1		-1	77	F5	5	428
20	20	157/2	0.5	5/8	5/8	4/4	2	1	1/8	1/8	1		-2	70	Bb4	4	438
20	20	157/2	0.25	5/8	5/8	4/4	1	1	1/16	1/16	1		-3	75	Eb5	5	429
20	20	315/4	0.25	11/16	11/16	4/4	1	1	1/16	1/16	1		2	74	D5	5	430
20	20	79	1.0	3/4	3/4	4/4	3	1	1/4	1/4	1		-1	53	F3	3	444
20	20	79	1.0	3/4	3/4	4/4	4	1	1/4	1/4	1		-1	53	F3	3	448
20	20	79	0.75	3/4	3/4	4/4	2	1	3/16	1/8	3/2		-2	70	Bb4	4	439
20	20	79	0.75	3/4	3/4	4/4	1	1	3/16	1/8	3/2		0	72	C5	5	431
20	20	319/4	0.25	15/16	15/16	4/4	2	1	1/16	1/16	1		3	69	A4	4	440
20	20	319/4	0.25	15/16	15/16	4/4	1	1	1/16	1/16	1		0	72	C5	5	432
21	21	80	1.0	0	0	4/4	3	1	1/4	1/4	1		-2	58	Bb3	3	458
21	21	80	1.0	0	0	4/4	4	1	1/4	1/4	1		-2	58	Bb3	3	462
21	21	80	1.5	0	0	4/4	2	1	3/8	1/4	3/2		-2	70	Bb4	4	454
21	21	80	0.5	0	0	4/4	1	1	1/8	1/8	1		2	74	D5	5	449
21	21	161/2	0.5	1/8	1/8	4/4	1	1	1/8	1/8	1		-1	77	F5	5	450
21	21	81	1.0	1/4	1/4	4/4	3	1	1/4	1/4	1		3	57	A3	3	459
21	21	81	1.0	1/4	1/4	4/4	4	1	1/4	1/4	1		3	57	A3	3	463
21	21	81	1.5	1/4	1/4	4/4	1	1	3/8	1/4	3/2		-2	70	Bb4	4	451
21	21	163/2	0.5	3/8	3/8	4/4	2	1	1/8	1/8	1		-1	77	F5	5	455
21	21	82	1.0	1/2	1/2	4/4	3	1	1/4	1/4	1		1	55	G3	3	460
21	21	82	1.0	1/2	1/2	4/4	4	1	1/4	1/4	1		1	55	G3	3	464
21	21	82	1.5	1/2	1/2	4/4	2	1	3/8	1/4	3/2		-2	70	Bb4	4	456
21	21	165/2	0.5	5/8	5/8	4/4	1	1	1/8	1/8	1		-1	77	F5	5	452
21	21	83	1.0	3/4	3/4	4/4	3	1	1/4	1/4	1		-1	53	F3	3	461
21	21	83	1.0	3/4	3/4	4/4	4	1	1/4	1/4	1		-1	53	F3	3	465
21	21	83	1.0	3/4	3/4	4/4	1	1	1/4	1/4	1	1	-2	70	Bb4	4	453
21	21	167/2	0.5	7/8	7/8	4/4	2	1	1/8	1/8	1		-1	77	F5	5	457
22	22	84	1.0	0	0	4/4	3	1	1/4	1/4	1		-3	51	Eb3	3	482
22	22	84	1.0	0	0	4/4	4	1	1/4	1/4	1		-3	51	Eb3	3	486
22	22	84	0.5	0	0	4/4	1	1	1/8	1/8	1	-1	-2	70	Bb4	4	466
22	22	84	1.5	0	0	4/4	2	1	3/8	1/4	3/2		-2	70	Bb4	4	475
22	22	169/2	0.5	1/8	1/8	4/4	1	1	1/8	1/8	1		-1	77	F5	5	467
22	22	85	1.0	1/4	1/4	4/4	3	1	1/4	1/4	1		2	50	D3	3	483
22	22	85	1.0	1/4	1/4	4/4	4	1	1/4	1/4	1		2	50	D3	3	487
22	22	85	0.5	1/4	1/4	4/4	1	1	1/8	1/8	1		-2	70	Bb4	4	468
22	22	171/2	0.5	3/8	3/8	4/4	2	1	1/8	1/8	1		-1	77	F5	5	476
22	22	171/2	0.5	3/8	3/8	4/4	1	1	1/8	1/8	1		-2	82	Bb5	5	469
22	22	86	1.0	1/2	1/2	4/4	3	1	1/4	1/4	1		-3	51	Eb3	3	484
22	22	86	1.0	1/2	1/2	4/4	4	1	1/4	1/4	1		-3	51	Eb3	3	488
22	22	86	0.25	1/2	1/2	4/4	2	1	1/16	1/16	1		1	67	G4	4	477
22	22	86	0.25	1/2	1/2	4/4	1	1	1/16	1/16	1		1	79	G5	5	470
22	22	345/4	0.25	9/16	9/16	4/4	2	1	1/16	1/16	1		3	69	A4	4	478
22	22	345/4	0.25	9/16	9/16	4/4	1	1	1/16	1/16	1		-1	77	F5	5	471
22	22	173/2	0.5	5/8	5/8	4/4	2	1	1/8	1/8	1		-2	70	Bb4	4	479
22	22	173/2	0.25	5/8	5/8	4/4	1	1	1/16	1/16	1		-3	75	Eb5	5	472
22	22	347/4	0.25	11/16	11/16	4/4	1	1	1/16	1/16	1		2	74	D5	5	473
22	22	87	1.0	3/4	3/4	4/4	3	1	1/4	1/4	1		-1	53	F3	3	485
22	22	87	1.0	3/4	3/4	4/4	4	1	1/4	1/4	1		-1	53	F3	3	489
22	22	87	0.75	3/4	3/4	4/4	2	1	3/16	1/8	3/2		-2	70	Bb4	4	480
22	22	87	1.0	3/4	3/4	4/4	1	1	1/4	1/4	1		0	72	C5	5	474
22	22	351/4	0.25	15/16	15/16	4/4	2	1	1/16	1/16	1		3	69	A4	4	481
23	23	88	4.0	0	0	4/4	3	1	1	1	1		-2	46	Bb2	2	492
23	23	88	4.0	0	0	4/4	4	1	1	1	1		-2	46	Bb2	2	493
23	23	88	4.0	0	0	4/4	1	1	1	1	1		-2	70	Bb4	4	490
23	23	88	4.0	0	0	4/4	2	1	1	1	1		-2	70	Bb4	4	491
