mc	mn	quarterbeats	duration_qb	mc_onset	mn_onset	timesig	staff	voice	duration	nominal_duration	scalar	tied	tpc	midi	name	octave	chord_id
1	1	1/2	0.5	1/8	1/8	6/8	1	1	1/8	1/8	1		-1	65	F4	4	0
1	1	1	0.5	1/4	1/4	6/8	1	1	1/8	1/8	1		-1	65	F4	4	1
1	1	3/2	0.5	3/8	3/8	6/8	1	1	1/8	1/8	1		1	67	G4	4	2
1	1	2	0.5	1/2	1/2	6/8	1	1	1/8	1/8	1		1	67	G4	4	3
1	1	5/2	0.5	5/8	5/8	6/8	1	1	1/8	1/8	1		1	67	G4	4	4
2	2	3	0.5	0	0	6/8	1	1	1/8	1/8	1		3	69	A4	4	5
2	2	7/2	0.5	1/8	1/8	6/8	1	1	1/8	1/8	1		3	69	A4	4	6
2	2	4	0.5	1/4	1/4	6/8	1	1	1/8	1/8	1		3	69	A4	4	7
2	2	9/2	0.5	3/8	3/8	6/8	1	1	1/8	1/8	1		-2	70	Bb4	4	8
2	2	5	0.25	1/2	1/2	6/8	1	1	1/16	1/16	1		0	72	C5	5	9
2	2	21/4	0.25	9/16	9/16	6/8	1	1	1/16	1/16	1		-2	70	Bb4	4	10
2	2	11/2	0.25	5/8	5/8	6/8	1	1	1/16	1/16	1		3	69	A4	4	11
2	2	23/4	0.25	11/16	11/16	6/8	1	1	1/16	1/16	1		1	67	G4	4	12
3	3	6	0.5	0	0	6/8	1	1	1/8	1/8	1		-1	65	F4	4	13
3	3	13/2	0.5	1/8	1/8	6/8	2	1	1/8	1/8	1		-1	65	F4	4	18
3	3	13/2	1.5	1/8	1/8	6/8	1	1	3/8	1/4	3/2		-1	77	F5	5	14
3	3	7	0.5	1/4	1/4	6/8	2	1	1/8	1/8	1		-1	65	F4	4	19
3	3	15/2	0.5	3/8	3/8	6/8	2	1	1/8	1/8	1		1	67	G4	4	20
3	3	8	0.5	1/2	1/2	6/8	2	1	1/8	1/8	1		1	67	G4	4	21
3	3	8	0.25	1/2	1/2	6/8	1	1	1/16	1/16	1		1	79	G5	5	15
3	3	33/4	0.25	9/16	9/16	6/8	1	1	1/16	1/16	1		-1	77	F5	5	16
3	3	17/2	0.5	5/8	5/8	6/8	2	1	1/8	1/8	1		1	67	G4	4	22
3	3	17/2	0.5	5/8	5/8	6/8	1	1	1/8	1/8	1		4	76	E5	5	17
4	4	9	0.5	0	0	6/8	2	1	1/8	1/8	1		3	69	A4	4	31
4	4	9	0.5	0	0	6/8	1	1	1/8	1/8	1		-1	77	F5	5	23
4	4	19/2	0.5	1/8	1/8	6/8	2	1	1/8	1/8	1		3	69	A4	4	32
4	4	19/2	0.5	1/8	1/8	6/8	1	1	1/8	1/8	1		0	72	C5	5	24
4	4	10	0.5	1/4	1/4	6/8	2	1	1/8	1/8	1		3	69	A4	4	33
4	4	10	0.5	1/4	1/4	6/8	1	1	1/8	1/8	1		0	72	C5	5	25
4	4	21/2	0.5	3/8	3/8	6/8	2	1	1/8	1/8	1		-2	70	Bb4	4	34
4	4	21/2	0.5	3/8	3/8	6/8	1	1	1/8	1/8	1		2	74	D5	5	26
4	4	11	0.25	1/2	1/2	6/8	2	1	1/16	1/16	1		0	72	C5	5	35
4	4	11	0.25	1/2	1/2	6/8	1	1	1/16	1/16	1		-3	75	Eb5	5	27
4	4	45/4	0.25	9/16	9/16	6/8	2	1	1/16	1/16	1		-2	70	Bb4	4	36
4	4	45/4	0.25	9/16	9/16	6/8	1	1	1/16	1/16	1		2	74	D5	5	28
4	4	23/2	0.25	5/8	5/8	6/8	2	1	1/16	1/16	1		3	69	A4	4	37
4	4	23/2	0.25	5/8	5/8	6/8	1	1	1/16	1/16	1		0	72	C5	5	29
4	4	47/4	0.25	11/16	11/16	6/8	2	1	1/16	1/16	1		1	67	G4	4	38
4	4	47/4	0.25	11/16	11/16	6/8	1	1	1/16	1/16	1		-2	70	Bb4	4	30
5	5	12	0.5	0	0	6/8	2	1	1/8	1/8	1		-1	65	F4	4	44
5	5	12	0.5	0	0	6/8	1	1	1/8	1/8	1		3	69	A4	4	39
5	5	25/2	0.5	1/8	1/8	6/8	3	1	1/8	1/8	1		-1	53	F3	3	49
5	5	25/2	0.5	1/8	1/8	6/8	4	1	1/8	1/8	1		-1	53	F3	3	54
5	5	25/2	1.5	1/8	1/8	6/8	2	1	3/8	1/4	3/2		-1	77	F5	5	45
5	5	25/2	0.5	1/8	1/8	6/8	1	1	1/8	1/8	1		3	81	A5	5	40
5	5	13	0.5	1/4	1/4	6/8	3	1	1/8	1/8	1		-1	53	F3	3	50
5	5	13	0.5	1/4	1/4	6/8	4	1	1/8	1/8	1		-1	53	F3	3	55
5	5	13	0.5	1/4	1/4	6/8	1	1	1/8	1/8	1		3	81	A5	5	41
5	5	27/2	0.5	3/8	3/8	6/8	3	1	1/8	1/8	1		1	55	G3	3	51
5	5	27/2	0.5	3/8	3/8	6/8	4	1	1/8	1/8	1		1	55	G3	3	56
5	5	27/2	1.0	3/8	3/8	6/8	1	1	1/4	1/4	1		1	79	G5	5	42
5	5	14	0.5	1/2	1/2	6/8	3	1	1/8	1/8	1		1	55	G3	3	52
5	5	14	0.5	1/2	1/2	6/8	4	1	1/8	1/8	1		1	55	G3	3	57
5	5	14	0.25	1/2	1/2	6/8	2	1	1/16	1/16	1		1	79	G5	5	46
5	5	57/4	0.25	9/16	9/16	6/8	2	1	1/16	1/16	1		-1	77	F5	5	47
5	5	29/2	0.5	5/8	5/8	6/8	3	1	1/8	1/8	1		1	55	G3	3	53
5	5	29/2	0.5	5/8	5/8	6/8	4	1	1/8	1/8	1		1	55	G3	3	58
5	5	29/2	0.5	5/8	5/8	6/8	2	1	1/8	1/8	1		4	76	E5	5	48
5	5	29/2	0.5	5/8	5/8	6/8	1	1	1/8	1/8	1		1	79	G5	5	43
6	6	15	0.5	0	0	6/8	3	1	1/8	1/8	1		3	57	A3	3	66
6	6	15	0.5	0	0	6/8	4	1	1/8	1/8	1		3	57	A3	3	74
6	6	15	0.5	0	0	6/8	1	1	1/8	1/8	1		0	72	C5	5	59
6	6	15	1.0	0	0	6/8	2	1	1/4	1/4	1		-1	77	F5	5	62
6	6	31/2	0.5	1/8	1/8	6/8	3	1	1/8	1/8	1		3	57	A3	3	67
6	6	31/2	0.5	1/8	1/8	6/8	4	1	1/8	1/8	1		3	57	A3	3	75
6	6	31/2	1.5	1/8	1/8	6/8	1	1	3/8	1/4	3/2		-1	77	F5	5	60
6	6	16	0.5	1/4	1/4	6/8	3	1	1/8	1/8	1		3	57	A3	3	68
6	6	16	0.5	1/4	1/4	6/8	4	1	1/8	1/8	1		3	57	A3	3	76
6	6	16	0.5	1/4	1/4	6/8	2	1	1/8	1/8	1		0	84	C6	6	63
6	6	33/2	0.5	3/8	3/8	6/8	3	1	1/8	1/8	1		-2	58	Bb3	3	69
6	6	33/2	0.5	3/8	3/8	6/8	4	1	1/8	1/8	1		-2	58	Bb3	3	77
6	6	33/2	1.0	3/8	3/8	6/8	2	1	1/4	1/4	1		-2	82	Bb5	5	64
6	6	17	0.25	1/2	1/2	6/8	3	1	1/16	1/16	1		0	60	C4	4	70
6	6	17	0.5	1/2	1/2	6/8	4	1	1/8	1/8	1		0	60	C4	4	78
6	6	17	1.0	1/2	1/2	6/8	1	1	1/4	1/4	1		4	76	E5	5	61
6	6	69/4	0.25	9/16	9/16	6/8	3	1	1/16	1/16	1		-2	58	Bb3	3	71
6	6	35/2	0.5	5/8	5/8	6/8	4	1	1/8	1/8	1		0	48	C3	3	79
6	6	35/2	0.25	5/8	5/8	6/8	3	1	1/16	1/16	1		3	57	A3	3	72
6	6	35/2	0.5	5/8	5/8	6/8	2	1	1/8	1/8	1		-2	82	Bb5	5	65
6	6	71/4	0.25	11/16	11/16	6/8	3	1	1/16	1/16	1		1	55	G3	3	73
7	7	18	0.5	0	0	6/8	3	1	1/8	1/8	1		-1	53	F3	3	87
7	7	18	1.0	0	0	6/8	4	1	1/4	1/4	1		-1	53	F3	3	93
7	7	18	1.0	0	0	6/8	1	1	1/4	1/4	1		-1	77	F5	5	80
7	7	18	0.5	0	0	6/8	2	1	1/8	1/8	1		3	81	A5	5	84
7	7	37/2	0.5	1/8	1/8	6/8	3	1	1/8	1/8	1		3	57	A3	3	88
7	7	37/2	1.5	1/8	1/8	6/8	2	1	3/8	1/4	3/2		-1	77	F5	5	85
7	7	19	0.5	1/4	1/4	6/8	3	1	1/8	1/8	1		-1	53	F3	3	89
7	7	19	0.5	1/4	1/4	6/8	4	1	1/8	1/8	1		-1	53	F3	3	94
7	7	19	0.5	1/4	1/4	6/8	1	1	1/8	1/8	1		3	81	A5	5	81
7	7	39/2	1.0	3/8	3/8	6/8	4	1	1/4	1/4	1		0	48	C3	3	95
7	7	39/2	0.5	3/8	3/8	6/8	3	1	1/8	1/8	1		0	60	C4	4	90
7	7	39/2	1.0	3/8	3/8	6/8	1	1	1/4	1/4	1		1	79	G5	5	82
7	7	20	0.5	1/2	1/2	6/8	3	1	1/8	1/8	1		4	52	E3	3	91
7	7	20	1.0	1/2	1/2	6/8	2	1	1/4	1/4	1	1	4	76	E5	5	86
7	7	41/2	0.5	5/8	5/8	6/8	3	1	1/8	1/8	1		0	48	C3	3	92
7	7	41/2	0.5	5/8	5/8	6/8	4	1	1/8	1/8	1		0	48	C3	3	96
7	7	41/2	0.5	5/8	5/8	6/8	1	1	1/8	1/8	1		1	79	G5	5	83
8	8	21	0.5	0	0	6/8	3	1	1/8	1/8	1		2	50	D3	3	105
8	8	21	0.5	0	0	6/8	4	1	1/8	1/8	1		2	50	D3	3	111
8	8	21	0.5	0	0	6/8	2	1	1/8	1/8	1	-1	4	76	E5	5	102
8	8	21	1.0	0	0	6/8	1	1	1/4	1/4	1		-1	77	F5	5	97
8	8	43/2	0.5	1/8	1/8	6/8	3	1	1/8	1/8	1		5	47	B2	2	106
8	8	43/2	0.5	1/8	1/8	6/8	4	1	1/8	1/8	1		5	47	B2	2	112
8	8	43/2	1.5	1/8	1/8	6/8	2	1	3/8	1/4	3/2		2	74	D5	5	103
8	8	22	0.5	1/4	1/4	6/8	3	1	1/8	1/8	1		1	43	G2	2	107
8	8	22	0.5	1/4	1/4	6/8	4	1	1/8	1/8	1		1	43	G2	2	113
8	8	22	0.5	1/4	1/4	6/8	1	1	1/8	1/8	1		-1	77	F5	5	98
8	8	45/2	0.5	3/8	3/8	6/8	3	1	1/8	1/8	1		0	48	C3	3	108
8	8	45/2	1.0	3/8	3/8	6/8	4	1	1/4	1/4	1		0	48	C3	3	114
8	8	45/2	0.5	3/8	3/8	6/8	1	1	1/8	1/8	1		4	76	E5	5	99
8	8	23	0.5	1/2	1/2	6/8	3	1	1/8	1/8	1		4	52	E3	3	109
8	8	23	1.0	1/2	1/2	6/8	2	1	1/4	1/4	1	1	0	72	C5	5	104
8	8	23	0.5	1/2	1/2	6/8	1	1	1/8	1/8	1		1	79	G5	5	100
8	8	47/2	0.5	5/8	5/8	6/8	3	1	1/8	1/8	1		0	48	C3	3	110
8	8	47/2	0.5	5/8	5/8	6/8	4	1	1/8	1/8	1		0	48	C3	3	115
8	8	47/2	0.5	5/8	5/8	6/8	1	1	1/8	1/8	1		1	79	G5	5	101
9	9	24	0.5	0	0	6/8	3	1	1/8	1/8	1		-1	53	F3	3	125
9	9	24	1.0	0	0	6/8	4	1	1/4	1/4	1		-1	53	F3	3	131
9	9	24	0.5	0	0	6/8	2	1	1/8	1/8	1	-1	0	72	C5	5	121
9	9	24	0.5	0	0	6/8	1	1	1/8	1/8	1		3	81	A5	5	116
9	9	49/2	0.5	1/8	1/8	6/8	3	1	1/8	1/8	1		3	57	A3	3	126
9	9	49/2	1.5	1/8	1/8	6/8	2	1	3/8	1/4	3/2		-1	77	F5	5	122
9	9	49/2	0.5	1/8	1/8	6/8	1	1	1/8	1/8	1		3	81	A5	5	117
9	9	25	0.5	1/4	1/4	6/8	3	1	1/8	1/8	1		-1	53	F3	3	127
9	9	25	0.5	1/4	1/4	6/8	4	1	1/8	1/8	1		-1	53	F3	3	132
9	9	25	0.5	1/4	1/4	6/8	1	1	1/8	1/8	1		3	81	A5	5	118
9	9	51/2	0.5	3/8	3/8	6/8	3	1	1/8	1/8	1		1	55	G3	3	128
9	9	51/2	0.5	3/8	3/8	6/8	4	1	1/8	1/8	1		1	55	G3	3	133
9	9	51/2	0.5	3/8	3/8	6/8	1	1	1/8	1/8	1		5	83	B5	5	119
9	9	26	0.5	1/2	1/2	6/8	3	1	1/8	1/8	1		0	60	C4	4	129
9	9	26	0.5	1/2	1/2	6/8	4	1	1/8	1/8	1		0	60	C4	4	134
9	9	26	0.5	1/2	1/2	6/8	2	1	1/8	1/8	1		4	76	E5	5	123
9	9	26	1.0	1/2	1/2	6/8	1	1	1/4	1/4	1	1	0	84	C6	6	120
9	9	53/2	0.5	5/8	5/8	6/8	3	1	1/8	1/8	1		4	52	E3	3	130
9	9	53/2	0.5	5/8	5/8	6/8	4	1	1/8	1/8	1		4	52	E3	3	135
9	9	53/2	0.5	5/8	5/8	6/8	2	1	1/8	1/8	1		1	79	G5	5	124
10	10	27	0.5	0	0	6/8	3	1	1/8	1/8	1		-1	53	F3	3	144
10	10	27	0.5	0	0	6/8	4	1	1/8	1/8	1		-1	53	F3	3	149
10	10	27	0.5	0	0	6/8	2	1	1/8	1/8	1		3	81	A5	5	139
10	10	27	0.5	0	0	6/8	1	1	1/8	1/8	1	-1	0	84	C6	6	136
10	10	55/2	0.5	1/8	1/8	6/8	3	1	1/8	1/8	1		1	55	G3	3	145
10	10	55/2	0.5	1/8	1/8	6/8	4	1	1/8	1/8	1		1	55	G3	3	150
10	10	55/2	1.0	1/8	1/8	6/8	2	1	1/4	1/4	1		2	74	D5	5	140
10	10	55/2	1.0	1/8	1/8	6/8	1	1	1/4	1/4	1		5	83	B5	5	137
10	10	28	0.5	1/4	1/4	6/8	3	1	1/8	1/8	1		1	43	G2	2	146
10	10	28	0.5	1/4	1/4	6/8	4	1	1/8	1/8	1		1	43	G2	2	151
10	10	57/2	0.5	3/8	3/8	6/8	3	1	1/8	1/8	1		0	48	C3	3	147
10	10	57/2	0.5	3/8	3/8	6/8	4	1	1/8	1/8	1		0	48	C3	3	152
10	10	57/2	0.5	3/8	3/8	6/8	2	1	1/8	1/8	1		4	76	E5	5	141
10	10	57/2	1.5	3/8	3/8	6/8	1	1	3/8	1/4	3/2		0	84	C6	6	138
10	10	29	1.0	1/2	1/2	6/8	3	1	1/4	1/4	1	1	0	60	C4	4	148
10	10	29	1.0	1/2	1/2	6/8	4	1	1/4	1/4	1	1	0	60	C4	4	153
10	10	29	0.5	1/2	1/2	6/8	2	1	1/8	1/8	1		0	72	C5	5	142
10	10	59/2	0.5	5/8	5/8	6/8	2	1	1/8	1/8	1		0	72	C5	5	143
11	11	30	0.5	0	0	6/8	3	1	1/8	1/8	1	-1	0	60	C4	4	161
11	11	30	0.5	0	0	6/8	4	1	1/8	1/8	1	-1	0	60	C4	4	165
11	11	30	0.5	0	0	6/8	2	1	1/8	1/8	1		2	74	D5	5	156
11	11	61/2	1.5	1/8	1/8	6/8	3	1	3/8	1/4	3/2		-2	58	Bb3	3	162
11	11	61/2	1.5	1/8	1/8	6/8	4	1	3/8	1/4	3/2		-2	58	Bb3	3	166
11	11	61/2	0.5	1/8	1/8	6/8	2	1	1/8	1/8	1		2	74	D5	5	157
11	11	31	0.5	1/4	1/4	6/8	2	1	1/8	1/8	1		2	74	D5	5	158
11	11	63/2	0.5	3/8	3/8	6/8	2	1	1/8	1/8	1		4	76	E5	5	159
11	11	32	0.5	1/2	1/2	6/8	3	1	1/8	1/8	1		3	57	A3	3	163
11	11	32	0.5	1/2	1/2	6/8	4	1	1/8	1/8	1		3	57	A3	3	167
11	11	32	1.0	1/2	1/2	6/8	2	1	1/4	1/4	1	1	-1	77	F5	5	160
11	11	32	0.5	1/2	1/2	6/8	1	1	1/8	1/8	1		0	84	C6	6	154
11	11	65/2	0.5	5/8	5/8	6/8	3	1	1/8	1/8	1		-1	53	F3	3	164
11	11	65/2	0.5	5/8	5/8	6/8	4	1	1/8	1/8	1		-1	53	F3	3	168
11	11	65/2	0.5	5/8	5/8	6/8	1	1	1/8	1/8	1		3	81	A5	5	155
12	12	33	0.5	0	0	6/8	3	1	1/8	1/8	1		1	55	G3	3	177
12	12	33	0.5	0	0	6/8	4	1	1/8	1/8	1		1	55	G3	3	183
12	12	33	0.5	0	0	6/8	2	1	1/8	1/8	1	-1	-1	77	F5	5	173
12	12	33	0.5	0	0	6/8	1	1	1/8	1/8	1		-2	82	Bb5	5	169
12	12	67/2	0.5	1/8	1/8	6/8	3	1	1/8	1/8	1		0	60	C4	4	178
12	12	67/2	0.5	1/8	1/8	6/8	4	1	1/8	1/8	1		0	60	C4	4	184
12	12	67/2	0.5	1/8	1/8	6/8	2	1	1/8	1/8	1		4	76	E5	5	174
12	12	67/2	1.5	1/8	1/8	6/8	1	1	3/8	1/4	3/2		1	79	G5	5	170
12	12	34	0.5	1/4	1/4	6/8	3	1	1/8	1/8	1		0	48	C3	3	179
12	12	34	0.5	1/4	1/4	6/8	4	1	1/8	1/8	1		0	48	C3	3	185
12	12	34	0.5	1/4	1/4	6/8	2	1	1/8	1/8	1		0	72	C5	5	175
12	12	69/2	0.5	3/8	3/8	6/8	3	1	1/8	1/8	1		-1	53	F3	3	180
12	12	69/2	1.0	3/8	3/8	6/8	4	1	1/4	1/4	1		-1	53	F3	3	186
12	12	69/2	1.5	3/8	3/8	6/8	2	1	3/8	1/4	3/2	1	3	81	A5	5	176
12	12	35	0.5	1/2	1/2	6/8	3	1	1/8	1/8	1		3	57	A3	3	181
12	12	35	0.5	1/2	1/2	6/8	1	1	1/8	1/8	1		-1	77	F5	5	171
12	12	71/2	0.5	5/8	5/8	6/8	3	1	1/8	1/8	1		3	45	A2	2	182
12	12	71/2	0.5	5/8	5/8	6/8	4	1	1/8	1/8	1		3	45	A2	2	187
12	12	71/2	0.5	5/8	5/8	6/8	1	1	1/8	1/8	1		0	72	C5	5	172
13	13	36	0.5	0	0	6/8	3	1	1/8	1/8	1		-2	46	Bb2	2	197
13	13	36	1.0	0	0	6/8	4	1	1/4	1/4	1		-2	46	Bb2	2	203
13	13	36	0.5	0	0	6/8	1	1	1/8	1/8	1		2	74	D5	5	188
13	13	36	0.5	0	0	6/8	2	1	1/8	1/8	1	-1	3	81	A5	5	192
13	13	73/2	0.5	1/8	1/8	6/8	3	1	1/8	1/8	1		2	50	D3	3	198
13	13	73/2	0.5	1/8	1/8	6/8	2	1	1/8	1/8	1		1	79	G5	5	193
13	13	73/2	1.5	1/8	1/8	6/8	1	1	3/8	1/4	3/2		-2	82	Bb5	5	189
13	13	37	0.5	1/4	1/4	6/8	3	1	1/8	1/8	1		-2	46	Bb2	2	199
13	13	37	0.5	1/4	1/4	6/8	4	1	1/8	1/8	1		-2	46	Bb2	2	204
13	13	37	0.5	1/4	1/4	6/8	2	1	1/8	1/8	1		2	74	D5	5	194
13	13	75/2	0.5	3/8	3/8	6/8	3	1	1/8	1/8	1		0	48	C3	3	200
13	13	75/2	0.5	3/8	3/8	6/8	4	1	1/8	1/8	1		0	48	C3	3	205
13	13	75/2	0.5	3/8	3/8	6/8	2	1	1/8	1/8	1		4	76	E5	5	195
13	13	38	0.5	1/2	1/2	6/8	3	1	1/8	1/8	1		0	60	C4	4	201
13	13	38	0.5	1/2	1/2	6/8	4	1	1/8	1/8	1		0	60	C4	4	206
13	13	38	1.0	1/2	1/2	6/8	2	1	1/4	1/4	1	1	-1	77	F5	5	196
13	13	38	0.5	1/2	1/2	6/8	1	1	1/8	1/8	1		3	81	A5	5	190
13	13	77/2	0.5	5/8	5/8	6/8	3	1	1/8	1/8	1		-2	58	Bb3	3	202
13	13	77/2	0.5	5/8	5/8	6/8	4	1	1/8	1/8	1		-2	58	Bb3	3	207
13	13	77/2	0.5	5/8	5/8	6/8	1	1	1/8	1/8	1		1	79	G5	5	191
14	14	39	0.5	0	0	6/8	3	1	1/8	1/8	1		0	60	C4	4	216
14	14	39	0.5	0	0	6/8	4	1	1/8	1/8	1		0	60	C4	4	221
14	14	39	0.5	0	0	6/8	2	1	1/8	1/8	1	-1	-1	77	F5	5	212
14	14	39	0.5	0	0	6/8	1	1	1/8	1/8	1		3	81	A5	5	208
14	14	79/2	1.0	1/8	1/8	6/8	3	1	1/4	1/4	1		0	48	C3	3	217
14	14	79/2	1.0	1/8	1/8	6/8	4	1	1/4	1/4	1		0	48	C3	3	222
14	14	79/2	1.0	1/8	1/8	6/8	2	1	1/4	1/4	1		4	76	E5	5	213
14	14	79/2	1.0	1/8	1/8	6/8	1	1	1/4	1/4	1		1	79	G5	5	209
14	14	81/2	0.5	3/8	3/8	6/8	3	1	1/8	1/8	1		-1	53	F3	3	218
14	14	81/2	1.0	3/8	3/8	6/8	4	1	1/4	1/4	1		-1	53	F3	3	223
14	14	81/2	0.5	3/8	3/8	6/8	2	1	1/8	1/8	1		-1	77	F5	5	214
14	14	81/2	1.0	3/8	3/8	6/8	1	1	1/4	1/4	1		-1	77	F5	5	210
14	14	41	0.5	1/2	1/2	6/8	3	1	1/8	1/8	1		3	57	A3	3	219
14	14	41	1.0	1/2	1/2	6/8	2	1	1/4	1/4	1	1	0	72	C5	5	215
14	14	83/2	0.5	5/8	5/8	6/8	3	1	1/8	1/8	1		3	45	A2	2	220
14	14	83/2	0.5	5/8	5/8	6/8	4	1	1/8	1/8	1		3	45	A2	2	224
14	14	83/2	0.5	5/8	5/8	6/8	1	1	1/8	1/8	1		0	72	C5	5	211
15	15	42	0.5	0	0	6/8	3	1	1/8	1/8	1		-2	46	Bb2	2	234
15	15	42	1.0	0	0	6/8	4	1	1/4	1/4	1		-2	46	Bb2	2	240
15	15	42	0.5	0	0	6/8	2	1	1/8	1/8	1	-1	0	72	C5	5	229
15	15	42	1.0	0	0	6/8	1	1	1/4	1/4	1		2	74	D5	5	225
15	15	85/2	0.5	1/8	1/8	6/8	3	1	1/8	1/8	1		2	50	D3	3	235
15	15	85/2	0.5	1/8	1/8	6/8	2	1	1/8	1/8	1		-1	65	F4	4	230
15	15	43	0.5	1/4	1/4	6/8	3	1	1/8	1/8	1		-2	46	Bb2	2	236
15	15	43	0.5	1/4	1/4	6/8	4	1	1/8	1/8	1		-2	46	Bb2	2	241
15	15	43	1.0	1/4	1/4	6/8	2	1	1/4	1/4	1		-2	70	Bb4	4	231
15	15	43	0.5	1/4	1/4	6/8	1	1	1/8	1/8	1		2	74	D5	5	226
15	15	87/2	0.5	3/8	3/8	6/8	3	1	1/8	1/8	1		0	48	C3	3	237
15	15	87/2	0.5	3/8	3/8	6/8	4	1	1/8	1/8	1		0	48	C3	3	242
15	15	87/2	0.5	3/8	3/8	6/8	1	1	1/8	1/8	1		4	64	E4	4	227
15	15	44	0.5	1/2	1/2	6/8	3	1	1/8	1/8	1		-1	53	F3	3	238
15	15	44	0.5	1/2	1/2	6/8	4	1	1/8	1/8	1		-1	53	F3	3	243
15	15	44	1.0	1/2	1/2	6/8	1	1	1/4	1/4	1	1	-1	65	F4	4	228
15	15	44	0.5	1/2	1/2	6/8	2	1	1/8	1/8	1		3	69	A4	4	232
15	15	89/2	0.5	5/8	5/8	6/8	3	1	1/8	1/8	1		3	45	A2	2	239
15	15	89/2	0.5	5/8	5/8	6/8	4	1	1/8	1/8	1		3	45	A2	2	244
15	15	89/2	0.5	5/8	5/8	6/8	2	1	1/8	1/8	1		0	72	C5	5	233
16	16	45	0.5	0	0	6/8	3	1	1/8	1/8	1		-2	46	Bb2	2	251
16	16	45	0.5	0	0	6/8	4	1	1/8	1/8	1		-2	46	Bb2	2	254
16	16	45	0.5	0	0	6/8	1	1	1/8	1/8	1	-1	-1	65	F4	4	245
16	16	45	0.5	0	0	6/8	2	1	1/8	1/8	1		2	74	D5	5	248
16	16	91/2	1.0	1/8	1/8	6/8	3	1	1/4	1/4	1		0	48	C3	3	252
16	16	91/2	1.0	1/8	1/8	6/8	4	1	1/4	1/4	1		0	48	C3	3	255
16	16	91/2	1.0	1/8	1/8	6/8	1	1	1/4	1/4	1		4	64	E4	4	246
16	16	91/2	1.0	1/8	1/8	6/8	2	1	1/4	1/4	1		1	67	G4	4	249
16	16	93/2	1.5	3/8	3/8	6/8	3	1	3/8	1/4	3/2		-1	41	F2	2	253
16	16	93/2	1.5	3/8	3/8	6/8	4	1	3/8	1/4	3/2		-1	41	F2	2	256
16	16	93/2	1.5	3/8	3/8	6/8	1	1	3/8	1/4	3/2		-1	65	F4	4	247
16	16	93/2	1.5	3/8	3/8	6/8	2	1	3/8	1/4	3/2		-1	65	F4	4	250
17	17	48	1.5	0	0	6/8	4	1	3/8	1/4	3/2		-1	65	F4	4	269
17	17	48	0.25	0	0	6/8	1	1	1/16	1/16	1		-1	77	F5	5	257
17	17	193/4	0.25	1/16	1/16	6/8	1	1	1/16	1/16	1		4	76	E5	5	258
17	17	97/2	0.25	1/8	1/8	6/8	1	1	1/16	1/16	1		-1	77	F5	5	259
17	17	195/4	0.25	3/16	3/16	6/8	1	1	1/16	1/16	1		1	79	G5	5	260
17	17	49	0.25	1/4	1/4	6/8	1	1	1/16	1/16	1		3	81	A5	5	261
17	17	197/4	0.25	5/16	5/16	6/8	1	1	1/16	1/16	1		-1	77	F5	5	262
17	17	99/2	1.5	3/8	3/8	6/8	4	1	3/8	1/4	3/2		4	64	E4	4	270
17	17	99/2	0.25	3/8	3/8	6/8	1	1	1/16	1/16	1		1	79	G5	5	263
17	17	199/4	0.25	7/16	7/16	6/8	1	1	1/16	1/16	1		-1	77	F5	5	264
17	17	50	0.25	1/2	1/2	6/8	1	1	1/16	1/16	1		1	79	G5	5	265
17	17	201/4	0.25	9/16	9/16	6/8	1	1	1/16	1/16	1		3	81	A5	5	266
17	17	101/2	0.25	5/8	5/8	6/8	1	1	1/16	1/16	1		-2	82	Bb5	5	267
17	17	203/4	0.25	11/16	11/16	6/8	1	1	1/16	1/16	1		1	79	G5	5	268
18	18	51	1.0	0	0	6/8	4	1	1/4	1/4	1		2	62	D4	4	286
18	18	51	0.25	0	0	6/8	2	1	1/16	1/16	1		-1	77	F5	5	274
18	18	51	0.5	0	0	6/8	1	1	1/8	1/8	1		3	81	A5	5	271
18	18	205/4	0.25	1/16	1/16	6/8	2	1	1/16	1/16	1		4	76	E5	5	275
18	18	103/2	0.25	1/8	1/8	6/8	2	1	1/16	1/16	1		-1	77	F5	5	276
18	18	103/2	1.5	1/8	1/8	6/8	1	1	3/8	1/4	3/2		-1	77	F5	5	272
18	18	207/4	0.25	3/16	3/16	6/8	2	1	1/16	1/16	1		1	79	G5	5	277
18	18	52	0.5	1/4	1/4	6/8	4	1	1/8	1/8	1		3	57	A3	3	287
18	18	52	0.25	1/4	1/4	6/8	2	1	1/16	1/16	1		3	81	A5	5	278
18	18	209/4	0.25	5/16	5/16	6/8	2	1	1/16	1/16	1		-1	77	F5	5	279
18	18	105/2	0.5	3/8	3/8	6/8	4	1	1/8	1/8	1		-2	58	Bb3	3	288
18	18	105/2	0.25	3/8	3/8	6/8	2	1	1/16	1/16	1		1	79	G5	5	280
18	18	211/4	0.25	7/16	7/16	6/8	2	1	1/16	1/16	1		-1	77	F5	5	281
18	18	53	0.5	1/2	1/2	6/8	4	1	1/8	1/8	1		1	55	G3	3	289
18	18	53	1.0	1/2	1/2	6/8	1	1	1/4	1/4	1		4	76	E5	5	273
18	18	53	0.25	1/2	1/2	6/8	2	1	1/16	1/16	1		1	79	G5	5	282
18	18	213/4	0.25	9/16	9/16	6/8	2	1	1/16	1/16	1		3	81	A5	5	283
18	18	107/2	0.5	5/8	5/8	6/8	4	1	1/8	1/8	1		0	60	C4	4	290
18	18	107/2	0.25	5/8	5/8	6/8	2	1	1/16	1/16	1		-2	82	Bb5	5	284
18	18	215/4	0.25	11/16	11/16	6/8	2	1	1/16	1/16	1		1	79	G5	5	285
19	19	54	1.5	0	0	6/8	4	1	3/8	1/4	3/2		-1	53	F3	3	300
19	19	54	0.5	0	0	6/8	1	1	1/8	1/8	1		-1	77	F5	5	291
19	19	54	0.5	0	0	6/8	2	1	1/8	1/8	1		3	81	A5	5	297
19	19	109/2	0.5	1/8	1/8	6/8	1	1	1/8	1/8	1		-1	65	F4	4	292
19	19	109/2	1.5	1/8	1/8	6/8	2	1	3/8	1/4	3/2		-1	77	F5	5	298
19	19	55	0.5	1/4	1/4	6/8	1	1	1/8	1/8	1		-1	65	F4	4	293
19	19	111/2	1.5	3/8	3/8	6/8	4	1	3/8	1/4	3/2		0	48	C3	3	301
19	19	111/2	0.5	3/8	3/8	6/8	1	1	1/8	1/8	1		1	67	G4	4	294
19	19	56	0.5	1/2	1/2	6/8	1	1	1/8	1/8	1		1	67	G4	4	295
19	19	56	1.0	1/2	1/2	6/8	2	1	1/4	1/4	1		4	76	E5	5	299
19	19	113/2	0.5	5/8	5/8	6/8	1	1	1/8	1/8	1		1	67	G4	4	296
20	20	57	0.5	0	0	6/8	1	1	1/8	1/8	1		3	69	A4	4	302
20	20	57	0.5	0	0	6/8	2	1	1/8	1/8	1		-1	77	F5	5	308
20	20	115/2	0.5	1/8	1/8	6/8	3	1	1/8	1/8	1		-1	53	F3	3	313
20	20	115/2	0.5	1/8	1/8	6/8	4	1	1/8	1/8	1		-1	53	F3	3	318
20	20	115/2	0.5	1/8	1/8	6/8	1	1	1/8	1/8	1		3	69	A4	4	303
20	20	115/2	0.5	1/8	1/8	6/8	2	1	1/8	1/8	1		0	72	C5	5	309
20	20	58	0.5	1/4	1/4	6/8	3	1	1/8	1/8	1		-1	53	F3	3	314
20	20	58	0.5	1/4	1/4	6/8	4	1	1/8	1/8	1		-1	53	F3	3	319
20	20	58	1.0	1/4	1/4	6/8	2	1	1/4	1/4	1		-1	65	F4	4	310
20	20	58	0.5	1/4	1/4	6/8	1	1	1/8	1/8	1		3	69	A4	4	304
20	20	117/2	0.5	3/8	3/8	6/8	3	1	1/8	1/8	1		1	55	G3	3	315
20	20	117/2	0.5	3/8	3/8	6/8	4	1	1/8	1/8	1		1	55	G3	3	320
20	20	117/2	0.5	3/8	3/8	6/8	1	1	1/8	1/8	1		-2	70	Bb4	4	305
20	20	59	0.5	1/2	1/2	6/8	3	1	1/8	1/8	1		1	55	G3	3	316
20	20	59	0.5	1/2	1/2	6/8	4	1	1/8	1/8	1		1	55	G3	3	321
20	20	59	0.5	1/2	1/2	6/8	2	1	1/8	1/8	1		4	64	E4	4	311
20	20	59	0.5	1/2	1/2	6/8	1	1	1/8	1/8	1		-2	70	Bb4	4	306
20	20	119/2	0.5	5/8	5/8	6/8	3	1	1/8	1/8	1		1	55	G3	3	317
20	20	119/2	0.5	5/8	5/8	6/8	4	1	1/8	1/8	1		1	55	G3	3	322
20	20	119/2	0.5	5/8	5/8	6/8	2	1	1/8	1/8	1		1	67	G4	4	312
20	20	119/2	0.5	5/8	5/8	6/8	1	1	1/8	1/8	1		-2	70	Bb4	4	307
21	21	60	0.5	0	0	6/8	3	1	1/8	1/8	1		3	57	A3	3	331
21	21	60	0.5	0	0	6/8	4	1	1/8	1/8	1		3	57	A3	3	339
21	21	60	1.0	0	0	6/8	2	1	1/4	1/4	1		0	60	C4	4	329
21	21	60	0.5	0	0	6/8	1	1	1/8	1/8	1		0	72	C5	5	323
21	21	121/2	0.5	1/8	1/8	6/8	3	1	1/8	1/8	1		3	57	A3	3	332
21	21	121/2	0.5	1/8	1/8	6/8	4	1	1/8	1/8	1		3	57	A3	3	340
21	21	121/2	1.5	1/8	1/8	6/8	1	1	3/8	1/4	3/2		-1	77	F5	5	324
21	21	61	0.5	1/4	1/4	6/8	3	1	1/8	1/8	1		3	57	A3	3	333
21	21	61	0.5	1/4	1/4	6/8	4	1	1/8	1/8	1		3	57	A3	3	341
21	21	123/2	0.5	3/8	3/8	6/8	3	1	1/8	1/8	1		-2	58	Bb3	3	334
21	21	123/2	0.5	3/8	3/8	6/8	4	1	1/8	1/8	1		-2	58	Bb3	3	342
21	21	123/2	1.5	3/8	3/8	6/8	2	1	3/8	1/4	3/2		1	79	G5	5	330
21	21	62	0.25	1/2	1/2	6/8	3	1	1/16	1/16	1		0	60	C4	4	335
21	21	62	0.5	1/2	1/2	6/8	4	1	1/8	1/8	1		0	60	C4	4	343
21	21	62	0.25	1/2	1/2	6/8	1	1	1/16	1/16	1		4	76	E5	5	325
21	21	249/4	0.25	9/16	9/16	6/8	3	1	1/16	1/16	1		-2	58	Bb3	3	336
21	21	249/4	0.25	9/16	9/16	6/8	1	1	1/16	1/16	1		2	74	D5	5	326
21	21	125/2	0.5	5/8	5/8	6/8	4	1	1/8	1/8	1		0	48	C3	3	344
21	21	125/2	0.25	5/8	5/8	6/8	3	1	1/16	1/16	1		3	57	A3	3	337
21	21	125/2	0.25	5/8	5/8	6/8	1	1	1/16	1/16	1		0	72	C5	5	327
21	21	251/4	0.25	11/16	11/16	6/8	3	1	1/16	1/16	1		1	55	G3	3	338
21	21	251/4	0.25	11/16	11/16	6/8	1	1	1/16	1/16	1		-2	70	Bb4	4	328
22	22	63	1.0	0	0	6/8	3	1	1/4	1/4	1		-1	53	F3	3	356
22	22	63	1.0	0	0	6/8	4	1	1/4	1/4	1		-1	53	F3	3	360
22	22	63	0.5	0	0	6/8	1	1	1/8	1/8	1		3	69	A4	4	345
22	22	63	0.5	0	0	6/8	2	1	1/8	1/8	1		3	81	A5	5	351
22	22	127/2	0.5	1/8	1/8	6/8	1	1	1/8	1/8	1		-1	65	F4	4	346
22	22	127/2	0.5	1/8	1/8	6/8	2	1	1/8	1/8	1		3	69	A4	4	352
22	22	64	0.5	1/4	1/4	6/8	3	1	1/8	1/8	1		-1	53	F3	3	357
22	22	64	0.5	1/4	1/4	6/8	4	1	1/8	1/8	1		-1	53	F3	3	361
22	22	64	0.5	1/4	1/4	6/8	2	1	1/8	1/8	1		-1	65	F4	4	353
22	22	64	0.5	1/4	1/4	6/8	1	1	1/8	1/8	1		3	69	A4	4	347
22	22	129/2	1.0	3/8	3/8	6/8	3	1	1/4	1/4	1		4	52	E3	3	358
22	22	129/2	1.0	3/8	3/8	6/8	4	1	1/4	1/4	1		4	52	E3	3	362
22	22	129/2	0.5	3/8	3/8	6/8	1	1	1/8	1/8	1		1	67	G4	4	348
22	22	129/2	1.0	3/8	3/8	6/8	2	1	1/4	1/4	1		0	72	C5	5	354
22	22	65	0.5	1/2	1/2	6/8	1	1	1/8	1/8	1		0	60	C4	4	349
22	22	131/2	0.5	5/8	5/8	6/8	3	1	1/8	1/8	1		4	52	E3	3	359
22	22	131/2	0.5	5/8	5/8	6/8	4	1	1/8	1/8	1		4	52	E3	3	363
22	22	131/2	0.5	5/8	5/8	6/8	1	1	1/8	1/8	1	1	0	72	C5	5	350
22	22	131/2	0.5	5/8	5/8	6/8	2	1	1/8	1/8	1		1	79	G5	5	355
23	23	66	0.5	0	0	6/8	3	1	1/8	1/8	1		2	50	D3	3	378
23	23	66	0.5	0	0	6/8	4	1	1/8	1/8	1		2	50	D3	3	383
23	23	66	0.5	0	0	6/8	1	1	1/8	1/8	1	-1	0	72	C5	5	364
23	23	66	0.25	0	0	6/8	2	1	1/16	1/16	1		-1	77	F5	5	370
23	23	265/4	0.25	1/16	1/16	6/8	2	1	1/16	1/16	1		4	76	E5	5	371
23	23	133/2	0.5	1/8	1/8	6/8	3	1	1/8	1/8	1		1	55	G3	3	379
23	23	133/2	0.5	1/8	1/8	6/8	4	1	1/8	1/8	1		1	55	G3	3	384
23	23	133/2	0.25	1/8	1/8	6/8	1	1	1/16	1/16	1		2	74	D5	5	365
23	23	133/2	0.25	1/8	1/8	6/8	2	1	1/16	1/16	1		2	74	D5	5	372
23	23	267/4	0.25	3/16	3/16	6/8	1	1	1/16	1/16	1		0	72	C5	5	366
23	23	267/4	0.25	3/16	3/16	6/8	2	1	1/16	1/16	1		4	76	E5	5	373
23	23	67	0.5	1/4	1/4	6/8	3	1	1/8	1/8	1		1	43	G2	2	380
23	23	67	0.5	1/4	1/4	6/8	4	1	1/8	1/8	1		1	43	G2	2	385
23	23	67	0.5	1/4	1/4	6/8	1	1	1/8	1/8	1		5	71	B4	4	367
23	23	67	0.5	1/4	1/4	6/8	2	1	1/8	1/8	1		-1	77	F5	5	374
23	23	135/2	1.0	3/8	3/8	6/8	3	1	1/4	1/4	1		0	48	C3	3	381
23	23	135/2	1.0	3/8	3/8	6/8	4	1	1/4	1/4	1		0	48	C3	3	386
23	23	135/2	1.0	3/8	3/8	6/8	1	1	1/4	1/4	1		0	72	C5	5	368
23	23	135/2	0.5	3/8	3/8	6/8	2	1	1/8	1/8	1		4	76	E5	5	375
23	23	68	0.5	1/2	1/2	6/8	2	1	1/8	1/8	1		0	72	C5	5	376
23	23	137/2	0.5	5/8	5/8	6/8	3	1	1/8	1/8	1		0	48	C3	3	382
23	23	137/2	0.5	5/8	5/8	6/8	4	1	1/8	1/8	1		0	48	C3	3	387
23	23	137/2	0.5	5/8	5/8	6/8	1	1	1/8	1/8	1		4	76	E5	5	369
23	23	137/2	0.5	5/8	5/8	6/8	2	1	1/8	1/8	1	1	0	84	C6	6	377
24	24	69	1.0	0	0	6/8	3	1	1/4	1/4	1		2	50	D3	3	397
24	24	69	1.0	0	0	6/8	4	1	1/4	1/4	1		2	50	D3	3	401
24	24	69	0.5	0	0	6/8	1	1	1/8	1/8	1		-1	77	F5	5	388
24	24	69	0.5	0	0	6/8	2	1	1/8	1/8	1	-1	0	84	C6	6	393
24	24	139/2	0.5	1/8	1/8	6/8	1	1	1/8	1/8	1		2	74	D5	5	389
24	24	139/2	0.5	1/8	1/8	6/8	2	1	1/8	1/8	1		-1	77	F5	5	394
24	24	70	0.5	1/4	1/4	6/8	3	1	1/8	1/8	1		4	52	E3	3	398
24	24	70	0.5	1/4	1/4	6/8	4	1	1/8	1/8	1		4	52	E3	3	402
24	24	70	0.5	1/4	1/4	6/8	1	1	1/8	1/8	1		1	79	G5	5	390
24	24	70	1.0	1/4	1/4	6/8	2	1	1/4	1/4	1		-2	82	Bb5	5	395
24	24	141/2	1.0	3/8	3/8	6/8	3	1	1/4	1/4	1		-1	53	F3	3	399
24	24	141/2	1.0	3/8	3/8	6/8	4	1	1/4	1/4	1		-1	53	F3	3	403
24	24	141/2	0.5	3/8	3/8	6/8	1	1	1/8	1/8	1		0	72	C5	5	391
24	24	71	1.0	1/2	1/2	6/8	1	1	1/4	1/4	1	1	-1	77	F5	5	392
24	24	71	1.0	1/2	1/2	6/8	2	1	1/4	1/4	1		3	81	A5	5	396
24	24	143/2	0.5	5/8	5/8	6/8	3	1	1/8	1/8	1		3	45	A2	2	400
24	24	143/2	0.5	5/8	5/8	6/8	4	1	1/8	1/8	1		3	45	A2	2	404
25	25	72	1.0	0	0	6/8	3	1	1/4	1/4	1		5	47	B2	2	414
25	25	72	1.0	0	0	6/8	4	1	1/4	1/4	1		5	47	B2	2	418
25	25	72	0.5	0	0	6/8	1	1	1/8	1/8	1	-1	-1	77	F5	5	405
25	25	72	1.5	0	0	6/8	2	1	3/8	1/4	3/2		1	79	G5	5	411
25	25	145/2	0.25	1/8	1/8	6/8	1	1	1/16	1/16	1		1	79	G5	5	406
25	25	291/4	0.25	3/16	3/16	6/8	1	1	1/16	1/16	1		-1	77	F5	5	407
25	25	73	0.5	1/4	1/4	6/8	3	1	1/8	1/8	1		7	49	C#3	3	415
25	25	73	0.5	1/4	1/4	6/8	4	1	1/8	1/8	1		7	49	C#3	3	419
25	25	73	1.0	1/4	1/4	6/8	1	1	1/4	1/4	1		4	76	E5	5	408
25	25	147/2	1.0	3/8	3/8	6/8	3	1	1/4	1/4	1		2	50	D3	3	416
25	25	147/2	1.0	3/8	3/8	6/8	4	1	1/4	1/4	1		2	50	D3	3	420
25	25	147/2	1.0	3/8	3/8	6/8	2	1	1/4	1/4	1		-1	77	F5	5	412
25	25	74	0.5	1/2	1/2	6/8	1	1	1/8	1/8	1		3	69	A4	4	409
25	25	149/2	0.5	5/8	5/8	6/8	3	1	1/8	1/8	1		-1	53	F3	3	417
25	25	149/2	0.5	5/8	5/8	6/8	4	1	1/8	1/8	1		-1	53	F3	3	421
25	25	149/2	0.5	5/8	5/8	6/8	1	1	1/8	1/8	1	1	2	74	D5	5	410
25	25	149/2	0.5	5/8	5/8	6/8	2	1	1/8	1/8	1		3	81	A5	5	413
26	26	75	0.5	0	0	6/8	3	1	1/8	1/8	1		1	55	G3	3	431
26	26	75	0.5	0	0	6/8	4	1	1/8	1/8	1		1	55	G3	3	437
26	26	75	0.5	0	0	6/8	1	1	1/8	1/8	1	-1	2	74	D5	5	422
26	26	75	0.5	0	0	6/8	2	1	1/8	1/8	1		-2	82	Bb5	5	426
26	26	151/2	0.5	1/8	1/8	6/8	3	1	1/8	1/8	1		3	57	A3	3	432
26	26	151/2	0.5	1/8	1/8	6/8	4	1	1/8	1/8	1		3	57	A3	3	438
26	26	151/2	1.0	1/8	1/8	6/8	1	1	1/4	1/4	1		7	73	C#5	5	423
26	26	151/2	1.0	1/8	1/8	6/8	2	1	1/4	1/4	1		4	76	E5	5	427
26	26	76	0.5	1/4	1/4	6/8	3	1	1/8	1/8	1		3	45	A2	2	433
26	26	76	0.5	1/4	1/4	6/8	4	1	1/8	1/8	1		3	45	A2	2	439
26	26	153/2	0.5	3/8	3/8	6/8	3	1	1/8	1/8	1		2	50	D3	3	434
26	26	153/2	0.5	3/8	3/8	6/8	4	1	1/8	1/8	1		2	50	D3	3	440
26	26	153/2	0.5	3/8	3/8	6/8	1	1	1/8	1/8	1		2	74	D5	5	424
26	26	153/2	0.5	3/8	3/8	6/8	2	1	1/8	1/8	1		2	74	D5	5	428
26	26	77	0.5	1/2	1/2	6/8	3	1	1/8	1/8	1		2	62	D4	4	435
26	26	77	0.5	1/2	1/2	6/8	4	1	1/8	1/8	1		2	62	D4	4	441
26	26	77	1.0	1/2	1/2	6/8	1	1	1/4	1/4	1	1	-2	70	Bb4	4	425
26	26	77	0.5	1/2	1/2	6/8	2	1	1/8	1/8	1		-1	77	F5	5	429
26	26	155/2	0.5	5/8	5/8	6/8	3	1	1/8	1/8	1		4	64	E4	4	436
26	26	155/2	0.5	5/8	5/8	6/8	4	1	1/8	1/8	1		4	64	E4	4	442
26	26	155/2	0.5	5/8	5/8	6/8	2	1	1/8	1/8	1		1	79	G5	5	430
27	27	78	1.0	0	0	6/8	3	1	1/4	1/4	1		-1	65	F4	4	451
27	27	78	1.0	0	0	6/8	4	1	1/4	1/4	1		-1	65	F4	4	455
27	27	78	0.5	0	0	6/8	1	1	1/8	1/8	1	-1	-2	70	Bb4	4	443
27	27	78	1.0	0	0	6/8	2	1	1/4	1/4	1		0	72	C5	5	447
27	27	157/2	1.5	1/8	1/8	6/8	1	1	3/8	1/4	3/2		3	69	A4	4	444
27	27	79	0.5	1/4	1/4	6/8	3	1	1/8	1/8	1		3	57	A3	3	452
27	27	79	0.5	1/4	1/4	6/8	4	1	1/8	1/8	1		3	57	A3	3	456
27	27	79	0.5	1/4	1/4	6/8	2	1	1/8	1/8	1		0	72	C5	5	448
27	27	159/2	1.0	3/8	3/8	6/8	3	1	1/4	1/4	1		-2	58	Bb3	3	453
27	27	159/2	1.0	3/8	3/8	6/8	4	1	1/4	1/4	1		-2	58	Bb3	3	457
27	27	159/2	1.0	3/8	3/8	6/8	2	1	1/4	1/4	1		2	74	D5	5	449
27	27	80	0.5	1/2	1/2	6/8	1	1	1/8	1/8	1		1	67	G4	4	445
27	27	161/2	0.5	5/8	5/8	6/8	3	1	1/8	1/8	1		5	59	B3	3	454
27	27	161/2	0.5	5/8	5/8	6/8	4	1	1/8	1/8	1		5	59	B3	3	458
27	27	161/2	0.5	5/8	5/8	6/8	1	1	1/8	1/8	1		-1	65	F4	4	446
27	27	161/2	0.5	5/8	5/8	6/8	2	1	1/8	1/8	1		2	74	D5	5	450
28	28	81	1.0	0	0	6/8	3	1	1/4	1/4	1		0	60	C4	4	468
28	28	81	1.0	0	0	6/8	4	1	1/4	1/4	1		0	60	C4	4	472
28	28	81	0.5	0	0	6/8	1	1	1/8	1/8	1		4	64	E4	4	459
28	28	81	1.0	0	0	6/8	2	1	1/4	1/4	1		1	67	G4	4	464
28	28	163/2	0.5	1/8	1/8	6/8	1	1	1/8	1/8	1		1	79	G5	5	460
28	28	82	0.5	1/4	1/4	6/8	3	1	1/8	1/8	1		0	60	C4	4	469
28	28	82	0.5	1/4	1/4	6/8	4	1	1/8	1/8	1		0	60	C4	4	473
28	28	82	0.5	1/4	1/4	6/8	2	1	1/8	1/8	1		0	72	C5	5	465
28	28	82	1.0	1/4	1/4	6/8	1	1	1/4	1/4	1		3	81	A5	5	461
28	28	165/2	1.0	3/8	3/8	6/8	3	1	1/4	1/4	1		5	59	B3	3	470
28	28	165/2	1.0	3/8	3/8	6/8	4	1	1/4	1/4	1		5	59	B3	3	474
28	28	165/2	1.0	3/8	3/8	6/8	2	1	1/4	1/4	1		2	74	D5	5	466
28	28	83	0.5	1/2	1/2	6/8	1	1	1/8	1/8	1		2	74	D5	5	462
28	28	167/2	0.5	5/8	5/8	6/8	3	1	1/8	1/8	1		1	55	G3	3	471
28	28	167/2	0.5	5/8	5/8	6/8	4	1	1/8	1/8	1		1	55	G3	3	475
28	28	167/2	0.5	5/8	5/8	6/8	2	1	1/8	1/8	1		5	71	B4	4	467
28	28	167/2	0.5	5/8	5/8	6/8	1	1	1/8	1/8	1	1	1	79	G5	5	463
29	29	84	1.0	0	0	6/8	3	1	1/4	1/4	1		3	57	A3	3	485
29	29	84	1.0	0	0	6/8	4	1	1/4	1/4	1		3	57	A3	3	490
29	29	84	1.0	0	0	6/8	2	1	1/4	1/4	1		0	72	C5	5	481
29	29	84	0.5	0	0	6/8	1	1	1/8	1/8	1	-1	1	79	G5	5	476
29	29	169/2	0.5	1/8	1/8	6/8	1	1	1/8	1/8	1		0	72	C5	5	477
29	29	85	0.5	1/4	1/4	6/8	3	1	1/8	1/8	1		-1	53	F3	3	486
29	29	85	0.5	1/4	1/4	6/8	4	1	1/8	1/8	1		-1	53	F3	3	491
29	29	85	0.5	1/4	1/4	6/8	2	1	1/8	1/8	1		3	69	A4	4	482
29	29	85	1.0	1/4	1/4	6/8	1	1	1/4	1/4	1		-1	77	F5	5	478
29	29	171/2	0.5	3/8	3/8	6/8	3	1	1/8	1/8	1		1	55	G3	3	487
29	29	171/2	0.5	3/8	3/8	6/8	4	1	1/8	1/8	1		1	55	G3	3	492
29	29	171/2	0.5	3/8	3/8	6/8	2	1	1/8	1/8	1		5	71	B4	4	483
29	29	86	0.5	1/2	1/2	6/8	3	1	1/8	1/8	1		3	57	A3	3	488
29	29	86	0.5	1/2	1/2	6/8	4	1	1/8	1/8	1		3	57	A3	3	493
29	29	86	1.0	1/2	1/2	6/8	2	1	1/4	1/4	1	1	0	72	C5	5	484
29	29	86	0.5	1/2	1/2	6/8	1	1	1/8	1/8	1		4	76	E5	5	479
29	29	173/2	0.5	5/8	5/8	6/8	3	1	1/8	1/8	1		4	52	E3	3	489
29	29	173/2	0.5	5/8	5/8	6/8	4	1	1/8	1/8	1		4	52	E3	3	494
29	29	173/2	0.5	5/8	5/8	6/8	1	1	1/8	1/8	1		1	79	G5	5	480
30	30	87	0.5	0	0	6/8	3	1	1/8	1/8	1		-1	53	F3	3	503
30	30	87	0.5	0	0	6/8	4	1	1/8	1/8	1		-1	53	F3	3	508
30	30	87	0.5	0	0	6/8	2	1	1/8	1/8	1	-1	0	72	C5	5	500
30	30	87	0.5	0	0	6/8	1	1	1/8	1/8	1		3	81	A5	5	495
30	30	175/2	0.5	1/8	1/8	6/8	3	1	1/8	1/8	1		1	55	G3	3	504
30	30	175/2	0.5	1/8	1/8	6/8	4	1	1/8	1/8	1		1	55	G3	3	509
30	30	175/2	1.0	1/8	1/8	6/8	2	1	1/4	1/4	1		5	71	B4	4	501
30	30	175/2	1.0	1/8	1/8	6/8	1	1	1/4	1/4	1		2	74	D5	5	496
30	30	88	0.5	1/4	1/4	6/8	3	1	1/8	1/8	1		1	43	G2	2	505
30	30	88	0.5	1/4	1/4	6/8	4	1	1/8	1/8	1		1	43	G2	2	510
30	30	177/2	0.5	3/8	3/8	6/8	3	1	1/8	1/8	1		0	48	C3	3	506
30	30	177/2	0.5	3/8	3/8	6/8	4	1	1/8	1/8	1		0	48	C3	3	511
30	30	177/2	1.0	3/8	3/8	6/8	2	1	1/4	1/4	1		0	72	C5	5	502
30	30	177/2	0.5	3/8	3/8	6/8	1	1	1/8	1/8	1		4	76	E5	5	497
30	30	89	1.0	1/2	1/2	6/8	3	1	1/4	1/4	1	1	0	60	C4	4	507
30	30	89	1.0	1/2	1/2	6/8	4	1	1/4	1/4	1	1	0	60	C4	4	512
30	30	89	0.5	1/2	1/2	6/8	1	1	1/8	1/8	1		0	72	C5	5	498
30	30	179/2	0.5	5/8	5/8	6/8	1	1	1/8	1/8	1		0	72	C5	5	499
31	31	90	0.5	0	0	6/8	3	1	1/8	1/8	1	-1	0	60	C4	4	520
31	31	90	0.5	0	0	6/8	4	1	1/8	1/8	1	-1	0	60	C4	4	524
31	31	90	0.5	0	0	6/8	1	1	1/8	1/8	1		2	74	D5	5	513
31	31	181/2	1.5	1/8	1/8	6/8	3	1	3/8	1/4	3/2		-2	58	Bb3	3	521
31	31	181/2	1.5	1/8	1/8	6/8	4	1	3/8	1/4	3/2		-2	58	Bb3	3	525
31	31	181/2	0.5	1/8	1/8	6/8	1	1	1/8	1/8	1		2	74	D5	5	514
31	31	91	0.5	1/4	1/4	6/8	1	1	1/8	1/8	1		2	74	D5	5	515
31	31	183/2	0.5	3/8	3/8	6/8	1	1	1/8	1/8	1		4	76	E5	5	516
31	31	92	0.5	1/2	1/2	6/8	3	1	1/8	1/8	1		3	57	A3	3	522
31	31	92	0.5	1/2	1/2	6/8	4	1	1/8	1/8	1		3	57	A3	3	526
31	31	92	0.5	1/2	1/2	6/8	2	1	1/8	1/8	1		0	72	C5	5	518
31	31	92	1.0	1/2	1/2	6/8	1	1	1/4	1/4	1	1	-1	77	F5	5	517
31	31	185/2	0.5	5/8	5/8	6/8	3	1	1/8	1/8	1		-1	53	F3	3	523
31	31	185/2	0.5	5/8	5/8	6/8	4	1	1/8	1/8	1		-1	53	F3	3	527
31	31	185/2	0.5	5/8	5/8	6/8	2	1	1/8	1/8	1		0	72	C5	5	519
32	32	93	0.5	0	0	6/8	3	1	1/8	1/8	1		-2	58	Bb3	3	540
32	32	93	0.5	0	0	6/8	4	1	1/8	1/8	1		-2	58	Bb3	3	545
32	32	93	0.5	0	0	6/8	2	1	1/8	1/8	1		2	74	D5	5	532
32	32	93	0.5	0	0	6/8	1	1	1/8	1/8	1	-1	-1	77	F5	5	528
32	32	187/2	0.5	1/8	1/8	6/8	3	1	1/8	1/8	1		5	59	B3	3	541
32	32	187/2	0.5	1/8	1/8	6/8	4	1	1/8	1/8	1		5	59	B3	3	546
32	32	187/2	0.5	1/8	1/8	6/8	2	1	1/8	1/8	1		2	74	D5	5	533
32	32	187/2	1.5	1/8	1/8	6/8	1	1	3/8	1/4	3/2		1	79	G5	5	529
32	32	94	0.5	1/4	1/4	6/8	3	1	1/8	1/8	1		1	55	G3	3	542
32	32	94	0.5	1/4	1/4	6/8	4	1	1/8	1/8	1		1	55	G3	3	547
32	32	94	0.5	1/4	1/4	6/8	2	1	1/8	1/8	1		2	74	D5	5	534
32	32	189/2	0.5	3/8	3/8	6/8	3	1	1/8	1/8	1		0	60	C4	4	543
32	32	189/2	0.5	3/8	3/8	6/8	4	1	1/8	1/8	1		0	60	C4	4	548
32	32	189/2	0.5	3/8	3/8	6/8	2	1	1/8	1/8	1		4	76	E5	5	535
32	32	95	1.0	1/2	1/2	6/8	3	1	1/4	1/4	1	1	-1	65	F4	4	544
32	32	95	1.0	1/2	1/2	6/8	4	1	1/4	1/4	1	1	-1	65	F4	4	549
32	32	95	0.25	1/2	1/2	6/8	2	1	1/16	1/16	1		-1	77	F5	5	536
32	32	95	0.5	1/2	1/2	6/8	1	1	1/8	1/8	1		3	81	A5	5	530
32	32	381/4	0.25	9/16	9/16	6/8	2	1	1/16	1/16	1		1	79	G5	5	537
32	32	191/2	0.5	5/8	5/8	6/8	1	1	1/8	1/8	1		-1	77	F5	5	531
32	32	191/2	0.25	5/8	5/8	6/8	2	1	1/16	1/16	1		3	81	A5	5	538
32	32	383/4	0.25	11/16	11/16	6/8	2	1	1/16	1/16	1		-1	77	F5	5	539
33	33	96	0.5	0	0	6/8	3	1	1/8	1/8	1	-1	-1	65	F4	4	557
33	33	96	0.5	0	0	6/8	4	1	1/8	1/8	1	-1	-1	65	F4	4	564
33	33	96	0.5	0	0	6/8	2	1	1/8	1/8	1		1	79	G5	5	554
33	33	96	0.5	0	0	6/8	1	1	1/8	1/8	1		-2	82	Bb5	5	550
33	33	193/2	1.0	1/8	1/8	6/8	3	1	1/4	1/4	1		4	64	E4	4	558
33	33	193/2	1.0	1/8	1/8	6/8	4	1	1/4	1/4	1		4	64	E4	4	565
33	33	193/2	0.5	1/8	1/8	6/8	1	1	1/8	1/8	1		1	79	G5	5	551
33	33	193/2	1.5	1/8	1/8	6/8	2	1	3/8	1/4	3/2		1	79	G5	5	555
33	33	97	0.5	1/4	1/4	6/8	1	1	1/8	1/8	1		0	84	C6	6	552
33	33	195/2	0.5	3/8	3/8	6/8	3	1	1/8	1/8	1		-1	65	F4	4	559
33	33	195/2	0.5	3/8	3/8	6/8	4	1	1/8	1/8	1		-1	65	F4	4	566
33	33	195/2	1.5	3/8	3/8	6/8	1	1	3/8	1/4	3/2		3	81	A5	5	553
33	33	98	0.25	1/2	1/2	6/8	3	1	1/16	1/16	1		-1	53	F3	3	560
33	33	98	0.25	1/2	1/2	6/8	4	1	1/16	1/16	1		-1	53	F3	3	567
33	33	98	1.0	1/2	1/2	6/8	2	1	1/4	1/4	1	1	-1	77	F5	5	556
33	33	393/4	0.25	9/16	9/16	6/8	3	1	1/16	1/16	1		1	55	G3	3	561
33	33	393/4	0.25	9/16	9/16	6/8	4	1	1/16	1/16	1		1	55	G3	3	568
33	33	197/2	0.25	5/8	5/8	6/8	3	1	1/16	1/16	1		3	57	A3	3	562
33	33	197/2	0.25	5/8	5/8	6/8	4	1	1/16	1/16	1		3	57	A3	3	569
33	33	395/4	0.25	11/16	11/16	6/8	3	1	1/16	1/16	1		-2	58	Bb3	3	563
33	33	395/4	0.25	11/16	11/16	6/8	4	1	1/16	1/16	1		-2	58	Bb3	3	570
34	34	99	0.5	0	0	6/8	3	1	1/8	1/8	1		0	60	C4	4	576
34	34	99	0.5	0	0	6/8	4	1	1/8	1/8	1		0	60	C4	4	584
34	34	99	0.5	0	0	6/8	2	1	1/8	1/8	1	-1	-1	77	F5	5	573
34	34	99	1.5	0	0	6/8	1	1	3/8	1/4	3/2		1	79	G5	5	571
34	34	199/2	0.5	1/8	1/8	6/8	3	1	1/8	1/8	1		0	48	C3	3	577
34	34	199/2	0.5	1/8	1/8	6/8	4	1	1/8	1/8	1		0	48	C3	3	585
34	34	199/2	1.5	1/8	1/8	6/8	2	1	3/8	1/4	3/2		4	76	E5	5	574
34	34	100	0.5	1/4	1/4	6/8	3	1	1/8	1/8	1		0	48	C3	3	578
34	34	100	0.5	1/4	1/4	6/8	4	1	1/8	1/8	1		0	48	C3	3	586
34	34	201/2	0.5	3/8	3/8	6/8	3	1	1/8	1/8	1		2	50	D3	3	579
34	34	201/2	0.5	3/8	3/8	6/8	4	1	1/8	1/8	1		2	50	D3	3	587
34	34	201/2	1.5	3/8	3/8	6/8	1	1	3/8	1/4	3/2		-1	77	F5	5	572
34	34	101	0.25	1/2	1/2	6/8	3	1	1/16	1/16	1		2	50	D3	3	580
34	34	101	0.25	1/2	1/2	6/8	4	1	1/16	1/16	1		2	50	D3	3	588
34	34	101	1.0	1/2	1/2	6/8	2	1	1/4	1/4	1	1	2	74	D5	5	575
34	34	405/4	0.25	9/16	9/16	6/8	3	1	1/16	1/16	1		4	52	E3	3	581
34	34	405/4	0.25	9/16	9/16	6/8	4	1	1/16	1/16	1		4	52	E3	3	589
34	34	203/2	0.25	5/8	5/8	6/8	3	1	1/16	1/16	1		-1	53	F3	3	582
34	34	203/2	0.25	5/8	5/8	6/8	4	1	1/16	1/16	1		-1	53	F3	3	590
34	34	407/4	0.25	11/16	11/16	6/8	3	1	1/16	1/16	1		1	55	G3	3	583
34	34	407/4	0.25	11/16	11/16	6/8	4	1	1/16	1/16	1		1	55	G3	3	591
35	35	102	0.5	0	0	6/8	3	1	1/8	1/8	1		3	57	A3	3	597
35	35	102	0.5	0	0	6/8	4	1	1/8	1/8	1		3	57	A3	3	605
35	35	102	0.5	0	0	6/8	2	1	1/8	1/8	1	-1	2	74	D5	5	594
35	35	102	1.5	0	0	6/8	1	1	3/8	1/4	3/2		4	76	E5	5	592
35	35	205/2	0.5	1/8	1/8	6/8	3	1	1/8	1/8	1		3	45	A2	2	598
35	35	205/2	0.5	1/8	1/8	6/8	4	1	1/8	1/8	1		3	45	A2	2	606
35	35	205/2	1.5	1/8	1/8	6/8	2	1	3/8	1/4	3/2		0	72	C5	5	595
35	35	103	0.5	1/4	1/4	6/8	3	1	1/8	1/8	1		3	45	A2	2	599
35	35	103	0.5	1/4	1/4	6/8	4	1	1/8	1/8	1		3	45	A2	2	607
35	35	207/2	0.5	3/8	3/8	6/8	3	1	1/8	1/8	1		-2	46	Bb2	2	600
35	35	207/2	0.5	3/8	3/8	6/8	4	1	1/8	1/8	1		-2	46	Bb2	2	608
35	35	207/2	1.5	3/8	3/8	6/8	1	1	3/8	1/4	3/2		2	74	D5	5	593
35	35	104	0.25	1/2	1/2	6/8	3	1	1/16	1/16	1		-2	46	Bb2	2	601
35	35	104	0.25	1/2	1/2	6/8	4	1	1/16	1/16	1		-2	46	Bb2	2	609
35	35	104	1.0	1/2	1/2	6/8	2	1	1/4	1/4	1	1	-2	70	Bb4	4	596
35	35	417/4	0.25	9/16	9/16	6/8	3	1	1/16	1/16	1		0	48	C3	3	602
35	35	417/4	0.25	9/16	9/16	6/8	4	1	1/16	1/16	1		0	48	C3	3	610
35	35	209/2	0.25	5/8	5/8	6/8	3	1	1/16	1/16	1		2	50	D3	3	603
35	35	209/2	0.25	5/8	5/8	6/8	4	1	1/16	1/16	1		2	50	D3	3	611
35	35	419/4	0.25	11/16	11/16	6/8	3	1	1/16	1/16	1		4	52	E3	3	604
35	35	419/4	0.25	11/16	11/16	6/8	4	1	1/16	1/16	1		4	52	E3	3	612
36	36	105	0.5	0	0	6/8	3	1	1/8	1/8	1		-1	53	F3	3	618
36	36	105	0.5	0	0	6/8	4	1	1/8	1/8	1		-1	53	F3	3	624
36	36	105	0.5	0	0	6/8	2	1	1/8	1/8	1	-1	-2	70	Bb4	4	615
36	36	105	1.5	0	0	6/8	1	1	3/8	1/4	3/2		0	72	C5	5	613
36	36	211/2	0.5	1/8	1/8	6/8	3	1	1/8	1/8	1		-1	41	F2	2	619
36	36	211/2	0.5	1/8	1/8	6/8	4	1	1/8	1/8	1		-1	41	F2	2	625
36	36	211/2	1.5	1/8	1/8	6/8	2	1	3/8	1/4	3/2		3	69	A4	4	616
36	36	106	0.5	1/4	1/4	6/8	3	1	1/8	1/8	1		-1	41	F2	2	620
36	36	106	0.5	1/4	1/4	6/8	4	1	1/8	1/8	1		-1	41	F2	2	626
36	36	213/2	0.5	3/8	3/8	6/8	3	1	1/8	1/8	1		1	43	G2	2	621
36	36	213/2	0.5	3/8	3/8	6/8	4	1	1/8	1/8	1		1	43	G2	2	627
36	36	213/2	1.5	3/8	3/8	6/8	1	1	3/8	1/4	3/2		-2	70	Bb4	4	614
36	36	107	0.5	1/2	1/2	6/8	3	1	1/8	1/8	1		1	43	G2	2	622
36	36	107	0.5	1/2	1/2	6/8	4	1	1/8	1/8	1		1	43	G2	2	628
36	36	107	1.0	1/2	1/2	6/8	2	1	1/4	1/4	1	1	1	67	G4	4	617
36	36	215/2	0.5	5/8	5/8	6/8	3	1	1/8	1/8	1		1	43	G2	2	623
36	36	215/2	0.5	5/8	5/8	6/8	4	1	1/8	1/8	1		1	43	G2	2	629
37	37	108	0.5	0	0	6/8	3	1	1/8	1/8	1		3	45	A2	2	637
37	37	108	0.5	0	0	6/8	4	1	1/8	1/8	1		3	45	A2	2	642
37	37	108	0.5	0	0	6/8	2	1	1/8	1/8	1	-1	1	67	G4	4	634
37	37	108	1.0	0	0	6/8	1	1	1/4	1/4	1		3	69	A4	4	630
37	37	217/2	0.5	1/8	1/8	6/8	3	1	1/8	1/8	1		3	45	A2	2	638
37	37	217/2	0.5	1/8	1/8	6/8	4	1	1/8	1/8	1		3	45	A2	2	643
37	37	217/2	1.5	1/8	1/8	6/8	2	1	3/8	1/4	3/2		-1	65	F4	4	635
37	37	109	0.5	1/4	1/4	6/8	3	1	1/8	1/8	1		3	45	A2	2	639
37	37	109	0.5	1/4	1/4	6/8	4	1	1/8	1/8	1		3	45	A2	2	644
37	37	109	0.5	1/4	1/4	6/8	1	1	1/8	1/8	1		0	72	C5	5	631
37	37	219/2	0.5	3/8	3/8	6/8	3	1	1/8	1/8	1		-2	46	Bb2	2	640
37	37	219/2	0.5	3/8	3/8	6/8	4	1	1/8	1/8	1		-2	46	Bb2	2	645
37	37	219/2	0.5	3/8	3/8	6/8	1	1	1/8	1/8	1		2	74	D5	5	632
37	37	110	1.0	1/2	1/2	6/8	3	1	1/4	1/4	1		0	48	C3	3	641
37	37	110	1.0	1/2	1/2	6/8	4	1	1/4	1/4	1		0	48	C3	3	646
37	37	110	1.0	1/2	1/2	6/8	2	1	1/4	1/4	1		4	64	E4	4	636
37	37	110	1.0	1/2	1/2	6/8	1	1	1/4	1/4	1		1	67	G4	4	633
38	38	111	1.0	0	0	6/8	3	1	1/4	1/4	1		-1	41	F2	2	654
38	38	111	1.0	0	0	6/8	4	1	1/4	1/4	1		-1	41	F2	2	659
38	38	111	0.5	0	0	6/8	2	1	1/8	1/8	1		-1	65	F4	4	651
38	38	111	1.0	0	0	6/8	1	1	1/4	1/4	1		-1	65	F4	4	647
38	38	223/2	1.5	1/8	1/8	6/8	2	1	3/8	1/4	3/2		3	69	A4	4	652
38	38	112	0.5	1/4	1/4	6/8	3	1	1/8	1/8	1		-1	53	F3	3	655
38	38	112	0.5	1/4	1/4	6/8	4	1	1/8	1/8	1		-1	53	F3	3	660
38	38	112	0.5	1/4	1/4	6/8	1	1	1/8	1/8	1		0	72	C5	5	648
38	38	225/2	0.5	3/8	3/8	6/8	3	1	1/8	1/8	1		2	50	D3	3	656
38	38	225/2	0.5	3/8	3/8	6/8	4	1	1/8	1/8	1		2	50	D3	3	661
38	38	225/2	1.0	3/8	3/8	6/8	1	1	1/4	1/4	1		-2	70	Bb4	4	649
38	38	113	0.5	1/2	1/2	6/8	3	1	1/8	1/8	1		4	52	E3	3	657
38	38	113	0.5	1/2	1/2	6/8	4	1	1/8	1/8	1		4	52	E3	3	662
38	38	113	1.0	1/2	1/2	6/8	2	1	1/4	1/4	1	1	1	67	G4	4	653
38	38	227/2	0.5	5/8	5/8	6/8	3	1	1/8	1/8	1		0	48	C3	3	658
38	38	227/2	0.5	5/8	5/8	6/8	4	1	1/8	1/8	1		0	48	C3	3	663
38	38	227/2	0.5	5/8	5/8	6/8	1	1	1/8	1/8	1		0	72	C5	5	650
39	39	114	1.0	0	0	6/8	3	1	1/4	1/4	1		-1	53	F3	3	671
39	39	114	1.0	0	0	6/8	4	1	1/4	1/4	1		-1	53	F3	3	675
39	39	114	0.5	0	0	6/8	2	1	1/8	1/8	1	-1	1	67	G4	4	668
39	39	114	1.0	0	0	6/8	1	1	1/4	1/4	1		3	69	A4	4	664
39	39	229/2	1.5	1/8	1/8	6/8	2	1	3/8	1/4	3/2		-1	65	F4	4	669
39	39	115	0.5	1/4	1/4	6/8	3	1	1/8	1/8	1		3	45	A2	2	672
39	39	115	0.5	1/4	1/4	6/8	4	1	1/8	1/8	1		3	45	A2	2	676
39	39	115	0.5	1/4	1/4	6/8	1	1	1/8	1/8	1		0	72	C5	5	665
39	39	231/2	0.5	3/8	3/8	6/8	3	1	1/8	1/8	1		-2	46	Bb2	2	673
39	39	231/2	0.5	3/8	3/8	6/8	4	1	1/8	1/8	1		-2	46	Bb2	2	677
39	39	231/2	0.5	3/8	3/8	6/8	1	1	1/8	1/8	1		2	74	D5	5	666
39	39	116	1.0	1/2	1/2	6/8	3	1	1/4	1/4	1		0	48	C3	3	674
39	39	116	1.0	1/2	1/2	6/8	4	1	1/4	1/4	1		0	48	C3	3	678
39	39	116	1.0	1/2	1/2	6/8	2	1	1/4	1/4	1		4	64	E4	4	670
39	39	116	1.0	1/2	1/2	6/8	1	1	1/4	1/4	1		1	67	G4	4	667
40	40	117	1.5	0	0	6/8	3	1	3/8	1/4	3/2		-1	41	F2	2	681
40	40	117	1.5	0	0	6/8	4	1	3/8	1/4	3/2		-1	41	F2	2	682
40	40	117	1.5	0	0	6/8	1	1	3/8	1/4	3/2		-1	65	F4	4	679
40	40	117	1.5	0	0	6/8	2	1	3/8	1/4	3/2		-1	65	F4	4	680
