mc	mn	quarterbeats	duration_qb	mc_onset	mn_onset	timesig	staff	voice	duration	nominal_duration	scalar	tied	tpc	midi	name	octave	chord_id
1	1	0	4.0	0	0	4/4	3	1	1	1	1		3	45	A2	2	17
1	1	0	4.0	0	0	4/4	4	1	1	1	1		3	45	A2	2	18
1	1	0	0.25	0	0	4/4	1	1	1/16	1/16	1		3	81	A5	5	0
1	1	1/4	0.25	1/16	1/16	4/4	1	1	1/16	1/16	1		4	76	E5	5	1
1	1	1/2	0.25	1/8	1/8	4/4	1	1	1/16	1/16	1		7	73	C#5	5	2
1	1	3/4	0.25	3/16	3/16	4/4	1	1	1/16	1/16	1		4	76	E5	5	3
1	1	1	0.25	1/4	1/4	4/4	1	1	1/16	1/16	1		7	73	C#5	5	4
1	1	5/4	0.25	5/16	5/16	4/4	1	1	1/16	1/16	1		3	69	A4	4	5
1	1	3/2	0.25	3/8	3/8	4/4	1	1	1/16	1/16	1		4	64	E4	4	6
1	1	7/4	0.25	7/16	7/16	4/4	1	1	1/16	1/16	1		3	69	A4	4	7
1	1	2	1.0	1/2	1/2	4/4	1	1	1/4	1/4	1		7	61	C#4	4	8
1	1	2	0.25	1/2	1/2	4/4	2	1	1/16	1/16	1		3	81	A5	5	9
1	1	9/4	0.25	9/16	9/16	4/4	2	1	1/16	1/16	1		4	76	E5	5	10
1	1	5/2	0.25	5/8	5/8	4/4	2	1	1/16	1/16	1		7	73	C#5	5	11
1	1	11/4	0.25	11/16	11/16	4/4	2	1	1/16	1/16	1		4	76	E5	5	12
1	1	3	0.25	3/4	3/4	4/4	2	1	1/16	1/16	1		3	69	A4	4	13
1	1	13/4	0.25	13/16	13/16	4/4	2	1	1/16	1/16	1		3	81	A5	5	14
1	1	7/2	0.25	7/8	7/8	4/4	2	1	1/16	1/16	1		4	76	E5	5	15
1	1	15/4	0.25	15/16	15/16	4/4	2	1	1/16	1/16	1		3	81	A5	5	16
2	2	4	4.0	0	0	4/4	3	1	1	1	1		2	50	D3	3	37
2	2	4	4.0	0	0	4/4	4	1	1	1	1		2	50	D3	3	38
2	2	4	1.0	0	0	4/4	2	1	1/4	1/4	1		6	78	F#5	5	28
2	2	4	0.25	0	0	4/4	1	1	1/16	1/16	1		3	81	A5	5	19
2	2	17/4	0.25	1/16	1/16	4/4	1	1	1/16	1/16	1		6	78	F#5	5	20
2	2	9/2	0.25	1/8	1/8	4/4	1	1	1/16	1/16	1		2	74	D5	5	21
2	2	19/4	0.25	3/16	3/16	4/4	1	1	1/16	1/16	1		6	78	F#5	5	22
2	2	5	0.25	1/4	1/4	4/4	1	1	1/16	1/16	1		3	69	A4	4	23
2	2	21/4	0.25	5/16	5/16	4/4	1	1	1/16	1/16	1		2	74	D5	5	24
2	2	11/2	0.25	3/8	3/8	4/4	1	1	1/16	1/16	1		6	66	F#4	4	25
2	2	23/4	0.25	7/16	7/16	4/4	1	1	1/16	1/16	1		3	69	A4	4	26
2	2	6	1.0	1/2	1/2	4/4	1	1	1/4	1/4	1		2	62	D4	4	27
2	2	6	0.25	1/2	1/2	4/4	2	1	1/16	1/16	1		2	74	D5	5	29
2	2	25/4	0.25	9/16	9/16	4/4	2	1	1/16	1/16	1		6	78	F#5	5	30
2	2	13/2	0.25	5/8	5/8	4/4	2	1	1/16	1/16	1		3	81	A5	5	31
2	2	27/4	0.25	11/16	11/16	4/4	2	1	1/16	1/16	1		6	78	F#5	5	32
2	2	7	0.25	3/4	3/4	4/4	2	1	1/16	1/16	1		2	74	D5	5	33
2	2	29/4	0.25	13/16	13/16	4/4	2	1	1/16	1/16	1		6	78	F#5	5	34
2	2	15/2	0.25	7/8	7/8	4/4	2	1	1/16	1/16	1		3	69	A4	4	35
2	2	31/4	0.25	15/16	15/16	4/4	2	1	1/16	1/16	1		2	74	D5	5	36
3	3	8	4.0	0	0	4/4	3	1	1	1	1		9	51	D#3	3	57
3	3	8	4.0	0	0	4/4	4	1	1	1	1		9	51	D#3	3	58
3	3	8	1.0	0	0	4/4	2	1	1/4	1/4	1		6	66	F#4	4	48
3	3	8	0.25	0	0	4/4	1	1	1/16	1/16	1		5	83	B5	5	39
3	3	33/4	0.25	1/16	1/16	4/4	1	1	1/16	1/16	1		6	78	F#5	5	40
3	3	17/2	0.25	1/8	1/8	4/4	1	1	1/16	1/16	1		9	75	D#5	5	41
3	3	35/4	0.25	3/16	3/16	4/4	1	1	1/16	1/16	1		6	78	F#5	5	42
3	3	9	0.25	1/4	1/4	4/4	1	1	1/16	1/16	1		5	71	B4	4	43
3	3	37/4	0.25	5/16	5/16	4/4	1	1	1/16	1/16	1		9	75	D#5	5	44
3	3	19/2	0.25	3/8	3/8	4/4	1	1	1/16	1/16	1		6	66	F#4	4	45
3	3	39/4	0.25	7/16	7/16	4/4	1	1	1/16	1/16	1		5	71	B4	4	46
3	3	10	1.0	1/2	1/2	4/4	1	1	1/4	1/4	1		9	63	D#4	4	47
3	3	10	0.25	1/2	1/2	4/4	2	1	1/16	1/16	1		5	83	B5	5	49
3	3	41/4	0.25	9/16	9/16	4/4	2	1	1/16	1/16	1		6	78	F#5	5	50
3	3	21/2	0.25	5/8	5/8	4/4	2	1	1/16	1/16	1		9	75	D#5	5	51
3	3	43/4	0.25	11/16	11/16	4/4	2	1	1/16	1/16	1		6	78	F#5	5	52
3	3	11	0.25	3/4	3/4	4/4	2	1	1/16	1/16	1		5	71	B4	4	53
3	3	45/4	0.25	13/16	13/16	4/4	2	1	1/16	1/16	1		5	83	B5	5	54
3	3	23/2	0.25	7/8	7/8	4/4	2	1	1/16	1/16	1		6	78	F#5	5	55
3	3	47/4	0.25	15/16	15/16	4/4	2	1	1/16	1/16	1		5	83	B5	5	56
4	4	12	4.0	0	0	4/4	3	1	1	1	1		4	52	E3	3	77
4	4	12	4.0	0	0	4/4	4	1	1	1	1		4	52	E3	3	78
4	4	12	0.25	0	0	4/4	1	1	1/16	1/16	1		4	76	E5	5	59
4	4	12	1.0	0	0	4/4	2	1	1/4	1/4	1		8	80	G#5	5	68
4	4	49/4	0.25	1/16	1/16	4/4	1	1	1/16	1/16	1		5	71	B4	4	60
4	4	25/2	0.25	1/8	1/8	4/4	1	1	1/16	1/16	1		8	68	G#4	4	61
4	4	51/4	0.25	3/16	3/16	4/4	1	1	1/16	1/16	1		5	71	B4	4	62
4	4	13	0.25	1/4	1/4	4/4	1	1	1/16	1/16	1		4	64	E4	4	63
4	4	53/4	0.25	5/16	5/16	4/4	1	1	1/16	1/16	1		8	68	G#4	4	64
4	4	27/2	0.25	3/8	3/8	4/4	1	1	1/16	1/16	1		5	59	B3	3	65
4	4	55/4	0.25	7/16	7/16	4/4	1	1	1/16	1/16	1		4	64	E4	4	66
4	4	14	1.0	1/2	1/2	4/4	1	1	1/4	1/4	1		8	56	G#3	3	67
4	4	14	0.25	1/2	1/2	4/4	2	1	1/16	1/16	1		4	76	E5	5	69
4	4	57/4	0.25	9/16	9/16	4/4	2	1	1/16	1/16	1		5	71	B4	4	70
4	4	29/2	0.25	5/8	5/8	4/4	2	1	1/16	1/16	1		8	68	G#4	4	71
4	4	59/4	0.25	11/16	11/16	4/4	2	1	1/16	1/16	1		5	71	B4	4	72
4	4	15	0.25	3/4	3/4	4/4	2	1	1/16	1/16	1		4	64	E4	4	73
4	4	61/4	0.25	13/16	13/16	4/4	2	1	1/16	1/16	1		4	76	E5	5	74
4	4	31/2	0.25	7/8	7/8	4/4	2	1	1/16	1/16	1		5	71	B4	4	75
4	4	63/4	0.25	15/16	15/16	4/4	2	1	1/16	1/16	1		4	76	E5	5	76
5	5	16	4.0	0	0	4/4	3	1	1	1	1		3	45	A2	2	97
5	5	16	4.0	0	0	4/4	4	1	1	1	1		3	45	A2	2	98
5	5	16	1.0	0	0	4/4	2	1	1/4	1/4	1		7	73	C#5	5	88
5	5	16	0.25	0	0	4/4	1	1	1/16	1/16	1		3	81	A5	5	79
5	5	65/4	0.25	1/16	1/16	4/4	1	1	1/16	1/16	1		4	76	E5	5	80
5	5	33/2	0.25	1/8	1/8	4/4	1	1	1/16	1/16	1		7	73	C#5	5	81
5	5	67/4	0.25	3/16	3/16	4/4	1	1	1/16	1/16	1		4	76	E5	5	82
5	5	17	0.25	1/4	1/4	4/4	1	1	1/16	1/16	1		3	69	A4	4	83
5	5	69/4	0.25	5/16	5/16	4/4	1	1	1/16	1/16	1		7	73	C#5	5	84
5	5	35/2	0.25	3/8	3/8	4/4	1	1	1/16	1/16	1		4	64	E4	4	85
5	5	71/4	0.25	7/16	7/16	4/4	1	1	1/16	1/16	1		3	69	A4	4	86
5	5	18	1.0	1/2	1/2	4/4	1	1	1/4	1/4	1		7	61	C#4	4	87
5	5	18	0.25	1/2	1/2	4/4	2	1	1/16	1/16	1		3	81	A5	5	89
5	5	73/4	0.25	9/16	9/16	4/4	2	1	1/16	1/16	1		4	76	E5	5	90
5	5	37/2	0.25	5/8	5/8	4/4	2	1	1/16	1/16	1		7	73	C#5	5	91
5	5	75/4	0.25	11/16	11/16	4/4	2	1	1/16	1/16	1		4	76	E5	5	92
5	5	19	0.25	3/4	3/4	4/4	2	1	1/16	1/16	1		3	69	A4	4	93
5	5	77/4	0.25	13/16	13/16	4/4	2	1	1/16	1/16	1		3	81	A5	5	94
5	5	39/2	0.25	7/8	7/8	4/4	2	1	1/16	1/16	1		4	76	E5	5	95
5	5	79/4	0.25	15/16	15/16	4/4	2	1	1/16	1/16	1		3	81	A5	5	96
6	6	20	1.0	0	0	4/4	3	1	1/4	1/4	1		2	50	D3	3	111
6	6	20	1.0	0	0	4/4	4	1	1/4	1/4	1		2	50	D3	3	115
6	6	20	0.5	0	0	4/4	2	1	1/8	1/8	1		6	78	F#5	5	106
6	6	41/2	0.5	1/8	1/8	4/4	1	1	1/8	1/8	1		6	78	F#5	5	99
6	6	41/2	1.0	1/8	1/8	4/4	2	1	1/4	1/4	1		5	83	B5	5	107
6	6	21	1.0	1/4	1/4	4/4	3	1	1/4	1/4	1		4	52	E3	3	112
6	6	21	1.0	1/4	1/4	4/4	4	1	1/4	1/4	1		4	52	E3	3	116
6	6	21	0.5	1/4	1/4	4/4	1	1	1/8	1/8	1		8	80	G#5	5	100
6	6	43/2	0.5	3/8	3/8	4/4	1	1	1/8	1/8	1		4	76	E5	5	101
6	6	43/2	1.0	3/8	3/8	4/4	2	1	1/4	1/4	1		7	85	C#6	6	108
6	6	22	1.0	1/2	1/2	4/4	3	1	1/4	1/4	1		6	54	F#3	3	113
6	6	22	1.0	1/2	1/2	4/4	4	1	1/4	1/4	1		6	54	F#3	3	117
6	6	22	0.5	1/2	1/2	4/4	1	1	1/8	1/8	1		3	81	A5	5	102
6	6	45/2	0.5	5/8	5/8	4/4	1	1	1/8	1/8	1		6	78	F#5	5	103
6	6	45/2	1.0	5/8	5/8	4/4	2	1	1/4	1/4	1		2	86	D6	6	109
6	6	23	1.0	3/4	3/4	4/4	3	1	1/4	1/4	1		8	56	G#3	3	114
6	6	23	1.0	3/4	3/4	4/4	4	1	1/4	1/4	1		8	56	G#3	3	118
6	6	23	0.5	3/4	3/4	4/4	1	1	1/8	1/8	1		5	83	B5	5	104
6	6	47/2	0.5	7/8	7/8	4/4	1	1	1/8	1/8	1		8	80	G#5	5	105
6	6	47/2	0.5	7/8	7/8	4/4	2	1	1/8	1/8	1	1	4	88	E6	6	110
7	7	24	0.5	0	0	4/4	3	1	1/8	1/8	1		3	57	A3	3	128
7	7	24	0.5	0	0	4/4	4	1	1/8	1/8	1		3	57	A3	3	136
7	7	24	1.0	0	0	4/4	1	1	1/4	1/4	1		7	85	C#6	6	119
7	7	24	0.5	0	0	4/4	2	1	1/8	1/8	1	-1	4	88	E6	6	123
7	7	49/2	0.5	1/8	1/8	4/4	3	1	1/8	1/8	1		6	54	F#3	3	129
7	7	49/2	0.5	1/8	1/8	4/4	4	1	1/8	1/8	1		6	54	F#3	3	137
7	7	49/2	1.0	1/8	1/8	4/4	2	1	1/4	1/4	1		2	86	D6	6	124
7	7	25	0.5	1/4	1/4	4/4	3	1	1/8	1/8	1		8	56	G#3	3	130
7	7	25	0.5	1/4	1/4	4/4	4	1	1/8	1/8	1		8	56	G#3	3	138
7	7	25	1.0	1/4	1/4	4/4	1	1	1/4	1/4	1		5	83	B5	5	120
7	7	51/2	0.5	3/8	3/8	4/4	3	1	1/8	1/8	1		4	52	E3	3	131
7	7	51/2	0.5	3/8	3/8	4/4	4	1	1/8	1/8	1		4	52	E3	3	139
7	7	51/2	1.0	3/8	3/8	4/4	2	1	1/4	1/4	1		7	85	C#6	6	125
7	7	26	0.5	1/2	1/2	4/4	3	1	1/8	1/8	1		6	54	F#3	3	132
7	7	26	0.5	1/2	1/2	4/4	4	1	1/8	1/8	1		6	54	F#3	3	140
7	7	26	1.0	1/2	1/2	4/4	1	1	1/4	1/4	1		3	81	A5	5	121
7	7	53/2	0.5	5/8	5/8	4/4	3	1	1/8	1/8	1		9	51	D#3	3	133
7	7	53/2	0.5	5/8	5/8	4/4	4	1	1/8	1/8	1		9	51	D#3	3	141
7	7	53/2	1.0	5/8	5/8	4/4	2	1	1/4	1/4	1		5	83	B5	5	126
7	7	27	0.5	3/4	3/4	4/4	3	1	1/8	1/8	1		4	52	E3	3	134
7	7	27	0.5	3/4	3/4	4/4	4	1	1/8	1/8	1		4	52	E3	3	142
7	7	27	1.0	3/4	3/4	4/4	1	1	1/4	1/4	1		8	80	G#5	5	122
7	7	55/2	0.5	7/8	7/8	4/4	3	1	1/8	1/8	1		7	49	C#3	3	135
7	7	55/2	0.5	7/8	7/8	4/4	4	1	1/8	1/8	1		7	49	C#3	3	143
7	7	55/2	0.5	7/8	7/8	4/4	2	1	1/8	1/8	1	1	3	81	A5	5	127
8	8	28	0.5	0	0	4/4	3	1	1/8	1/8	1		9	51	D#3	3	156
8	8	28	0.5	0	0	4/4	4	1	1/8	1/8	1		9	51	D#3	3	164
8	8	28	0.5	0	0	4/4	1	1	1/8	1/8	1		6	78	F#5	5	144
8	8	28	0.5	0	0	4/4	2	1	1/8	1/8	1	-1	3	81	A5	5	151
8	8	57/2	0.5	1/8	1/8	4/4	3	1	1/8	1/8	1		5	47	B2	2	157
8	8	57/2	0.5	1/8	1/8	4/4	4	1	1/8	1/8	1		5	47	B2	2	165
8	8	57/2	1.0	1/8	1/8	4/4	2	1	1/4	1/4	1		8	80	G#5	5	152
8	8	57/2	0.5	1/8	1/8	4/4	1	1	1/8	1/8	1		5	83	B5	5	145
8	8	29	0.5	1/4	1/4	4/4	3	1	1/8	1/8	1		7	49	C#3	3	158
8	8	29	0.5	1/4	1/4	4/4	4	1	1/8	1/8	1		7	49	C#3	3	166
8	8	29	0.5	1/4	1/4	4/4	1	1	1/8	1/8	1		4	76	E5	5	146
8	8	59/2	0.5	3/8	3/8	4/4	3	1	1/8	1/8	1		3	45	A2	2	159
8	8	59/2	0.5	3/8	3/8	4/4	4	1	1/8	1/8	1		3	45	A2	2	167
8	8	59/2	0.5	3/8	3/8	4/4	1	1	1/8	1/8	1		3	81	A5	5	147
8	8	59/2	0.5	3/8	3/8	4/4	2	1	1/8	1/8	1		7	85	C#6	6	153
8	8	30	0.5	1/2	1/2	4/4	3	1	1/8	1/8	1		5	47	B2	2	160
8	8	30	0.5	1/2	1/2	4/4	4	1	1/8	1/8	1		5	47	B2	2	168
8	8	30	0.5	1/2	1/2	4/4	1	1	1/8	1/8	1		9	75	D#5	5	148
8	8	30	1.0	1/2	1/2	4/4	2	1	1/4	1/4	1		6	78	F#5	5	154
8	8	61/2	0.5	5/8	5/8	4/4	3	1	1/8	1/8	1		5	59	B3	3	161
8	8	61/2	0.5	5/8	5/8	4/4	4	1	1/8	1/8	1		5	59	B3	3	169
8	8	61/2	0.5	5/8	5/8	4/4	1	1	1/8	1/8	1		5	71	B4	4	149
8	8	31	0.5	3/4	3/4	4/4	3	1	1/8	1/8	1		8	56	G#3	3	162
8	8	31	0.5	3/4	3/4	4/4	4	1	1/8	1/8	1		8	56	G#3	3	170
8	8	31	1.0	3/4	3/4	4/4	1	1	1/4	1/4	1		4	76	E5	5	150
8	8	31	1.0	3/4	3/4	4/4	2	1	1/4	1/4	1		8	80	G#5	5	155
8	8	63/2	0.5	7/8	7/8	4/4	3	1	1/8	1/8	1		4	52	E3	3	163
8	8	63/2	0.5	7/8	7/8	4/4	4	1	1/8	1/8	1		4	52	E3	3	171
9	9	32	0.5	0	0	4/4	3	1	1/8	1/8	1		3	57	A3	3	184
9	9	32	0.5	0	0	4/4	4	1	1/8	1/8	1		3	57	A3	3	189
9	9	32	1.5	0	0	4/4	1	1	3/8	1/4	3/2		4	76	E5	5	172
9	9	32	2.0	0	0	4/4	2	1	1/2	1/2	1		6	78	F#5	5	182
9	9	65/2	0.5	1/8	1/8	4/4	3	1	1/8	1/8	1		6	54	F#3	3	185
9	9	65/2	0.5	1/8	1/8	4/4	4	1	1/8	1/8	1		6	54	F#3	3	190
9	9	33	0.5	1/4	1/4	4/4	3	1	1/8	1/8	1		5	59	B3	3	186
9	9	33	0.5	1/4	1/4	4/4	4	1	1/8	1/8	1		5	59	B3	3	191
9	9	67/2	0.5	3/8	3/8	4/4	3	1	1/8	1/8	1		5	47	B2	2	187
9	9	67/2	0.5	3/8	3/8	4/4	4	1	1/8	1/8	1		5	47	B2	2	192
9	9	67/2	0.5	3/8	3/8	4/4	1	1	1/8	1/8	1		9	75	D#5	5	173
9	9	34	2.0	1/2	1/2	4/4	3	1	1/2	1/2	1		4	52	E3	3	188
9	9	34	2.0	1/2	1/2	4/4	4	1	1/2	1/2	1		4	52	E3	3	193
9	9	34	0.25	1/2	1/2	4/4	1	1	1/16	1/16	1		4	76	E5	5	174
9	9	34	1.0	1/2	1/2	4/4	2	1	1/4	1/4	1		4	76	E5	5	183
9	9	137/4	0.25	9/16	9/16	4/4	1	1	1/16	1/16	1		8	80	G#5	5	175
9	9	69/2	0.25	5/8	5/8	4/4	1	1	1/16	1/16	1		5	83	B5	5	176
9	9	139/4	0.25	11/16	11/16	4/4	1	1	1/16	1/16	1		8	80	G#5	5	177
9	9	35	0.25	3/4	3/4	4/4	1	1	1/16	1/16	1		4	76	E5	5	178
9	9	141/4	0.25	13/16	13/16	4/4	1	1	1/16	1/16	1		5	71	B4	4	179
9	9	71/2	0.25	7/8	7/8	4/4	1	1	1/16	1/16	1		8	68	G#4	4	180
9	9	143/4	0.25	15/16	15/16	4/4	1	1	1/16	1/16	1		5	71	B4	4	181
10	10	36	2.0	0	0	4/4	3	1	1/2	1/2	1		8	56	G#3	3	212
10	10	36	2.0	0	0	4/4	4	1	1/2	1/2	1		8	56	G#3	3	214
10	10	36	1.0	0	0	4/4	1	1	1/4	1/4	1		4	64	E4	4	194
10	10	36	0.25	0	0	4/4	2	1	1/16	1/16	1		4	76	E5	5	203
10	10	145/4	0.25	1/16	1/16	4/4	2	1	1/16	1/16	1		8	80	G#5	5	204
10	10	73/2	0.25	1/8	1/8	4/4	2	1	1/16	1/16	1		5	83	B5	5	205
10	10	147/4	0.25	3/16	3/16	4/4	2	1	1/16	1/16	1		8	80	G#5	5	206
10	10	37	0.25	1/4	1/4	4/4	2	1	1/16	1/16	1		4	76	E5	5	207
10	10	149/4	0.25	5/16	5/16	4/4	2	1	1/16	1/16	1		5	71	B4	4	208
10	10	75/2	0.25	3/8	3/8	4/4	2	1	1/16	1/16	1		8	68	G#4	4	209
10	10	151/4	0.25	7/16	7/16	4/4	2	1	1/16	1/16	1		4	76	E5	5	210
10	10	38	2.0	1/2	1/2	4/4	3	1	1/2	1/2	1		3	57	A3	3	213
10	10	38	2.0	1/2	1/2	4/4	4	1	1/2	1/2	1		3	57	A3	3	215
10	10	38	0.25	1/2	1/2	4/4	1	1	1/16	1/16	1		7	73	C#5	5	195
10	10	38	1.0	1/2	1/2	4/4	2	1	1/4	1/4	1		7	73	C#5	5	211
10	10	153/4	0.25	9/16	9/16	4/4	1	1	1/16	1/16	1		4	76	E5	5	196
10	10	77/2	0.25	5/8	5/8	4/4	1	1	1/16	1/16	1		3	81	A5	5	197
10	10	155/4	0.25	11/16	11/16	4/4	1	1	1/16	1/16	1		4	76	E5	5	198
10	10	39	0.25	3/4	3/4	4/4	1	1	1/16	1/16	1		7	73	C#5	5	199
10	10	157/4	0.25	13/16	13/16	4/4	1	1	1/16	1/16	1		3	69	A4	4	200
10	10	79/2	0.25	7/8	7/8	4/4	1	1	1/16	1/16	1		4	64	E4	4	201
10	10	159/4	0.25	15/16	15/16	4/4	1	1	1/16	1/16	1		7	61	C#4	4	202
11	11	40	2.0	0	0	4/4	3	1	1/2	1/2	1		7	49	C#3	3	234
11	11	40	2.0	0	0	4/4	4	1	1/2	1/2	1		7	49	C#3	3	236
11	11	40	1.0	0	0	4/4	1	1	1/4	1/4	1		3	57	A3	3	216
11	11	40	0.25	0	0	4/4	2	1	1/16	1/16	1		3	69	A4	4	225
11	11	161/4	0.25	1/16	1/16	4/4	2	1	1/16	1/16	1		7	73	C#5	5	226
11	11	81/2	0.25	1/8	1/8	4/4	2	1	1/16	1/16	1		4	76	E5	5	227
11	11	163/4	0.25	3/16	3/16	4/4	2	1	1/16	1/16	1		7	73	C#5	5	228
11	11	41	0.25	1/4	1/4	4/4	2	1	1/16	1/16	1		3	69	A4	4	229
11	11	165/4	0.25	5/16	5/16	4/4	2	1	1/16	1/16	1		4	76	E5	5	230
11	11	83/2	0.25	3/8	3/8	4/4	2	1	1/16	1/16	1		3	81	A5	5	231
11	11	167/4	0.25	7/16	7/16	4/4	2	1	1/16	1/16	1		4	76	E5	5	232
11	11	42	2.0	1/2	1/2	4/4	3	1	1/2	1/2	1		2	50	D3	3	235
11	11	42	2.0	1/2	1/2	4/4	4	1	1/2	1/2	1		2	50	D3	3	237
11	11	42	1.0	1/2	1/2	4/4	2	1	1/4	1/4	1		6	78	F#5	5	233
11	11	42	0.25	1/2	1/2	4/4	1	1	1/16	1/16	1		3	81	A5	5	217
11	11	169/4	0.25	9/16	9/16	4/4	1	1	1/16	1/16	1		6	78	F#5	5	218
11	11	85/2	0.25	5/8	5/8	4/4	1	1	1/16	1/16	1		2	74	D5	5	219
11	11	171/4	0.25	11/16	11/16	4/4	1	1	1/16	1/16	1		6	78	F#5	5	220
11	11	43	0.25	3/4	3/4	4/4	1	1	1/16	1/16	1		3	69	A4	4	221
11	11	173/4	0.25	13/16	13/16	4/4	1	1	1/16	1/16	1		2	74	D5	5	222
11	11	87/2	0.25	7/8	7/8	4/4	1	1	1/16	1/16	1		6	66	F#4	4	223
11	11	175/4	0.25	15/16	15/16	4/4	1	1	1/16	1/16	1		3	69	A4	4	224
12	12	44	4.0	0	0	4/4	3	1	1	1	1	1	2	50	D3	3	256
12	12	44	4.0	0	0	4/4	4	1	1	1	1	1	2	50	D3	3	257
12	12	44	1.0	0	0	4/4	1	1	1/4	1/4	1		2	62	D4	4	238
12	12	44	0.25	0	0	4/4	2	1	1/16	1/16	1		3	81	A5	5	247
12	12	177/4	0.25	1/16	1/16	4/4	2	1	1/16	1/16	1		6	78	F#5	5	248
12	12	89/2	0.25	1/8	1/8	4/4	2	1	1/16	1/16	1		2	74	D5	5	249
12	12	179/4	0.25	3/16	3/16	4/4	2	1	1/16	1/16	1		6	78	F#5	5	250
12	12	45	0.25	1/4	1/4	4/4	2	1	1/16	1/16	1		3	69	A4	4	251
12	12	181/4	0.25	5/16	5/16	4/4	2	1	1/16	1/16	1		2	74	D5	5	252
12	12	91/2	0.25	3/8	3/8	4/4	2	1	1/16	1/16	1		6	66	F#4	4	253
12	12	183/4	0.25	7/16	7/16	4/4	2	1	1/16	1/16	1		3	69	A4	4	254
12	12	46	1.0	1/2	1/2	4/4	2	1	1/4	1/4	1		2	62	D4	4	255
12	12	46	0.25	1/2	1/2	4/4	1	1	1/16	1/16	1		6	78	F#5	5	239
12	12	185/4	0.25	9/16	9/16	4/4	1	1	1/16	1/16	1		3	81	A5	5	240
12	12	93/2	0.25	5/8	5/8	4/4	1	1	1/16	1/16	1		1	79	G5	5	241
12	12	187/4	0.25	11/16	11/16	4/4	1	1	1/16	1/16	1		3	81	A5	5	242
12	12	47	0.25	3/4	3/4	4/4	1	1	1/16	1/16	1		6	78	F#5	5	243
12	12	189/4	0.25	13/16	13/16	4/4	1	1	1/16	1/16	1		1	79	G5	5	244
12	12	95/2	0.25	7/8	7/8	4/4	1	1	1/16	1/16	1		4	76	E5	5	245
12	12	191/4	0.25	15/16	15/16	4/4	1	1	1/16	1/16	1		6	78	F#5	5	246
13	13	48	4.0	0	0	4/4	3	1	1	1	1	-1	2	50	D3	3	290
13	13	48	4.0	0	0	4/4	4	1	1	1	1	-1	2	50	D3	3	291
13	13	48	0.25	0	0	4/4	1	1	1/16	1/16	1		2	74	D5	5	258
13	13	48	0.25	0	0	4/4	2	1	1/16	1/16	1		6	78	F#5	5	274
13	13	193/4	0.25	1/16	1/16	4/4	1	1	1/16	1/16	1		6	78	F#5	5	259
13	13	193/4	0.25	1/16	1/16	4/4	2	1	1/16	1/16	1		3	81	A5	5	275
13	13	97/2	0.25	1/8	1/8	4/4	1	1	1/16	1/16	1		4	76	E5	5	260
13	13	97/2	0.25	1/8	1/8	4/4	2	1	1/16	1/16	1		1	79	G5	5	276
13	13	195/4	0.25	3/16	3/16	4/4	1	1	1/16	1/16	1		6	78	F#5	5	261
13	13	195/4	0.25	3/16	3/16	4/4	2	1	1/16	1/16	1		3	81	A5	5	277
13	13	49	0.25	1/4	1/4	4/4	1	1	1/16	1/16	1		2	74	D5	5	262
13	13	49	0.25	1/4	1/4	4/4	2	1	1/16	1/16	1		6	78	F#5	5	278
13	13	197/4	0.25	5/16	5/16	4/4	1	1	1/16	1/16	1		4	76	E5	5	263
13	13	197/4	0.25	5/16	5/16	4/4	2	1	1/16	1/16	1		1	79	G5	5	279
13	13	99/2	0.25	3/8	3/8	4/4	1	1	1/16	1/16	1		7	73	C#5	5	264
13	13	99/2	0.25	3/8	3/8	4/4	2	1	1/16	1/16	1		4	76	E5	5	280
13	13	199/4	0.25	7/16	7/16	4/4	1	1	1/16	1/16	1		2	74	D5	5	265
13	13	199/4	0.25	7/16	7/16	4/4	2	1	1/16	1/16	1		6	78	F#5	5	281
13	13	50	0.25	1/2	1/2	4/4	1	1	1/16	1/16	1		5	71	B4	4	266
13	13	50	0.25	1/2	1/2	4/4	2	1	1/16	1/16	1		2	74	D5	5	282
13	13	201/4	0.25	9/16	9/16	4/4	1	1	1/16	1/16	1		2	74	D5	5	267
13	13	201/4	0.25	9/16	9/16	4/4	2	1	1/16	1/16	1		6	78	F#5	5	283
13	13	101/2	0.25	5/8	5/8	4/4	1	1	1/16	1/16	1		7	73	C#5	5	268
13	13	101/2	0.25	5/8	5/8	4/4	2	1	1/16	1/16	1		4	76	E5	5	284
13	13	203/4	0.25	11/16	11/16	4/4	1	1	1/16	1/16	1		2	74	D5	5	269
13	13	203/4	0.25	11/16	11/16	4/4	2	1	1/16	1/16	1		6	78	F#5	5	285
13	13	51	0.25	3/4	3/4	4/4	1	1	1/16	1/16	1		5	71	B4	4	270
13	13	51	0.25	3/4	3/4	4/4	2	1	1/16	1/16	1		2	74	D5	5	286
13	13	205/4	0.25	13/16	13/16	4/4	1	1	1/16	1/16	1		7	73	C#5	5	271
13	13	205/4	0.25	13/16	13/16	4/4	2	1	1/16	1/16	1		4	76	E5	5	287
13	13	103/2	0.25	7/8	7/8	4/4	1	1	1/16	1/16	1		3	69	A4	4	272
13	13	103/2	0.25	7/8	7/8	4/4	2	1	1/16	1/16	1		7	73	C#5	5	288
13	13	207/4	0.25	15/16	15/16	4/4	1	1	1/16	1/16	1		5	71	B4	4	273
13	13	207/4	0.25	15/16	15/16	4/4	2	1	1/16	1/16	1		2	74	D5	5	289
14	14	52	4.0	0	0	4/4	3	1	1	1	1	1	4	52	E3	3	316
14	14	52	4.0	0	0	4/4	4	1	1	1	1	1	4	52	E3	3	317
14	14	52	0.25	0	0	4/4	1	1	1/16	1/16	1		8	68	G#4	4	292
14	14	52	1.0	0	0	4/4	2	1	1/4	1/4	1		5	71	B4	4	308
14	14	209/4	0.25	1/16	1/16	4/4	1	1	1/16	1/16	1		4	64	E4	4	293
14	14	105/2	0.25	1/8	1/8	4/4	1	1	1/16	1/16	1		6	66	F#4	4	294
14	14	211/4	0.25	3/16	3/16	4/4	1	1	1/16	1/16	1		8	68	G#4	4	295
14	14	53	0.25	1/4	1/4	4/4	1	1	1/16	1/16	1		3	69	A4	4	296
14	14	213/4	0.25	5/16	5/16	4/4	1	1	1/16	1/16	1		6	66	F#4	4	297
14	14	107/2	0.25	3/8	3/8	4/4	1	1	1/16	1/16	1		8	68	G#4	4	298
14	14	215/4	0.25	7/16	7/16	4/4	1	1	1/16	1/16	1		3	69	A4	4	299
14	14	54	0.25	1/2	1/2	4/4	1	1	1/16	1/16	1		5	71	B4	4	300
14	14	217/4	0.25	9/16	9/16	4/4	2	1	1/16	1/16	1		4	64	E4	4	309
14	14	217/4	0.25	9/16	9/16	4/4	1	1	1/16	1/16	1		8	68	G#4	4	301
14	14	109/2	0.25	5/8	5/8	4/4	2	1	1/16	1/16	1		6	66	F#4	4	310
14	14	109/2	0.25	5/8	5/8	4/4	1	1	1/16	1/16	1		3	69	A4	4	302
14	14	219/4	0.25	11/16	11/16	4/4	2	1	1/16	1/16	1		8	68	G#4	4	311
14	14	219/4	0.25	11/16	11/16	4/4	1	1	1/16	1/16	1		5	71	B4	4	303
14	14	55	0.25	3/4	3/4	4/4	2	1	1/16	1/16	1		3	69	A4	4	312
14	14	55	0.25	3/4	3/4	4/4	1	1	1/16	1/16	1		7	73	C#5	5	304
14	14	221/4	0.25	13/16	13/16	4/4	2	1	1/16	1/16	1		6	66	F#4	4	313
14	14	221/4	0.25	13/16	13/16	4/4	1	1	1/16	1/16	1		3	69	A4	4	305
14	14	111/2	0.25	7/8	7/8	4/4	2	1	1/16	1/16	1		8	68	G#4	4	314
14	14	111/2	0.25	7/8	7/8	4/4	1	1	1/16	1/16	1		5	71	B4	4	306
14	14	223/4	0.25	15/16	15/16	4/4	2	1	1/16	1/16	1		3	69	A4	4	315
14	14	223/4	0.25	15/16	15/16	4/4	1	1	1/16	1/16	1		7	73	C#5	5	307
15	15	56	4.0	0	0	4/4	3	1	1	1	1	0	4	52	E3	3	350
15	15	56	4.0	0	0	4/4	4	1	1	1	1	0	4	52	E3	3	351
15	15	56	0.25	0	0	4/4	2	1	1/16	1/16	1		5	71	B4	4	334
15	15	56	0.25	0	0	4/4	1	1	1/16	1/16	1		2	74	D5	5	318
15	15	225/4	0.25	1/16	1/16	4/4	2	1	1/16	1/16	1		8	68	G#4	4	335
15	15	225/4	0.25	1/16	1/16	4/4	1	1	1/16	1/16	1		5	71	B4	4	319
15	15	113/2	0.25	1/8	1/8	4/4	2	1	1/16	1/16	1		3	69	A4	4	336
15	15	113/2	0.25	1/8	1/8	4/4	1	1	1/16	1/16	1		7	73	C#5	5	320
15	15	227/4	0.25	3/16	3/16	4/4	2	1	1/16	1/16	1		5	71	B4	4	337
15	15	227/4	0.25	3/16	3/16	4/4	1	1	1/16	1/16	1		2	74	D5	5	321
15	15	57	0.25	1/4	1/4	4/4	2	1	1/16	1/16	1		7	73	C#5	5	338
15	15	57	0.25	1/4	1/4	4/4	1	1	1/16	1/16	1		4	76	E5	5	322
15	15	229/4	0.25	5/16	5/16	4/4	2	1	1/16	1/16	1		3	69	A4	4	339
15	15	229/4	0.25	5/16	5/16	4/4	1	1	1/16	1/16	1		7	73	C#5	5	323
15	15	115/2	0.25	3/8	3/8	4/4	2	1	1/16	1/16	1		5	71	B4	4	340
15	15	115/2	0.25	3/8	3/8	4/4	1	1	1/16	1/16	1		2	74	D5	5	324
15	15	231/4	0.25	7/16	7/16	4/4	2	1	1/16	1/16	1		7	73	C#5	5	341
15	15	231/4	0.25	7/16	7/16	4/4	1	1	1/16	1/16	1		4	76	E5	5	325
15	15	58	0.25	1/2	1/2	4/4	2	1	1/16	1/16	1		2	74	D5	5	342
15	15	58	0.25	1/2	1/2	4/4	1	1	1/16	1/16	1		6	78	F#5	5	326
15	15	233/4	0.25	9/16	9/16	4/4	2	1	1/16	1/16	1		5	71	B4	4	343
15	15	233/4	0.25	9/16	9/16	4/4	1	1	1/16	1/16	1		2	74	D5	5	327
15	15	117/2	0.25	5/8	5/8	4/4	2	1	1/16	1/16	1		7	73	C#5	5	344
15	15	117/2	0.25	5/8	5/8	4/4	1	1	1/16	1/16	1		4	76	E5	5	328
15	15	235/4	0.25	11/16	11/16	4/4	2	1	1/16	1/16	1		2	74	D5	5	345
15	15	235/4	0.25	11/16	11/16	4/4	1	1	1/16	1/16	1		6	78	F#5	5	329
15	15	59	0.25	3/4	3/4	4/4	2	1	1/16	1/16	1		4	76	E5	5	346
15	15	59	0.25	3/4	3/4	4/4	1	1	1/16	1/16	1		8	80	G#5	5	330
15	15	237/4	0.25	13/16	13/16	4/4	2	1	1/16	1/16	1		7	73	C#5	5	347
15	15	237/4	0.25	13/16	13/16	4/4	1	1	1/16	1/16	1		4	76	E5	5	331
15	15	119/2	0.25	7/8	7/8	4/4	2	1	1/16	1/16	1		2	74	D5	5	348
15	15	119/2	0.25	7/8	7/8	4/4	1	1	1/16	1/16	1		6	78	F#5	5	332
15	15	239/4	0.25	15/16	15/16	4/4	2	1	1/16	1/16	1		4	76	E5	5	349
15	15	239/4	0.25	15/16	15/16	4/4	1	1	1/16	1/16	1		8	80	G#5	5	333
16	16	60	2.0	0	0	4/4	3	1	1/2	1/2	1	-1	4	52	E3	3	371
16	16	60	2.0	0	0	4/4	4	1	1/2	1/2	1	-1	4	52	E3	3	380
16	16	60	0.25	0	0	4/4	2	1	1/16	1/16	1		6	78	F#5	5	361
16	16	60	0.25	0	0	4/4	1	1	1/16	1/16	1		3	81	A5	5	352
16	16	241/4	0.25	1/16	1/16	4/4	2	1	1/16	1/16	1		2	74	D5	5	362
16	16	241/4	0.25	1/16	1/16	4/4	1	1	1/16	1/16	1		6	78	F#5	5	353
16	16	121/2	0.25	1/8	1/8	4/4	2	1	1/16	1/16	1		4	76	E5	5	363
16	16	121/2	0.25	1/8	1/8	4/4	1	1	1/16	1/16	1		8	80	G#5	5	354
16	16	243/4	0.25	3/16	3/16	4/4	2	1	1/16	1/16	1		6	78	F#5	5	364
16	16	243/4	0.25	3/16	3/16	4/4	1	1	1/16	1/16	1		3	81	A5	5	355
16	16	61	0.25	1/4	1/4	4/4	2	1	1/16	1/16	1		8	80	G#5	5	365
16	16	61	0.25	1/4	1/4	4/4	1	1	1/16	1/16	1		5	83	B5	5	356
16	16	245/4	0.25	5/16	5/16	4/4	2	1	1/16	1/16	1		4	76	E5	5	366
16	16	245/4	0.25	5/16	5/16	4/4	1	1	1/16	1/16	1		8	80	G#5	5	357
16	16	123/2	0.25	3/8	3/8	4/4	2	1	1/16	1/16	1		6	78	F#5	5	367
16	16	123/2	0.25	3/8	3/8	4/4	1	1	1/16	1/16	1		3	81	A5	5	358
16	16	247/4	0.25	7/16	7/16	4/4	2	1	1/16	1/16	1		8	80	G#5	5	368
16	16	247/4	0.25	7/16	7/16	4/4	1	1	1/16	1/16	1		5	83	B5	5	359
16	16	62	0.25	1/2	1/2	4/4	3	1	1/16	1/16	1		7	49	C#3	3	372
16	16	62	1.0	1/2	1/2	4/4	4	1	1/4	1/4	1		3	57	A3	3	381
16	16	62	1.0	1/2	1/2	4/4	2	1	1/4	1/4	1		3	81	A5	5	369
16	16	62	2.0	1/2	1/2	4/4	1	1	1/2	1/2	1		7	85	C#6	6	360
16	16	249/4	0.25	9/16	9/16	4/4	3	1	1/16	1/16	1		3	57	A3	3	373
16	16	125/2	0.25	5/8	5/8	4/4	3	1	1/16	1/16	1		7	61	C#4	4	374
16	16	251/4	0.25	11/16	11/16	4/4	3	1	1/16	1/16	1		5	59	B3	3	375
16	16	63	1.0	3/4	3/4	4/4	4	1	1/4	1/4	1		3	45	A2	2	382
16	16	63	0.25	3/4	3/4	4/4	3	1	1/16	1/16	1		3	57	A3	3	376
16	16	63	1.0	3/4	3/4	4/4	2	1	1/4	1/4	1	1	3	81	A5	5	370
16	16	253/4	0.25	13/16	13/16	4/4	3	1	1/16	1/16	1		5	59	B3	3	377
16	16	127/2	0.25	7/8	7/8	4/4	3	1	1/16	1/16	1		7	61	C#4	4	378
16	16	255/4	0.25	15/16	15/16	4/4	3	1	1/16	1/16	1		2	62	D4	4	379
17	17	64	2.0	0	0	4/4	4	1	1/2	1/2	1		4	52	E3	3	404
17	17	64	0.25	0	0	4/4	3	1	1/16	1/16	1		4	64	E4	4	388
17	17	64	1.0	0	0	4/4	2	1	1/4	1/4	1	-1	3	81	A5	5	385
17	17	64	2.0	0	0	4/4	1	1	1/2	1/2	1		5	83	B5	5	383
17	17	257/4	0.25	1/16	1/16	4/4	3	1	1/16	1/16	1		4	52	E3	3	389
17	17	129/2	0.25	1/8	1/8	4/4	3	1	1/16	1/16	1		8	56	G#3	3	390
17	17	259/4	0.25	3/16	3/16	4/4	3	1	1/16	1/16	1		6	54	F#3	3	391
17	17	65	0.25	1/4	1/4	4/4	3	1	1/16	1/16	1		4	52	E3	3	392
17	17	65	2.0	1/4	1/4	4/4	2	1	1/2	1/2	1		8	80	G#5	5	386
17	17	261/4	0.25	5/16	5/16	4/4	3	1	1/16	1/16	1		6	54	F#3	3	393
17	17	131/2	0.25	3/8	3/8	4/4	3	1	1/16	1/16	1		8	56	G#3	3	394
17	17	263/4	0.25	7/16	7/16	4/4	3	1	1/16	1/16	1		4	52	E3	3	395
17	17	66	0.25	1/2	1/2	4/4	3	1	1/16	1/16	1		6	54	F#3	3	396
17	17	66	1.0	1/2	1/2	4/4	4	1	1/4	1/4	1		6	54	F#3	3	405
17	17	66	2.0	1/2	1/2	4/4	1	1	1/2	1/2	1		3	81	A5	5	384
17	17	265/4	0.25	9/16	9/16	4/4	3	1	1/16	1/16	1		4	52	E3	3	397
17	17	133/2	0.25	5/8	5/8	4/4	3	1	1/16	1/16	1		6	54	F#3	3	398
17	17	267/4	0.25	11/16	11/16	4/4	3	1	1/16	1/16	1		8	56	G#3	3	399
17	17	67	1.0	3/4	3/4	4/4	4	1	1/4	1/4	1		6	42	F#2	2	406
17	17	67	0.25	3/4	3/4	4/4	3	1	1/16	1/16	1		3	57	A3	3	400
17	17	67	1.0	3/4	3/4	4/4	2	1	1/4	1/4	1	1	6	78	F#5	5	387
17	17	269/4	0.25	13/16	13/16	4/4	3	1	1/16	1/16	1		8	56	G#3	3	401
17	17	135/2	0.25	7/8	7/8	4/4	3	1	1/16	1/16	1		3	57	A3	3	402
17	17	271/4	0.25	15/16	15/16	4/4	3	1	1/16	1/16	1		5	59	B3	3	403
18	18	68	2.0	0	0	4/4	4	1	1/2	1/2	1		7	49	C#3	3	428
18	18	68	0.25	0	0	4/4	3	1	1/16	1/16	1		7	61	C#4	4	412
18	18	68	1.0	0	0	4/4	2	1	1/4	1/4	1	-1	6	78	F#5	5	409
18	18	68	2.0	0	0	4/4	1	1	1/2	1/2	1		8	80	G#5	5	407
18	18	273/4	0.25	1/16	1/16	4/4	3	1	1/16	1/16	1		7	49	C#3	3	413
18	18	137/2	0.25	1/8	1/8	4/4	3	1	1/16	1/16	1		4	52	E3	3	414
18	18	275/4	0.25	3/16	3/16	4/4	3	1	1/16	1/16	1		2	50	D3	3	415
18	18	69	0.25	1/4	1/4	4/4	3	1	1/16	1/16	1		7	49	C#3	3	416
18	18	69	2.0	1/4	1/4	4/4	2	1	1/2	1/2	1		4	76	E5	5	410
18	18	277/4	0.25	5/16	5/16	4/4	3	1	1/16	1/16	1		2	50	D3	3	417
18	18	139/2	0.25	3/8	3/8	4/4	3	1	1/16	1/16	1		4	52	E3	3	418
18	18	279/4	0.25	7/16	7/16	4/4	3	1	1/16	1/16	1		7	49	C#3	3	419
18	18	70	0.25	1/2	1/2	4/4	3	1	1/16	1/16	1		2	50	D3	3	420
18	18	70	1.0	1/2	1/2	4/4	4	1	1/4	1/4	1		2	50	D3	3	429
18	18	70	2.0	1/2	1/2	4/4	1	1	1/2	1/2	1		6	78	F#5	5	408
18	18	281/4	0.25	9/16	9/16	4/4	3	1	1/16	1/16	1		7	49	C#3	3	421
18	18	141/2	0.25	5/8	5/8	4/4	3	1	1/16	1/16	1		2	50	D3	3	422
18	18	283/4	0.25	11/16	11/16	4/4	3	1	1/16	1/16	1		4	52	E3	3	423
18	18	71	1.0	3/4	3/4	4/4	4	1	1/4	1/4	1		2	38	D2	2	430
18	18	71	0.25	3/4	3/4	4/4	3	1	1/16	1/16	1		6	54	F#3	3	424
18	18	71	1.0	3/4	3/4	4/4	2	1	1/4	1/4	1	1	2	74	D5	5	411
18	18	285/4	0.25	13/16	13/16	4/4	3	1	1/16	1/16	1		4	52	E3	3	425
18	18	143/2	0.25	7/8	7/8	4/4	3	1	1/16	1/16	1		6	54	F#3	3	426
18	18	287/4	0.25	15/16	15/16	4/4	3	1	1/16	1/16	1		8	56	G#3	3	427
19	19	72	2.0	0	0	4/4	4	1	1/2	1/2	1		3	45	A2	2	452
19	19	72	0.25	0	0	4/4	3	1	1/16	1/16	1		3	57	A3	3	436
19	19	72	1.0	0	0	4/4	2	1	1/4	1/4	1	-1	2	74	D5	5	433
19	19	72	2.0	0	0	4/4	1	1	1/2	1/2	1		4	76	E5	5	431
19	19	289/4	0.25	1/16	1/16	4/4	3	1	1/16	1/16	1		8	56	G#3	3	437
19	19	145/2	0.25	1/8	1/8	4/4	3	1	1/16	1/16	1		3	57	A3	3	438
19	19	291/4	0.25	3/16	3/16	4/4	3	1	1/16	1/16	1		5	59	B3	3	439
19	19	73	0.25	1/4	1/4	4/4	3	1	1/16	1/16	1		7	61	C#4	4	440
19	19	73	2.0	1/4	1/4	4/4	2	1	1/2	1/2	1		7	73	C#5	5	434
19	19	293/4	0.25	5/16	5/16	4/4	3	1	1/16	1/16	1		5	59	B3	3	441
19	19	147/2	0.25	3/8	3/8	4/4	3	1	1/16	1/16	1		7	61	C#4	4	442
19	19	295/4	0.25	7/16	7/16	4/4	3	1	1/16	1/16	1		3	57	A3	3	443
19	19	74	1.0	1/2	1/2	4/4	4	1	1/4	1/4	1		5	47	B2	2	453
19	19	74	0.25	1/2	1/2	4/4	3	1	1/16	1/16	1		5	59	B3	3	444
19	19	74	2.0	1/2	1/2	4/4	1	1	1/2	1/2	1		2	74	D5	5	432
19	19	297/4	0.25	9/16	9/16	4/4	3	1	1/16	1/16	1		7	61	C#4	4	445
19	19	149/2	0.25	5/8	5/8	4/4	3	1	1/16	1/16	1		5	59	B3	3	446
19	19	299/4	0.25	11/16	11/16	4/4	3	1	1/16	1/16	1		3	57	A3	3	447
19	19	75	1.0	3/4	3/4	4/4	4	1	1/4	1/4	1		4	52	E3	3	454
19	19	75	0.25	3/4	3/4	4/4	3	1	1/16	1/16	1		8	56	G#3	3	448
19	19	75	1.0	3/4	3/4	4/4	2	1	1/4	1/4	1	1	5	71	B4	4	435
19	19	301/4	0.25	13/16	13/16	4/4	3	1	1/16	1/16	1		6	54	F#3	3	449
19	19	151/2	0.25	7/8	7/8	4/4	3	1	1/16	1/16	1		8	56	G#3	3	450
19	19	303/4	0.25	15/16	15/16	4/4	3	1	1/16	1/16	1		4	52	E3	3	451
20	20	76	0.25	0	0	4/4	3	1	1/16	1/16	1		3	57	A3	3	463
20	20	76	1.0	0	0	4/4	4	1	1/4	1/4	1		3	57	A3	3	473
20	20	76	1.0	0	0	4/4	2	1	1/4	1/4	1	-1	5	71	B4	4	458
20	20	76	3.0	0	0	4/4	1	1	3/4	1/2	3/2		7	73	C#5	5	455
20	20	305/4	0.25	1/16	1/16	4/4	3	1	1/16	1/16	1		3	45	A2	2	464
20	20	153/2	0.25	1/8	1/8	4/4	3	1	1/16	1/16	1		7	49	C#3	3	465
20	20	307/4	0.25	3/16	3/16	4/4	3	1	1/16	1/16	1		5	47	B2	2	466
20	20	77	0.25	1/4	1/4	4/4	3	1	1/16	1/16	1		3	45	A2	2	467
20	20	77	1.0	1/4	1/4	4/4	4	1	1/4	1/4	1		3	45	A2	2	474
20	20	77	1.0	1/4	1/4	4/4	2	1	1/4	1/4	1		3	69	A4	4	459
20	20	309/4	0.25	5/16	5/16	4/4	3	1	1/16	1/16	1		5	47	B2	2	468
20	20	155/2	0.25	3/8	3/8	4/4	3	1	1/16	1/16	1		7	49	C#3	3	469
20	20	311/4	0.25	7/16	7/16	4/4	3	1	1/16	1/16	1		3	45	A2	2	470
20	20	78	1.0	1/2	1/2	4/4	3	1	1/4	1/4	1		2	50	D3	3	471
20	20	78	1.0	1/2	1/2	4/4	4	1	1/4	1/4	1		2	50	D3	3	475
20	20	78	0.5	1/2	1/2	4/4	2	1	1/8	1/8	1		6	66	F#4	4	460
20	20	157/2	0.5	5/8	5/8	4/4	2	1	1/8	1/8	1		8	68	G#4	4	461
20	20	79	1.0	3/4	3/4	4/4	3	1	1/4	1/4	1		9	51	D#3	3	472
20	20	79	1.0	3/4	3/4	4/4	4	1	1/4	1/4	1		9	51	D#3	3	476
20	20	79	1.0	3/4	3/4	4/4	2	1	1/4	1/4	1	1	3	69	A4	4	462
20	20	79	0.5	3/4	3/4	4/4	1	1	1/8	1/8	1		5	71	B4	4	456
20	20	159/2	0.5	7/8	7/8	4/4	1	1	1/8	1/8	1		3	69	A4	4	457
21	21	80	2.0	0	0	4/4	3	1	1/2	1/2	1		4	52	E3	3	484
21	21	80	2.0	0	0	4/4	4	1	1/2	1/2	1		4	52	E3	3	487
21	21	80	1.0	0	0	4/4	2	1	1/4	1/4	1	-1	3	69	A4	4	481
21	21	80	1.0	0	0	4/4	1	1	1/4	1/4	1		7	73	C#5	5	477
21	21	81	1.0	1/4	1/4	4/4	2	1	1/4	1/4	1		8	68	G#4	4	482
21	21	81	1.0	1/4	1/4	4/4	1	1	1/4	1/4	1		5	71	B4	4	478
21	21	82	1.0	1/2	1/2	4/4	3	1	1/4	1/4	1		3	57	A3	3	485
21	21	82	1.0	1/2	1/2	4/4	4	1	1/4	1/4	1		3	57	A3	3	488
21	21	82	1.0	1/2	1/2	4/4	1	1	1/4	1/4	1		3	69	A4	4	479
21	21	82	1.0	1/2	1/2	4/4	2	1	1/4	1/4	1		3	69	A4	4	483
21	21	83	1.0	3/4	3/4	4/4	3	1	1/4	1/4	1		8	56	G#3	3	486
21	21	83	1.0	3/4	3/4	4/4	4	1	1/4	1/4	1		8	56	G#3	3	489
21	21	83	1.0	3/4	3/4	4/4	1	1	1/4	1/4	1		4	76	E5	5	480
22	22	84	1.0	0	0	4/4	3	1	1/4	1/4	1		6	54	F#3	3	494
22	22	84	1.0	0	0	4/4	4	1	1/4	1/4	1		6	54	F#3	3	498
22	22	84	3.0	0	0	4/4	1	1	3/4	1/2	3/2		3	81	A5	5	490
22	22	85	1.0	1/4	1/4	4/4	3	1	1/4	1/4	1		7	49	C#3	3	495
22	22	85	1.0	1/4	1/4	4/4	4	1	1/4	1/4	1		7	49	C#3	3	499
22	22	85	1.0	1/4	1/4	4/4	2	1	1/4	1/4	1		4	76	E5	5	492
22	22	86	1.0	1/2	1/2	4/4	3	1	1/4	1/4	1		2	50	D3	3	496
22	22	86	1.0	1/2	1/2	4/4	4	1	1/4	1/4	1		2	50	D3	3	500
22	22	86	2.0	1/2	1/2	4/4	2	1	1/2	1/2	1	1	5	83	B5	5	493
22	22	87	1.0	3/4	3/4	4/4	3	1	1/4	1/4	1		4	52	E3	3	497
22	22	87	1.0	3/4	3/4	4/4	4	1	1/4	1/4	1		4	52	E3	3	501
22	22	87	1.0	3/4	3/4	4/4	1	1	1/4	1/4	1		8	80	G#5	5	491
23	23	88	1.0	0	0	4/4	3	1	1/4	1/4	1		3	45	A2	2	507
23	23	88	1.0	0	0	4/4	4	1	1/4	1/4	1		3	45	A2	2	511
23	23	88	1.0	0	0	4/4	2	1	1/4	1/4	1	-1	5	83	B5	5	504
23	23	88	3.0	0	0	4/4	1	1	3/4	1/2	3/2		7	85	C#6	6	502
23	23	89	1.0	1/4	1/4	4/4	3	1	1/4	1/4	1		3	57	A3	3	508
23	23	89	1.0	1/4	1/4	4/4	4	1	1/4	1/4	1		3	57	A3	3	512
23	23	89	1.0	1/4	1/4	4/4	2	1	1/4	1/4	1		3	81	A5	5	505
23	23	90	1.0	1/2	1/2	4/4	3	1	1/4	1/4	1		6	54	F#3	3	509
23	23	90	1.0	1/2	1/2	4/4	4	1	1/4	1/4	1		6	54	F#3	3	513
23	23	90	2.0	1/2	1/2	4/4	2	1	1/2	1/2	1		2	86	D6	6	506
23	23	91	1.0	3/4	3/4	4/4	3	1	1/4	1/4	1		8	56	G#3	3	510
23	23	91	1.0	3/4	3/4	4/4	4	1	1/4	1/4	1		8	56	G#3	3	514
23	23	91	1.0	3/4	3/4	4/4	1	1	1/4	1/4	1	1	5	83	B5	5	503
24	24	92	1.0	0	0	4/4	3	1	1/4	1/4	1		3	57	A3	3	524
24	24	92	1.0	0	0	4/4	4	1	1/4	1/4	1		3	57	A3	3	528
24	24	92	0.5	0	0	4/4	1	1	1/8	1/8	1	-1	5	83	B5	5	515
24	24	92	3.0	0	0	4/4	2	1	3/4	1/2	3/2		7	85	C#6	6	522
24	24	185/2	0.5	1/8	1/8	4/4	1	1	1/8	1/8	1		4	76	E5	5	516
24	24	93	1.0	1/4	1/4	4/4	3	1	1/4	1/4	1		7	49	C#3	3	525
24	24	93	1.0	1/4	1/4	4/4	4	1	1/4	1/4	1		7	49	C#3	3	529
24	24	93	0.5	1/4	1/4	4/4	1	1	1/8	1/8	1		3	81	A5	5	517
24	24	187/2	0.5	3/8	3/8	4/4	1	1	1/8	1/8	1		8	80	G#5	5	518
24	24	94	1.0	1/2	1/2	4/4	3	1	1/4	1/4	1		2	50	D3	3	526
24	24	94	1.0	1/2	1/2	4/4	4	1	1/4	1/4	1		2	50	D3	3	530
24	24	94	0.5	1/2	1/2	4/4	1	1	1/8	1/8	1		6	78	F#5	5	519
24	24	189/2	0.5	5/8	5/8	4/4	1	1	1/8	1/8	1		8	80	G#5	5	520
24	24	95	1.0	3/4	3/4	4/4	3	1	1/4	1/4	1		9	51	D#3	3	527
24	24	95	1.0	3/4	3/4	4/4	4	1	1/4	1/4	1		9	51	D#3	3	531
24	24	95	1.0	3/4	3/4	4/4	2	1	1/4	1/4	1		0	72	C5	5	523
24	24	95	1.0	3/4	3/4	4/4	1	1	1/4	1/4	1	1	3	81	A5	5	521
25	25	96	1.0	0	0	4/4	3	1	1/4	1/4	1		4	52	E3	3	537
25	25	96	1.0	0	0	4/4	4	1	1/4	1/4	1		4	52	E3	3	540
25	25	96	1.0	0	0	4/4	1	1	1/4	1/4	1	-1	3	81	A5	5	532
25	25	96	2.0	0	0	4/4	2	1	1/2	1/2	1		5	83	B5	5	535
25	25	97	1.0	1/4	1/4	4/4	3	1	1/4	1/4	1		4	40	E2	2	538
25	25	97	1.0	1/4	1/4	4/4	4	1	1/4	1/4	1		4	40	E2	2	541
25	25	97	1.0	1/4	1/4	4/4	1	1	1/4	1/4	1		8	80	G#5	5	533
25	25	98	2.0	1/2	1/2	4/4	3	1	1/2	1/2	1		3	45	A2	2	539
25	25	98	2.0	1/2	1/2	4/4	4	1	1/2	1/2	1		3	45	A2	2	542
25	25	98	2.0	1/2	1/2	4/4	1	1	1/2	1/2	1		3	81	A5	5	534
25	25	98	2.0	1/2	1/2	4/4	2	1	1/2	1/2	1		3	81	A5	5	536
