mc	mn	quarterbeats	duration_qb	mc_onset	mn_onset	timesig	staff	voice	duration	nominal_duration	scalar	tied	tpc	midi	name	octave	chord_id
1	1	0	0.5	0	0	6/8	1	1	1/8	1/8	1		2	74	D5	5	0
1	1	1/2	0.5	1/8	1/8	6/8	1	1	1/8	1/8	1		6	78	F#5	5	1
1	1	1	0.5	1/4	1/4	6/8	1	1	1/8	1/8	1		2	74	D5	5	2
1	1	3/2	0.25	3/8	3/8	6/8	1	1	1/16	1/16	1		4	76	E5	5	3
1	1	7/4	0.25	7/16	7/16	6/8	1	1	1/16	1/16	1		6	78	F#5	5	4
1	1	2	0.25	1/2	1/2	6/8	1	1	1/16	1/16	1		1	79	G5	5	5
1	1	9/4	0.25	9/16	9/16	6/8	1	1	1/16	1/16	1		6	78	F#5	5	6
1	1	5/2	0.5	5/8	5/8	6/8	1	1	1/8	1/8	1		4	76	E5	5	7
2	2	3	0.25	0	0	6/8	1	1	1/16	1/16	1		6	78	F#5	5	8
2	2	13/4	0.25	1/16	1/16	6/8	1	1	1/16	1/16	1		1	79	G5	5	9
2	2	7/2	0.25	1/8	1/8	6/8	1	1	1/16	1/16	1		3	81	A5	5	10
2	2	15/4	0.25	3/16	3/16	6/8	1	1	1/16	1/16	1		1	79	G5	5	11
2	2	4	0.5	1/4	1/4	6/8	1	1	1/8	1/8	1		6	78	F#5	5	12
2	2	9/2	1.0	3/8	3/8	6/8	1	1	1/4	1/4	1		4	76	E5	5	13
2	2	11/2	0.5	5/8	5/8	6/8	1	1	1/8	1/8	1		2	74	D5	5	14
3	3	6	0.5	0	0	6/8	2	1	1/8	1/8	1		3	69	A4	4	23
3	3	6	0.5	0	0	6/8	1	1	1/8	1/8	1		7	73	C#5	5	15
3	3	13/2	0.5	1/8	1/8	6/8	2	1	1/8	1/8	1		7	73	C#5	5	24
3	3	13/2	0.5	1/8	1/8	6/8	1	1	1/8	1/8	1		4	76	E5	5	16
3	3	7	0.5	1/4	1/4	6/8	2	1	1/8	1/8	1		3	69	A4	4	25
3	3	7	0.5	1/4	1/4	6/8	1	1	1/8	1/8	1		7	73	C#5	5	17
3	3	15/2	0.25	3/8	3/8	6/8	2	1	1/16	1/16	1		5	71	B4	4	26
3	3	15/2	0.25	3/8	3/8	6/8	1	1	1/16	1/16	1		2	74	D5	5	18
3	3	31/4	0.25	7/16	7/16	6/8	2	1	1/16	1/16	1		7	73	C#5	5	27
3	3	31/4	0.25	7/16	7/16	6/8	1	1	1/16	1/16	1		4	76	E5	5	19
3	3	8	0.25	1/2	1/2	6/8	2	1	1/16	1/16	1		2	74	D5	5	28
3	3	8	0.25	1/2	1/2	6/8	1	1	1/16	1/16	1		6	78	F#5	5	20
3	3	33/4	0.25	9/16	9/16	6/8	2	1	1/16	1/16	1		7	73	C#5	5	29
3	3	33/4	0.25	9/16	9/16	6/8	1	1	1/16	1/16	1		4	76	E5	5	21
3	3	17/2	0.5	5/8	5/8	6/8	2	1	1/8	1/8	1		5	71	B4	4	30
3	3	17/2	0.5	5/8	5/8	6/8	1	1	1/8	1/8	1		2	74	D5	5	22
4	4	9	0.25	0	0	6/8	2	1	1/16	1/16	1		7	73	C#5	5	38
4	4	9	0.25	0	0	6/8	1	1	1/16	1/16	1		4	76	E5	5	31
4	4	37/4	0.25	1/16	1/16	6/8	1	1	1/16	1/16	1		2	74	D5	5	32
4	4	37/4	0.25	1/16	1/16	6/8	2	1	1/16	1/16	1		2	74	D5	5	39
4	4	19/2	0.25	1/8	1/8	6/8	1	1	1/16	1/16	1		7	73	C#5	5	33
4	4	19/2	0.25	1/8	1/8	6/8	2	1	1/16	1/16	1		4	76	E5	5	40
4	4	39/4	0.25	3/16	3/16	6/8	1	1	1/16	1/16	1		5	71	B4	4	34
4	4	39/4	0.25	3/16	3/16	6/8	2	1	1/16	1/16	1		2	74	D5	5	41
4	4	10	0.5	1/4	1/4	6/8	1	1	1/8	1/8	1		3	69	A4	4	35
4	4	10	0.5	1/4	1/4	6/8	2	1	1/8	1/8	1		7	73	C#5	5	42
4	4	21/2	1.0	3/8	3/8	6/8	1	1	1/4	1/4	1		8	68	G#4	4	36
4	4	21/2	1.0	3/8	3/8	6/8	2	1	1/4	1/4	1		5	71	B4	4	43
4	4	23/2	0.5	5/8	5/8	6/8	1	1	1/8	1/8	1		3	69	A4	4	37
4	4	23/2	0.5	5/8	5/8	6/8	2	1	1/8	1/8	1		3	69	A4	4	44
5	5	12	0.5	0	0	6/8	2	1	1/8	1/8	1		6	78	F#5	5	53
5	5	12	0.5	0	0	6/8	1	1	1/8	1/8	1		3	81	A5	5	45
5	5	25/2	0.5	1/8	1/8	6/8	2	1	1/8	1/8	1		2	74	D5	5	54
5	5	25/2	0.5	1/8	1/8	6/8	1	1	1/8	1/8	1		6	78	F#5	5	46
5	5	13	0.5	1/4	1/4	6/8	2	1	1/8	1/8	1		6	78	F#5	5	55
5	5	13	0.5	1/4	1/4	6/8	1	1	1/8	1/8	1		3	81	A5	5	47
5	5	27/2	0.25	3/8	3/8	6/8	2	1	1/16	1/16	1		4	76	E5	5	56
5	5	27/2	0.25	3/8	3/8	6/8	1	1	1/16	1/16	1		1	79	G5	5	48
5	5	55/4	0.25	7/16	7/16	6/8	2	1	1/16	1/16	1		2	74	D5	5	57
5	5	55/4	0.25	7/16	7/16	6/8	1	1	1/16	1/16	1		6	78	F#5	5	49
5	5	14	0.25	1/2	1/2	6/8	2	1	1/16	1/16	1		7	73	C#5	5	58
5	5	14	0.25	1/2	1/2	6/8	1	1	1/16	1/16	1		4	76	E5	5	50
5	5	57/4	0.25	9/16	9/16	6/8	2	1	1/16	1/16	1		2	74	D5	5	59
5	5	57/4	0.25	9/16	9/16	6/8	1	1	1/16	1/16	1		6	78	F#5	5	51
5	5	29/2	0.5	5/8	5/8	6/8	2	1	1/8	1/8	1		4	76	E5	5	60
5	5	29/2	0.5	5/8	5/8	6/8	1	1	1/8	1/8	1		1	79	G5	5	52
6	6	15	0.5	0	0	6/8	2	1	1/8	1/8	1		4	76	E5	5	66
6	6	15	0.5	0	0	6/8	1	1	1/8	1/8	1		1	79	G5	5	61
6	6	31/2	0.5	1/8	1/8	6/8	2	1	1/8	1/8	1		7	73	C#5	5	67
6	6	31/2	0.5	1/8	1/8	6/8	1	1	1/8	1/8	1		4	76	E5	5	62
6	6	16	0.5	1/4	1/4	6/8	2	1	1/8	1/8	1		4	76	E5	5	68
6	6	16	0.5	1/4	1/4	6/8	1	1	1/8	1/8	1		1	79	G5	5	63
6	6	33/2	0.5	3/8	3/8	6/8	3	1	1/8	1/8	1		2	50	D3	3	71
6	6	33/2	0.5	3/8	3/8	6/8	4	1	1/8	1/8	1		2	50	D3	3	74
6	6	33/2	1.0	3/8	3/8	6/8	2	1	1/4	1/4	1		3	69	A4	4	69
6	6	33/2	1.0	3/8	3/8	6/8	1	1	1/4	1/4	1		6	78	F#5	5	64
6	6	17	0.5	1/2	1/2	6/8	3	1	1/8	1/8	1		6	54	F#3	3	72
6	6	17	0.5	1/2	1/2	6/8	4	1	1/8	1/8	1		6	54	F#3	3	75
6	6	35/2	0.5	5/8	5/8	6/8	3	1	1/8	1/8	1		2	50	D3	3	73
6	6	35/2	0.5	5/8	5/8	6/8	4	1	1/8	1/8	1		2	50	D3	3	76
6	6	35/2	0.5	5/8	5/8	6/8	1	1	1/8	1/8	1		6	78	F#5	5	65
6	6	35/2	0.5	5/8	5/8	6/8	2	1	1/8	1/8	1		3	81	A5	5	70
7	7	18	0.25	0	0	6/8	3	1	1/16	1/16	1		4	52	E3	3	85
7	7	18	0.5	0	0	6/8	4	1	1/8	1/8	1		4	52	E3	3	95
7	7	18	1.0	0	0	6/8	1	1	1/4	1/4	1		4	76	E5	5	77
7	7	18	1.0	0	0	6/8	2	1	1/4	1/4	1		1	79	G5	5	81
7	7	73/4	0.25	1/16	1/16	6/8	3	1	1/16	1/16	1		6	54	F#3	3	86
7	7	37/2	0.25	1/8	1/8	6/8	3	1	1/16	1/16	1		1	55	G3	3	87
7	7	37/2	0.5	1/8	1/8	6/8	4	1	1/8	1/8	1		1	55	G3	3	96
7	7	75/4	0.25	3/16	3/16	6/8	3	1	1/16	1/16	1		6	54	F#3	3	88
7	7	19	0.5	1/4	1/4	6/8	3	1	1/8	1/8	1		4	52	E3	3	89
7	7	19	0.5	1/4	1/4	6/8	4	1	1/8	1/8	1		4	52	E3	3	97
7	7	19	0.5	1/4	1/4	6/8	1	1	1/8	1/8	1		4	76	E5	5	78
7	7	19	0.5	1/4	1/4	6/8	2	1	1/8	1/8	1		1	79	G5	5	82
7	7	39/2	0.25	3/8	3/8	6/8	3	1	1/16	1/16	1		6	54	F#3	3	90
7	7	39/2	0.5	3/8	3/8	6/8	4	1	1/8	1/8	1		6	54	F#3	3	98
7	7	39/2	1.0	3/8	3/8	6/8	1	1	1/4	1/4	1		3	69	A4	4	79
7	7	39/2	1.0	3/8	3/8	6/8	2	1	1/4	1/4	1		6	78	F#5	5	83
7	7	79/4	0.25	7/16	7/16	6/8	3	1	1/16	1/16	1		1	55	G3	3	91
7	7	20	0.25	1/2	1/2	6/8	3	1	1/16	1/16	1		3	57	A3	3	92
7	7	20	0.5	1/2	1/2	6/8	4	1	1/8	1/8	1		3	57	A3	3	99
7	7	81/4	0.25	9/16	9/16	6/8	3	1	1/16	1/16	1		1	55	G3	3	93
7	7	41/2	0.5	5/8	5/8	6/8	3	1	1/8	1/8	1		6	54	F#3	3	94
7	7	41/2	0.5	5/8	5/8	6/8	4	1	1/8	1/8	1		6	54	F#3	3	100
7	7	41/2	0.5	5/8	5/8	6/8	2	1	1/8	1/8	1		3	69	A4	4	84
7	7	41/2	0.5	5/8	5/8	6/8	1	1	1/8	1/8	1		3	81	A5	5	80
8	8	21	1.0	0	0	6/8	3	1	1/4	1/4	1		4	52	E3	3	109
8	8	21	1.0	0	0	6/8	4	1	1/4	1/4	1		4	52	E3	3	114
8	8	21	1.0	0	0	6/8	2	1	1/4	1/4	1		7	73	C#5	5	104
8	8	21	1.0	0	0	6/8	1	1	1/4	1/4	1		1	79	G5	5	101
8	8	22	0.5	1/4	1/4	6/8	3	1	1/8	1/8	1		2	50	D3	3	110
8	8	22	0.5	1/4	1/4	6/8	4	1	1/8	1/8	1		2	50	D3	3	115
8	8	22	0.5	1/4	1/4	6/8	2	1	1/8	1/8	1		2	74	D5	5	105
8	8	22	0.5	1/4	1/4	6/8	1	1	1/8	1/8	1		6	78	F#5	5	102
8	8	45/2	0.5	3/8	3/8	6/8	3	1	1/8	1/8	1		2	62	D4	4	111
8	8	45/2	0.5	3/8	3/8	6/8	4	1	1/8	1/8	1		2	62	D4	4	116
8	8	45/2	0.5	3/8	3/8	6/8	2	1	1/8	1/8	1		6	78	F#5	5	106
8	8	45/2	1.5	3/8	3/8	6/8	1	1	3/8	1/4	3/2	1	5	83	B5	5	103
8	8	23	0.5	1/2	1/2	6/8	3	1	1/8	1/8	1		5	59	B3	3	112
8	8	23	0.5	1/2	1/2	6/8	4	1	1/8	1/8	1		5	59	B3	3	117
8	8	23	0.5	1/2	1/2	6/8	2	1	1/8	1/8	1		2	74	D5	5	107
8	8	47/2	0.5	5/8	5/8	6/8	3	1	1/8	1/8	1		2	62	D4	4	113
8	8	47/2	0.5	5/8	5/8	6/8	4	1	1/8	1/8	1		2	62	D4	4	118
8	8	47/2	0.5	5/8	5/8	6/8	2	1	1/8	1/8	1		6	78	F#5	5	108
9	9	24	1.5	0	0	6/8	3	1	3/8	1/4	3/2		7	61	C#4	4	127
9	9	24	1.5	0	0	6/8	4	1	3/8	1/4	3/2		7	61	C#4	4	131
9	9	24	1.5	0	0	6/8	2	1	3/8	1/4	3/2		4	76	E5	5	123
9	9	24	0.5	0	0	6/8	1	1	1/8	1/8	1	-1	5	83	B5	5	119
9	9	49/2	0.5	1/8	1/8	6/8	1	1	1/8	1/8	1		3	81	A5	5	120
9	9	25	0.5	1/4	1/4	6/8	1	1	1/8	1/8	1		8	80	G#5	5	121
9	9	51/2	0.5	3/8	3/8	6/8	3	1	1/8	1/8	1		7	61	C#4	4	128
9	9	51/2	0.5	3/8	3/8	6/8	4	1	1/8	1/8	1		7	61	C#4	4	132
9	9	51/2	0.5	3/8	3/8	6/8	2	1	1/8	1/8	1		4	76	E5	5	124
9	9	51/2	1.5	3/8	3/8	6/8	1	1	3/8	1/4	3/2	1	3	81	A5	5	122
9	9	26	0.5	1/2	1/2	6/8	3	1	1/8	1/8	1		3	57	A3	3	129
9	9	26	0.5	1/2	1/2	6/8	4	1	1/8	1/8	1		3	57	A3	3	133
9	9	26	0.5	1/2	1/2	6/8	2	1	1/8	1/8	1		7	73	C#5	5	125
9	9	53/2	0.5	5/8	5/8	6/8	3	1	1/8	1/8	1		7	61	C#4	4	130
9	9	53/2	0.5	5/8	5/8	6/8	4	1	1/8	1/8	1		7	61	C#4	4	134
9	9	53/2	0.5	5/8	5/8	6/8	2	1	1/8	1/8	1		4	76	E5	5	126
10	10	27	1.5	0	0	6/8	3	1	3/8	1/4	3/2		5	59	B3	3	143
10	10	27	1.5	0	0	6/8	4	1	3/8	1/4	3/2		5	59	B3	3	147
10	10	27	1.5	0	0	6/8	2	1	3/8	1/4	3/2		2	74	D5	5	139
10	10	27	0.5	0	0	6/8	1	1	1/8	1/8	1	-1	3	81	A5	5	135
10	10	55/2	0.5	1/8	1/8	6/8	1	1	1/8	1/8	1		8	80	G#5	5	136
10	10	28	0.5	1/4	1/4	6/8	1	1	1/8	1/8	1		6	78	F#5	5	137
10	10	57/2	0.5	3/8	3/8	6/8	3	1	1/8	1/8	1		4	52	E3	3	144
10	10	57/2	0.5	3/8	3/8	6/8	4	1	1/8	1/8	1		4	52	E3	3	148
10	10	57/2	0.5	3/8	3/8	6/8	2	1	1/8	1/8	1		2	74	D5	5	140
10	10	57/2	1.5	3/8	3/8	6/8	1	1	3/8	1/4	3/2		8	80	G#5	5	138
10	10	29	0.5	1/2	1/2	6/8	3	1	1/8	1/8	1		8	56	G#3	3	145
10	10	29	0.5	1/2	1/2	6/8	4	1	1/8	1/8	1		8	56	G#3	3	149
10	10	29	0.5	1/2	1/2	6/8	2	1	1/8	1/8	1		5	71	B4	4	141
10	10	59/2	0.5	5/8	5/8	6/8	3	1	1/8	1/8	1		4	52	E3	3	146
10	10	59/2	0.5	5/8	5/8	6/8	4	1	1/8	1/8	1		4	52	E3	3	150
10	10	59/2	0.5	5/8	5/8	6/8	2	1	1/8	1/8	1		2	74	D5	5	142
11	11	30	1.5	0	0	6/8	3	1	3/8	1/4	3/2		3	45	A2	2	158
11	11	30	1.5	0	0	6/8	4	1	3/8	1/4	3/2		3	45	A2	2	159
11	11	30	1.5	0	0	6/8	2	1	3/8	1/4	3/2		7	73	C#5	5	157
11	11	30	0.5	0	0	6/8	1	1	1/8	1/8	1		3	81	A5	5	151
11	11	61/2	0.5	1/8	1/8	6/8	1	1	1/8	1/8	1		7	85	C#6	6	152
11	11	31	0.5	1/4	1/4	6/8	1	1	1/8	1/8	1		3	81	A5	5	153
11	11	63/2	0.5	3/8	3/8	6/8	1	1	1/8	1/8	1		2	86	D6	6	154
11	11	32	0.5	1/2	1/2	6/8	1	1	1/8	1/8	1		5	83	B5	5	155
11	11	65/2	0.5	5/8	5/8	6/8	1	1	1/8	1/8	1		2	86	D6	6	156
12	12	33	1.5	0	0	6/8	3	1	3/8	1/4	3/2		3	45	A2	2	168
12	12	33	1.5	0	0	6/8	4	1	3/8	1/4	3/2		3	45	A2	2	169
12	12	33	0.5	0	0	6/8	2	1	1/8	1/8	1		3	81	A5	5	162
12	12	33	1.5	0	0	6/8	1	1	3/8	1/4	3/2		7	85	C#6	6	160
12	12	67/2	0.5	1/8	1/8	6/8	2	1	1/8	1/8	1		7	85	C#6	6	163
12	12	34	0.5	1/4	1/4	6/8	2	1	1/8	1/8	1		3	81	A5	5	164
12	12	69/2	1.5	3/8	3/8	6/8	1	1	3/8	1/4	3/2		5	83	B5	5	161
12	12	69/2	0.5	3/8	3/8	6/8	2	1	1/8	1/8	1		2	86	D6	6	165
12	12	35	0.5	1/2	1/2	6/8	2	1	1/8	1/8	1		5	83	B5	5	166
12	12	71/2	0.5	5/8	5/8	6/8	2	1	1/8	1/8	1		2	86	D6	6	167
13	13	36	0.5	0	0	6/8	3	1	1/8	1/8	1		3	57	A3	3	176
13	13	36	0.5	0	0	6/8	4	1	1/8	1/8	1		3	57	A3	3	182
13	13	36	1.5	0	0	6/8	1	1	3/8	1/4	3/2		3	81	A5	5	170
13	13	36	1.5	0	0	6/8	2	1	3/8	1/4	3/2		7	85	C#6	6	174
13	13	73/2	0.5	1/8	1/8	6/8	3	1	1/8	1/8	1		7	61	C#4	4	177
13	13	73/2	0.5	1/8	1/8	6/8	4	1	1/8	1/8	1		7	61	C#4	4	183
13	13	37	0.5	1/4	1/4	6/8	3	1	1/8	1/8	1		3	57	A3	3	178
13	13	37	0.5	1/4	1/4	6/8	4	1	1/8	1/8	1		3	57	A3	3	184
13	13	75/2	0.5	3/8	3/8	6/8	3	1	1/8	1/8	1		2	62	D4	4	179
13	13	75/2	0.5	3/8	3/8	6/8	4	1	1/8	1/8	1		2	62	D4	4	185
13	13	75/2	0.5	3/8	3/8	6/8	1	1	1/8	1/8	1		6	78	F#5	5	171
13	13	75/2	1.5	3/8	3/8	6/8	2	1	3/8	1/4	3/2		5	83	B5	5	175
13	13	38	0.5	1/2	1/2	6/8	3	1	1/8	1/8	1		5	59	B3	3	180
13	13	38	0.5	1/2	1/2	6/8	4	1	1/8	1/8	1		5	59	B3	3	186
13	13	38	0.5	1/2	1/2	6/8	1	1	1/8	1/8	1		2	74	D5	5	172
13	13	77/2	0.5	5/8	5/8	6/8	3	1	1/8	1/8	1		2	62	D4	4	181
13	13	77/2	0.5	5/8	5/8	6/8	4	1	1/8	1/8	1		2	62	D4	4	187
13	13	77/2	0.5	5/8	5/8	6/8	1	1	1/8	1/8	1		6	78	F#5	5	173
14	14	39	1.5	0	0	6/8	3	1	3/8	1/4	3/2		7	61	C#4	4	196
14	14	39	1.5	0	0	6/8	4	1	3/8	1/4	3/2		7	61	C#4	4	198
14	14	39	0.5	0	0	6/8	1	1	1/8	1/8	1		4	76	E5	5	188
14	14	39	1.5	0	0	6/8	2	1	3/8	1/4	3/2		3	81	A5	5	194
14	14	79/2	0.5	1/8	1/8	6/8	1	1	1/8	1/8	1		7	73	C#5	5	189
14	14	40	0.5	1/4	1/4	6/8	1	1	1/8	1/8	1		4	76	E5	5	190
14	14	81/2	1.5	3/8	3/8	6/8	3	1	3/8	1/4	3/2		5	59	B3	3	197
14	14	81/2	1.5	3/8	3/8	6/8	4	1	3/8	1/4	3/2		5	59	B3	3	199
14	14	81/2	0.5	3/8	3/8	6/8	1	1	1/8	1/8	1		2	74	D5	5	191
14	14	81/2	1.5	3/8	3/8	6/8	2	1	3/8	1/4	3/2		8	80	G#5	5	195
14	14	41	0.5	1/2	1/2	6/8	1	1	1/8	1/8	1		5	71	B4	4	192
14	14	83/2	0.5	5/8	5/8	6/8	1	1	1/8	1/8	1		2	74	D5	5	193
15	15	42	0.5	0	0	6/8	3	1	1/8	1/8	1		3	57	A3	3	202
15	15	42	0.5	0	0	6/8	4	1	1/8	1/8	1		3	57	A3	3	208
15	15	42	1.5	0	0	6/8	1	1	3/8	1/4	3/2		7	73	C#5	5	200
15	15	42	3.0	0	0	6/8	2	1	3/4	1/2	3/2	1	3	81	A5	5	201
15	15	85/2	0.5	1/8	1/8	6/8	3	1	1/8	1/8	1		7	61	C#4	4	203
15	15	85/2	0.5	1/8	1/8	6/8	4	1	1/8	1/8	1		7	61	C#4	4	209
15	15	43	0.5	1/4	1/4	6/8	3	1	1/8	1/8	1		3	57	A3	3	204
15	15	43	0.5	1/4	1/4	6/8	4	1	1/8	1/8	1		3	57	A3	3	210
15	15	87/2	0.5	3/8	3/8	6/8	3	1	1/8	1/8	1		8	56	G#3	3	205
15	15	87/2	0.5	3/8	3/8	6/8	4	1	1/8	1/8	1		8	56	G#3	3	211
15	15	44	0.5	1/2	1/2	6/8	3	1	1/8	1/8	1		5	59	B3	3	206
15	15	44	0.5	1/2	1/2	6/8	4	1	1/8	1/8	1		5	59	B3	3	212
15	15	89/2	0.5	5/8	5/8	6/8	3	1	1/8	1/8	1		8	56	G#3	3	207
15	15	89/2	0.5	5/8	5/8	6/8	4	1	1/8	1/8	1		8	56	G#3	3	213
16	16	45	0.5	0	0	6/8	3	1	1/8	1/8	1		6	54	F#3	3	216
16	16	45	0.5	0	0	6/8	4	1	1/8	1/8	1		6	54	F#3	3	222
16	16	45	3.0	0	0	6/8	1	1	3/4	1/2	3/2	1	3	81	A5	5	214
16	16	45	3.0	0	0	6/8	2	1	3/4	1/2	3/2	0	3	81	A5	5	215
16	16	91/2	0.5	1/8	1/8	6/8	3	1	1/8	1/8	1		3	57	A3	3	217
16	16	91/2	0.5	1/8	1/8	6/8	4	1	1/8	1/8	1		3	57	A3	3	223
16	16	46	0.5	1/4	1/4	6/8	3	1	1/8	1/8	1		6	54	F#3	3	218
16	16	46	0.5	1/4	1/4	6/8	4	1	1/8	1/8	1		6	54	F#3	3	224
16	16	93/2	0.5	3/8	3/8	6/8	3	1	1/8	1/8	1		4	52	E3	3	219
16	16	93/2	0.5	3/8	3/8	6/8	4	1	1/8	1/8	1		4	52	E3	3	225
16	16	47	0.5	1/2	1/2	6/8	3	1	1/8	1/8	1		8	56	G#3	3	220
16	16	47	0.5	1/2	1/2	6/8	4	1	1/8	1/8	1		8	56	G#3	3	226
16	16	95/2	0.5	5/8	5/8	6/8	3	1	1/8	1/8	1		4	52	E3	3	221
16	16	95/2	0.5	5/8	5/8	6/8	4	1	1/8	1/8	1		4	52	E3	3	227
17	17	48	0.5	0	0	6/8	3	1	1/8	1/8	1		2	50	D3	3	230
17	17	48	0.5	0	0	6/8	4	1	1/8	1/8	1		2	50	D3	3	236
17	17	48	3.0	0	0	6/8	1	1	3/4	1/2	3/2	-1	3	81	A5	5	228
17	17	48	3.0	0	0	6/8	2	1	3/4	1/2	3/2	0	3	81	A5	5	229
17	17	97/2	0.5	1/8	1/8	6/8	3	1	1/8	1/8	1		6	54	F#3	3	231
17	17	97/2	0.5	1/8	1/8	6/8	4	1	1/8	1/8	1		6	54	F#3	3	237
17	17	49	0.5	1/4	1/4	6/8	3	1	1/8	1/8	1		2	50	D3	3	232
17	17	49	0.5	1/4	1/4	6/8	4	1	1/8	1/8	1		2	50	D3	3	238
17	17	99/2	0.5	3/8	3/8	6/8	3	1	1/8	1/8	1		7	49	C#3	3	233
17	17	99/2	0.5	3/8	3/8	6/8	4	1	1/8	1/8	1		7	49	C#3	3	239
17	17	50	0.5	1/2	1/2	6/8	3	1	1/8	1/8	1		4	52	E3	3	234
17	17	50	0.5	1/2	1/2	6/8	4	1	1/8	1/8	1		4	52	E3	3	240
17	17	101/2	0.5	5/8	5/8	6/8	3	1	1/8	1/8	1		7	49	C#3	3	235
17	17	101/2	0.5	5/8	5/8	6/8	4	1	1/8	1/8	1		7	49	C#3	3	241
18	18	51	0.5	0	0	6/8	3	1	1/8	1/8	1		2	50	D3	3	245
18	18	51	0.5	0	0	6/8	4	1	1/8	1/8	1		2	50	D3	3	251
18	18	51	1.5	0	0	6/8	2	1	3/8	1/4	3/2	-1	3	81	A5	5	243
18	18	51	3.0	0	0	6/8	1	1	3/4	1/2	3/2		5	83	B5	5	242
18	18	103/2	0.5	1/8	1/8	6/8	3	1	1/8	1/8	1		6	54	F#3	3	246
18	18	103/2	0.5	1/8	1/8	6/8	4	1	1/8	1/8	1		6	54	F#3	3	252
18	18	52	0.5	1/4	1/4	6/8	3	1	1/8	1/8	1		2	50	D3	3	247
18	18	52	0.5	1/4	1/4	6/8	4	1	1/8	1/8	1		2	50	D3	3	253
18	18	105/2	0.5	3/8	3/8	6/8	3	1	1/8	1/8	1		4	52	E3	3	248
18	18	105/2	0.5	3/8	3/8	6/8	4	1	1/8	1/8	1		4	52	E3	3	254
18	18	105/2	1.5	3/8	3/8	6/8	2	1	3/8	1/4	3/2		8	80	G#5	5	244
18	18	53	0.5	1/2	1/2	6/8	3	1	1/8	1/8	1		2	50	D3	3	249
18	18	53	0.5	1/2	1/2	6/8	4	1	1/8	1/8	1		2	50	D3	3	255
18	18	107/2	0.5	5/8	5/8	6/8	3	1	1/8	1/8	1		4	52	E3	3	250
18	18	107/2	0.5	5/8	5/8	6/8	4	1	1/8	1/8	1		4	52	E3	3	256
19	19	54	3.0	0	0	6/8	3	1	3/4	1/2	3/2		3	45	A2	2	259
19	19	54	3.0	0	0	6/8	4	1	3/4	1/2	3/2		3	45	A2	2	260
19	19	54	3.0	0	0	6/8	2	1	3/4	1/2	3/2		3	81	A5	5	258
19	19	54	3.0	0	0	6/8	1	1	3/4	1/2	3/2		7	85	C#6	6	257
20	20	57	0.5	0	0	6/8	1	1	1/8	1/8	1		4	76	E5	5	261
20	20	115/2	0.5	1/8	1/8	6/8	1	1	1/8	1/8	1		7	73	C#5	5	262
20	20	58	0.5	1/4	1/4	6/8	1	1	1/8	1/8	1		4	76	E5	5	263
20	20	117/2	0.25	3/8	3/8	6/8	1	1	1/16	1/16	1		2	74	D5	5	264
20	20	235/4	0.25	7/16	7/16	6/8	1	1	1/16	1/16	1		7	73	C#5	5	265
20	20	59	0.25	1/2	1/2	6/8	1	1	1/16	1/16	1		5	71	B4	4	266
20	20	237/4	0.25	9/16	9/16	6/8	1	1	1/16	1/16	1		7	73	C#5	5	267
20	20	119/2	0.5	5/8	5/8	6/8	1	1	1/8	1/8	1		2	74	D5	5	268
21	21	60	0.5	0	0	6/8	1	1	1/8	1/8	1		7	73	C#5	5	269
21	21	60	0.5	0	0	6/8	2	1	1/8	1/8	1		4	76	E5	5	273
21	21	121/2	0.5	1/8	1/8	6/8	1	1	1/8	1/8	1		3	69	A4	4	270
21	21	121/2	0.5	1/8	1/8	6/8	2	1	1/8	1/8	1		7	73	C#5	5	274
21	21	61	0.5	1/4	1/4	6/8	1	1	1/8	1/8	1		7	73	C#5	5	271
21	21	61	0.5	1/4	1/4	6/8	2	1	1/8	1/8	1		4	76	E5	5	275
21	21	123/2	1.5	3/8	3/8	6/8	1	1	3/8	1/4	3/2		5	71	B4	4	272
21	21	123/2	0.25	3/8	3/8	6/8	2	1	1/16	1/16	1		2	74	D5	5	276
21	21	247/4	0.25	7/16	7/16	6/8	2	1	1/16	1/16	1		7	73	C#5	5	277
21	21	62	0.25	1/2	1/2	6/8	2	1	1/16	1/16	1		5	71	B4	4	278
21	21	249/4	0.25	9/16	9/16	6/8	2	1	1/16	1/16	1		7	73	C#5	5	279
21	21	125/2	0.5	5/8	5/8	6/8	2	1	1/8	1/8	1		2	74	D5	5	280
22	22	63	0.5	0	0	6/8	3	1	1/8	1/8	1		3	57	A3	3	286
22	22	63	0.5	0	0	6/8	4	1	1/8	1/8	1		3	57	A3	3	294
22	22	63	1.5	0	0	6/8	1	1	3/8	1/4	3/2		3	69	A4	4	281
22	22	63	0.5	0	0	6/8	2	1	1/8	1/8	1		7	73	C#5	5	282
22	22	127/2	0.5	1/8	1/8	6/8	3	1	1/8	1/8	1		6	54	F#3	3	287
22	22	127/2	0.5	1/8	1/8	6/8	4	1	1/8	1/8	1		6	54	F#3	3	295
22	22	127/2	0.5	1/8	1/8	6/8	2	1	1/8	1/8	1		3	69	A4	4	283
22	22	64	0.5	1/4	1/4	6/8	3	1	1/8	1/8	1		3	57	A3	3	288
22	22	64	0.5	1/4	1/4	6/8	4	1	1/8	1/8	1		3	57	A3	3	296
22	22	64	0.5	1/4	1/4	6/8	2	1	1/8	1/8	1		7	73	C#5	5	284
22	22	129/2	0.25	3/8	3/8	6/8	3	1	1/16	1/16	1		1	55	G3	3	289
22	22	129/2	0.5	3/8	3/8	6/8	4	1	1/8	1/8	1		1	55	G3	3	297
22	22	129/2	1.5	3/8	3/8	6/8	2	1	3/8	1/4	3/2		5	71	B4	4	285
22	22	259/4	0.25	7/16	7/16	6/8	3	1	1/16	1/16	1		6	54	F#3	3	290
22	22	65	0.25	1/2	1/2	6/8	3	1	1/16	1/16	1		4	52	E3	3	291
22	22	65	0.5	1/2	1/2	6/8	4	1	1/8	1/8	1		4	52	E3	3	298
22	22	261/4	0.25	9/16	9/16	6/8	3	1	1/16	1/16	1		6	54	F#3	3	292
22	22	131/2	0.5	5/8	5/8	6/8	3	1	1/8	1/8	1		1	55	G3	3	293
22	22	131/2	0.5	5/8	5/8	6/8	4	1	1/8	1/8	1		1	55	G3	3	299
23	23	66	0.5	0	0	6/8	3	1	1/8	1/8	1		6	54	F#3	3	309
23	23	66	0.5	0	0	6/8	4	1	1/8	1/8	1		6	54	F#3	3	313
23	23	66	1.5	0	0	6/8	2	1	3/8	1/4	3/2		3	69	A4	4	308
23	23	66	0.5	0	0	6/8	1	1	1/8	1/8	1		3	81	A5	5	300
23	23	133/2	0.5	1/8	1/8	6/8	3	1	1/8	1/8	1		2	50	D3	3	310
23	23	133/2	0.5	1/8	1/8	6/8	4	1	1/8	1/8	1		2	50	D3	3	314
23	23	133/2	0.5	1/8	1/8	6/8	1	1	1/8	1/8	1		6	78	F#5	5	301
23	23	67	0.5	1/4	1/4	6/8	3	1	1/8	1/8	1		6	54	F#3	3	311
23	23	67	0.5	1/4	1/4	6/8	4	1	1/8	1/8	1		6	54	F#3	3	315
23	23	67	0.5	1/4	1/4	6/8	1	1	1/8	1/8	1		3	81	A5	5	302
23	23	135/2	1.5	3/8	3/8	6/8	3	1	3/8	1/4	3/2		4	52	E3	3	312
23	23	135/2	1.5	3/8	3/8	6/8	4	1	3/8	1/4	3/2		4	52	E3	3	316
23	23	135/2	0.25	3/8	3/8	6/8	1	1	1/16	1/16	1		1	79	G5	5	303
23	23	271/4	0.25	7/16	7/16	6/8	1	1	1/16	1/16	1		6	78	F#5	5	304
23	23	68	0.25	1/2	1/2	6/8	1	1	1/16	1/16	1		4	76	E5	5	305
23	23	273/4	0.25	9/16	9/16	6/8	1	1	1/16	1/16	1		6	78	F#5	5	306
23	23	137/2	0.5	5/8	5/8	6/8	1	1	1/8	1/8	1		1	79	G5	5	307
24	24	69	1.5	0	0	6/8	3	1	3/8	1/4	3/2		2	50	D3	3	333
24	24	69	1.5	0	0	6/8	4	1	3/8	1/4	3/2		2	50	D3	3	335
24	24	69	0.5	0	0	6/8	1	1	1/8	1/8	1		6	78	F#5	5	317
24	24	69	0.5	0	0	6/8	2	1	1/8	1/8	1		3	81	A5	5	325
24	24	139/2	0.5	1/8	1/8	6/8	1	1	1/8	1/8	1		2	74	D5	5	318
24	24	139/2	0.5	1/8	1/8	6/8	2	1	1/8	1/8	1		6	78	F#5	5	326
24	24	70	0.5	1/4	1/4	6/8	1	1	1/8	1/8	1		6	78	F#5	5	319
24	24	70	0.5	1/4	1/4	6/8	2	1	1/8	1/8	1		3	81	A5	5	327
24	24	141/2	1.5	3/8	3/8	6/8	3	1	3/8	1/4	3/2		4	52	E3	3	334
24	24	141/2	1.5	3/8	3/8	6/8	4	1	3/8	1/4	3/2		4	52	E3	3	336
24	24	141/2	0.25	3/8	3/8	6/8	1	1	1/16	1/16	1		4	76	E5	5	320
24	24	141/2	0.25	3/8	3/8	6/8	2	1	1/16	1/16	1		1	79	G5	5	328
24	24	283/4	0.25	7/16	7/16	6/8	1	1	1/16	1/16	1		2	74	D5	5	321
24	24	283/4	0.25	7/16	7/16	6/8	2	1	1/16	1/16	1		6	78	F#5	5	329
24	24	71	0.25	1/2	1/2	6/8	1	1	1/16	1/16	1		7	73	C#5	5	322
24	24	71	0.25	1/2	1/2	6/8	2	1	1/16	1/16	1		4	76	E5	5	330
24	24	285/4	0.25	9/16	9/16	6/8	1	1	1/16	1/16	1		2	74	D5	5	323
24	24	285/4	0.25	9/16	9/16	6/8	2	1	1/16	1/16	1		6	78	F#5	5	331
24	24	143/2	0.5	5/8	5/8	6/8	1	1	1/8	1/8	1		4	76	E5	5	324
24	24	143/2	0.5	5/8	5/8	6/8	2	1	1/8	1/8	1		1	79	G5	5	332
25	25	72	1.0	0	0	6/8	3	1	1/4	1/4	1		6	54	F#3	3	347
25	25	72	1.0	0	0	6/8	4	1	1/4	1/4	1		6	54	F#3	3	351
25	25	72	0.5	0	0	6/8	1	1	1/8	1/8	1		2	74	D5	5	337
25	25	72	0.5	0	0	6/8	2	1	1/8	1/8	1		6	78	F#5	5	342
25	25	145/2	0.5	1/8	1/8	6/8	1	1	1/8	1/8	1		3	69	A4	4	338
25	25	145/2	0.5	1/8	1/8	6/8	2	1	1/8	1/8	1		2	74	D5	5	343
25	25	73	0.5	1/4	1/4	6/8	3	1	1/8	1/8	1		2	50	D3	3	348
25	25	73	0.5	1/4	1/4	6/8	4	1	1/8	1/8	1		2	50	D3	3	352
25	25	73	0.5	1/4	1/4	6/8	1	1	1/8	1/8	1		2	74	D5	5	339
25	25	73	0.5	1/4	1/4	6/8	2	1	1/8	1/8	1		6	78	F#5	5	344
25	25	147/2	1.0	3/8	3/8	6/8	3	1	1/4	1/4	1		4	52	E3	3	349
25	25	147/2	1.0	3/8	3/8	6/8	4	1	1/4	1/4	1		4	52	E3	3	353
25	25	147/2	1.0	3/8	3/8	6/8	1	1	1/4	1/4	1		7	73	C#5	5	340
25	25	147/2	1.0	3/8	3/8	6/8	2	1	1/4	1/4	1		4	76	E5	5	345
25	25	149/2	0.5	5/8	5/8	6/8	3	1	1/8	1/8	1		4	52	E3	3	350
25	25	149/2	0.5	5/8	5/8	6/8	4	1	1/8	1/8	1		4	52	E3	3	354
25	25	149/2	0.5	5/8	5/8	6/8	1	1	1/8	1/8	1		5	71	B4	4	341
25	25	149/2	0.5	5/8	5/8	6/8	2	1	1/8	1/8	1		2	74	D5	5	346
26	26	75	1.0	0	0	6/8	3	1	1/4	1/4	1		6	54	F#3	3	365
26	26	75	1.0	0	0	6/8	4	1	1/4	1/4	1		6	54	F#3	3	369
26	26	75	0.5	0	0	6/8	1	1	1/8	1/8	1		10	70	A#4	4	355
26	26	75	1.0	0	0	6/8	2	1	1/4	1/4	1		7	73	C#5	5	361
26	26	151/2	0.5	1/8	1/8	6/8	1	1	1/8	1/8	1		6	66	F#4	4	356
26	26	76	0.5	1/4	1/4	6/8	3	1	1/8	1/8	1		6	54	F#3	3	366
26	26	76	0.5	1/4	1/4	6/8	4	1	1/8	1/8	1		6	54	F#3	3	370
26	26	76	0.5	1/4	1/4	6/8	2	1	1/8	1/8	1		10	70	A#4	4	362
26	26	76	1.0	1/4	1/4	6/8	1	1	1/4	1/4	1		6	78	F#5	5	357
26	26	153/2	1.0	3/8	3/8	6/8	3	1	1/4	1/4	1		8	56	G#3	3	367
26	26	153/2	1.0	3/8	3/8	6/8	4	1	1/4	1/4	1		8	56	G#3	3	371
26	26	153/2	1.0	3/8	3/8	6/8	2	1	1/4	1/4	1		5	71	B4	4	363
26	26	77	0.25	1/2	1/2	6/8	1	1	1/16	1/16	1		8	80	G#5	5	358
26	26	309/4	0.25	9/16	9/16	6/8	1	1	1/16	1/16	1		6	78	F#5	5	359
26	26	155/2	0.5	5/8	5/8	6/8	3	1	1/8	1/8	1		10	58	A#3	3	368
26	26	155/2	0.5	5/8	5/8	6/8	4	1	1/8	1/8	1		10	58	A#3	3	372
26	26	155/2	0.5	5/8	5/8	6/8	2	1	1/8	1/8	1		7	73	C#5	5	364
26	26	155/2	0.5	5/8	5/8	6/8	1	1	1/8	1/8	1		4	76	E5	5	360
27	27	78	1.0	0	0	6/8	3	1	1/4	1/4	1		5	59	B3	3	383
27	27	78	1.0	0	0	6/8	4	1	1/4	1/4	1		5	59	B3	3	388
27	27	78	1.0	0	0	6/8	2	1	1/4	1/4	1		6	66	F#4	4	379
27	27	78	0.5	0	0	6/8	1	1	1/8	1/8	1		4	76	E5	5	373
27	27	157/2	0.25	1/8	1/8	6/8	1	1	1/16	1/16	1		6	78	F#5	5	374
27	27	315/4	0.25	3/16	3/16	6/8	1	1	1/16	1/16	1		4	76	E5	5	375
27	27	79	0.5	1/4	1/4	6/8	3	1	1/8	1/8	1		2	50	D3	3	384
27	27	79	0.5	1/4	1/4	6/8	4	1	1/8	1/8	1		2	50	D3	3	389
27	27	79	0.5	1/4	1/4	6/8	2	1	1/8	1/8	1		5	71	B4	4	380
27	27	79	0.5	1/4	1/4	6/8	1	1	1/8	1/8	1		2	74	D5	5	376
27	27	159/2	0.5	3/8	3/8	6/8	3	1	1/8	1/8	1		4	52	E3	3	385
27	27	159/2	0.5	3/8	3/8	6/8	4	1	1/8	1/8	1		4	52	E3	3	390
27	27	159/2	0.5	3/8	3/8	6/8	2	1	1/8	1/8	1		5	71	B4	4	381
27	27	159/2	0.5	3/8	3/8	6/8	1	1	1/8	1/8	1		2	74	D5	5	377
27	27	80	0.5	1/2	1/2	6/8	3	1	1/8	1/8	1		6	54	F#3	3	386
27	27	80	0.5	1/2	1/2	6/8	4	1	1/8	1/8	1		6	54	F#3	3	391
27	27	80	1.0	1/2	1/2	6/8	2	1	1/4	1/4	1		10	70	A#4	4	382
27	27	80	1.0	1/2	1/2	6/8	1	1	1/4	1/4	1		7	73	C#5	5	378
27	27	161/2	0.5	5/8	5/8	6/8	3	1	1/8	1/8	1		6	42	F#2	2	387
27	27	161/2	0.5	5/8	5/8	6/8	4	1	1/8	1/8	1		6	42	F#2	2	392
28	28	81	1.0	0	0	6/8	3	1	1/4	1/4	1		5	47	B2	2	399
28	28	81	1.0	0	0	6/8	4	1	1/4	1/4	1		5	47	B2	2	403
28	28	81	1.0	0	0	6/8	1	1	1/4	1/4	1		5	71	B4	4	393
28	28	81	1.5	0	0	6/8	2	1	3/8	1/4	3/2		5	71	B4	4	398
28	28	82	0.5	1/4	1/4	6/8	3	1	1/8	1/8	1		5	47	B2	2	400
28	28	82	0.5	1/4	1/4	6/8	4	1	1/8	1/8	1		5	47	B2	2	404
28	28	82	0.5	1/4	1/4	6/8	1	1	1/8	1/8	1		5	83	B5	5	394
28	28	165/2	1.0	3/8	3/8	6/8	3	1	1/4	1/4	1		7	49	C#3	3	401
28	28	165/2	1.0	3/8	3/8	6/8	4	1	1/4	1/4	1		7	49	C#3	3	405
28	28	165/2	0.5	3/8	3/8	6/8	1	1	1/8	1/8	1		5	83	B5	5	395
28	28	83	0.5	1/2	1/2	6/8	1	1	1/8	1/8	1		3	81	A5	5	396
28	28	167/2	0.5	5/8	5/8	6/8	3	1	1/8	1/8	1		9	51	D#3	3	402
28	28	167/2	0.5	5/8	5/8	6/8	4	1	1/8	1/8	1		9	51	D#3	3	406
28	28	167/2	0.5	5/8	5/8	6/8	1	1	1/8	1/8	1		3	81	A5	5	397
29	29	84	1.0	0	0	6/8	3	1	1/4	1/4	1		4	52	E3	3	417
29	29	84	1.0	0	0	6/8	4	1	1/4	1/4	1		4	52	E3	3	421
29	29	84	0.5	0	0	6/8	1	1	1/8	1/8	1		3	81	A5	5	407
29	29	169/2	0.5	1/8	1/8	6/8	1	1	1/8	1/8	1		1	79	G5	5	408
29	29	85	0.5	1/4	1/4	6/8	3	1	1/8	1/8	1		1	55	G3	3	418
29	29	85	0.5	1/4	1/4	6/8	4	1	1/8	1/8	1		1	55	G3	3	422
29	29	85	0.5	1/4	1/4	6/8	1	1	1/8	1/8	1		1	79	G5	5	409
29	29	85	0.5	1/4	1/4	6/8	2	1	1/8	1/8	1		5	83	B5	5	413
29	29	171/2	1.0	3/8	3/8	6/8	3	1	1/4	1/4	1		3	57	A3	3	419
29	29	171/2	1.0	3/8	3/8	6/8	4	1	1/4	1/4	1		3	57	A3	3	423
29	29	171/2	0.5	3/8	3/8	6/8	1	1	1/8	1/8	1		1	79	G5	5	410
29	29	171/2	0.5	3/8	3/8	6/8	2	1	1/8	1/8	1		5	83	B5	5	414
29	29	86	0.5	1/2	1/2	6/8	1	1	1/8	1/8	1		6	78	F#5	5	411
29	29	86	0.5	1/2	1/2	6/8	2	1	1/8	1/8	1		3	81	A5	5	415
29	29	173/2	0.5	5/8	5/8	6/8	3	1	1/8	1/8	1		5	59	B3	3	420
29	29	173/2	0.5	5/8	5/8	6/8	4	1	1/8	1/8	1		5	59	B3	3	424
29	29	173/2	0.5	5/8	5/8	6/8	1	1	1/8	1/8	1		6	78	F#5	5	412
29	29	173/2	0.5	5/8	5/8	6/8	2	1	1/8	1/8	1		3	81	A5	5	416
30	30	87	1.0	0	0	6/8	3	1	1/4	1/4	1		0	60	C4	4	437
30	30	87	1.0	0	0	6/8	4	1	1/4	1/4	1		0	60	C4	4	441
30	30	87	0.5	0	0	6/8	1	1	1/8	1/8	1		6	78	F#5	5	425
30	30	87	0.5	0	0	6/8	2	1	1/8	1/8	1		3	81	A5	5	431
30	30	175/2	0.5	1/8	1/8	6/8	1	1	1/8	1/8	1		4	76	E5	5	426
30	30	175/2	0.5	1/8	1/8	6/8	2	1	1/8	1/8	1		1	79	G5	5	432
30	30	88	0.5	1/4	1/4	6/8	3	1	1/8	1/8	1		1	55	G3	3	438
30	30	88	0.5	1/4	1/4	6/8	4	1	1/8	1/8	1		1	55	G3	3	442
30	30	88	0.5	1/4	1/4	6/8	2	1	1/8	1/8	1		1	79	G5	5	433
30	30	88	0.5	1/4	1/4	6/8	1	1	1/8	1/8	1		5	83	B5	5	427
30	30	177/2	1.0	3/8	3/8	6/8	3	1	1/4	1/4	1		3	57	A3	3	439
30	30	177/2	1.0	3/8	3/8	6/8	4	1	1/4	1/4	1		3	57	A3	3	443
30	30	177/2	0.5	3/8	3/8	6/8	2	1	1/8	1/8	1		1	79	G5	5	434
30	30	177/2	0.5	3/8	3/8	6/8	1	1	1/8	1/8	1		5	83	B5	5	428
30	30	89	0.5	1/2	1/2	6/8	2	1	1/8	1/8	1		6	78	F#5	5	435
30	30	89	0.5	1/2	1/2	6/8	1	1	1/8	1/8	1		3	81	A5	5	429
30	30	179/2	0.5	5/8	5/8	6/8	3	1	1/8	1/8	1		5	59	B3	3	440
30	30	179/2	0.5	5/8	5/8	6/8	4	1	1/8	1/8	1		5	59	B3	3	444
30	30	179/2	0.5	5/8	5/8	6/8	2	1	1/8	1/8	1		6	78	F#5	5	436
30	30	179/2	0.5	5/8	5/8	6/8	1	1	1/8	1/8	1		3	81	A5	5	430
31	31	90	1.0	0	0	6/8	3	1	1/4	1/4	1		0	60	C4	4	455
31	31	90	1.0	0	0	6/8	4	1	1/4	1/4	1		0	60	C4	4	460
31	31	90	0.5	0	0	6/8	2	1	1/8	1/8	1		6	78	F#5	5	450
31	31	90	0.5	0	0	6/8	1	1	1/8	1/8	1		3	81	A5	5	445
31	31	181/2	0.5	1/8	1/8	6/8	2	1	1/8	1/8	1		4	76	E5	5	451
31	31	181/2	0.5	1/8	1/8	6/8	1	1	1/8	1/8	1		1	79	G5	5	446
31	31	91	0.5	1/4	1/4	6/8	3	1	1/8	1/8	1		1	55	G3	3	456
31	31	91	0.5	1/4	1/4	6/8	4	1	1/8	1/8	1		1	55	G3	3	461
31	31	91	0.5	1/4	1/4	6/8	2	1	1/8	1/8	1		4	76	E5	5	452
31	31	91	0.5	1/4	1/4	6/8	1	1	1/8	1/8	1		1	79	G5	5	447
31	31	183/2	0.5	3/8	3/8	6/8	3	1	1/8	1/8	1		3	57	A3	3	457
31	31	183/2	0.5	3/8	3/8	6/8	4	1	1/8	1/8	1		3	57	A3	3	462
31	31	183/2	0.5	3/8	3/8	6/8	2	1	1/8	1/8	1		4	76	E5	5	453
31	31	183/2	0.5	3/8	3/8	6/8	1	1	1/8	1/8	1		1	79	G5	5	448
31	31	92	0.5	1/2	1/2	6/8	3	1	1/8	1/8	1		5	59	B3	3	458
31	31	92	0.5	1/2	1/2	6/8	4	1	1/8	1/8	1		5	59	B3	3	463
31	31	92	1.0	1/2	1/2	6/8	2	1	1/4	1/4	1		9	75	D#5	5	454
31	31	92	1.0	1/2	1/2	6/8	1	1	1/4	1/4	1		6	78	F#5	5	449
31	31	185/2	0.5	5/8	5/8	6/8	3	1	1/8	1/8	1		5	47	B2	2	459
31	31	185/2	0.5	5/8	5/8	6/8	4	1	1/8	1/8	1		5	47	B2	2	464
32	32	93	1.0	0	0	6/8	3	1	1/4	1/4	1		4	52	E3	3	473
32	32	93	1.0	0	0	6/8	4	1	1/4	1/4	1		4	52	E3	3	478
32	32	93	1.0	0	0	6/8	1	1	1/4	1/4	1		4	76	E5	5	465
32	32	93	1.5	0	0	6/8	2	1	3/8	1/4	3/2		4	76	E5	5	472
32	32	94	0.5	1/4	1/4	6/8	3	1	1/8	1/8	1		4	52	E3	3	474
32	32	94	0.5	1/4	1/4	6/8	4	1	1/8	1/8	1		4	52	E3	3	479
32	32	94	0.5	1/4	1/4	6/8	1	1	1/8	1/8	1		4	76	E5	5	466
32	32	189/2	0.5	3/8	3/8	6/8	3	1	1/8	1/8	1		6	54	F#3	3	475
32	32	189/2	0.5	3/8	3/8	6/8	4	1	1/8	1/8	1		6	54	F#3	3	480
32	32	189/2	0.25	3/8	3/8	6/8	1	1	1/16	1/16	1		2	74	D5	5	467
32	32	379/4	0.25	7/16	7/16	6/8	1	1	1/16	1/16	1		7	73	C#5	5	468
32	32	95	0.5	1/2	1/2	6/8	3	1	1/8	1/8	1		8	56	G#3	3	476
32	32	95	0.5	1/2	1/2	6/8	4	1	1/8	1/8	1		8	56	G#3	3	481
32	32	95	0.25	1/2	1/2	6/8	1	1	1/16	1/16	1		5	71	B4	4	469
32	32	381/4	0.25	9/16	9/16	6/8	1	1	1/16	1/16	1		7	73	C#5	5	470
32	32	191/2	0.5	5/8	5/8	6/8	3	1	1/8	1/8	1		4	52	E3	3	477
32	32	191/2	0.5	5/8	5/8	6/8	4	1	1/8	1/8	1		4	52	E3	3	482
32	32	191/2	0.5	5/8	5/8	6/8	1	1	1/8	1/8	1		2	74	D5	5	471
33	33	96	1.0	0	0	6/8	3	1	1/4	1/4	1		3	57	A3	3	494
33	33	96	1.0	0	0	6/8	4	1	1/4	1/4	1		3	57	A3	3	499
33	33	96	0.5	0	0	6/8	1	1	1/8	1/8	1		7	73	C#5	5	483
33	33	193/2	0.5	1/8	1/8	6/8	1	1	1/8	1/8	1		3	69	A4	4	484
33	33	97	0.5	1/4	1/4	6/8	3	1	1/8	1/8	1		6	54	F#3	3	495
33	33	97	0.5	1/4	1/4	6/8	4	1	1/8	1/8	1		6	54	F#3	3	500
33	33	97	0.5	1/4	1/4	6/8	1	1	1/8	1/8	1		3	69	A4	4	485
33	33	97	0.5	1/4	1/4	6/8	2	1	1/8	1/8	1		3	81	A5	5	488
33	33	195/2	0.5	3/8	3/8	6/8	3	1	1/8	1/8	1		4	52	E3	3	496
33	33	195/2	0.5	3/8	3/8	6/8	4	1	1/8	1/8	1		4	52	E3	3	501
33	33	195/2	0.5	3/8	3/8	6/8	1	1	1/8	1/8	1		5	71	B4	4	486
33	33	195/2	0.25	3/8	3/8	6/8	2	1	1/16	1/16	1		1	79	G5	5	489
33	33	391/4	0.25	7/16	7/16	6/8	2	1	1/16	1/16	1		6	78	F#5	5	490
33	33	98	0.5	1/2	1/2	6/8	3	1	1/8	1/8	1		3	57	A3	3	497
33	33	98	0.5	1/2	1/2	6/8	4	1	1/8	1/8	1		3	57	A3	3	502
33	33	98	1.0	1/2	1/2	6/8	1	1	1/4	1/4	1		7	73	C#5	5	487
33	33	98	0.25	1/2	1/2	6/8	2	1	1/16	1/16	1		4	76	E5	5	491
33	33	393/4	0.25	9/16	9/16	6/8	2	1	1/16	1/16	1		6	78	F#5	5	492
33	33	197/2	0.5	5/8	5/8	6/8	3	1	1/8	1/8	1		3	45	A2	2	498
33	33	197/2	0.5	5/8	5/8	6/8	4	1	1/8	1/8	1		3	45	A2	2	503
33	33	197/2	0.5	5/8	5/8	6/8	2	1	1/8	1/8	1		1	79	G5	5	493
34	34	99	1.0	0	0	6/8	3	1	1/4	1/4	1		2	50	D3	3	516
34	34	99	1.0	0	0	6/8	4	1	1/4	1/4	1		2	50	D3	3	521
34	34	99	1.0	0	0	6/8	1	1	1/4	1/4	1		2	74	D5	5	504
34	34	99	0.5	0	0	6/8	2	1	1/8	1/8	1		6	78	F#5	5	511
34	34	199/2	0.5	1/8	1/8	6/8	2	1	1/8	1/8	1		2	74	D5	5	512
34	34	100	0.5	1/4	1/4	6/8	3	1	1/8	1/8	1		5	59	B3	3	517
34	34	100	0.5	1/4	1/4	6/8	4	1	1/8	1/8	1		5	59	B3	3	522
34	34	100	0.5	1/4	1/4	6/8	2	1	1/8	1/8	1		2	74	D5	5	513
34	34	100	0.5	1/4	1/4	6/8	1	1	1/8	1/8	1		2	86	D6	6	505
34	34	201/2	0.5	3/8	3/8	6/8	3	1	1/8	1/8	1		3	57	A3	3	518
34	34	201/2	0.5	3/8	3/8	6/8	4	1	1/8	1/8	1		3	57	A3	3	523
34	34	201/2	0.5	3/8	3/8	6/8	2	1	1/8	1/8	1		4	76	E5	5	514
34	34	201/2	0.25	3/8	3/8	6/8	1	1	1/16	1/16	1		0	84	C6	6	506
34	34	403/4	0.25	7/16	7/16	6/8	1	1	1/16	1/16	1		5	83	B5	5	507
34	34	101	0.5	1/2	1/2	6/8	3	1	1/8	1/8	1		2	62	D4	4	519
34	34	101	0.5	1/2	1/2	6/8	4	1	1/8	1/8	1		2	62	D4	4	524
34	34	101	1.0	1/2	1/2	6/8	2	1	1/4	1/4	1		6	78	F#5	5	515
34	34	101	0.25	1/2	1/2	6/8	1	1	1/16	1/16	1		3	81	A5	5	508
34	34	405/4	0.25	9/16	9/16	6/8	1	1	1/16	1/16	1		5	83	B5	5	509
34	34	203/2	0.5	5/8	5/8	6/8	3	1	1/8	1/8	1		2	50	D3	3	520
34	34	203/2	0.5	5/8	5/8	6/8	4	1	1/8	1/8	1		2	50	D3	3	525
34	34	203/2	0.5	5/8	5/8	6/8	1	1	1/8	1/8	1		0	84	C6	6	510
35	35	102	1.5	0	0	6/8	3	1	3/8	1/4	3/2		1	55	G3	3	537
35	35	102	1.5	0	0	6/8	4	1	3/8	1/4	3/2		1	55	G3	3	539
35	35	102	1.0	0	0	6/8	2	1	1/4	1/4	1		1	79	G5	5	530
35	35	102	0.5	0	0	6/8	1	1	1/8	1/8	1		5	83	B5	5	526
35	35	205/2	0.5	1/8	1/8	6/8	1	1	1/8	1/8	1		1	79	G5	5	527
35	35	103	0.5	1/4	1/4	6/8	2	1	1/8	1/8	1		1	79	G5	5	531
35	35	103	0.5	1/4	1/4	6/8	1	1	1/8	1/8	1		5	83	B5	5	528
35	35	207/2	1.5	3/8	3/8	6/8	3	1	3/8	1/4	3/2		2	50	D3	3	538
35	35	207/2	1.5	3/8	3/8	6/8	4	1	3/8	1/4	3/2		2	50	D3	3	540
35	35	207/2	0.25	3/8	3/8	6/8	2	1	1/16	1/16	1		6	78	F#5	5	532
35	35	207/2	1.5	3/8	3/8	6/8	1	1	3/8	1/4	3/2	1	3	81	A5	5	529
35	35	415/4	0.25	7/16	7/16	6/8	2	1	1/16	1/16	1		4	76	E5	5	533
35	35	104	0.25	1/2	1/2	6/8	2	1	1/16	1/16	1		2	74	D5	5	534
35	35	417/4	0.25	9/16	9/16	6/8	2	1	1/16	1/16	1		4	76	E5	5	535
35	35	209/2	0.5	5/8	5/8	6/8	2	1	1/8	1/8	1		6	78	F#5	5	536
36	36	105	1.5	0	0	6/8	3	1	3/8	1/4	3/2		1	43	G2	2	549
36	36	105	1.5	0	0	6/8	4	1	3/8	1/4	3/2		1	43	G2	2	551
36	36	105	1.5	0	0	6/8	2	1	3/8	1/4	3/2		5	71	B4	4	547
36	36	105	0.5	0	0	6/8	1	1	1/8	1/8	1	-1	3	81	A5	5	541
36	36	211/2	0.5	1/8	1/8	6/8	1	1	1/8	1/8	1		5	83	B5	5	542
36	36	106	0.5	1/4	1/4	6/8	1	1	1/8	1/8	1		3	81	A5	5	543
36	36	213/2	1.5	3/8	3/8	6/8	3	1	3/8	1/4	3/2		3	45	A2	2	550
36	36	213/2	1.5	3/8	3/8	6/8	4	1	3/8	1/4	3/2		3	45	A2	2	552
36	36	213/2	1.5	3/8	3/8	6/8	2	1	3/8	1/4	3/2	1	4	76	E5	5	548
36	36	213/2	0.5	3/8	3/8	6/8	1	1	1/8	1/8	1		1	79	G5	5	544
36	36	107	0.5	1/2	1/2	6/8	1	1	1/8	1/8	1		3	81	A5	5	545
36	36	215/2	0.5	5/8	5/8	6/8	1	1	1/8	1/8	1		1	79	G5	5	546
37	37	108	1.5	0	0	6/8	3	1	3/8	1/4	3/2		2	50	D3	3	560
37	37	108	1.5	0	0	6/8	4	1	3/8	1/4	3/2		2	50	D3	3	562
37	37	108	0.5	0	0	6/8	2	1	1/8	1/8	1	-1	4	76	E5	5	556
37	37	108	2.0	0	0	6/8	1	1	1/2	1/2	1		6	78	F#5	5	553
37	37	217/2	0.5	1/8	1/8	6/8	2	1	1/8	1/8	1		2	74	D5	5	557
37	37	109	0.5	1/4	1/4	6/8	2	1	1/8	1/8	1		7	73	C#5	5	558
37	37	219/2	1.5	3/8	3/8	6/8	3	1	3/8	1/4	3/2		6	54	F#3	3	561
37	37	219/2	1.5	3/8	3/8	6/8	4	1	3/8	1/4	3/2		6	54	F#3	3	563
37	37	219/2	1.5	3/8	3/8	6/8	2	1	3/8	1/4	3/2	1	2	74	D5	5	559
37	37	110	0.5	1/2	1/2	6/8	1	1	1/8	1/8	1		1	79	G5	5	554
37	37	221/2	0.5	5/8	5/8	6/8	1	1	1/8	1/8	1		3	81	A5	5	555
38	38	111	1.5	0	0	6/8	3	1	3/8	1/4	3/2		1	55	G3	3	571
38	38	111	1.5	0	0	6/8	4	1	3/8	1/4	3/2		1	55	G3	3	573
38	38	111	0.5	0	0	6/8	2	1	1/8	1/8	1	-1	2	74	D5	5	565
38	38	111	3.0	0	0	6/8	1	1	3/4	1/2	3/2	1	4	76	E5	5	564
38	38	223/2	0.5	1/8	1/8	6/8	2	1	1/8	1/8	1		7	73	C#5	5	566
38	38	112	0.5	1/4	1/4	6/8	2	1	1/8	1/8	1		5	71	B4	4	567
38	38	225/2	1.5	3/8	3/8	6/8	3	1	3/8	1/4	3/2		3	57	A3	3	572
38	38	225/2	1.5	3/8	3/8	6/8	4	1	3/8	1/4	3/2		3	57	A3	3	574
38	38	225/2	0.5	3/8	3/8	6/8	2	1	1/8	1/8	1		7	73	C#5	5	568
38	38	113	0.5	1/2	1/2	6/8	2	1	1/8	1/8	1		5	71	B4	4	569
38	38	227/2	0.5	5/8	5/8	6/8	2	1	1/8	1/8	1		7	73	C#5	5	570
39	39	114	1.5	0	0	6/8	3	1	3/8	1/4	3/2		5	59	B3	3	580
39	39	114	1.5	0	0	6/8	4	1	3/8	1/4	3/2		5	59	B3	3	584
39	39	114	3.0	0	0	6/8	2	1	3/4	1/2	3/2	1	2	74	D5	5	579
39	39	114	1.5	0	0	6/8	1	1	3/8	1/4	3/2	-1	4	76	E5	5	575
39	39	231/2	0.5	3/8	3/8	6/8	3	1	1/8	1/8	1		6	54	F#3	3	581
39	39	231/2	0.5	3/8	3/8	6/8	4	1	1/8	1/8	1		6	54	F#3	3	585
39	39	231/2	0.5	3/8	3/8	6/8	1	1	1/8	1/8	1		3	81	A5	5	576
39	39	116	0.5	1/2	1/2	6/8	3	1	1/8	1/8	1		4	52	E3	3	582
39	39	116	0.5	1/2	1/2	6/8	4	1	1/8	1/8	1		4	52	E3	3	586
39	39	116	0.5	1/2	1/2	6/8	1	1	1/8	1/8	1		1	79	G5	5	577
39	39	233/2	0.5	5/8	5/8	6/8	3	1	1/8	1/8	1		2	50	D3	3	583
39	39	233/2	0.5	5/8	5/8	6/8	4	1	1/8	1/8	1		2	50	D3	3	587
39	39	233/2	0.5	5/8	5/8	6/8	1	1	1/8	1/8	1		6	78	F#5	5	578
40	40	117	0.5	0	0	6/8	3	1	1/8	1/8	1		1	55	G3	3	596
40	40	117	0.5	0	0	6/8	4	1	1/8	1/8	1		1	55	G3	3	601
40	40	117	2.0	0	0	6/8	2	1	1/2	1/2	1	0	2	74	D5	5	593
40	40	117	0.5	0	0	6/8	1	1	1/8	1/8	1		5	83	B5	5	588
40	40	235/2	0.5	1/8	1/8	6/8	3	1	1/8	1/8	1		6	54	F#3	3	597
40	40	235/2	0.5	1/8	1/8	6/8	4	1	1/8	1/8	1		6	54	F#3	3	602
40	40	235/2	0.25	1/8	1/8	6/8	1	1	1/16	1/16	1		3	81	A5	5	589
40	40	471/4	0.25	3/16	3/16	6/8	1	1	1/16	1/16	1		1	79	G5	5	590
40	40	118	0.5	1/4	1/4	6/8	3	1	1/8	1/8	1		1	55	G3	3	598
40	40	118	0.5	1/4	1/4	6/8	4	1	1/8	1/8	1		1	55	G3	3	603
40	40	118	0.5	1/4	1/4	6/8	1	1	1/8	1/8	1		6	78	F#5	5	591
40	40	237/2	1.0	3/8	3/8	6/8	3	1	1/4	1/4	1		3	57	A3	3	599
40	40	237/2	1.0	3/8	3/8	6/8	4	1	1/4	1/4	1		3	57	A3	3	604
40	40	237/2	1.5	3/8	3/8	6/8	1	1	3/8	1/4	3/2		4	76	E5	5	592
40	40	119	0.5	1/2	1/2	6/8	2	1	1/8	1/8	1	-1	2	74	D5	5	594
40	40	239/2	0.5	5/8	5/8	6/8	3	1	1/8	1/8	1		3	45	A2	2	600
40	40	239/2	0.5	5/8	5/8	6/8	4	1	1/8	1/8	1		3	45	A2	2	605
40	40	239/2	0.5	5/8	5/8	6/8	2	1	1/8	1/8	1		7	73	C#5	5	595
41	41	120	1.0	0	0	6/8	3	1	1/4	1/4	1		2	50	D3	3	613
41	41	120	1.0	0	0	6/8	4	1	1/4	1/4	1		2	50	D3	3	617
41	41	120	1.0	0	0	6/8	1	1	1/4	1/4	1		2	74	D5	5	606
41	41	120	1.5	0	0	6/8	2	1	3/8	1/4	3/2		2	74	D5	5	611
41	41	121	0.5	1/4	1/4	6/8	3	1	1/8	1/8	1		6	54	F#3	3	614
41	41	121	0.5	1/4	1/4	6/8	4	1	1/8	1/8	1		6	54	F#3	3	618
41	41	121	0.5	1/4	1/4	6/8	1	1	1/8	1/8	1		3	69	A4	4	607
41	41	243/2	1.0	3/8	3/8	6/8	3	1	1/4	1/4	1		1	55	G3	3	615
41	41	243/2	1.0	3/8	3/8	6/8	4	1	1/4	1/4	1		1	55	G3	3	619
41	41	243/2	0.5	3/8	3/8	6/8	1	1	1/8	1/8	1		5	71	B4	4	608
41	41	122	0.5	1/2	1/2	6/8	1	1	1/8	1/8	1		4	76	E5	5	609
41	41	245/2	0.5	5/8	5/8	6/8	3	1	1/8	1/8	1		1	43	G2	2	616
41	41	245/2	0.5	5/8	5/8	6/8	4	1	1/8	1/8	1		1	43	G2	2	620
41	41	245/2	0.5	5/8	5/8	6/8	2	1	1/8	1/8	1		1	67	G4	4	612
41	41	245/2	0.5	5/8	5/8	6/8	1	1	1/8	1/8	1		5	71	B4	4	610
42	42	123	0.5	0	0	6/8	3	1	1/8	1/8	1		3	45	A2	2	632
42	42	123	0.5	0	0	6/8	4	1	1/8	1/8	1		3	45	A2	2	637
42	42	123	0.5	0	0	6/8	2	1	1/8	1/8	1		1	67	G4	4	626
42	42	123	0.5	0	0	6/8	1	1	1/8	1/8	1		7	73	C#5	5	621
42	42	247/2	0.5	1/8	1/8	6/8	3	1	1/8	1/8	1		6	42	F#2	2	633
42	42	247/2	0.5	1/8	1/8	6/8	4	1	1/8	1/8	1		6	42	F#2	2	638
42	42	247/2	0.25	1/8	1/8	6/8	2	1	1/16	1/16	1		3	69	A4	4	627
42	42	247/2	0.5	1/8	1/8	6/8	1	1	1/8	1/8	1		2	74	D5	5	622
42	42	495/4	0.25	3/16	3/16	6/8	2	1	1/16	1/16	1		1	67	G4	4	628
42	42	124	0.5	1/4	1/4	6/8	3	1	1/8	1/8	1		1	43	G2	2	634
42	42	124	0.5	1/4	1/4	6/8	4	1	1/8	1/8	1		1	43	G2	2	639
42	42	124	0.5	1/4	1/4	6/8	1	1	1/8	1/8	1		2	62	D4	4	623
42	42	124	0.5	1/4	1/4	6/8	2	1	1/8	1/8	1		6	66	F#4	4	629
42	42	249/2	1.0	3/8	3/8	6/8	3	1	1/4	1/4	1		3	45	A2	2	635
42	42	249/2	1.0	3/8	3/8	6/8	4	1	1/4	1/4	1		3	45	A2	2	640
42	42	249/2	1.0	3/8	3/8	6/8	1	1	1/4	1/4	1		2	62	D4	4	624
42	42	249/2	1.0	3/8	3/8	6/8	2	1	1/4	1/4	1		4	64	E4	4	630
42	42	251/2	0.5	5/8	5/8	6/8	3	1	1/8	1/8	1		3	45	A2	2	636
42	42	251/2	0.5	5/8	5/8	6/8	4	1	1/8	1/8	1		3	45	A2	2	641
42	42	251/2	0.5	5/8	5/8	6/8	1	1	1/8	1/8	1		7	61	C#4	4	625
42	42	251/2	0.5	5/8	5/8	6/8	2	1	1/8	1/8	1		3	69	A4	4	631
43	43	126	3.0	0	0	6/8	3	1	3/4	1/2	3/2		2	38	D2	2	644
43	43	126	3.0	0	0	6/8	4	1	3/4	1/2	3/2		2	38	D2	2	645
43	43	126	3.0	0	0	6/8	1	1	3/4	1/2	3/2		2	62	D4	4	642
43	43	126	3.0	0	0	6/8	2	1	3/4	1/2	3/2		6	66	F#4	4	643
