mc	mn	quarterbeats	duration_qb	mc_onset	mn_onset	timesig	staff	voice	duration	nominal_duration	scalar	tied	tpc	midi	name	octave	chord_id
1	0	0	0.5	0	5/8	3/4	3	1	1/8	1/8	1		0	48	C3	3	2
1	0	0	0.5	0	5/8	3/4	4	1	1/8	1/8	1		0	48	C3	3	3
1	0	0	0.5	0	5/8	3/4	2	1	1/8	1/8	1		-3	75	Eb5	5	1
1	0	0	0.5	0	5/8	3/4	1	1	1/8	1/8	1		1	79	G5	5	0
2	1	1/2	3.0	0	0	3/4	3	1	3/4	1/2	3/2		0	48	C3	3	12
2	1	1/2	3.0	0	0	3/4	4	1	3/4	1/2	3/2		0	48	C3	3	13
2	1	1/2	1.5	0	0	3/4	2	1	3/8	1/4	3/2		-3	75	Eb5	5	8
2	1	1/2	1.5	0	0	3/4	1	1	3/8	1/4	3/2		1	79	G5	5	4
2	1	2	0.5	3/8	3/8	3/4	1	1	1/8	1/8	1		1	67	G4	4	5
2	1	2	0.5	3/8	3/8	3/4	2	1	1/8	1/8	1		5	71	B4	4	9
2	1	5/2	0.5	1/2	1/2	3/4	1	1	1/8	1/8	1		3	69	A4	4	6
2	1	5/2	0.5	1/2	1/2	3/4	2	1	1/8	1/8	1		0	72	C5	5	10
2	1	3	0.5	5/8	5/8	3/4	1	1	1/8	1/8	1		5	71	B4	4	7
2	1	3	0.5	5/8	5/8	3/4	2	1	1/8	1/8	1		2	74	D5	5	11
3	2	7/2	1.0	0	0	3/4	3	1	1/4	1/4	1		-4	44	Ab2	2	20
3	2	7/2	1.0	0	0	3/4	4	1	1/4	1/4	1		-4	44	Ab2	2	22
3	2	7/2	1.0	0	0	3/4	1	1	1/4	1/4	1		0	72	C5	5	14
3	2	7/2	1.0	0	0	3/4	2	1	1/4	1/4	1		-3	75	Eb5	5	17
3	2	9/2	2.0	1/4	1/4	3/4	3	1	1/2	1/2	1		1	43	G2	2	21
3	2	9/2	2.0	1/4	1/4	3/4	4	1	1/2	1/2	1		1	43	G2	2	23
3	2	9/2	1.5	1/4	1/4	3/4	2	1	3/8	1/4	3/2		5	71	B4	4	18
3	2	9/2	1.5	1/4	1/4	3/4	1	1	3/8	1/4	3/2		2	74	D5	5	15
3	2	6	0.5	5/8	5/8	3/4	2	1	1/8	1/8	1		5	71	B4	4	19
3	2	6	0.5	5/8	5/8	3/4	1	1	1/8	1/8	1		2	74	D5	5	16
4	3	13/2	0.5	0	0	3/4	3	1	1/8	1/8	1		0	60	C4	4	26
4	3	13/2	0.5	0	0	3/4	4	1	1/8	1/8	1		0	60	C4	4	32
4	3	13/2	2.0	0	0	3/4	2	1	1/2	1/2	1		0	72	C5	5	25
4	3	13/2	2.0	0	0	3/4	1	1	1/2	1/2	1		-3	75	Eb5	5	24
4	3	7	0.5	1/8	1/8	3/4	3	1	1/8	1/8	1		5	59	B3	3	27
4	3	7	0.5	1/8	1/8	3/4	4	1	1/8	1/8	1		5	59	B3	3	33
4	3	15/2	0.5	1/4	1/4	3/4	3	1	1/8	1/8	1		0	60	C4	4	28
4	3	15/2	0.5	1/4	1/4	3/4	4	1	1/8	1/8	1		0	60	C4	4	34
4	3	8	0.5	3/8	3/8	3/4	3	1	1/8	1/8	1		1	55	G3	3	29
4	3	8	0.5	3/8	3/8	3/4	4	1	1/8	1/8	1		1	55	G3	3	35
4	3	17/2	0.5	1/2	1/2	3/4	3	1	1/8	1/8	1		-3	51	Eb3	3	30
4	3	17/2	0.5	1/2	1/2	3/4	4	1	1/8	1/8	1		-3	51	Eb3	3	36
4	3	9	0.5	5/8	5/8	3/4	3	1	1/8	1/8	1		1	55	G3	3	31
4	3	9	0.5	5/8	5/8	3/4	4	1	1/8	1/8	1		1	55	G3	3	37
5	4	19/2	1.0	0	0	3/4	3	1	1/4	1/4	1		0	48	C3	3	44
5	4	19/2	1.0	0	0	3/4	4	1	1/4	1/4	1		0	48	C3	3	45
5	4	19/2	1.0	0	0	3/4	2	1	1/4	1/4	1		0	72	C5	5	41
5	4	19/2	1.0	0	0	3/4	1	1	1/4	1/4	1		-3	75	Eb5	5	38
5	4	21/2	1.5	1/4	1/4	3/4	2	1	3/8	1/4	3/2		2	74	D5	5	42
5	4	21/2	1.5	1/4	1/4	3/4	1	1	3/8	1/4	3/2		-1	77	F5	5	39
5	4	12	0.5	5/8	5/8	3/4	2	1	1/8	1/8	1		2	74	D5	5	43
5	4	12	0.5	5/8	5/8	3/4	1	1	1/8	1/8	1		-1	77	F5	5	40
6	5	25/2	0.5	0	0	3/4	3	1	1/8	1/8	1		-3	63	Eb4	4	48
6	5	25/2	0.5	0	0	3/4	4	1	1/8	1/8	1		-3	63	Eb4	4	54
6	5	25/2	2.0	0	0	3/4	2	1	1/2	1/2	1		-3	75	Eb5	5	47
6	5	25/2	2.0	0	0	3/4	1	1	1/2	1/2	1		1	79	G5	5	46
6	5	13	0.5	1/8	1/8	3/4	3	1	1/8	1/8	1		2	62	D4	4	49
6	5	13	0.5	1/8	1/8	3/4	4	1	1/8	1/8	1		2	62	D4	4	55
6	5	27/2	0.5	1/4	1/4	3/4	3	1	1/8	1/8	1		-3	63	Eb4	4	50
6	5	27/2	0.5	1/4	1/4	3/4	4	1	1/8	1/8	1		-3	63	Eb4	4	56
6	5	14	0.5	3/8	3/8	3/4	3	1	1/8	1/8	1		-2	58	Bb3	3	51
6	5	14	0.5	3/8	3/8	3/4	4	1	1/8	1/8	1		-2	58	Bb3	3	57
6	5	29/2	0.5	1/2	1/2	3/4	3	1	1/8	1/8	1		1	55	G3	3	52
6	5	29/2	0.5	1/2	1/2	3/4	4	1	1/8	1/8	1		1	55	G3	3	58
6	5	15	0.5	5/8	5/8	3/4	3	1	1/8	1/8	1		-2	58	Bb3	3	53
6	5	15	0.5	5/8	5/8	3/4	4	1	1/8	1/8	1		-2	58	Bb3	3	59
7	6	31/2	1.0	0	0	3/4	3	1	1/4	1/4	1		-3	51	Eb3	3	65
7	6	31/2	1.0	0	0	3/4	4	1	1/4	1/4	1		-3	51	Eb3	3	66
7	6	31/2	1.0	0	0	3/4	2	1	1/4	1/4	1		-3	75	Eb5	5	63
7	6	31/2	1.0	0	0	3/4	1	1	1/4	1/4	1		1	79	G5	5	60
7	6	33/2	2.0	1/4	1/4	3/4	2	1	1/2	1/2	1		1	79	G5	5	64
7	6	33/2	1.5	1/4	1/4	3/4	1	1	3/8	1/4	3/2		0	84	C6	6	61
7	6	18	0.5	5/8	5/8	3/4	1	1	1/8	1/8	1		1	79	G5	5	62
8	7	37/2	0.5	0	0	3/4	3	1	1/8	1/8	1		-1	53	F3	3	69
8	7	37/2	0.5	0	0	3/4	4	1	1/8	1/8	1		-1	53	F3	3	75
8	7	37/2	2.0	0	0	3/4	2	1	1/2	1/2	1		0	72	C5	5	68
8	7	37/2	2.0	0	0	3/4	1	1	1/2	1/2	1		-4	80	Ab5	5	67
8	7	19	0.5	1/8	1/8	3/4	3	1	1/8	1/8	1		4	52	E3	3	70
8	7	19	0.5	1/8	1/8	3/4	4	1	1/8	1/8	1		4	52	E3	3	76
8	7	39/2	0.5	1/4	1/4	3/4	3	1	1/8	1/8	1		-1	53	F3	3	71
8	7	39/2	0.5	1/4	1/4	3/4	4	1	1/8	1/8	1		-1	53	F3	3	77
8	7	20	0.5	3/8	3/8	3/4	3	1	1/8	1/8	1		1	55	G3	3	72
8	7	20	0.5	3/8	3/8	3/4	4	1	1/8	1/8	1		1	55	G3	3	78
8	7	41/2	0.5	1/2	1/2	3/4	3	1	1/8	1/8	1		-4	56	Ab3	3	73
8	7	41/2	0.5	1/2	1/2	3/4	4	1	1/8	1/8	1		-4	56	Ab3	3	79
8	7	21	0.5	5/8	5/8	3/4	3	1	1/8	1/8	1		-1	53	F3	3	74
8	7	21	0.5	5/8	5/8	3/4	4	1	1/8	1/8	1		-1	53	F3	3	80
9	8	43/2	0.5	0	0	3/4	3	1	1/8	1/8	1		1	55	G3	3	87
9	8	43/2	0.5	0	0	3/4	4	1	1/8	1/8	1		1	55	G3	3	90
9	8	43/2	1.0	0	0	3/4	2	1	1/4	1/4	1		5	71	B4	4	84
9	8	43/2	1.0	0	0	3/4	1	1	1/4	1/4	1		1	79	G5	5	81
9	8	22	0.5	1/8	1/8	3/4	3	1	1/8	1/8	1		1	43	G2	2	88
9	8	22	0.5	1/8	1/8	3/4	4	1	1/8	1/8	1		1	43	G2	2	91
9	8	45/2	2.0	1/4	1/4	3/4	3	1	1/2	1/2	1		-4	44	Ab2	2	89
9	8	45/2	2.0	1/4	1/4	3/4	4	1	1/2	1/2	1		-4	44	Ab2	2	92
9	8	45/2	1.5	1/4	1/4	3/4	2	1	3/8	1/4	3/2		0	72	C5	5	85
9	8	45/2	1.5	1/4	1/4	3/4	1	1	3/8	1/4	3/2		-1	77	F5	5	82
9	8	24	0.5	5/8	5/8	3/4	2	1	1/8	1/8	1		2	74	D5	5	86
9	8	24	0.5	5/8	5/8	3/4	1	1	1/8	1/8	1		-1	77	F5	5	83
10	9	49/2	2.0	0	0	3/4	3	1	1/2	1/2	1		1	43	G2	2	95
10	9	49/2	2.0	0	0	3/4	4	1	1/2	1/2	1		1	43	G2	2	96
10	9	49/2	2.0	0	0	3/4	2	1	1/2	1/2	1		5	71	B4	4	94
10	9	49/2	2.0	0	0	3/4	1	1	1/2	1/2	1		1	79	G5	5	93
11	10	55/2	1.0	0	0	3/4	3	1	1/4	1/4	1		-3	51	Eb3	3	104
11	10	55/2	1.0	0	0	3/4	4	1	1/4	1/4	1		-3	51	Eb3	3	105
11	10	55/2	1.0	0	0	3/4	2	1	1/4	1/4	1		-2	70	Bb4	4	103
11	10	55/2	0.5	0	0	3/4	1	1	1/8	1/8	1		1	79	G5	5	97
11	10	28	0.5	1/8	1/8	3/4	1	1	1/8	1/8	1		-2	82	Bb5	5	98
11	10	57/2	0.5	1/4	1/4	3/4	1	1	1/8	1/8	1		1	79	G5	5	99
11	10	29	0.5	3/8	3/8	3/4	1	1	1/8	1/8	1		-2	82	Bb5	5	100
11	10	59/2	0.5	1/2	1/2	3/4	1	1	1/8	1/8	1		1	79	G5	5	101
11	10	30	0.5	5/8	5/8	3/4	1	1	1/8	1/8	1		-2	82	Bb5	5	102
12	11	61/2	0.5	0	0	3/4	3	1	1/8	1/8	1		0	60	C4	4	113
12	11	61/2	0.5	0	0	3/4	4	1	1/8	1/8	1		0	60	C4	4	119
12	11	61/2	0.5	0	0	3/4	2	1	1/8	1/8	1		-3	75	Eb5	5	107
12	11	61/2	1.0	0	0	3/4	1	1	1/4	1/4	1		-3	75	Eb5	5	106
12	11	31	0.5	1/8	1/8	3/4	3	1	1/8	1/8	1		-3	63	Eb4	4	114
12	11	31	0.5	1/8	1/8	3/4	4	1	1/8	1/8	1		-3	63	Eb4	4	120
12	11	31	0.5	1/8	1/8	3/4	2	1	1/8	1/8	1		1	79	G5	5	108
12	11	63/2	0.5	1/4	1/4	3/4	3	1	1/8	1/8	1		0	60	C4	4	115
12	11	63/2	0.5	1/4	1/4	3/4	4	1	1/8	1/8	1		0	60	C4	4	121
12	11	63/2	0.5	1/4	1/4	3/4	2	1	1/8	1/8	1		-3	75	Eb5	5	109
12	11	32	0.5	3/8	3/8	3/4	3	1	1/8	1/8	1		-3	63	Eb4	4	116
12	11	32	0.5	3/8	3/8	3/4	4	1	1/8	1/8	1		-3	63	Eb4	4	122
12	11	32	0.5	3/8	3/8	3/4	2	1	1/8	1/8	1		1	79	G5	5	110
12	11	65/2	0.5	1/2	1/2	3/4	3	1	1/8	1/8	1		0	60	C4	4	117
12	11	65/2	0.5	1/2	1/2	3/4	4	1	1/8	1/8	1		0	60	C4	4	123
12	11	65/2	0.5	1/2	1/2	3/4	2	1	1/8	1/8	1		-3	75	Eb5	5	111
12	11	33	0.5	5/8	5/8	3/4	3	1	1/8	1/8	1		-3	63	Eb4	4	118
12	11	33	0.5	5/8	5/8	3/4	4	1	1/8	1/8	1		-3	63	Eb4	4	124
12	11	33	0.5	5/8	5/8	3/4	2	1	1/8	1/8	1		1	79	G5	5	112
13	12	67/2	1.0	0	0	3/4	3	1	1/4	1/4	1		-4	56	Ab3	3	132
13	12	67/2	1.0	0	0	3/4	4	1	1/4	1/4	1		-4	56	Ab3	3	133
13	12	67/2	1.0	0	0	3/4	2	1	1/4	1/4	1		0	72	C5	5	131
13	12	67/2	0.5	0	0	3/4	1	1	1/8	1/8	1		-1	77	F5	5	125
13	12	34	0.5	1/8	1/8	3/4	1	1	1/8	1/8	1		-4	80	Ab5	5	126
13	12	69/2	0.5	1/4	1/4	3/4	1	1	1/8	1/8	1		-1	77	F5	5	127
13	12	35	0.5	3/8	3/8	3/4	1	1	1/8	1/8	1		-4	80	Ab5	5	128
13	12	71/2	0.5	1/2	1/2	3/4	1	1	1/8	1/8	1		-1	77	F5	5	129
13	12	36	0.5	5/8	5/8	3/4	1	1	1/8	1/8	1		-4	80	Ab5	5	130
14	13	73/2	0.5	0	0	3/4	3	1	1/8	1/8	1		-2	58	Bb3	3	141
14	13	73/2	0.5	0	0	3/4	4	1	1/8	1/8	1		-2	58	Bb3	3	147
14	13	73/2	0.5	0	0	3/4	2	1	1/8	1/8	1		2	74	D5	5	135
14	13	73/2	1.0	0	0	3/4	1	1	1/4	1/4	1		2	74	D5	5	134
14	13	37	0.5	1/8	1/8	3/4	3	1	1/8	1/8	1		2	62	D4	4	142
14	13	37	0.5	1/8	1/8	3/4	4	1	1/8	1/8	1		2	62	D4	4	148
14	13	37	0.5	1/8	1/8	3/4	2	1	1/8	1/8	1		-1	77	F5	5	136
14	13	75/2	0.5	1/4	1/4	3/4	3	1	1/8	1/8	1		-2	58	Bb3	3	143
14	13	75/2	0.5	1/4	1/4	3/4	4	1	1/8	1/8	1		-2	58	Bb3	3	149
14	13	75/2	0.5	1/4	1/4	3/4	2	1	1/8	1/8	1		2	74	D5	5	137
14	13	38	0.5	3/8	3/8	3/4	3	1	1/8	1/8	1		2	62	D4	4	144
14	13	38	0.5	3/8	3/8	3/4	4	1	1/8	1/8	1		2	62	D4	4	150
14	13	38	0.5	3/8	3/8	3/4	2	1	1/8	1/8	1		-1	77	F5	5	138
14	13	77/2	0.5	1/2	1/2	3/4	3	1	1/8	1/8	1		-2	58	Bb3	3	145
14	13	77/2	0.5	1/2	1/2	3/4	4	1	1/8	1/8	1		-2	58	Bb3	3	151
14	13	77/2	0.5	1/2	1/2	3/4	2	1	1/8	1/8	1		2	74	D5	5	139
14	13	39	0.5	5/8	5/8	3/4	3	1	1/8	1/8	1		2	62	D4	4	146
14	13	39	0.5	5/8	5/8	3/4	4	1	1/8	1/8	1		2	62	D4	4	152
14	13	39	0.5	5/8	5/8	3/4	2	1	1/8	1/8	1		-1	77	F5	5	140
15	14	79/2	2.0	0	0	3/4	3	1	1/2	1/2	1		1	55	G3	3	162
15	14	79/2	2.0	0	0	3/4	4	1	1/2	1/2	1		1	55	G3	3	164
15	14	79/2	0.5	0	0	3/4	1	1	1/8	1/8	1		-2	70	Bb4	4	153
15	14	79/2	1.0	0	0	3/4	2	1	1/4	1/4	1		-2	70	Bb4	4	159
15	14	40	0.5	1/8	1/8	3/4	1	1	1/8	1/8	1		-3	75	Eb5	5	154
15	14	81/2	1.0	1/4	1/4	3/4	2	1	1/4	1/4	1		1	67	G4	4	160
15	14	81/2	0.5	1/4	1/4	3/4	1	1	1/8	1/8	1		-2	70	Bb4	4	155
15	14	41	0.5	3/8	3/8	3/4	1	1	1/8	1/8	1		-3	75	Eb5	5	156
15	14	83/2	1.0	1/2	1/2	3/4	3	1	1/4	1/4	1		1	55	G3	3	163
15	14	83/2	1.0	1/2	1/2	3/4	4	1	1/4	1/4	1		1	55	G3	3	165
15	14	83/2	1.0	1/2	1/2	3/4	2	1	1/4	1/4	1		-3	63	Eb4	4	161
15	14	83/2	0.5	1/2	1/2	3/4	1	1	1/8	1/8	1		-2	70	Bb4	4	157
15	14	42	0.5	5/8	5/8	3/4	1	1	1/8	1/8	1		-3	75	Eb5	5	158
16	15	85/2	2.0	0	0	3/4	3	1	1/2	1/2	1		-4	56	Ab3	3	174
16	15	85/2	2.0	0	0	3/4	4	1	1/2	1/2	1		-4	56	Ab3	3	176
16	15	85/2	0.5	0	0	3/4	1	1	1/8	1/8	1		0	72	C5	5	166
16	15	43	0.5	1/8	1/8	3/4	1	1	1/8	1/8	1		-1	77	F5	5	167
16	15	87/2	1.0	1/4	1/4	3/4	2	1	1/4	1/4	1		-4	68	Ab4	4	172
16	15	87/2	0.5	1/4	1/4	3/4	1	1	1/8	1/8	1		0	72	C5	5	168
16	15	44	0.5	3/8	3/8	3/4	1	1	1/8	1/8	1		-1	77	F5	5	169
16	15	89/2	1.0	1/2	1/2	3/4	3	1	1/4	1/4	1		-4	44	Ab2	2	175
16	15	89/2	1.0	1/2	1/2	3/4	4	1	1/4	1/4	1		-4	44	Ab2	2	177
16	15	89/2	1.0	1/2	1/2	3/4	2	1	1/4	1/4	1		-1	65	F4	4	173
16	15	89/2	0.5	1/2	1/2	3/4	1	1	1/8	1/8	1		0	72	C5	5	170
16	15	45	0.5	5/8	5/8	3/4	1	1	1/8	1/8	1		-1	77	F5	5	171
17	16	91/2	2.0	0	0	3/4	3	1	1/2	1/2	1		-2	46	Bb2	2	186
17	16	91/2	2.0	0	0	3/4	4	1	1/2	1/2	1		-2	46	Bb2	2	188
17	16	91/2	0.5	0	0	3/4	1	1	1/8	1/8	1		2	74	D5	5	178
17	16	46	0.5	1/8	1/8	3/4	1	1	1/8	1/8	1		1	79	G5	5	179
17	16	93/2	1.0	1/4	1/4	3/4	2	1	1/4	1/4	1		-2	70	Bb4	4	184
17	16	93/2	0.5	1/4	1/4	3/4	1	1	1/8	1/8	1		2	74	D5	5	180
17	16	47	0.5	3/8	3/8	3/4	1	1	1/8	1/8	1		1	79	G5	5	181
17	16	95/2	1.0	1/2	1/2	3/4	3	1	1/4	1/4	1		-2	58	Bb3	3	187
17	16	95/2	1.0	1/2	1/2	3/4	4	1	1/4	1/4	1		-2	58	Bb3	3	189
17	16	95/2	1.0	1/2	1/2	3/4	2	1	1/4	1/4	1		1	67	G4	4	185
17	16	95/2	0.5	1/2	1/2	3/4	1	1	1/8	1/8	1		2	74	D5	5	182
17	16	48	0.5	5/8	5/8	3/4	1	1	1/8	1/8	1		1	79	G5	5	183
18	17	97/2	2.0	0	0	3/4	3	1	1/2	1/2	1		0	60	C4	4	198
18	17	97/2	2.0	0	0	3/4	4	1	1/2	1/2	1		0	60	C4	4	200
18	17	97/2	0.5	0	0	3/4	1	1	1/8	1/8	1		-3	75	Eb5	5	190
18	17	49	0.5	1/8	1/8	3/4	1	1	1/8	1/8	1		-4	80	Ab5	5	191
18	17	99/2	1.0	1/4	1/4	3/4	2	1	1/4	1/4	1		0	72	C5	5	196
18	17	99/2	0.5	1/4	1/4	3/4	1	1	1/8	1/8	1		-3	75	Eb5	5	192
18	17	50	0.5	3/8	3/8	3/4	1	1	1/8	1/8	1		-4	80	Ab5	5	193
18	17	101/2	1.0	1/2	1/2	3/4	3	1	1/4	1/4	1		-4	44	Ab2	2	199
18	17	101/2	1.0	1/2	1/2	3/4	4	1	1/4	1/4	1		-4	44	Ab2	2	201
18	17	101/2	0.5	1/2	1/2	3/4	1	1	1/8	1/8	1		0	72	C5	5	194
18	17	101/2	1.0	1/2	1/2	3/4	2	1	1/4	1/4	1		-3	75	Eb5	5	197
18	17	51	0.5	5/8	5/8	3/4	1	1	1/8	1/8	1		-4	80	Ab5	5	195
19	18	103/2	2.0	0	0	3/4	3	1	1/2	1/2	1		-4	44	Ab2	2	208
19	18	103/2	2.0	0	0	3/4	4	1	1/2	1/2	1		-4	44	Ab2	2	210
19	18	103/2	2.0	0	0	3/4	2	1	1/2	1/2	1		-1	65	F4	4	206
19	18	103/2	1.5	0	0	3/4	1	1	3/8	1/4	3/2		2	74	D5	5	202
19	18	53	0.5	3/8	3/8	3/4	1	1	1/8	1/8	1		-2	70	Bb4	4	203
19	18	107/2	1.0	1/2	1/2	3/4	3	1	1/4	1/4	1		1	43	G2	2	209
19	18	107/2	1.0	1/2	1/2	3/4	4	1	1/4	1/4	1		1	43	G2	2	211
19	18	107/2	1.0	1/2	1/2	3/4	2	1	1/4	1/4	1	1	-3	63	Eb4	4	207
19	18	107/2	0.5	1/2	1/2	3/4	1	1	1/8	1/8	1		-3	75	Eb5	5	204
19	18	54	0.5	5/8	5/8	3/4	1	1	1/8	1/8	1		1	67	G4	4	205
20	19	109/2	1.0	0	0	3/4	3	1	1/4	1/4	1		-4	44	Ab2	2	218
20	19	109/2	1.0	0	0	3/4	4	1	1/4	1/4	1		-4	44	Ab2	2	220
20	19	109/2	1.0	0	0	3/4	2	1	1/4	1/4	1	-1	-3	63	Eb4	4	216
20	19	109/2	0.5	0	0	3/4	1	1	1/8	1/8	1		0	72	C5	5	212
20	19	55	0.5	1/8	1/8	3/4	1	1	1/8	1/8	1		-1	65	F4	4	213
20	19	111/2	2.0	1/4	1/4	3/4	3	1	1/2	1/2	1		-2	46	Bb2	2	219
20	19	111/2	2.0	1/4	1/4	3/4	4	1	1/2	1/2	1		-2	46	Bb2	2	221
20	19	111/2	2.0	1/4	1/4	3/4	2	1	1/2	1/2	1		2	62	D4	4	217
20	19	111/2	1.5	1/4	1/4	3/4	1	1	3/8	1/4	3/2		-1	65	F4	4	214
20	19	57	0.5	5/8	5/8	3/4	1	1	1/8	1/8	1		-1	65	F4	4	215
21	20	115/2	1.0	0	0	3/4	3	1	1/4	1/4	1		-3	51	Eb3	3	229
21	20	115/2	1.0	0	0	3/4	4	1	1/4	1/4	1		-3	51	Eb3	3	230
21	20	115/2	1.0	0	0	3/4	2	1	1/4	1/4	1		-3	63	Eb4	4	228
21	20	115/2	0.5	0	0	3/4	1	1	1/8	1/8	1		1	67	G4	4	222
21	20	58	0.5	1/8	1/8	3/4	1	1	1/8	1/8	1		-3	63	Eb4	4	223
21	20	117/2	0.5	1/4	1/4	3/4	1	1	1/8	1/8	1		1	67	G4	4	224
21	20	59	0.5	3/8	3/8	3/4	1	1	1/8	1/8	1		-2	70	Bb4	4	225
21	20	119/2	0.5	1/2	1/2	3/4	1	1	1/8	1/8	1		1	67	G4	4	226
21	20	60	0.5	5/8	5/8	3/4	1	1	1/8	1/8	1		-3	63	Eb4	4	227
22	21	121/2	0.5	0	0	3/4	3	1	1/8	1/8	1		2	50	D3	3	238
22	21	121/2	0.5	0	0	3/4	4	1	1/8	1/8	1		2	50	D3	3	244
22	21	121/2	0.5	0	0	3/4	2	1	1/8	1/8	1		-1	65	F4	4	232
22	21	121/2	1.0	0	0	3/4	1	1	1/4	1/4	1		-2	70	Bb4	4	231
22	21	61	0.5	1/8	1/8	3/4	3	1	1/8	1/8	1		-2	46	Bb2	2	239
22	21	61	0.5	1/8	1/8	3/4	4	1	1/8	1/8	1		-2	46	Bb2	2	245
22	21	61	0.5	1/8	1/8	3/4	2	1	1/8	1/8	1		-2	70	Bb4	4	233
22	21	123/2	0.5	1/4	1/4	3/4	3	1	1/8	1/8	1		2	50	D3	3	240
22	21	123/2	0.5	1/4	1/4	3/4	4	1	1/8	1/8	1		2	50	D3	3	246
22	21	123/2	0.5	1/4	1/4	3/4	2	1	1/8	1/8	1		-1	65	F4	4	234
22	21	62	0.5	3/8	3/8	3/4	3	1	1/8	1/8	1		-1	53	F3	3	241
22	21	62	0.5	3/8	3/8	3/4	4	1	1/8	1/8	1		-1	53	F3	3	247
22	21	62	0.5	3/8	3/8	3/4	2	1	1/8	1/8	1		2	62	D4	4	235
22	21	125/2	0.5	1/2	1/2	3/4	3	1	1/8	1/8	1		2	50	D3	3	242
22	21	125/2	0.5	1/2	1/2	3/4	4	1	1/8	1/8	1		2	50	D3	3	248
22	21	125/2	0.5	1/2	1/2	3/4	2	1	1/8	1/8	1		-1	65	F4	4	236
22	21	63	0.5	5/8	5/8	3/4	3	1	1/8	1/8	1		-2	46	Bb2	2	243
22	21	63	0.5	5/8	5/8	3/4	4	1	1/8	1/8	1		-2	46	Bb2	2	249
22	21	63	0.5	5/8	5/8	3/4	2	1	1/8	1/8	1		-2	70	Bb4	4	237
23	22	127/2	1.0	0	0	3/4	3	1	1/4	1/4	1		-1	53	F3	3	257
23	22	127/2	1.0	0	0	3/4	4	1	1/4	1/4	1		-1	53	F3	3	258
23	22	127/2	0.5	0	0	3/4	1	1	1/8	1/8	1		-4	68	Ab4	4	250
23	22	127/2	1.0	0	0	3/4	2	1	1/4	1/4	1		-4	68	Ab4	4	256
23	22	64	0.5	1/8	1/8	3/4	1	1	1/8	1/8	1		-1	65	F4	4	251
23	22	129/2	0.5	1/4	1/4	3/4	1	1	1/8	1/8	1		-4	68	Ab4	4	252
23	22	65	0.5	3/8	3/8	3/4	1	1	1/8	1/8	1		0	72	C5	5	253
23	22	131/2	0.5	1/2	1/2	3/4	1	1	1/8	1/8	1		-4	68	Ab4	4	254
23	22	66	0.5	5/8	5/8	3/4	1	1	1/8	1/8	1		-1	65	F4	4	255
24	23	133/2	0.5	0	0	3/4	3	1	1/8	1/8	1		-3	51	Eb3	3	266
24	23	133/2	0.5	0	0	3/4	4	1	1/8	1/8	1		-3	51	Eb3	3	272
24	23	133/2	0.5	0	0	3/4	2	1	1/8	1/8	1		1	67	G4	4	260
24	23	133/2	1.0	0	0	3/4	1	1	1/4	1/4	1		0	72	C5	5	259
24	23	67	0.5	1/8	1/8	3/4	3	1	1/8	1/8	1		0	48	C3	3	267
24	23	67	0.5	1/8	1/8	3/4	4	1	1/8	1/8	1		0	48	C3	3	273
24	23	67	0.5	1/8	1/8	3/4	2	1	1/8	1/8	1		0	72	C5	5	261
24	23	135/2	0.5	1/4	1/4	3/4	3	1	1/8	1/8	1		-3	51	Eb3	3	268
24	23	135/2	0.5	1/4	1/4	3/4	4	1	1/8	1/8	1		-3	51	Eb3	3	274
24	23	135/2	0.5	1/4	1/4	3/4	2	1	1/8	1/8	1		1	67	G4	4	262
24	23	68	0.5	3/8	3/8	3/4	3	1	1/8	1/8	1		1	55	G3	3	269
24	23	68	0.5	3/8	3/8	3/4	4	1	1/8	1/8	1		1	55	G3	3	275
24	23	68	0.5	3/8	3/8	3/4	2	1	1/8	1/8	1		-3	63	Eb4	4	263
24	23	137/2	0.5	1/2	1/2	3/4	3	1	1/8	1/8	1		-3	51	Eb3	3	270
24	23	137/2	0.5	1/2	1/2	3/4	4	1	1/8	1/8	1		-3	51	Eb3	3	276
24	23	137/2	0.5	1/2	1/2	3/4	2	1	1/8	1/8	1		1	67	G4	4	264
24	23	69	0.5	5/8	5/8	3/4	3	1	1/8	1/8	1		0	48	C3	3	271
24	23	69	0.5	5/8	5/8	3/4	4	1	1/8	1/8	1		0	48	C3	3	277
24	23	69	0.5	5/8	5/8	3/4	2	1	1/8	1/8	1		0	72	C5	5	265
25	24	139/2	1.0	0	0	3/4	3	1	1/4	1/4	1		1	55	G3	3	285
25	24	139/2	1.0	0	0	3/4	4	1	1/4	1/4	1		1	55	G3	3	286
25	24	139/2	1.0	0	0	3/4	2	1	1/4	1/4	1		5	71	B4	4	284
25	24	139/2	0.5	0	0	3/4	1	1	1/8	1/8	1		1	79	G5	5	278
25	24	70	0.5	1/8	1/8	3/4	1	1	1/8	1/8	1		2	74	D5	5	279
25	24	141/2	0.5	1/4	1/4	3/4	1	1	1/8	1/8	1		5	71	B4	4	280
25	24	71	0.5	3/8	3/8	3/4	1	1	1/8	1/8	1		2	74	D5	5	281
25	24	143/2	0.5	1/2	1/2	3/4	1	1	1/8	1/8	1		1	79	G5	5	282
25	24	72	0.5	5/8	5/8	3/4	1	1	1/8	1/8	1		2	74	D5	5	283
26	25	145/2	0.5	0	0	3/4	3	1	1/8	1/8	1		0	60	C4	4	294
26	25	145/2	0.5	0	0	3/4	4	1	1/8	1/8	1		0	60	C4	4	300
26	25	145/2	0.5	0	0	3/4	2	1	1/8	1/8	1		0	72	C5	5	288
26	25	145/2	1.0	0	0	3/4	1	1	1/4	1/4	1		-3	75	Eb5	5	287
26	25	73	0.5	1/8	1/8	3/4	3	1	1/8	1/8	1		-3	63	Eb4	4	295
26	25	73	0.5	1/8	1/8	3/4	4	1	1/8	1/8	1		-3	63	Eb4	4	301
26	25	73	0.5	1/8	1/8	3/4	2	1	1/8	1/8	1		1	67	G4	4	289
26	25	147/2	0.5	1/4	1/4	3/4	3	1	1/8	1/8	1		0	60	C4	4	296
26	25	147/2	0.5	1/4	1/4	3/4	4	1	1/8	1/8	1		0	60	C4	4	302
26	25	147/2	0.5	1/4	1/4	3/4	2	1	1/8	1/8	1		-3	63	Eb4	4	290
26	25	74	0.5	3/8	3/8	3/4	3	1	1/8	1/8	1		-3	63	Eb4	4	297
26	25	74	0.5	3/8	3/8	3/4	4	1	1/8	1/8	1		-3	63	Eb4	4	303
26	25	74	0.5	3/8	3/8	3/4	2	1	1/8	1/8	1		1	67	G4	4	291
26	25	149/2	0.5	1/2	1/2	3/4	3	1	1/8	1/8	1		3	57	A3	3	298
26	25	149/2	0.5	1/2	1/2	3/4	4	1	1/8	1/8	1		3	57	A3	3	304
26	25	149/2	0.5	1/2	1/2	3/4	2	1	1/8	1/8	1		0	72	C5	5	292
26	25	75	0.5	5/8	5/8	3/4	3	1	1/8	1/8	1		0	60	C4	4	299
26	25	75	0.5	5/8	5/8	3/4	4	1	1/8	1/8	1		0	60	C4	4	305
26	25	75	0.5	5/8	5/8	3/4	2	1	1/8	1/8	1		-3	75	Eb5	5	293
27	26	151/2	1.0	0	0	3/4	3	1	1/4	1/4	1		6	54	F#3	3	313
27	26	151/2	1.0	0	0	3/4	4	1	1/4	1/4	1		6	54	F#3	3	314
27	26	151/2	1.0	0	0	3/4	2	1	1/4	1/4	1		3	69	A4	4	312
27	26	151/2	0.5	0	0	3/4	1	1	1/8	1/8	1		2	74	D5	5	306
27	26	76	0.5	1/8	1/8	3/4	1	1	1/8	1/8	1		3	69	A4	4	307
27	26	153/2	0.5	1/4	1/4	3/4	1	1	1/8	1/8	1		6	66	F#4	4	308
27	26	77	0.5	3/8	3/8	3/4	1	1	1/8	1/8	1		3	69	A4	4	309
27	26	155/2	0.5	1/2	1/2	3/4	1	1	1/8	1/8	1		2	74	D5	5	310
27	26	78	0.5	5/8	5/8	3/4	1	1	1/8	1/8	1		3	69	A4	4	311
28	27	157/2	0.5	0	0	3/4	3	1	1/8	1/8	1		1	55	G3	3	319
28	27	157/2	0.5	0	0	3/4	4	1	1/8	1/8	1		1	55	G3	3	325
28	27	157/2	2.0	0	0	3/4	1	1	1/2	1/2	1		-2	70	Bb4	4	315
28	27	157/2	1.0	0	0	3/4	2	1	1/4	1/4	1		2	74	D5	5	317
28	27	79	0.5	1/8	1/8	3/4	3	1	1/8	1/8	1		-2	58	Bb3	3	320
28	27	79	0.5	1/8	1/8	3/4	4	1	1/8	1/8	1		-2	58	Bb3	3	326
28	27	159/2	0.5	1/4	1/4	3/4	3	1	1/8	1/8	1		2	62	D4	4	321
28	27	159/2	0.5	1/4	1/4	3/4	4	1	1/8	1/8	1		2	62	D4	4	327
28	27	159/2	2.0	1/4	1/4	3/4	2	1	1/2	1/2	1		-2	70	Bb4	4	318
28	27	80	0.5	3/8	3/8	3/4	3	1	1/8	1/8	1		-2	58	Bb3	3	322
28	27	80	0.5	3/8	3/8	3/4	4	1	1/8	1/8	1		-2	58	Bb3	3	328
28	27	161/2	0.5	1/2	1/2	3/4	3	1	1/8	1/8	1		1	55	G3	3	323
28	27	161/2	0.5	1/2	1/2	3/4	4	1	1/8	1/8	1		1	55	G3	3	329
28	27	161/2	1.0	1/2	1/2	3/4	1	1	1/4	1/4	1		-3	75	Eb5	5	316
28	27	81	0.5	5/8	5/8	3/4	3	1	1/8	1/8	1		-3	51	Eb3	3	324
28	27	81	0.5	5/8	5/8	3/4	4	1	1/8	1/8	1		-3	51	Eb3	3	330
29	28	163/2	0.5	0	0	3/4	3	1	1/8	1/8	1		-1	53	F3	3	335
29	28	163/2	0.5	0	0	3/4	4	1	1/8	1/8	1		-1	53	F3	3	341
29	28	163/2	2.0	0	0	3/4	1	1	1/2	1/2	1		3	69	A4	4	331
29	28	163/2	1.0	0	0	3/4	2	1	1/4	1/4	1		2	74	D5	5	333
29	28	82	0.5	1/8	1/8	3/4	3	1	1/8	1/8	1		3	57	A3	3	336
29	28	82	0.5	1/8	1/8	3/4	4	1	1/8	1/8	1		3	57	A3	3	342
29	28	165/2	0.5	1/4	1/4	3/4	3	1	1/8	1/8	1		2	62	D4	4	337
29	28	165/2	0.5	1/4	1/4	3/4	4	1	1/8	1/8	1		2	62	D4	4	343
29	28	165/2	2.0	1/4	1/4	3/4	2	1	1/2	1/2	1		3	69	A4	4	334
29	28	83	0.5	3/8	3/8	3/4	3	1	1/8	1/8	1		3	57	A3	3	338
29	28	83	0.5	3/8	3/8	3/4	4	1	1/8	1/8	1		3	57	A3	3	344
29	28	167/2	0.5	1/2	1/2	3/4	3	1	1/8	1/8	1		-1	53	F3	3	339
29	28	167/2	0.5	1/2	1/2	3/4	4	1	1/8	1/8	1		-1	53	F3	3	345
29	28	167/2	1.0	1/2	1/2	3/4	1	1	1/4	1/4	1		2	74	D5	5	332
29	28	84	0.5	5/8	5/8	3/4	3	1	1/8	1/8	1		2	50	D3	3	340
29	28	84	0.5	5/8	5/8	3/4	4	1	1/8	1/8	1		2	50	D3	3	346
30	29	169/2	0.5	0	0	3/4	3	1	1/8	1/8	1		-3	51	Eb3	3	352
30	29	169/2	0.5	0	0	3/4	4	1	1/8	1/8	1		-3	51	Eb3	3	358
30	29	169/2	2.0	0	0	3/4	1	1	1/2	1/2	1		1	67	G4	4	347
30	29	169/2	1.0	0	0	3/4	2	1	1/4	1/4	1		0	72	C5	5	349
30	29	85	0.5	1/8	1/8	3/4	3	1	1/8	1/8	1		1	55	G3	3	353
30	29	85	0.5	1/8	1/8	3/4	4	1	1/8	1/8	1		1	55	G3	3	359
30	29	171/2	0.5	1/4	1/4	3/4	3	1	1/8	1/8	1		0	60	C4	4	354
30	29	171/2	0.5	1/4	1/4	3/4	4	1	1/8	1/8	1		0	60	C4	4	360
30	29	171/2	1.5	1/4	1/4	3/4	2	1	3/8	1/4	3/2		1	67	G4	4	350
30	29	86	0.5	3/8	3/8	3/4	3	1	1/8	1/8	1		1	55	G3	3	355
30	29	86	0.5	3/8	3/8	3/4	4	1	1/8	1/8	1		1	55	G3	3	361
30	29	173/2	0.5	1/2	1/2	3/4	3	1	1/8	1/8	1		-3	51	Eb3	3	356
30	29	173/2	0.5	1/2	1/2	3/4	4	1	1/8	1/8	1		-3	51	Eb3	3	362
30	29	173/2	1.0	1/2	1/2	3/4	1	1	1/4	1/4	1		0	72	C5	5	348
30	29	87	0.5	5/8	5/8	3/4	3	1	1/8	1/8	1		0	48	C3	3	357
30	29	87	0.5	5/8	5/8	3/4	4	1	1/8	1/8	1		0	48	C3	3	363
30	29	87	0.5	5/8	5/8	3/4	2	1	1/8	1/8	1		-3	75	Eb5	5	351
31	30	175/2	1.5	0	0	3/4	3	1	3/8	1/4	3/2		2	50	D3	3	370
31	30	175/2	1.5	0	0	3/4	4	1	3/8	1/4	3/2		2	50	D3	3	373
31	30	175/2	1.5	0	0	3/4	1	1	3/8	1/4	3/2		6	66	F#4	4	364
31	30	175/2	1.5	0	0	3/4	2	1	3/8	1/4	3/2		3	69	A4	4	367
31	30	89	0.5	3/8	3/8	3/4	3	1	1/8	1/8	1		-2	46	Bb2	2	371
31	30	89	0.5	3/8	3/8	3/4	4	1	1/8	1/8	1		-2	46	Bb2	2	374
31	30	89	0.5	3/8	3/8	3/4	1	1	1/8	1/8	1		2	62	D4	4	365
31	30	89	0.5	3/8	3/8	3/4	2	1	1/8	1/8	1		2	74	D5	5	368
31	30	179/2	1.0	1/2	1/2	3/4	3	1	1/4	1/4	1		0	48	C3	3	372
31	30	179/2	1.0	1/2	1/2	3/4	4	1	1/4	1/4	1		0	48	C3	3	375
31	30	179/2	1.0	1/2	1/2	3/4	1	1	1/4	1/4	1	1	1	67	G4	4	366
31	30	179/2	1.0	1/2	1/2	3/4	2	1	1/4	1/4	1		-3	75	Eb5	5	369
32	31	181/2	1.0	0	0	3/4	3	1	1/4	1/4	1		1	43	G2	2	381
32	31	181/2	1.0	0	0	3/4	4	1	1/4	1/4	1		1	43	G2	2	383
32	31	181/2	0.5	0	0	3/4	1	1	1/8	1/8	1	-1	1	67	G4	4	376
32	31	181/2	1.0	0	0	3/4	2	1	1/4	1/4	1		1	67	G4	4	379
32	31	91	0.5	1/8	1/8	3/4	1	1	1/8	1/8	1		3	69	A4	4	377
32	31	183/2	2.0	1/4	1/4	3/4	3	1	1/2	1/2	1		2	50	D3	3	382
32	31	183/2	2.0	1/4	1/4	3/4	4	1	1/2	1/2	1		2	50	D3	3	384
32	31	183/2	2.0	1/4	1/4	3/4	2	1	1/2	1/2	1		6	66	F#4	4	380
32	31	183/2	2.0	1/4	1/4	3/4	1	1	1/2	1/2	1		3	69	A4	4	378
33	32	187/2	0.5	0	0	3/4	3	1	1/8	1/8	1		1	55	G3	3	389
33	32	187/2	0.5	0	0	3/4	4	1	1/8	1/8	1		1	55	G3	3	395
33	32	187/2	1.0	0	0	3/4	2	1	1/4	1/4	1		1	67	G4	4	387
33	32	187/2	2.0	0	0	3/4	1	1	1/2	1/2	1		1	67	G4	4	385
33	32	94	0.5	1/8	1/8	3/4	3	1	1/8	1/8	1		-2	58	Bb3	3	390
33	32	94	0.5	1/8	1/8	3/4	4	1	1/8	1/8	1		-2	58	Bb3	3	396
33	32	189/2	0.5	1/4	1/4	3/4	3	1	1/8	1/8	1		2	62	D4	4	391
33	32	189/2	0.5	1/4	1/4	3/4	4	1	1/8	1/8	1		2	62	D4	4	397
33	32	189/2	2.0	1/4	1/4	3/4	2	1	1/2	1/2	1		-2	70	Bb4	4	388
33	32	95	0.5	3/8	3/8	3/4	3	1	1/8	1/8	1		-2	58	Bb3	3	392
33	32	95	0.5	3/8	3/8	3/4	4	1	1/8	1/8	1		-2	58	Bb3	3	398
33	32	191/2	0.5	1/2	1/2	3/4	3	1	1/8	1/8	1		1	55	G3	3	393
33	32	191/2	0.5	1/2	1/2	3/4	4	1	1/8	1/8	1		1	55	G3	3	399
33	32	191/2	1.0	1/2	1/2	3/4	1	1	1/4	1/4	1		-3	75	Eb5	5	386
33	32	96	0.5	5/8	5/8	3/4	3	1	1/8	1/8	1		-3	51	Eb3	3	394
33	32	96	0.5	5/8	5/8	3/4	4	1	1/8	1/8	1		-3	51	Eb3	3	400
34	33	193/2	0.5	0	0	3/4	3	1	1/8	1/8	1		-1	53	F3	3	405
34	33	193/2	0.5	0	0	3/4	4	1	1/8	1/8	1		-1	53	F3	3	411
34	33	193/2	2.0	0	0	3/4	1	1	1/2	1/2	1		3	69	A4	4	401
34	33	193/2	1.0	0	0	3/4	2	1	1/4	1/4	1		2	74	D5	5	403
34	33	97	0.5	1/8	1/8	3/4	3	1	1/8	1/8	1		3	57	A3	3	406
34	33	97	0.5	1/8	1/8	3/4	4	1	1/8	1/8	1		3	57	A3	3	412
34	33	195/2	0.5	1/4	1/4	3/4	3	1	1/8	1/8	1		2	62	D4	4	407
34	33	195/2	0.5	1/4	1/4	3/4	4	1	1/8	1/8	1		2	62	D4	4	413
34	33	195/2	2.0	1/4	1/4	3/4	2	1	1/2	1/2	1		3	69	A4	4	404
34	33	98	0.5	3/8	3/8	3/4	3	1	1/8	1/8	1		3	57	A3	3	408
34	33	98	0.5	3/8	3/8	3/4	4	1	1/8	1/8	1		3	57	A3	3	414
34	33	197/2	0.5	1/2	1/2	3/4	3	1	1/8	1/8	1		-1	53	F3	3	409
34	33	197/2	0.5	1/2	1/2	3/4	4	1	1/8	1/8	1		-1	53	F3	3	415
34	33	197/2	1.0	1/2	1/2	3/4	1	1	1/4	1/4	1		2	74	D5	5	402
34	33	99	0.5	5/8	5/8	3/4	3	1	1/8	1/8	1		2	50	D3	3	410
34	33	99	0.5	5/8	5/8	3/4	4	1	1/8	1/8	1		2	50	D3	3	416
35	34	199/2	0.5	0	0	3/4	3	1	1/8	1/8	1		-3	51	Eb3	3	422
35	34	199/2	0.5	0	0	3/4	4	1	1/8	1/8	1		-3	51	Eb3	3	428
35	34	199/2	2.0	0	0	3/4	1	1	1/2	1/2	1		1	67	G4	4	417
35	34	199/2	1.0	0	0	3/4	2	1	1/4	1/4	1		0	72	C5	5	419
35	34	100	0.5	1/8	1/8	3/4	3	1	1/8	1/8	1		1	55	G3	3	423
35	34	100	0.5	1/8	1/8	3/4	4	1	1/8	1/8	1		1	55	G3	3	429
35	34	201/2	0.5	1/4	1/4	3/4	3	1	1/8	1/8	1		0	60	C4	4	424
35	34	201/2	0.5	1/4	1/4	3/4	4	1	1/8	1/8	1		0	60	C4	4	430
35	34	201/2	1.5	1/4	1/4	3/4	2	1	3/8	1/4	3/2		1	67	G4	4	420
35	34	101	0.5	3/8	3/8	3/4	3	1	1/8	1/8	1		1	55	G3	3	425
35	34	101	0.5	3/8	3/8	3/4	4	1	1/8	1/8	1		1	55	G3	3	431
35	34	203/2	0.5	1/2	1/2	3/4	3	1	1/8	1/8	1		-3	51	Eb3	3	426
35	34	203/2	0.5	1/2	1/2	3/4	4	1	1/8	1/8	1		-3	51	Eb3	3	432
35	34	203/2	1.0	1/2	1/2	3/4	1	1	1/4	1/4	1		0	72	C5	5	418
35	34	102	0.5	5/8	5/8	3/4	3	1	1/8	1/8	1		0	48	C3	3	427
35	34	102	0.5	5/8	5/8	3/4	4	1	1/8	1/8	1		0	48	C3	3	433
35	34	102	0.5	5/8	5/8	3/4	2	1	1/8	1/8	1		-3	75	Eb5	5	421
36	35	205/2	1.5	0	0	3/4	3	1	3/8	1/4	3/2		2	50	D3	3	440
36	35	205/2	1.5	0	0	3/4	4	1	3/8	1/4	3/2		2	50	D3	3	443
36	35	205/2	1.5	0	0	3/4	1	1	3/8	1/4	3/2		6	66	F#4	4	434
36	35	205/2	1.5	0	0	3/4	2	1	3/8	1/4	3/2		3	69	A4	4	437
36	35	104	0.5	3/8	3/8	3/4	3	1	1/8	1/8	1		-2	46	Bb2	2	441
36	35	104	0.5	3/8	3/8	3/4	4	1	1/8	1/8	1		-2	46	Bb2	2	444
36	35	104	0.5	3/8	3/8	3/4	1	1	1/8	1/8	1		2	62	D4	4	435
36	35	104	0.5	3/8	3/8	3/4	2	1	1/8	1/8	1		2	74	D5	5	438
36	35	209/2	1.0	1/2	1/2	3/4	3	1	1/4	1/4	1		0	48	C3	3	442
36	35	209/2	1.0	1/2	1/2	3/4	4	1	1/4	1/4	1		0	48	C3	3	445
36	35	209/2	1.0	1/2	1/2	3/4	1	1	1/4	1/4	1	1	1	67	G4	4	436
36	35	209/2	1.0	1/2	1/2	3/4	2	1	1/4	1/4	1		-3	75	Eb5	5	439
37	36	211/2	1.0	0	0	3/4	3	1	1/4	1/4	1		1	43	G2	2	451
37	36	211/2	1.0	0	0	3/4	4	1	1/4	1/4	1		1	43	G2	2	453
37	36	211/2	0.5	0	0	3/4	1	1	1/8	1/8	1	-1	1	67	G4	4	446
37	36	211/2	1.0	0	0	3/4	2	1	1/4	1/4	1		1	67	G4	4	449
37	36	106	0.5	1/8	1/8	3/4	1	1	1/8	1/8	1		3	69	A4	4	447
37	36	213/2	2.0	1/4	1/4	3/4	3	1	1/2	1/2	1		2	50	D3	3	452
37	36	213/2	2.0	1/4	1/4	3/4	4	1	1/2	1/2	1		2	50	D3	3	454
37	36	213/2	2.0	1/4	1/4	3/4	2	1	1/2	1/2	1		6	66	F#4	4	450
37	36	213/2	2.0	1/4	1/4	3/4	1	1	1/2	1/2	1		3	69	A4	4	448
38	37	217/2	2.0	0	0	3/4	3	1	1/2	1/2	1		1	43	G2	2	459
38	37	217/2	2.0	0	0	3/4	4	1	1/2	1/2	1		1	43	G2	2	461
38	37	217/2	2.0	0	0	3/4	1	1	1/2	1/2	1		1	67	G4	4	455
38	37	217/2	2.0	0	0	3/4	2	1	1/2	1/2	1		1	67	G4	4	457
38	37	111	0.5	5/8	5/8	3/4	3	1	1/8	1/8	1		1	55	G3	3	460
38	37	111	0.5	5/8	5/8	3/4	4	1	1/8	1/8	1		1	55	G3	3	462
38	37	111	0.5	5/8	5/8	3/4	2	1	1/8	1/8	1		5	71	B4	4	458
38	37	111	0.5	5/8	5/8	3/4	1	1	1/8	1/8	1		2	74	D5	5	456
39	38	223/2	2.0	0	0	3/4	3	1	1/2	1/2	1		1	55	G3	3	468
39	38	223/2	2.0	0	0	3/4	4	1	1/2	1/2	1		1	55	G3	3	469
39	38	223/2	2.0	0	0	3/4	2	1	1/2	1/2	1		5	71	B4	4	467
39	38	223/2	1.5	0	0	3/4	1	1	3/8	1/4	3/2		2	74	D5	5	463
39	38	113	0.5	3/8	3/8	3/4	1	1	1/8	1/8	1		1	79	G5	5	464
39	38	227/2	0.5	1/2	1/2	3/4	1	1	1/8	1/8	1		-1	77	F5	5	465
39	38	114	0.5	5/8	5/8	3/4	1	1	1/8	1/8	1		1	79	G5	5	466
40	39	229/2	1.0	0	0	3/4	3	1	1/4	1/4	1		5	47	B2	2	477
40	39	229/2	1.0	0	0	3/4	4	1	1/4	1/4	1		5	47	B2	2	478
40	39	229/2	0.5	0	0	3/4	1	1	1/8	1/8	1		2	74	D5	5	470
40	39	229/2	1.0	0	0	3/4	2	1	1/4	1/4	1		2	74	D5	5	476
40	39	115	0.5	1/8	1/8	3/4	1	1	1/8	1/8	1		1	79	G5	5	471
40	39	231/2	0.5	1/4	1/4	3/4	1	1	1/8	1/8	1		-1	77	F5	5	472
40	39	116	0.5	3/8	3/8	3/4	1	1	1/8	1/8	1		1	79	G5	5	473
40	39	233/2	0.5	1/2	1/2	3/4	1	1	1/8	1/8	1		2	74	D5	5	474
40	39	117	0.5	5/8	5/8	3/4	1	1	1/8	1/8	1		1	79	G5	5	475
41	40	235/2	0.5	0	0	3/4	3	1	1/8	1/8	1		0	60	C4	4	486
41	40	235/2	0.5	0	0	3/4	4	1	1/8	1/8	1		0	60	C4	4	492
41	40	235/2	0.5	0	0	3/4	2	1	1/8	1/8	1		1	67	G4	4	480
41	40	235/2	1.0	0	0	3/4	1	1	1/4	1/4	1		-3	75	Eb5	5	479
41	40	118	0.5	1/8	1/8	3/4	3	1	1/8	1/8	1		-3	63	Eb4	4	487
41	40	118	0.5	1/8	1/8	3/4	4	1	1/8	1/8	1		-3	63	Eb4	4	493
41	40	118	0.5	1/8	1/8	3/4	2	1	1/8	1/8	1		0	72	C5	5	481
41	40	237/2	0.5	1/4	1/4	3/4	3	1	1/8	1/8	1		1	55	G3	3	488
41	40	237/2	0.5	1/4	1/4	3/4	4	1	1/8	1/8	1		1	55	G3	3	494
41	40	237/2	0.5	1/4	1/4	3/4	2	1	1/8	1/8	1		-3	75	Eb5	5	482
41	40	119	0.5	3/8	3/8	3/4	3	1	1/8	1/8	1		0	60	C4	4	489
41	40	119	0.5	3/8	3/8	3/4	4	1	1/8	1/8	1		0	60	C4	4	495
41	40	119	0.5	3/8	3/8	3/4	2	1	1/8	1/8	1		0	72	C5	5	483
41	40	239/2	0.5	1/2	1/2	3/4	3	1	1/8	1/8	1		-3	51	Eb3	3	490
41	40	239/2	0.5	1/2	1/2	3/4	4	1	1/8	1/8	1		-3	51	Eb3	3	496
41	40	239/2	0.5	1/2	1/2	3/4	2	1	1/8	1/8	1		1	67	G4	4	484
41	40	120	0.5	5/8	5/8	3/4	3	1	1/8	1/8	1		1	55	G3	3	491
41	40	120	0.5	5/8	5/8	3/4	4	1	1/8	1/8	1		1	55	G3	3	497
41	40	120	0.5	5/8	5/8	3/4	2	1	1/8	1/8	1		0	72	C5	5	485
42	41	241/2	1.0	0	0	3/4	3	1	1/4	1/4	1		0	48	C3	3	505
42	41	241/2	1.0	0	0	3/4	4	1	1/4	1/4	1		0	48	C3	3	506
42	41	241/2	1.0	0	0	3/4	2	1	1/4	1/4	1		-3	63	Eb4	4	504
42	41	241/2	0.5	0	0	3/4	1	1	1/8	1/8	1		1	67	G4	4	498
42	41	121	0.5	1/8	1/8	3/4	1	1	1/8	1/8	1		0	72	C5	5	499
42	41	243/2	0.5	1/4	1/4	3/4	1	1	1/8	1/8	1		-3	63	Eb4	4	500
42	41	122	0.5	3/8	3/8	3/4	1	1	1/8	1/8	1		1	67	G4	4	501
42	41	245/2	0.5	1/2	1/2	3/4	1	1	1/8	1/8	1		0	72	C5	5	502
42	41	123	0.5	5/8	5/8	3/4	1	1	1/8	1/8	1		1	67	G4	4	503
43	42	247/2	0.5	0	0	3/4	3	1	1/8	1/8	1		-4	56	Ab3	3	514
43	42	247/2	0.5	0	0	3/4	4	1	1/8	1/8	1		-4	56	Ab3	3	520
43	42	247/2	0.5	0	0	3/4	2	1	1/8	1/8	1		-1	65	F4	4	508
43	42	247/2	1.0	0	0	3/4	1	1	1/4	1/4	1		-4	68	Ab4	4	507
43	42	124	0.5	1/8	1/8	3/4	3	1	1/8	1/8	1		0	60	C4	4	515
43	42	124	0.5	1/8	1/8	3/4	4	1	1/8	1/8	1		0	60	C4	4	521
43	42	124	0.5	1/8	1/8	3/4	2	1	1/8	1/8	1		-4	68	Ab4	4	509
43	42	249/2	0.5	1/4	1/4	3/4	3	1	1/8	1/8	1		-1	53	F3	3	516
43	42	249/2	0.5	1/4	1/4	3/4	4	1	1/8	1/8	1		-1	53	F3	3	522
43	42	249/2	0.5	1/4	1/4	3/4	2	1	1/8	1/8	1		0	72	C5	5	510
43	42	125	0.5	3/8	3/8	3/4	3	1	1/8	1/8	1		-4	56	Ab3	3	517
43	42	125	0.5	3/8	3/8	3/4	4	1	1/8	1/8	1		-4	56	Ab3	3	523
43	42	125	0.5	3/8	3/8	3/4	2	1	1/8	1/8	1		-4	68	Ab4	4	511
43	42	251/2	0.5	1/2	1/2	3/4	3	1	1/8	1/8	1		2	50	D3	3	518
43	42	251/2	0.5	1/2	1/2	3/4	4	1	1/8	1/8	1		2	50	D3	3	524
43	42	251/2	0.5	1/2	1/2	3/4	2	1	1/8	1/8	1		-1	65	F4	4	512
43	42	126	0.5	5/8	5/8	3/4	3	1	1/8	1/8	1		-1	53	F3	3	519
43	42	126	0.5	5/8	5/8	3/4	4	1	1/8	1/8	1		-1	53	F3	3	525
43	42	126	0.5	5/8	5/8	3/4	2	1	1/8	1/8	1		-4	68	Ab4	4	513
44	43	253/2	1.0	0	0	3/4	3	1	1/4	1/4	1		-2	46	Bb2	2	533
44	43	253/2	1.0	0	0	3/4	4	1	1/4	1/4	1		-2	46	Bb2	2	534
44	43	253/2	1.0	0	0	3/4	2	1	1/4	1/4	1		2	62	D4	4	532
44	43	253/2	0.5	0	0	3/4	1	1	1/8	1/8	1		-1	65	F4	4	526
44	43	127	0.5	1/8	1/8	3/4	1	1	1/8	1/8	1		-2	70	Bb4	4	527
44	43	255/2	0.5	1/4	1/4	3/4	1	1	1/8	1/8	1		2	62	D4	4	528
44	43	128	0.5	3/8	3/8	3/4	1	1	1/8	1/8	1		-1	65	F4	4	529
44	43	257/2	0.5	1/2	1/2	3/4	1	1	1/8	1/8	1		-2	70	Bb4	4	530
44	43	129	0.5	5/8	5/8	3/4	1	1	1/8	1/8	1		-1	65	F4	4	531
45	44	259/2	0.5	0	0	3/4	3	1	1/8	1/8	1		-3	51	Eb3	3	542
45	44	259/2	0.5	0	0	3/4	4	1	1/8	1/8	1		-3	51	Eb3	3	548
45	44	259/2	1.0	0	0	3/4	1	1	1/4	1/4	1		1	67	G4	4	535
45	44	259/2	0.5	0	0	3/4	2	1	1/8	1/8	1		-2	70	Bb4	4	536
45	44	130	0.5	1/8	1/8	3/4	3	1	1/8	1/8	1		1	55	G3	3	543
45	44	130	0.5	1/8	1/8	3/4	4	1	1/8	1/8	1		1	55	G3	3	549
45	44	130	0.5	1/8	1/8	3/4	2	1	1/8	1/8	1		-3	63	Eb4	4	537
45	44	261/2	0.5	1/4	1/4	3/4	3	1	1/8	1/8	1		-2	46	Bb2	2	544
45	44	261/2	0.5	1/4	1/4	3/4	4	1	1/8	1/8	1		-2	46	Bb2	2	550
45	44	261/2	0.5	1/4	1/4	3/4	2	1	1/8	1/8	1		1	67	G4	4	538
45	44	131	0.5	3/8	3/8	3/4	3	1	1/8	1/8	1		-3	51	Eb3	3	545
45	44	131	0.5	3/8	3/8	3/4	4	1	1/8	1/8	1		-3	51	Eb3	3	551
45	44	131	0.5	3/8	3/8	3/4	2	1	1/8	1/8	1		-2	70	Bb4	4	539
45	44	263/2	0.5	1/2	1/2	3/4	3	1	1/8	1/8	1		1	43	G2	2	546
45	44	263/2	0.5	1/2	1/2	3/4	4	1	1/8	1/8	1		1	43	G2	2	552
45	44	263/2	0.5	1/2	1/2	3/4	2	1	1/8	1/8	1		-3	75	Eb5	5	540
45	44	132	0.5	5/8	5/8	3/4	3	1	1/8	1/8	1		-2	46	Bb2	2	547
45	44	132	0.5	5/8	5/8	3/4	4	1	1/8	1/8	1		-2	46	Bb2	2	553
45	44	132	0.5	5/8	5/8	3/4	2	1	1/8	1/8	1		-2	70	Bb4	4	541
46	45	265/2	2.0	0	0	3/4	3	1	1/2	1/2	1		-3	39	Eb2	2	562
46	45	265/2	2.0	0	0	3/4	4	1	1/2	1/2	1		-3	39	Eb2	2	564
46	45	265/2	2.0	0	0	3/4	2	1	1/2	1/2	1		1	67	G4	4	560
46	45	265/2	0.5	0	0	3/4	1	1	1/8	1/8	1		-2	70	Bb4	4	554
46	45	133	0.5	1/8	1/8	3/4	1	1	1/8	1/8	1		-3	63	Eb4	4	555
46	45	267/2	0.5	1/4	1/4	3/4	1	1	1/8	1/8	1		1	67	G4	4	556
46	45	134	0.5	3/8	3/8	3/4	1	1	1/8	1/8	1		-2	70	Bb4	4	557
46	45	269/2	1.0	1/2	1/2	3/4	3	1	1/4	1/4	1		1	43	G2	2	563
46	45	269/2	1.0	1/2	1/2	3/4	4	1	1/4	1/4	1		1	43	G2	2	565
46	45	269/2	1.0	1/2	1/2	3/4	2	1	1/4	1/4	1	1	-2	70	Bb4	4	561
46	45	269/2	0.5	1/2	1/2	3/4	1	1	1/8	1/8	1		-3	75	Eb5	5	558
46	45	135	0.5	5/8	5/8	3/4	1	1	1/8	1/8	1		-2	70	Bb4	4	559
47	46	271/2	2.0	0	0	3/4	3	1	1/2	1/2	1		-4	44	Ab2	2	575
47	46	271/2	2.0	0	0	3/4	4	1	1/2	1/2	1		-4	44	Ab2	2	577
47	46	271/2	1.0	0	0	3/4	2	1	1/4	1/4	1	-1	-2	70	Bb4	4	572
47	46	271/2	0.5	0	0	3/4	1	1	1/8	1/8	1		0	72	C5	5	566
47	46	136	0.5	1/8	1/8	3/4	1	1	1/8	1/8	1		-3	63	Eb4	4	567
47	46	273/2	1.0	1/4	1/4	3/4	2	1	1/4	1/4	1		-3	63	Eb4	4	573
47	46	273/2	0.5	1/4	1/4	3/4	1	1	1/8	1/8	1		-4	68	Ab4	4	568
47	46	137	0.5	3/8	3/8	3/4	1	1	1/8	1/8	1		0	72	C5	5	569
47	46	275/2	1.0	1/2	1/2	3/4	3	1	1/4	1/4	1		3	45	A2	2	576
47	46	275/2	1.0	1/2	1/2	3/4	4	1	1/4	1/4	1		3	45	A2	2	578
47	46	275/2	1.0	1/2	1/2	3/4	2	1	1/4	1/4	1		0	72	C5	5	574
47	46	275/2	0.5	1/2	1/2	3/4	1	1	1/8	1/8	1		-1	77	F5	5	570
47	46	138	0.5	5/8	5/8	3/4	1	1	1/8	1/8	1		0	72	C5	5	571
48	47	277/2	2.0	0	0	3/4	3	1	1/2	1/2	1		-2	46	Bb2	2	587
48	47	277/2	2.0	0	0	3/4	4	1	1/2	1/2	1		-2	46	Bb2	2	589
48	47	277/2	2.0	0	0	3/4	2	1	1/2	1/2	1		-1	65	F4	4	585
48	47	277/2	0.5	0	0	3/4	1	1	1/8	1/8	1		2	74	D5	5	579
48	47	139	0.5	1/8	1/8	3/4	1	1	1/8	1/8	1		-2	70	Bb4	4	580
48	47	279/2	0.5	1/4	1/4	3/4	1	1	1/8	1/8	1		0	72	C5	5	581
48	47	140	0.5	3/8	3/8	3/4	1	1	1/8	1/8	1		2	74	D5	5	582
48	47	281/2	1.0	1/2	1/2	3/4	3	1	1/4	1/4	1		1	43	G2	2	588
48	47	281/2	1.0	1/2	1/2	3/4	4	1	1/4	1/4	1		1	43	G2	2	590
48	47	281/2	1.0	1/2	1/2	3/4	2	1	1/4	1/4	1		-2	70	Bb4	4	586
48	47	281/2	0.5	1/2	1/2	3/4	1	1	1/8	1/8	1		-3	75	Eb5	5	583
48	47	141	0.5	5/8	5/8	3/4	1	1	1/8	1/8	1		-2	82	Bb5	5	584
49	48	283/2	1.0	0	0	3/4	3	1	1/4	1/4	1		-4	44	Ab2	2	598
49	48	283/2	1.0	0	0	3/4	4	1	1/4	1/4	1		-4	44	Ab2	2	600
49	48	283/2	1.0	0	0	3/4	2	1	1/4	1/4	1		-3	75	Eb5	5	595
49	48	283/2	0.5	0	0	3/4	1	1	1/8	1/8	1		-4	80	Ab5	5	591
49	48	142	0.5	1/8	1/8	3/4	1	1	1/8	1/8	1		1	79	G5	5	592
49	48	285/2	2.0	1/4	1/4	3/4	3	1	1/2	1/2	1		-2	46	Bb2	2	599
49	48	285/2	2.0	1/4	1/4	3/4	4	1	1/2	1/2	1		-2	46	Bb2	2	601
49	48	285/2	1.5	1/4	1/4	3/4	2	1	3/8	1/4	3/2		-3	75	Eb5	5	596
49	48	285/2	1.5	1/4	1/4	3/4	1	1	3/8	1/4	3/2		-1	77	F5	5	593
49	48	144	0.5	5/8	5/8	3/4	2	1	1/8	1/8	1		2	74	D5	5	597
49	48	144	0.5	5/8	5/8	3/4	1	1	1/8	1/8	1		-3	75	Eb5	5	594
50	49	289/2	3.0	0	0	3/4	3	1	3/4	1/2	3/2		-3	51	Eb3	3	604
50	49	289/2	3.0	0	0	3/4	4	1	3/4	1/2	3/2		-3	51	Eb3	3	605
50	49	289/2	3.0	0	0	3/4	1	1	3/4	1/2	3/2		-3	75	Eb5	5	602
50	49	289/2	3.0	0	0	3/4	2	1	3/4	1/2	3/2		-3	75	Eb5	5	603
51	50	295/2	2.0	0	0	3/4	3	1	1/2	1/2	1		4	52	E3	3	611
51	50	295/2	2.0	0	0	3/4	4	1	1/2	1/2	1		4	52	E3	3	613
51	50	295/2	2.0	0	0	3/4	2	1	1/2	1/2	1		0	72	C5	5	609
51	50	295/2	1.5	0	0	3/4	1	1	3/8	1/4	3/2		1	79	G5	5	606
51	50	149	0.5	3/8	3/8	3/4	1	1	1/8	1/8	1		-4	80	Ab5	5	607
51	50	299/2	1.0	1/2	1/2	3/4	3	1	1/4	1/4	1		4	52	E3	3	612
51	50	299/2	1.0	1/2	1/2	3/4	4	1	1/4	1/4	1		4	52	E3	3	614
51	50	299/2	1.0	1/2	1/2	3/4	2	1	1/4	1/4	1		-5	73	Db5	5	610
51	50	299/2	1.0	1/2	1/2	3/4	1	1	1/4	1/4	1		-2	82	Bb5	5	608
52	51	301/2	2.0	0	0	3/4	3	1	1/2	1/2	1		-1	53	F3	3	621
52	51	301/2	2.0	0	0	3/4	4	1	1/2	1/2	1		-1	53	F3	3	623
52	51	301/2	1.5	0	0	3/4	2	1	3/8	1/4	3/2		0	72	C5	5	618
52	51	301/2	1.5	0	0	3/4	1	1	3/8	1/4	3/2		-4	80	Ab5	5	615
52	51	152	0.5	3/8	3/8	3/4	2	1	1/8	1/8	1		-1	77	F5	5	619
52	51	152	0.5	3/8	3/8	3/4	1	1	1/8	1/8	1		0	84	C6	6	616
52	51	305/2	1.0	1/2	1/2	3/4	3	1	1/4	1/4	1	1	-2	46	Bb2	2	622
52	51	305/2	1.0	1/2	1/2	3/4	4	1	1/4	1/4	1	1	-2	46	Bb2	2	624
52	51	305/2	1.0	1/2	1/2	3/4	1	1	1/4	1/4	1		4	76	E5	5	617
52	51	305/2	1.0	1/2	1/2	3/4	2	1	1/4	1/4	1		1	79	G5	5	620
53	52	307/2	1.0	0	0	3/4	3	1	1/4	1/4	1	-1	-2	46	Bb2	2	630
53	52	307/2	1.0	0	0	3/4	4	1	1/4	1/4	1	-1	-2	46	Bb2	2	632
53	52	307/2	1.0	0	0	3/4	1	1	1/4	1/4	1		-1	77	F5	5	625
53	52	307/2	1.0	0	0	3/4	2	1	1/4	1/4	1		-4	80	Ab5	5	628
53	52	309/2	2.0	1/4	1/4	3/4	3	1	1/2	1/2	1		0	48	C3	3	631
53	52	309/2	2.0	1/4	1/4	3/4	4	1	1/2	1/2	1		0	48	C3	3	633
53	52	309/2	1.5	1/4	1/4	3/4	1	1	3/8	1/4	3/2		-1	77	F5	5	626
53	52	309/2	2.0	1/4	1/4	3/4	2	1	1/2	1/2	1		1	79	G5	5	629
53	52	156	0.5	5/8	5/8	3/4	1	1	1/8	1/8	1		4	76	E5	5	627
54	53	313/2	0.5	0	0	3/4	3	1	1/8	1/8	1		-1	53	F3	3	636
54	53	313/2	0.5	0	0	3/4	4	1	1/8	1/8	1		-1	53	F3	3	642
54	53	313/2	3.0	0	0	3/4	1	1	3/4	1/2	3/2		-1	77	F5	5	634
54	53	313/2	3.0	0	0	3/4	2	1	3/4	1/2	3/2		-1	77	F5	5	635
54	53	157	0.5	1/8	1/8	3/4	3	1	1/8	1/8	1		1	55	G3	3	637
54	53	157	0.5	1/8	1/8	3/4	4	1	1/8	1/8	1		1	55	G3	3	643
54	53	315/2	0.5	1/4	1/4	3/4	3	1	1/8	1/8	1		-1	53	F3	3	638
54	53	315/2	0.5	1/4	1/4	3/4	4	1	1/8	1/8	1		-1	53	F3	3	644
54	53	158	0.5	3/8	3/8	3/4	3	1	1/8	1/8	1		-3	51	Eb3	3	639
54	53	158	0.5	3/8	3/8	3/4	4	1	1/8	1/8	1		-3	51	Eb3	3	645
54	53	317/2	0.5	1/2	1/2	3/4	3	1	1/8	1/8	1		2	50	D3	3	640
54	53	317/2	0.5	1/2	1/2	3/4	4	1	1/8	1/8	1		2	50	D3	3	646
54	53	159	0.5	5/8	5/8	3/4	3	1	1/8	1/8	1		0	48	C3	3	641
54	53	159	0.5	5/8	5/8	3/4	4	1	1/8	1/8	1		0	48	C3	3	647
55	54	319/2	3.0	0	0	3/4	3	1	3/4	1/2	3/2		5	47	B2	2	653
55	54	319/2	3.0	0	0	3/4	4	1	3/4	1/2	3/2		5	47	B2	2	654
55	54	319/2	1.0	0	0	3/4	2	1	1/4	1/4	1		2	74	D5	5	651
55	54	319/2	1.0	0	0	3/4	1	1	1/4	1/4	1		-4	80	Ab5	5	648
55	54	321/2	2.0	1/4	1/4	3/4	2	1	1/2	1/2	1		2	74	D5	5	652
55	54	321/2	1.5	1/4	1/4	3/4	1	1	3/8	1/4	3/2		1	79	G5	5	649
55	54	162	0.5	5/8	5/8	3/4	1	1	1/8	1/8	1		-1	77	F5	5	650
56	55	325/2	0.5	0	0	3/4	3	1	1/8	1/8	1		0	60	C4	4	657
56	55	325/2	0.5	0	0	3/4	4	1	1/8	1/8	1		0	60	C4	4	663
56	55	325/2	3.0	0	0	3/4	2	1	3/4	1/2	3/2		1	67	G4	4	656
56	55	325/2	3.0	0	0	3/4	1	1	3/4	1/2	3/2		-3	75	Eb5	5	655
56	55	163	0.5	1/8	1/8	3/4	3	1	1/8	1/8	1		2	62	D4	4	658
56	55	163	0.5	1/8	1/8	3/4	4	1	1/8	1/8	1		2	62	D4	4	664
56	55	327/2	0.5	1/4	1/4	3/4	3	1	1/8	1/8	1		0	60	C4	4	659
56	55	327/2	0.5	1/4	1/4	3/4	4	1	1/8	1/8	1		0	60	C4	4	665
56	55	164	0.5	3/8	3/8	3/4	3	1	1/8	1/8	1		-2	58	Bb3	3	660
56	55	164	0.5	3/8	3/8	3/4	4	1	1/8	1/8	1		-2	58	Bb3	3	666
56	55	329/2	0.5	1/2	1/2	3/4	3	1	1/8	1/8	1		-4	56	Ab3	3	661
56	55	329/2	0.5	1/2	1/2	3/4	4	1	1/8	1/8	1		-4	56	Ab3	3	667
56	55	165	0.5	5/8	5/8	3/4	3	1	1/8	1/8	1		1	55	G3	3	662
56	55	165	0.5	5/8	5/8	3/4	4	1	1/8	1/8	1		1	55	G3	3	668
57	56	331/2	3.0	0	0	3/4	3	1	3/4	1/2	3/2		-1	53	F3	3	674
57	56	331/2	3.0	0	0	3/4	4	1	3/4	1/2	3/2		-1	53	F3	3	675
57	56	331/2	1.0	0	0	3/4	2	1	1/4	1/4	1		-4	68	Ab4	4	672
57	56	331/2	1.0	0	0	3/4	1	1	1/4	1/4	1		-3	75	Eb5	5	669
57	56	333/2	2.0	1/4	1/4	3/4	2	1	1/2	1/2	1		-4	68	Ab4	4	673
57	56	333/2	1.5	1/4	1/4	3/4	1	1	3/8	1/4	3/2		2	74	D5	5	670
57	56	168	0.5	5/8	5/8	3/4	1	1	1/8	1/8	1		0	72	C5	5	671
58	57	337/2	0.5	0	0	3/4	3	1	1/8	1/8	1		1	55	G3	3	678
58	57	337/2	0.5	0	0	3/4	4	1	1/8	1/8	1		1	55	G3	3	684
58	57	337/2	3.0	0	0	3/4	2	1	3/4	1/2	3/2		2	62	D4	4	677
58	57	337/2	3.0	0	0	3/4	1	1	3/4	1/2	3/2		5	71	B4	4	676
58	57	169	0.5	1/8	1/8	3/4	3	1	1/8	1/8	1		-1	53	F3	3	679
58	57	169	0.5	1/8	1/8	3/4	4	1	1/8	1/8	1		-1	53	F3	3	685
58	57	339/2	0.5	1/4	1/4	3/4	3	1	1/8	1/8	1		1	55	G3	3	680
58	57	339/2	0.5	1/4	1/4	3/4	4	1	1/8	1/8	1		1	55	G3	3	686
58	57	170	0.5	3/8	3/8	3/4	3	1	1/8	1/8	1		-4	56	Ab3	3	681
58	57	170	0.5	3/8	3/8	3/4	4	1	1/8	1/8	1		-4	56	Ab3	3	687
58	57	341/2	0.5	1/2	1/2	3/4	3	1	1/8	1/8	1		1	55	G3	3	682
58	57	341/2	0.5	1/2	1/2	3/4	4	1	1/8	1/8	1		1	55	G3	3	688
58	57	171	0.5	5/8	5/8	3/4	3	1	1/8	1/8	1		-1	53	F3	3	683
58	57	171	0.5	5/8	5/8	3/4	4	1	1/8	1/8	1		-1	53	F3	3	689
59	58	343/2	1.0	0	0	3/4	3	1	1/4	1/4	1		-3	51	Eb3	3	697
59	58	343/2	1.0	0	0	3/4	4	1	1/4	1/4	1		-3	51	Eb3	3	698
59	58	343/2	1.0	0	0	3/4	2	1	1/4	1/4	1		1	67	G4	4	696
59	58	343/2	0.5	0	0	3/4	1	1	1/8	1/8	1		-3	75	Eb5	5	690
59	58	172	0.5	1/8	1/8	3/4	1	1	1/8	1/8	1		-1	77	F5	5	691
59	58	345/2	0.5	1/4	1/4	3/4	1	1	1/8	1/8	1		1	79	G5	5	692
59	58	173	0.5	3/8	3/8	3/4	1	1	1/8	1/8	1		-3	75	Eb5	5	693
59	58	347/2	0.5	1/2	1/2	3/4	1	1	1/8	1/8	1		-1	77	F5	5	694
59	58	174	0.5	5/8	5/8	3/4	1	1	1/8	1/8	1		1	79	G5	5	695
60	59	349/2	0.5	0	0	3/4	3	1	1/8	1/8	1		-1	53	F3	3	703
60	59	349/2	0.5	0	0	3/4	4	1	1/8	1/8	1		-1	53	F3	3	709
60	59	349/2	1.0	0	0	3/4	1	1	1/4	1/4	1		-4	68	Ab4	4	699
60	59	349/2	1.0	0	0	3/4	2	1	1/4	1/4	1		0	72	C5	5	700
60	59	175	0.5	1/8	1/8	3/4	3	1	1/8	1/8	1		1	55	G3	3	704
60	59	175	0.5	1/8	1/8	3/4	4	1	1/8	1/8	1		1	55	G3	3	710
60	59	351/2	0.5	1/4	1/4	3/4	3	1	1/8	1/8	1		-4	56	Ab3	3	705
60	59	351/2	0.5	1/4	1/4	3/4	4	1	1/8	1/8	1		-4	56	Ab3	3	711
60	59	351/2	1.0	1/4	1/4	3/4	2	1	1/4	1/4	1		-1	77	F5	5	701
60	59	176	0.5	3/8	3/8	3/4	3	1	1/8	1/8	1		-1	53	F3	3	706
60	59	176	0.5	3/8	3/8	3/4	4	1	1/8	1/8	1		-1	53	F3	3	712
60	59	353/2	0.5	1/2	1/2	3/4	3	1	1/8	1/8	1		1	55	G3	3	707
60	59	353/2	0.5	1/2	1/2	3/4	4	1	1/8	1/8	1		1	55	G3	3	713
60	59	353/2	1.0	1/2	1/2	3/4	2	1	1/4	1/4	1	1	-4	80	Ab5	5	702
60	59	177	0.5	5/8	5/8	3/4	3	1	1/8	1/8	1		-4	56	Ab3	3	708
60	59	177	0.5	5/8	5/8	3/4	4	1	1/8	1/8	1		-4	56	Ab3	3	714
61	60	355/2	1.0	0	0	3/4	3	1	1/4	1/4	1		-2	46	Bb2	2	723
61	60	355/2	1.0	0	0	3/4	4	1	1/4	1/4	1		-2	46	Bb2	2	724
61	60	355/2	0.5	0	0	3/4	1	1	1/8	1/8	1		2	74	D5	5	715
61	60	355/2	1.0	0	0	3/4	2	1	1/4	1/4	1	-1	-4	80	Ab5	5	721
61	60	178	0.5	1/8	1/8	3/4	1	1	1/8	1/8	1		-3	75	Eb5	5	716
61	60	357/2	2.0	1/4	1/4	3/4	2	1	1/2	1/2	1		2	74	D5	5	722
61	60	357/2	0.5	1/4	1/4	3/4	1	1	1/8	1/8	1		-1	77	F5	5	717
61	60	179	0.5	3/8	3/8	3/4	1	1	1/8	1/8	1		2	74	D5	5	718
61	60	359/2	0.5	1/2	1/2	3/4	1	1	1/8	1/8	1		-3	75	Eb5	5	719
61	60	180	0.5	5/8	5/8	3/4	1	1	1/8	1/8	1		-1	77	F5	5	720
62	61	361/2	0.5	0	0	3/4	3	1	1/8	1/8	1		-3	51	Eb3	3	729
62	61	361/2	0.5	0	0	3/4	4	1	1/8	1/8	1		-3	51	Eb3	3	735
62	61	361/2	1.0	0	0	3/4	1	1	1/4	1/4	1		1	67	G4	4	725
62	61	361/2	1.0	0	0	3/4	2	1	1/4	1/4	1		2	74	D5	5	726
62	61	181	0.5	1/8	1/8	3/4	3	1	1/8	1/8	1		-1	53	F3	3	730
62	61	181	0.5	1/8	1/8	3/4	4	1	1/8	1/8	1		-1	53	F3	3	736
62	61	363/2	0.5	1/4	1/4	3/4	3	1	1/8	1/8	1		1	55	G3	3	731
62	61	363/2	0.5	1/4	1/4	3/4	4	1	1/8	1/8	1		1	55	G3	3	737
62	61	363/2	1.5	1/4	1/4	3/4	2	1	3/8	1/4	3/2		1	79	G5	5	727
62	61	182	0.5	3/8	3/8	3/4	3	1	1/8	1/8	1		-3	51	Eb3	3	732
62	61	182	0.5	3/8	3/8	3/4	4	1	1/8	1/8	1		-3	51	Eb3	3	738
62	61	365/2	0.5	1/2	1/2	3/4	3	1	1/8	1/8	1		-1	53	F3	3	733
62	61	365/2	0.5	1/2	1/2	3/4	4	1	1/8	1/8	1		-1	53	F3	3	739
62	61	183	0.5	5/8	5/8	3/4	3	1	1/8	1/8	1		1	55	G3	3	734
62	61	183	0.5	5/8	5/8	3/4	4	1	1/8	1/8	1		1	55	G3	3	740
62	61	183	0.5	5/8	5/8	3/4	2	1	1/8	1/8	1		1	79	G5	5	728
63	62	367/2	1.0	0	0	3/4	3	1	1/4	1/4	1		-4	44	Ab2	2	749
63	62	367/2	1.0	0	0	3/4	4	1	1/4	1/4	1		-4	44	Ab2	2	750
63	62	367/2	0.5	0	0	3/4	1	1	1/8	1/8	1		0	72	C5	5	741
63	62	367/2	1.0	0	0	3/4	2	1	1/4	1/4	1		1	79	G5	5	747
63	62	184	0.5	1/8	1/8	3/4	1	1	1/8	1/8	1		2	74	D5	5	742
63	62	369/2	2.0	1/4	1/4	3/4	2	1	1/2	1/2	1		0	72	C5	5	748
63	62	369/2	0.5	1/4	1/4	3/4	1	1	1/8	1/8	1		-3	75	Eb5	5	743
63	62	185	0.5	3/8	3/8	3/4	1	1	1/8	1/8	1		0	72	C5	5	744
63	62	371/2	0.5	1/2	1/2	3/4	1	1	1/8	1/8	1		2	74	D5	5	745
63	62	186	0.5	5/8	5/8	3/4	1	1	1/8	1/8	1		-3	75	Eb5	5	746
64	63	373/2	0.5	0	0	3/4	3	1	1/8	1/8	1		2	50	D3	3	755
64	63	373/2	0.5	0	0	3/4	4	1	1/8	1/8	1		2	50	D3	3	761
64	63	373/2	1.0	0	0	3/4	1	1	1/4	1/4	1		-1	65	F4	4	751
64	63	373/2	1.0	0	0	3/4	2	1	1/4	1/4	1		0	72	C5	5	752
64	63	187	0.5	1/8	1/8	3/4	3	1	1/8	1/8	1		-3	51	Eb3	3	756
64	63	187	0.5	1/8	1/8	3/4	4	1	1/8	1/8	1		-3	51	Eb3	3	762
64	63	375/2	0.5	1/4	1/4	3/4	3	1	1/8	1/8	1		-1	53	F3	3	757
64	63	375/2	0.5	1/4	1/4	3/4	4	1	1/8	1/8	1		-1	53	F3	3	763
64	63	375/2	1.5	1/4	1/4	3/4	2	1	3/8	1/4	3/2		-1	77	F5	5	753
64	63	188	0.5	3/8	3/8	3/4	3	1	1/8	1/8	1		2	50	D3	3	758
64	63	188	0.5	3/8	3/8	3/4	4	1	1/8	1/8	1		2	50	D3	3	764
64	63	377/2	0.5	1/2	1/2	3/4	3	1	1/8	1/8	1		-3	51	Eb3	3	759
64	63	377/2	0.5	1/2	1/2	3/4	4	1	1/8	1/8	1		-3	51	Eb3	3	765
64	63	189	0.5	5/8	5/8	3/4	3	1	1/8	1/8	1		-1	53	F3	3	760
64	63	189	0.5	5/8	5/8	3/4	4	1	1/8	1/8	1		-1	53	F3	3	766
64	63	189	0.5	5/8	5/8	3/4	2	1	1/8	1/8	1		-1	77	F5	5	754
65	64	379/2	1.0	0	0	3/4	3	1	1/4	1/4	1		1	43	G2	2	775
65	64	379/2	1.0	0	0	3/4	4	1	1/4	1/4	1		1	43	G2	2	776
65	64	379/2	0.5	0	0	3/4	1	1	1/8	1/8	1		5	71	B4	4	767
65	64	379/2	1.0	0	0	3/4	2	1	1/4	1/4	1		-1	77	F5	5	773
65	64	190	0.5	1/8	1/8	3/4	1	1	1/8	1/8	1		0	72	C5	5	768
65	64	381/2	2.0	1/4	1/4	3/4	2	1	1/2	1/2	1		5	71	B4	4	774
65	64	381/2	0.5	1/4	1/4	3/4	1	1	1/8	1/8	1		2	74	D5	5	769
65	64	191	0.5	3/8	3/8	3/4	1	1	1/8	1/8	1		5	71	B4	4	770
65	64	383/2	0.5	1/2	1/2	3/4	1	1	1/8	1/8	1		0	72	C5	5	771
65	64	192	0.5	5/8	5/8	3/4	1	1	1/8	1/8	1		2	74	D5	5	772
66	65	385/2	0.5	0	0	3/4	3	1	1/8	1/8	1		0	48	C3	3	781
66	65	385/2	0.5	0	0	3/4	4	1	1/8	1/8	1		0	48	C3	3	787
66	65	385/2	1.0	0	0	3/4	1	1	1/4	1/4	1		-3	63	Eb4	4	777
66	65	385/2	2.0	0	0	3/4	2	1	1/2	1/2	1		1	67	G4	4	779
66	65	193	0.5	1/8	1/8	3/4	3	1	1/8	1/8	1		2	50	D3	3	782
66	65	193	0.5	1/8	1/8	3/4	4	1	1/8	1/8	1		2	50	D3	3	788
66	65	387/2	0.5	1/4	1/4	3/4	3	1	1/8	1/8	1		-3	51	Eb3	3	783
66	65	387/2	0.5	1/4	1/4	3/4	4	1	1/8	1/8	1		-3	51	Eb3	3	789
66	65	387/2	2.0	1/4	1/4	3/4	1	1	1/2	1/2	1	1	1	79	G5	5	778
66	65	194	0.5	3/8	3/8	3/4	3	1	1/8	1/8	1		0	48	C3	3	784
66	65	194	0.5	3/8	3/8	3/4	4	1	1/8	1/8	1		0	48	C3	3	790
66	65	389/2	0.5	1/2	1/2	3/4	3	1	1/8	1/8	1		2	50	D3	3	785
66	65	389/2	0.5	1/2	1/2	3/4	4	1	1/8	1/8	1		2	50	D3	3	791
66	65	389/2	1.0	1/2	1/2	3/4	2	1	1/4	1/4	1		1	79	G5	5	780
66	65	195	0.5	5/8	5/8	3/4	3	1	1/8	1/8	1		-3	51	Eb3	3	786
66	65	195	0.5	5/8	5/8	3/4	4	1	1/8	1/8	1		-3	51	Eb3	3	792
67	66	391/2	0.5	0	0	3/4	3	1	1/8	1/8	1		-1	53	F3	3	798
67	66	391/2	0.5	0	0	3/4	4	1	1/8	1/8	1		-1	53	F3	3	804
67	66	391/2	1.0	0	0	3/4	1	1	1/4	1/4	1	-1	1	79	G5	5	793
67	66	391/2	2.0	0	0	3/4	2	1	1/2	1/2	1		-4	80	Ab5	5	796
67	66	196	0.5	1/8	1/8	3/4	3	1	1/8	1/8	1		1	55	G3	3	799
67	66	196	0.5	1/8	1/8	3/4	4	1	1/8	1/8	1		1	55	G3	3	805
67	66	393/2	0.5	1/4	1/4	3/4	3	1	1/8	1/8	1		-4	56	Ab3	3	800
67	66	393/2	0.5	1/4	1/4	3/4	4	1	1/8	1/8	1		-4	56	Ab3	3	806
67	66	393/2	1.0	1/4	1/4	3/4	1	1	1/4	1/4	1		0	72	C5	5	794
67	66	197	0.5	3/8	3/8	3/4	3	1	1/8	1/8	1		-1	53	F3	3	801
67	66	197	0.5	3/8	3/8	3/4	4	1	1/8	1/8	1		-1	53	F3	3	807
67	66	395/2	0.5	1/2	1/2	3/4	3	1	1/8	1/8	1		1	55	G3	3	802
67	66	395/2	0.5	1/2	1/2	3/4	4	1	1/8	1/8	1		1	55	G3	3	808
67	66	395/2	1.0	1/2	1/2	3/4	1	1	1/4	1/4	1	1	-1	77	F5	5	795
67	66	395/2	1.0	1/2	1/2	3/4	2	1	1/4	1/4	1		-4	80	Ab5	5	797
67	66	198	0.5	5/8	5/8	3/4	3	1	1/8	1/8	1		-4	56	Ab3	3	803
67	66	198	0.5	5/8	5/8	3/4	4	1	1/8	1/8	1		-4	56	Ab3	3	809
68	67	397/2	1.0	0	0	3/4	3	1	1/4	1/4	1		5	47	B2	2	815
68	67	397/2	1.0	0	0	3/4	4	1	1/4	1/4	1		5	47	B2	2	818
68	67	397/2	1.0	0	0	3/4	1	1	1/4	1/4	1	-1	-1	77	F5	5	810
68	67	397/2	1.0	0	0	3/4	2	1	1/4	1/4	1		1	79	G5	5	813
68	67	399/2	1.0	1/4	1/4	3/4	3	1	1/4	1/4	1		0	48	C3	3	816
68	67	399/2	1.0	1/4	1/4	3/4	4	1	1/4	1/4	1		0	48	C3	3	819
68	67	399/2	2.0	1/4	1/4	3/4	2	1	1/2	1/2	1	1	0	72	C5	5	814
68	67	399/2	1.0	1/4	1/4	3/4	1	1	1/4	1/4	1		-3	75	Eb5	5	811
68	67	401/2	1.0	1/2	1/2	3/4	3	1	1/4	1/4	1		-1	53	F3	3	817
68	67	401/2	1.0	1/2	1/2	3/4	4	1	1/4	1/4	1		-1	53	F3	3	820
68	67	401/2	1.0	1/2	1/2	3/4	1	1	1/4	1/4	1		2	74	D5	5	812
69	68	403/2	1.0	0	0	3/4	3	1	1/4	1/4	1		1	55	G3	3	825
69	68	403/2	1.0	0	0	3/4	4	1	1/4	1/4	1		1	55	G3	3	827
69	68	403/2	1.0	0	0	3/4	2	1	1/4	1/4	1	-1	0	72	C5	5	823
69	68	403/2	1.0	0	0	3/4	1	1	1/4	1/4	1		-3	75	Eb5	5	821
69	68	405/2	2.0	1/4	1/4	3/4	3	1	1/2	1/2	1		1	43	G2	2	826
69	68	405/2	2.0	1/4	1/4	3/4	4	1	1/2	1/2	1		1	43	G2	2	828
69	68	405/2	2.0	1/4	1/4	3/4	2	1	1/2	1/2	1		5	71	B4	4	824
69	68	405/2	2.0	1/4	1/4	3/4	1	1	1/2	1/2	1		2	74	D5	5	822
70	69	409/2	0.5	0	0	3/4	3	1	1/8	1/8	1		0	48	C3	3	833
70	69	409/2	0.5	0	0	3/4	4	1	1/8	1/8	1		0	48	C3	3	839
70	69	409/2	1.0	0	0	3/4	1	1	1/4	1/4	1		0	72	C5	5	829
70	69	409/2	2.0	0	0	3/4	2	1	1/2	1/2	1		0	72	C5	5	831
70	69	205	0.5	1/8	1/8	3/4	3	1	1/8	1/8	1		2	50	D3	3	834
70	69	205	0.5	1/8	1/8	3/4	4	1	1/8	1/8	1		2	50	D3	3	840
70	69	411/2	0.5	1/4	1/4	3/4	3	1	1/8	1/8	1		-3	51	Eb3	3	835
70	69	411/2	0.5	1/4	1/4	3/4	4	1	1/8	1/8	1		-3	51	Eb3	3	841
70	69	411/2	2.0	1/4	1/4	3/4	1	1	1/2	1/2	1	1	1	79	G5	5	830
70	69	206	0.5	3/8	3/8	3/4	3	1	1/8	1/8	1		0	48	C3	3	836
70	69	206	0.5	3/8	3/8	3/4	4	1	1/8	1/8	1		0	48	C3	3	842
70	69	413/2	0.5	1/2	1/2	3/4	3	1	1/8	1/8	1		2	50	D3	3	837
70	69	413/2	0.5	1/2	1/2	3/4	4	1	1/8	1/8	1		2	50	D3	3	843
70	69	413/2	1.0	1/2	1/2	3/4	2	1	1/4	1/4	1		1	79	G5	5	832
70	69	207	0.5	5/8	5/8	3/4	3	1	1/8	1/8	1		-3	51	Eb3	3	838
70	69	207	0.5	5/8	5/8	3/4	4	1	1/8	1/8	1		-3	51	Eb3	3	844
71	70	415/2	0.5	0	0	3/4	3	1	1/8	1/8	1		-1	53	F3	3	850
71	70	415/2	0.5	0	0	3/4	4	1	1/8	1/8	1		-1	53	F3	3	856
71	70	415/2	1.0	0	0	3/4	1	1	1/4	1/4	1	-1	1	79	G5	5	845
71	70	415/2	2.0	0	0	3/4	2	1	1/2	1/2	1		-4	80	Ab5	5	848
71	70	208	0.5	1/8	1/8	3/4	3	1	1/8	1/8	1		1	55	G3	3	851
71	70	208	0.5	1/8	1/8	3/4	4	1	1/8	1/8	1		1	55	G3	3	857
71	70	417/2	0.5	1/4	1/4	3/4	3	1	1/8	1/8	1		-4	56	Ab3	3	852
71	70	417/2	0.5	1/4	1/4	3/4	4	1	1/8	1/8	1		-4	56	Ab3	3	858
71	70	417/2	1.0	1/4	1/4	3/4	1	1	1/4	1/4	1		0	72	C5	5	846
71	70	209	0.5	3/8	3/8	3/4	3	1	1/8	1/8	1		-1	53	F3	3	853
71	70	209	0.5	3/8	3/8	3/4	4	1	1/8	1/8	1		-1	53	F3	3	859
71	70	419/2	0.5	1/2	1/2	3/4	3	1	1/8	1/8	1		1	55	G3	3	854
71	70	419/2	0.5	1/2	1/2	3/4	4	1	1/8	1/8	1		1	55	G3	3	860
71	70	419/2	1.0	1/2	1/2	3/4	1	1	1/4	1/4	1	1	-1	77	F5	5	847
71	70	419/2	1.0	1/2	1/2	3/4	2	1	1/4	1/4	1		-4	80	Ab5	5	849
71	70	210	0.5	5/8	5/8	3/4	3	1	1/8	1/8	1		-4	56	Ab3	3	855
71	70	210	0.5	5/8	5/8	3/4	4	1	1/8	1/8	1		-4	56	Ab3	3	861
72	71	421/2	1.0	0	0	3/4	3	1	1/4	1/4	1		5	47	B2	2	867
72	71	421/2	1.0	0	0	3/4	4	1	1/4	1/4	1		5	47	B2	2	870
72	71	421/2	1.0	0	0	3/4	1	1	1/4	1/4	1	-1	-1	77	F5	5	862
72	71	421/2	1.0	0	0	3/4	2	1	1/4	1/4	1		1	79	G5	5	865
72	71	423/2	1.0	1/4	1/4	3/4	3	1	1/4	1/4	1		0	48	C3	3	868
72	71	423/2	1.0	1/4	1/4	3/4	4	1	1/4	1/4	1		0	48	C3	3	871
72	71	423/2	2.0	1/4	1/4	3/4	2	1	1/2	1/2	1	1	0	72	C5	5	866
72	71	423/2	1.0	1/4	1/4	3/4	1	1	1/4	1/4	1		-3	75	Eb5	5	863
72	71	425/2	1.0	1/2	1/2	3/4	3	1	1/4	1/4	1		-1	53	F3	3	869
72	71	425/2	1.0	1/2	1/2	3/4	4	1	1/4	1/4	1		-1	53	F3	3	872
72	71	425/2	1.0	1/2	1/2	3/4	1	1	1/4	1/4	1		2	74	D5	5	864
73	72	427/2	1.0	0	0	3/4	3	1	1/4	1/4	1		1	55	G3	3	877
73	72	427/2	1.0	0	0	3/4	4	1	1/4	1/4	1		1	55	G3	3	879
73	72	427/2	1.0	0	0	3/4	2	1	1/4	1/4	1	-1	0	72	C5	5	875
73	72	427/2	1.0	0	0	3/4	1	1	1/4	1/4	1		-3	75	Eb5	5	873
73	72	429/2	2.0	1/4	1/4	3/4	3	1	1/2	1/2	1		1	43	G2	2	878
73	72	429/2	2.0	1/4	1/4	3/4	4	1	1/2	1/2	1		1	43	G2	2	880
73	72	429/2	2.0	1/4	1/4	3/4	2	1	1/2	1/2	1		5	71	B4	4	876
73	72	429/2	2.0	1/4	1/4	3/4	1	1	1/2	1/2	1		2	74	D5	5	874
74	73	433/2	2.0	0	0	3/4	3	1	1/2	1/2	1		0	48	C3	3	883
74	73	433/2	2.0	0	0	3/4	4	1	1/2	1/2	1		0	48	C3	3	884
74	73	433/2	2.0	0	0	3/4	1	1	1/2	1/2	1		0	72	C5	5	881
74	73	433/2	2.0	0	0	3/4	2	1	1/2	1/2	1		0	72	C5	5	882
