\select@language {french}
\select@language {english}
\select@language {french}
\select@language {english}
\select@language {french}
\select@language {english}
\select@language {french}
\contentsline {chapter}{Table des mati\`eres}{v}{section*.1}
\contentsline {chapter}{\chapternumberline {1}Introduction}{1}{chapter.1}
\contentsline {chapter}{Bibliographie}{3}{section*.3}
