\relax 
\providecommand\hyper@newdestlabel[2]{}
\providecommand*{\memsetcounter}[2]{}
\catcode `:\active 
\catcode `;\active 
\catcode `!\active 
\catcode `?\active 
\providecommand\HyperFirstAtBeginDocument{\AtBeginDocument}
\HyperFirstAtBeginDocument{\ifx\hyper@anchor\@undefined
\global\let\oldcontentsline\contentsline
\gdef\contentsline#1#2#3#4{\oldcontentsline{#1}{#2}{#3}}
\global\let\oldnewlabel\newlabel
\gdef\newlabel#1#2{\newlabelxx{#1}#2}
\gdef\newlabelxx#1#2#3#4#5#6{\oldnewlabel{#1}{{#2}{#3}}}
\AtEndDocument{\ifx\hyper@anchor\@undefined
\let\contentsline\oldcontentsline
\let\newlabel\oldnewlabel
\fi}
\fi}
\global\let\hyper@last\relax 
\gdef\HyperFirstAtBeginDocument#1{#1}
\providecommand\HyField@AuxAddToFields[1]{}
\providecommand\HyField@AuxAddToCoFields[2]{}
\select@language{french}
\@writefile{toc}{\select@language{french}}
\@writefile{lof}{\select@language{french}}
\@writefile{lot}{\select@language{french}}
\select@language{english}
\@writefile{toc}{\select@language{english}}
\@writefile{lof}{\select@language{english}}
\@writefile{lot}{\select@language{english}}
\select@language{french}
\@writefile{toc}{\select@language{french}}
\@writefile{lof}{\select@language{french}}
\@writefile{lot}{\select@language{french}}
\select@language{english}
\@writefile{toc}{\select@language{english}}
\@writefile{lof}{\select@language{english}}
\@writefile{lot}{\select@language{english}}
\select@language{french}
\@writefile{toc}{\select@language{french}}
\@writefile{lof}{\select@language{french}}
\@writefile{lot}{\select@language{french}}
\select@language{english}
\@writefile{toc}{\select@language{english}}
\@writefile{lof}{\select@language{english}}
\@writefile{lot}{\select@language{english}}
\select@language{french}
\@writefile{toc}{\select@language{french}}
\@writefile{lof}{\select@language{french}}
\@writefile{lot}{\select@language{french}}
\@writefile{toc}{\contentsline {chapter}{Table des mati\`eres}{v}{section*.1}}
\citation{*}
\bibstyle{siam}
\bibdata{biblio}
\@writefile{lof}{\addvspace {10pt}}
\@writefile{lot}{\addvspace {10pt}}
\@writefile{toc}{\contentsline {chapter}{\chapternumberline {1}Introduction}{1}{chapter.1}}
\bibcite{allegraud_as_2019}{1}
\bibcite{brown_performing_2013}{2}
\bibcite{byros_mozarts_2017}{3}
\bibcite{meredith_harmonic_2016}{4}
\bibcite{corelli_score_1732}{5}
\bibcite{deguernel_personalizing_2022}{6}
\bibcite{deguernel_probabilistic_2018}{7}
\bibcite{farbood_analysis_2001}{8}
\bibcite{garczynski_modeling_2022}{9}
\bibcite{gedalge_ordre_1901}{10}
\bibcite{gotham_romantext_2019}{11}
\bibcite{hadjeres_deepbach_2016}{12}
\@writefile{toc}{\contentsline {chapter}{Bibliographie}{3}{section*.3}}
\bibcite{harte_symbolic_2005}{13}
\bibcite{hentschel_semi-automated_2021}{14}
\bibcite{huang_counterpoint_2019}{15}
\bibcite{meredith_automated_2016}{16}
\bibcite{lee_automatic_2006}{17}
\bibcite{micchi_i_2021}{18}
\bibcite{padilla_generation_2018}{19}
\bibcite{parada-cabaleiro_automatic_2021}{20}
\bibcite{rameau_traite_1722}{21}
\bibcite{rothstein_transformations_2006}{22}
\bibcite{samory_counterpoint_2014}{23}
\bibcite{sanna_contrapuntally_2013}{24}
\bibcite{wavelet_cours_2021}{25}
\bibcite{meredith_chord-_2016}{26}
\bibcite{wintle_corellis_2017-1}{27}
\bibcite{wintle_corellis_2017}{28}
\memsetcounter{lastsheet}{11}
\memsetcounter{lastpage}{5}
