mc	mn	quarterbeats	quarterbeats_all_endings	duration_qb	mc_onset	mn_onset	timesig	staff	voice	label	alt_label	globalkey	localkey	pedal	chord	numeral	form	figbass	changes	relativeroot	cadence	phraseend	chord_type	globalkey_is_minor	localkey_is_minor	chord_tones	added_tones	root	bass_note
1	1	0	0	2.0	0	0	4/4	4	1	a.i{		a	i		i	i						{	m	1	1	0, -3, 1		0	0
1	1	2	2	2.0	1/2	1/2	4/4	4	1	iv		a	i		iv	iv							m	1	1	-1, -4, 0		-1	-1
2	2	4	4	1.0	0	0	4/4	4	1	V2		a	i		V2	V		2					Mm7	1	1	-1, 1, 5, 2		1	-1
2	2	5	5	1.0	1/4	1/4	4/4	4	1	i6		a	i		i6	i		6					m	1	1	-3, 1, 0		0	-3
2	2	6	6	1.0	1/2	1/2	4/4	4	1	ii%7		a	i		ii%7	ii	%	7					%7	1	1	2, -1, -4, 0		2	2
2	2	7	7	1.0	3/4	3/4	4/4	4	1	V7		a	i		V7	V		7					Mm7	1	1	1, 5, 2, -1		1	1
3	3	8	8	1.0	0	0	4/4	4	1	i|IAC}		a	i		i	i					IAC	}	m	1	1	0, -3, 1		0	0
3	3	17/2	17/2	0.0	1/8	1/8	4/4	4	1	{		a	i									{		1	1				
3	3	9	9	1.0	1/4	1/4	4/4	4	1	i(6)		a	i		i(6)	i			6				m	1	1	0, -3, -4		0	0
3	3	10	10	1.0	1/2	1/2	4/4	4	1	v6(2)		a	i		v6(2)	v		6	2				m	1	1	-2, 2, -4		1	-2
3	3	11	11	1.0	3/4	3/4	4/4	4	1	v6		a	i		v6	v		6					m	1	1	-2, 2, 1		1	-2
3	3	23/2	23/2	0.0	7/8	7/8	4/4	4	1			a	i											1	1				
4	4	12	12	1.0	0	0	4/4	4	1	iv6(2)		a	i		iv6(2)	iv		6	2				m	1	1	-4, 0, 1		-1	-4
4	4	13	13	1.0	1/4	1/4	4/4	4	1	iv6		a	i		iv6	iv		6					m	1	1	-4, 0, -1		-1	-4
4	4	14	14	6.0	1/2	1/2	4/4	4	1	V|HC}		a	i		V	V					HC	}	M	1	1	1, 5, 2		1	1
6	6	20	20	2.0	0	0	4/4	4	1	III.I{		a	III		I	I						{	M	1	0	0, 4, 1		0	0
6	6	22	22	2.0	1/2	1/2	4/4	4	1	IV		a	III		IV	IV							M	1	0	-1, 3, 0		-1	-1
7	7	24	24	1.0	0	0	4/4	4	1	V2		a	III		V2	V		2					Mm7	1	0	-1, 1, 5, 2		1	-1
7	7	25	25	1.0	1/4	1/4	4/4	4	1	I6		a	III		I6	I		6					M	1	0	4, 1, 0		0	4
7	7	26	26	1.0	1/2	1/2	4/4	4	1	ii7		a	III		ii7	ii		7					mm7	1	0	2, -1, 3, 0		2	2
7	7	27	27	1.0	3/4	3/4	4/4	4	1	V7		a	III		V7	V		7					Mm7	1	0	1, 5, 2, -1		1	1
8	8	28	28	1.0	0	0	4/4	4	1	I(9)|EC		a	III		I(9)	I			9		EC		M	1	0	0, 4, 1	2	0	0
8	8	29	29	1.0	1/4	1/4	4/4	4	1	I		a	III		I	I							M	1	0	0, 4, 1		0	0
8	8	30	30	1.0	1/2	1/2	4/4	4	1	ii6		a	III		ii6	ii		6					m	1	0	-1, 3, 2		2	-1
8	8	31	31	0.5	3/4	3/4	4/4	4	1	iii6(7)		a	III		iii6(7)	iii		6	7				m	1	0	1, 5, 2		4	1
8	8	63/2	63/2	0.5	7/8	7/8	4/4	4	1	iii6		a	III		iii6	iii		6					m	1	0	1, 5, 4		4	1
9	9	32	32	1.0	0	0	4/4	4	1	IV6		a	III		IV6	IV		6					M	1	0	3, 0, -1		-1	3
9	9	33	33	0.5	1/4	1/4	4/4	4	1	I64		a	III		I64	I		64					M	1	0	1, 0, 4		0	1
9	9	67/2	67/2	0.5	3/8	3/8	4/4	4	1	ii65		a	III		ii65	ii		65					mm7	1	0	-1, 3, 0, 2		2	-1
9	9	34	34	1.0	1/2	1/2	4/4	4	1	V(64)		a	III		V(64)	V			64				M	1	0	1, 0, 4		1	1
9	9	35	35	0.5	3/4	3/4	4/4	4	1	V(4)		a	III		V(4)	V			4				M	1	0	1, 0, 2		1	1
9	9	71/2	71/2	0.5	7/8	7/8	4/4	4	1	V		a	III		V	V							M	1	0	1, 5, 2		1	1
10	10	36	36	1.0	0	0	4/4	4	1	I|PAC}		a	III		I	I					PAC	}	M	1	0	0, 4, 1		0	0
10	10	73/2	73/2	0.0	1/8	1/8	4/4	4	1	{		a	III									{		1	0				
10	10	37	37	1.0	1/4	1/4	4/4	4	1	v.i64		a	v		i64	i		64					m	1	1	1, 0, -3		0	1
10	10	38	38	1.0	1/2	1/2	4/4	4	1	ii%65		a	v		ii%65	ii	%	65					%7	1	1	-1, -4, 0, 2		2	-1
10	10	39	39	1.0	3/4	3/4	4/4	4	1	V65/V		a	v		V65/V	V		65		V			Mm7	1	1	6, 3, 0, 2		2	6
11	11	40	40	0.5	0	0	4/4	4	1	V(4)		a	v		V(4)	V			4				M	1	1	1, 0, 2		1	1
11	11	81/2	81/2	0.5	1/8	1/8	4/4	4	1	i6(9)		a	v		i6(9)	i		6	9				m	1	1	-3, 1, 0	2	0	-3
11	11	41	41	0.5	1/4	1/4	4/4	4	1	ii65		a	v		ii65	ii		65					mm7	1	1	-1, 3, 0, 2		2	-1
11	11	83/2	83/2	0.5	3/8	3/8	4/4	4	1	V		a	v		V	V							M	1	1	1, 5, 2		1	1
11	11	42	42	0.5	1/2	1/2	4/4	4	1	VI(#4)		a	v		VI(#4)	VI			#4				M	1	1	-4, 0, 9		-4	-4
11	11	85/2	85/2	0.5	5/8	5/8	4/4	4	1	i6		a	v		i6	i		6					m	1	1	-3, 1, 0		0	-3
11	11	43	43	0.5	3/4	3/4	4/4	4	1	IV		a	v		IV	IV							M	1	1	-1, 3, 0		-1	-1
11	11	87/2	87/2	0.5	7/8	7/8	4/4	4	1	V(+4)		a	v		V(+4)	V			+4				M	1	1	1, 5, 2	0	1	1
12	12	44	44	0.5	0	0	4/4	4	1	VI		a	v		VI	VI							M	1	1	-4, 0, -3		-4	-4
12	12	89/2	89/2	0.5	1/8	1/8	4/4	4	1	i6		a	v		i6	i		6					m	1	1	-3, 1, 0		0	-3
12	12	45	45	1.0	1/4	1/4	4/4	4	1	iv		a	v		iv	iv							m	1	1	-1, -4, 0		-1	-1
12	12	46	46	0.5	1/2	1/2	4/4	4	1	V7		a	v		V7	V		7					Mm7	1	1	1, 5, 2, -1		1	1
12	12	93/2	93/2	0.5	5/8	5/8	4/4	4	1	i		a	v		i	i							m	1	1	0, -3, 1		0	0
12	12	47	47	0.5	3/4	3/4	4/4	4	1	V(4)		a	v		V(4)	V			4				M	1	1	1, 0, 2		1	1
12	12	95/2	95/2	0.5	7/8	7/8	4/4	4	1	V		a	v		V	V							M	1	1	1, 5, 2		1	1
13	13	48	48	1.0	0	0	4/4	4	1	i|PAC}		a	v		i	i					PAC	}	m	1	1	0, -3, 1		0	0
13	13	97/2	97/2	0.0	1/8	1/8	4/4	4	1	{		a	v									{		1	1				
13	13	49	49	1.0	1/4	1/4	4/4	4	1	i.V6	i.V	a	i		V6	V		6					M	1	1	5, 2, 1		1	5
13	13	50	50	1.0	1/2	1/2	4/4	4	1	i		a	i		i	i							m	1	1	0, -3, 1		0	0
13	13	51	51	1.0	3/4	3/4	4/4	4	1	V6	V	a	i		V6	V		6					M	1	1	5, 2, 1		1	5
14	14	52	52	1.0	0	0	4/4	4	1	i		a	i		i	i							m	1	1	0, -3, 1		0	0
14	14	53	53	1.0	1/4	1/4	4/4	4	1	V/III		a	i		V/III	V				III			M	1	1	-2, 2, -1		-2	-2
14	14	54	54	1.0	1/2	1/2	4/4	4	1	III		a	i		III	III							M	1	1	-3, 1, -2		-3	-3
14	14	55	55	0.5	3/4	3/4	4/4	4	1	IVM65/III		a	i		IVM65/III	IV	M	65		III			MM7	1	1	0, -3, 1, -4		-4	0
14	14	111/2	111/2	0.5	7/8	7/8	4/4	4	1	viio/III		a	i		viio/III	vii	o			III			o	1	1	2, -1, -4		2	2
15	15	56	56	0.5	0	0	4/4	4	1	I(9)/III		a	i		I(9)/III	I			9	III			M	1	1	-3, 1, -2	-1	-3	-3
15	15	113/2	113/2	0.5	1/8	1/8	4/4	4	1	I6/III		a	i		I6/III	I		6		III			M	1	1	1, -2, -3		-3	1
15	15	57	57	0.5	1/4	1/4	4/4	4	1	IV65		a	i		IV65	IV		65					Mm7	1	1	3, 0, -3, -1		-1	3
15	15	115/2	115/2	0.5	3/8	3/8	4/4	4	1	#viio		a	i		#viio	#vii	o						o	1	1	5, 2, -1		5	5
15	15	58	58	0.5	1/2	1/2	4/4	4	1	i(9)		a	i		i(9)	i			9				m	1	1	0, -3, 1	2	0	0
15	15	117/2	117/2	0.5	5/8	5/8	4/4	4	1	i6		a	i		i6	i		6					m	1	1	-3, 1, 0		0	-3
15	15	59	59	0.5	3/4	3/4	4/4	4	1	iv		a	i		iv	iv							m	1	1	-1, -4, 0		-1	-1
15	15	119/2	119/2	0.5	7/8	7/8	4/4	4	1	i		a	i		i	i							m	1	1	0, -3, 1		0	0
16	16	60	60	0.5	0	0	4/4	4	1	V		a	i		V	V							M	1	1	1, 5, 2		1	1
16	16	121/2	121/2	0.5	1/8	1/8	4/4	4	1	i6		a	i		i6	i		6					m	1	1	-3, 1, 0		0	-3
16	16	61	61	0.5	1/4	1/4	4/4	4	1	ii%65		a	i		ii%65	ii	%	65					%7	1	1	-1, -4, 0, 2		2	-1
16	16	123/2	123/2	0.5	3/8	3/8	4/4	4	1	V		a	i		V	V							M	1	1	1, 5, 2		1	1
16	16	62	62	0.5	1/2	1/2	4/4	4	1	VI		a	i		VI	VI							M	1	1	-4, 0, -3		-4	-4
16	16	125/2	125/2	0.5	5/8	5/8	4/4	4	1	i6		a	i		i6	i		6					m	1	1	-3, 1, 0		0	-3
16	16	63	63	0.5	3/4	3/4	4/4	4	1	ii%65		a	i		ii%65	ii	%	65					%7	1	1	-1, -4, 0, 2		2	-1
16	16	127/2	127/2	0.5	7/8	7/8	4/4	4	1	V		a	i		V	V							M	1	1	1, 5, 2		1	1
17	17	64	64	0.5	0	0	4/4	4	1	VI		a	i		VI	VI							M	1	1	-4, 0, -3		-4	-4
17	17	129/2	129/2	0.5	1/8	1/8	4/4	4	1	i6		a	i		i6	i		6					m	1	1	-3, 1, 0		0	-3
17	17	65	65	0.5	1/4	1/4	4/4	4	1	iv(9)		a	i		iv(9)	iv			9				m	1	1	-1, -4, 0	1	-1	-1
17	17	131/2	131/2	0.5	3/8	3/8	4/4	4	1	iv		a	i		iv	iv							m	1	1	-1, -4, 0		-1	-1
17	17	66	66	0.5	1/2	1/2	4/4	4	1	V7		a	i		V7	V		7					Mm7	1	1	1, 5, 2, -1		1	1
17	17	133/2	133/2	0.5	5/8	5/8	4/4	4	1	i		a	i		i	i							m	1	1	0, -3, 1		0	0
17	17	67	67	0.5	3/4	3/4	4/4	4	1	V(4)		a	i		V(4)	V			4				M	1	1	1, 0, 2		1	1
17	17	135/2	135/2	0.5	7/8	7/8	4/4	4	1	V		a	i		V	V							M	1	1	1, 5, 2		1	1
18	18	68	68	0.5	0	0	4/4	4	1	i|PAC}		a	i		i	i					PAC	}	m	1	1	0, -3, 1		0	0
18	18	137/2	137/2	0.5	1/8	1/8	4/4	4	1	V6/iv{		a	i		V6/iv	V		6		iv		{	M	1	1	4, 1, 0		0	4
18	18	69	69	0.5	1/4	1/4	4/4	4	1	iv		a	i		iv	iv							m	1	1	-1, -4, 0		-1	-1
18	18	139/2	139/2	0.5	3/8	3/8	4/4	4	1	V6/iv		a	i		V6/iv	V		6		iv			M	1	1	4, 1, 0		0	4
18	18	70	70	0.5	1/2	1/2	4/4	4	1	iv		a	i		iv	iv							m	1	1	-1, -4, 0		-1	-1
18	18	141/2	141/2	0.5	5/8	5/8	4/4	4	1	V/iv		a	i		V/iv	V				iv			M	1	1	0, 4, 1		0	0
18	18	71	71	0.5	3/4	3/4	4/4	4	1	iv		a	i		iv	iv							m	1	1	-1, -4, 0		-1	-1
18	18	143/2	143/2	0.5	7/8	7/8	4/4	4	1	V6/iv		a	i		V6/iv	V		6		iv			M	1	1	4, 1, 0		0	4
19	19	72	72	0.5	0	0	4/4	4	1	iv		a	i		iv	iv							m	1	1	-1, -4, 0		-1	-1
19	19	145/2	145/2	0.5	1/8	1/8	4/4	4	1	V6/iv		a	i		V6/iv	V		6		iv			M	1	1	4, 1, 0		0	4
19	19	73	73	0.5	1/4	1/4	4/4	4	1	iv		a	i		iv	iv							m	1	1	-1, -4, 0		-1	-1
19	19	147/2	147/2	0.5	3/8	3/8	4/4	4	1	V		a	i		V	V							M	1	1	1, 5, 2		1	1
19	19	74	74	1.0	1/2	1/2	4/4	4	1	iv6(2)		a	i		iv6(2)	iv		6	2				m	1	1	-4, 0, 1		-1	-4
19	19	75	75	1.0	3/4	3/4	4/4	4	1	iv6		a	i		iv6	iv		6					m	1	1	-4, 0, -1		-1	-4
20	20	76	76	4.0	0	0	4/4	4	1	V|HC}		a	i		V	V					HC	}	M	1	1	1, 5, 2		1	1
