[
  {
    "onset": 0,
    "date": 1.1480256
  },
  {
    "onset": 4,
    "date": 6.034859221252441
  },
  {
    "onset": 8,
    "date": 10.883796072479248
  },
  {
    "onset": 12,
    "date": 15.733192047683715
  },
  {
    "onset": 16,
    "date": 20.71673412588501
  },
  {
    "onset": 20,
    "date": 26.669066866485597
  },
  {
    "onset": 24,
    "date": 31.602296106811522
  },
  {
    "onset": 28,
    "date": 36.43342113542175
  },
  {
    "onset": 32,
    "date": 41.350191998092654
  },
  {
    "onset": 36,
    "date": 46.33317097711182
  },
  {
    "onset": 40,
    "date": 51.85146300762939
  },
  {
    "onset": 44,
    "date": 56.785066900817874
  },
  {
    "onset": 48,
    "date": 61.632650967575074
  },
  {
    "onset": 52,
    "date": 66.80067107629395
  },
  {
    "onset": 56,
    "date": 71.69890096566772
  },
  {
    "onset": 60,
    "date": 76.59779606866455
  },
  {
    "onset": 64,
    "date": 81.46385888555908
  },
  {
    "onset": 68,
    "date": 86.59681695994568
  },
  {
    "onset": 72,
    "date": 91.54594217929078
  },
  {
    "onset": 74,
    "date": 95.5882368
  }
]