[
  {
    "onset": 0,
    "date": 0.5970672
  },
  {
    "onset": 6,
    "date": 3.456275114440918
  },
  {
    "onset": 12,
    "date": 6.1932118092651365
  },
  {
    "onset": 18,
    "date": 8.862170910354614
  },
  {
    "onset": 24,
    "date": 11.496982990463257
  },
  {
    "onset": 30,
    "date": 14.215399784469604
  },
  {
    "onset": 36,
    "date": 16.983087
  },
  {
    "onset": 42,
    "date": 19.78742087411499
  },
  {
    "onset": 48,
    "date": 22.689461898910523
  },
  {
    "onset": 54,
    "date": 25.691275017166138
  },
  {
    "onset": 60,
    "date": 28.260899967575074
  },
  {
    "onset": 66,
    "date": 30.879108001907348
  },
  {
    "onset": 72,
    "date": 33.481754038146974
  },
  {
    "onset": 78,
    "date": 36.13498295422363
  },
  {
    "onset": 84,
    "date": 38.902461959945676
  },
  {
    "onset": 90,
    "date": 41.604461980926516
  },
  {
    "onset": 96,
    "date": 44.458296045776365
  },
  {
    "onset": 102,
    "date": 47.17700394659424
  },
  {
    "onset": 108,
    "date": 50.36181704386902
  },
  {
    "onset": 114,
    "date": 52.79719197520447
  },
  {
    "onset": 120,
    "date": 55.63006694468689
  },
  {
    "onset": 126,
    "date": 58.35048294659424
  },
  {
    "onset": 132,
    "date": 61.152879017166136
  },
  {
    "onset": 138,
    "date": 64.13954600953674
  },
  {
    "onset": 144,
    "date": 66.82477490463256
  },
  {
    "onset": 150,
    "date": 69.51089990653992
  },
  {
    "onset": 156,
    "date": 72.28017091226197
  },
  {
    "onset": 162,
    "date": 74.86523311253357
  },
  {
    "onset": 168,
    "date": 77.63450397329711
  },
  {
    "onset": 174,
    "date": 80.5696710629425
  },
  {
    "onset": 180,
    "date": 83.29010820217896
  },
  {
    "onset": 186,
    "date": 86.17560809346008
  },
  {
    "onset": 192,
    "date": 89.37625387030029
  },
  {
    "onset": 198,
    "date": 92.24621211253357
  },
  {
    "onset": 204,
    "date": 95.1646921411438
  },
  {
    "onset": 210,
    "date": 97.8840248626709
  },
  {
    "onset": 216,
    "date": 100.9539827768402
  },
  {
    "onset": 222,
    "date": 104.5531008
  }
]