[
  {
    "onset": 0,
    "date": 0
  },
  {
    "onset": 3,
    "date": 2.990290927520752
  },
  {
    "onset": 6,
    "date": 5.291062221252441
  },
  {
    "onset": 9,
    "date": 7.726020087738037
  },
  {
    "onset": 12,
    "date": 10.278791192642212
  },
  {
    "onset": 15,
    "date": 12.881104114440918
  },
  {
    "onset": 18,
    "date": 15.398957853134155
  },
  {
    "onset": 21,
    "date": 17.916770089645386
  },
  {
    "onset": 24,
    "date": 20.284812036239625
  },
  {
    "onset": 27,
    "date": 22.738124883651732
  },
  {
    "onset": 30,
    "date": 25.239645015258787
  },
  {
    "onset": 33,
    "date": 27.659144935150145
  },
  {
    "onset": 36,
    "date": 30.026894982833863
  },
  {
    "onset": 39,
    "date": 32.5953119332428
  },
  {
    "onset": 42,
    "date": 35.064312095367434
  },
  {
    "onset": 45,
    "date": 37.78468702479553
  },
  {
    "onset": 48,
    "date": 40.452999938964844
  },
  {
    "onset": 51,
    "date": 42.95574991798401
  },
  {
    "onset": 54,
    "date": 45.472187205993656
  },
  {
    "onset": 57,
    "date": 48.05993697138977
  },
  {
    "onset": 60,
    "date": 50.79414487030029
  },
  {
    "onset": 63,
    "date": 53.72954108392334
  },
  {
    "onset": 66,
    "date": 56.348520007629396
  },
  {
    "onset": 69,
    "date": 58.984103921798706
  },
  {
    "onset": 72,
    "date": 61.81981191226196
  },
  {
    "onset": 75,
    "date": 64.28829105149842
  },
  {
    "onset": 78,
    "date": 67.05733303623963
  },
  {
    "onset": 81,
    "date": 69.95925019836426
  },
  {
    "onset": 84,
    "date": 72.74587501907348
  },
  {
    "onset": 87,
    "date": 75.481500125885
  },
  {
    "onset": 90,
    "date": 78.48431195422363
  },
  {
    "onset": 93,
    "date": 81.18439502670289
  },
  {
    "onset": 96,
    "date": 84.02201989318847
  },
  {
    "onset": 99,
    "date": 86.89200009346008
  },
  {
    "onset": 102,
    "date": 89.67633289318847
  },
  {
    "onset": 105,
    "date": 92.69633282643127
  },
  {
    "onset": 108,
    "date": 96.31639511253357
  },
  {
    "onset": 111,
    "date": 100.891008
  }
]